<?xml version="1.0" encoding="UTF-8" standalone="no"?>
<svg
   xmlns:dc="http://purl.org/dc/elements/1.1/"
   xmlns:cc="http://creativecommons.org/ns#"
   xmlns:rdf="http://www.w3.org/1999/02/22-rdf-syntax-ns#"
   xmlns:svg="http://www.w3.org/2000/svg"
   xmlns="http://www.w3.org/2000/svg"
   xmlns:xlink="http://www.w3.org/1999/xlink"
   xmlns:sodipodi="http://sodipodi.sourceforge.net/DTD/sodipodi-0.dtd"
   xmlns:inkscape="http://www.inkscape.org/namespaces/inkscape"
   sodipodi:docname="E03P08.svg"
   height="2041"
   width="2481"
   inkscape:version="1.0 (4035a4f, 2020-05-01)"
   version="1.1"
   id="svg2">
  <sodipodi:namedview
     inkscape:window-maximized="0"
     inkscape:window-y="23"
     inkscape:window-x="0"
     inkscape:document-rotation="0"
     inkscape:current-layer="layer2"
     inkscape:cy="618.6204"
     inkscape:cx="1336.9231"
     inkscape:zoom="0.4"
     showgrid="false"
     id="namedview70"
     inkscape:window-height="784"
     inkscape:window-width="1440"
     inkscape:pageshadow="2"
     inkscape:pageopacity="0"
     bordercolor="#666666"
     pagecolor="#ffffff" />
  <metadata
     id="metadata8">
    <rdf:RDF>
      <cc:Work
         rdf:about="">
        <dc:format>image/svg+xml</dc:format>
        <dc:type
           rdf:resource="http://purl.org/dc/dcmitype/StillImage" />
        <dc:title></dc:title>
      </cc:Work>
    </rdf:RDF>
  </metadata>
  <defs
     id="defs6" />
  <sodipodi:namedview
     inkscape:current-layer="layer2"
     inkscape:window-maximized="1"
     inkscape:window-y="26"
     inkscape:window-x="0"
     inkscape:cy="1153.5556"
     inkscape:cx="1415.2431"
     inkscape:zoom="0.35371357"
     showgrid="false"
     id="namedview4"
     inkscape:window-height="1025"
     inkscape:window-width="1920"
     inkscape:pageshadow="2"
     inkscape:pageopacity="0"
     guidetolerance="10"
     gridtolerance="10"
     objecttolerance="10"
     borderopacity="1"
     bordercolor="#666666"
     pagecolor="#ffffff" />
  <g
     sodipodi:insensitive="true"
     style="display:inline"
     inkscape:label="artwork"
     id="layer1"
     inkscape:groupmode="layer">
    <image
       sodipodi:absref="/Users/julienj-mauduit/Downloads/lang-4/gfx_Pepper-and-Carrot_by-David-Revoy_E03P08.png"
       xlink:href="../gfx_Pepper-and-Carrot_by-David-Revoy_E03P08.png"
       y="0"
       x="0"
       id="image10"
       height="2041"
       width="2481" />
  </g>
  <g
     inkscape:label="speechbubbles"
     id="layer3"
     inkscape:groupmode="layer">
    <path
       inkscape:connector-curvature="0"
       id="path4279"
       d="m 91.403294,555.16506 c 1.062829,-51.0158 26.570726,-103.09442 170.052636,-112.65988 143.48192,-9.56546 203.00034,48.89014 207.25166,90.34047 4.25132,41.45033 -82.90066,96.71744 -162.61284,97.78027 C 226.38258,631.68874 91.403294,618.9348 91.403294,555.16506 z"
       style="fill:#ffffff;stroke:none;stroke-width:1px;stroke-linecap:butt;stroke-linejoin:miter;stroke-opacity:1" />
    <path
       sodipodi:nodetypes="csccc"
       inkscape:connector-curvature="0"
       id="path4281"
       d="m 325.22567,807.05553 c 70.14672,-44.63882 88.21481,-124.35099 45.70165,-190.24639 -42.51316,-65.8954 -82.90066,-54.20428 -82.90066,-54.20428 l 35.07336,41.45033 c 0,0 97.78026,97.78027 2.12565,203.00034 z"
       style="fill:#ffffff;stroke:none" />
  </g>
  <g
     style="display:inline"
     inkscape:label="text"
     id="layer2"
     inkscape:groupmode="layer">
    <flowRoot
       transform="matrix(0.90141682,0,0,0.98994497,558.9489,138.86978)"
       style="font-style:normal;font-variant:normal;font-weight:normal;font-stretch:normal;line-height:0.01%;font-family:Arial;-inkscape-font-specification:Arial;letter-spacing:0px;word-spacing:0px;fill:#000000;fill-opacity:1;stroke:none"
       id="flowRoot2987"
       xml:space="preserve"><flowRegion
         id="flowRegion2989"><rect
           y="266.68515"
           x="-141.0901"
           height="1241.702"
           width="1737.4337"
           id="rect2991" /></flowRegion><flowPara
         style="font-style:normal;font-variant:normal;font-weight:normal;font-stretch:normal;font-size:48px;line-height:1.25;font-family:Lavi;-inkscape-font-specification:Lavi;text-align:center;text-anchor:middle"
         id="flowPara2993">Алексей, 獨孤欣, Albert Westra, Alejandro Flores Prieto, Alex Lusco,</flowPara><flowPara
         style="font-style:normal;font-variant:normal;font-weight:normal;font-stretch:normal;font-size:48px;line-height:1.25;font-family:Lavi;-inkscape-font-specification:Lavi;text-align:center;text-anchor:middle"
         id="flowPara2995">Alex Silver, Alex Vandiver, Alexander Sopicki, Andreas Rieger, Andrew,</flowPara><flowPara
         style="font-style:normal;font-variant:normal;font-weight:normal;font-stretch:normal;font-size:48px;line-height:1.25;font-family:Lavi;-inkscape-font-specification:Lavi;text-align:center;text-anchor:middle"
         id="flowPara2997">Andrew Grady, Andrey Alekseenko, Anna Orlova, Antan Karmola, Antoine,</flowPara><flowPara
         style="font-style:normal;font-variant:normal;font-weight:normal;font-stretch:normal;font-size:48px;line-height:1.25;font-family:Lavi;-inkscape-font-specification:Lavi;text-align:center;text-anchor:middle"
         id="flowPara2999">Aslak Kjølås-Sæverud, Axel Bordelon, Axel Philipsenburg, Ben Evans,</flowPara><flowPara
         style="font-style:normal;font-variant:normal;font-weight:normal;font-stretch:normal;font-size:48px;line-height:1.25;font-family:Lavi;-inkscape-font-specification:Lavi;text-align:center;text-anchor:middle"
         id="flowPara3001">Boonsak Watanavisit, Boudewijn Rempt, carlos levischi, Charlotte Lacombe-bar, Chris Sakkas, Christophe Carré, Clara Dexter, Colby Driedger,</flowPara><flowPara
         style="font-style:normal;font-variant:normal;font-weight:normal;font-stretch:normal;font-size:48px;line-height:1.25;font-family:Lavi;-inkscape-font-specification:Lavi;text-align:center;text-anchor:middle"
         id="flowPara3003">Conway Scott Smith, Dmitry, Eitan Goldshtrom, Enrico Billich,</flowPara><flowPara
         style="font-style:normal;font-variant:normal;font-weight:normal;font-stretch:normal;font-size:48px;line-height:1.25;font-family:Lavi;-inkscape-font-specification:Lavi;text-align:center;text-anchor:middle"
         id="flowPara3005">-epsilon-, Garret Patterson, Gustav Strömbom, Guy Davis,</flowPara><flowPara
         style="font-style:normal;font-variant:normal;font-weight:normal;font-stretch:normal;font-size:48px;line-height:1.25;font-family:Lavi;-inkscape-font-specification:Lavi;text-align:center;text-anchor:middle"
         id="flowPara3007">Helmar Suschka, Ilyas Akhmedov, Inga Huang, Irene C.,</flowPara><flowPara
         style="font-style:normal;font-variant:normal;font-weight:normal;font-stretch:normal;font-size:48px;line-height:1.25;font-family:Lavi;-inkscape-font-specification:Lavi;text-align:center;text-anchor:middle"
         id="flowPara3009">Jean-Baptiste Hebbrecht, JEM, Jessey Wright, John, Jónatan Nilsson,</flowPara><flowPara
         style="font-style:normal;font-variant:normal;font-weight:normal;font-stretch:normal;font-size:48px;line-height:1.25;font-family:Lavi;-inkscape-font-specification:Lavi;text-align:center;text-anchor:middle"
         id="flowPara3011">Joseph Bowman, Juanjo Fernández Monreal, Jurgo van den Elzen,</flowPara><flowPara
         style="font-style:normal;font-variant:normal;font-weight:normal;font-stretch:normal;font-size:48px;line-height:1.25;font-family:Lavi;-inkscape-font-specification:Lavi;text-align:center;text-anchor:middle"
         id="flowPara3013">Kai-Ting (Danil) Ko, Kasper Hansen, Kathryn Wuerstl, Ken Mingyuan Xia,</flowPara><flowPara
         style="font-style:normal;font-variant:normal;font-weight:normal;font-stretch:normal;font-size:48px;line-height:1.25;font-family:Lavi;-inkscape-font-specification:Lavi;text-align:center;text-anchor:middle"
         id="flowPara3015">Liselle, Lorentz Grip, MacCoy, Mandy, Martin Owens, Maurice-Marie Stromer,</flowPara><flowPara
         style="font-style:normal;font-variant:normal;font-weight:normal;font-stretch:normal;font-size:48px;line-height:1.25;font-family:Lavi;-inkscape-font-specification:Lavi;text-align:center;text-anchor:middle"
         id="flowPara3017">Mauricio Vega, mefflin ross bullis-bates, Michelle Pereira Garcia,</flowPara><flowPara
         style="font-style:normal;font-variant:normal;font-weight:normal;font-stretch:normal;font-size:48px;line-height:1.25;font-family:Lavi;-inkscape-font-specification:Lavi;text-align:center;text-anchor:middle"
         id="flowPara3019">Morten Hellesø Johansen, Nazhif, Nicki Aya, Nicolae Berbece, Nicole Heersema,</flowPara><flowPara
         style="font-style:normal;font-variant:normal;font-weight:normal;font-stretch:normal;font-size:48px;line-height:1.25;font-family:Lavi;-inkscape-font-specification:Lavi;text-align:center;text-anchor:middle"
         id="flowPara3021">No Reward, Noah Summers, Noble Hays, Olivier Amrein, Olivier Brun,</flowPara><flowPara
         style="font-style:normal;font-variant:normal;font-weight:normal;font-stretch:normal;font-size:48px;line-height:1.25;font-family:Lavi;-inkscape-font-specification:Lavi;text-align:center;text-anchor:middle"
         id="flowPara3023">Oscar Moreno, Pavel Semenov, Peter Moonen, Pierre Vuillemin, Ret Samys,</flowPara><flowPara
         style="font-style:normal;font-variant:normal;font-weight:normal;font-stretch:normal;font-size:48px;line-height:1.25;font-family:Lavi;-inkscape-font-specification:Lavi;text-align:center;text-anchor:middle"
         id="flowPara3025">Reuben Tracey, Rustin Simons, Sami T, Sean Adams, Shadefalcon,</flowPara></flowRoot>
    <flowRoot
       transform="matrix(1.0349778,0,0,1.0951395,-54.115187,-18.076558)"
       style="font-style:normal;font-variant:normal;font-weight:normal;font-stretch:normal;line-height:0.01%;font-family:Arial;-inkscape-font-specification:Arial;text-align:center;letter-spacing:0px;word-spacing:0px;text-anchor:middle;fill:#000000;fill-opacity:1;stroke:none"
       id="flowRoot3027"
       xml:space="preserve"><flowRegion
         id="flowRegion3029"><rect
           style="text-align:center;text-anchor:middle;stroke-width:1"
           y="219.33444"
           x="135.21135"
           height="98.335526"
           width="2227.2996"
           id="rect3031" /></flowRegion><flowPara
         style="font-size:12px;line-height:1.25"
         id="flowPara3033"> </flowPara><flowPara
         style="font-style:normal;font-variant:normal;font-weight:normal;font-stretch:normal;font-size:48px;line-height:1.25;font-family:Lavi;-inkscape-font-specification:Lavi;text-align:center;text-anchor:middle"
         id="flowPara3035">Ch't'histouère n'serait pin lò sauns vos, meis 93 patrons.</flowPara></flowRoot>
    <flowRoot
       transform="matrix(0.91226779,0,0,0.94129239,111.035,-105.61399)"
       style="font-style:normal;font-variant:normal;font-weight:normal;font-stretch:normal;line-height:0.01%;font-family:Arial;-inkscape-font-specification:Arial;text-align:center;letter-spacing:0px;word-spacing:0px;text-anchor:middle;fill:#000000;fill-opacity:1;stroke:none"
       id="flowRoot3027-8"
       xml:space="preserve"><flowRegion
         id="flowRegion3029-9"><rect
           style="text-align:center;text-anchor:middle"
           y="219.33444"
           x="135.21135"
           height="143.77408"
           width="2224.9243"
           id="rect3031-9" /></flowRegion><flowPara
         style="font-size:12px;line-height:1.25"
         id="flowPara3033-3"> </flowPara><flowPara
         style="font-style:normal;font-variant:normal;font-weight:normal;font-stretch:normal;font-size:48px;line-height:1.25;font-family:Lavi;-inkscape-font-specification:Lavi;text-align:center;text-anchor:middle"
         id="flowPara3035-7">Ch'te WebComic est libe et &quot;open-source&quot;</flowPara><flowPara
         id="flowPara3067"
         style="font-style:normal;font-variant:normal;font-weight:normal;font-stretch:normal;font-size:48px;line-height:1.25;font-family:Lavi;-inkscape-font-specification:Lavi;text-align:center;text-anchor:middle">(Creative Commons Attribution 3.0, fichyeis libe à man)</flowPara></flowRoot>
    <flowRoot
       transform="matrix(1.1896535,0,0,1.2337535,-299.50592,12.571183)"
       style="font-style:normal;font-variant:normal;font-weight:normal;font-stretch:normal;line-height:0.01%;font-family:Arial;-inkscape-font-specification:Arial;text-align:center;letter-spacing:0px;word-spacing:0px;text-anchor:middle;fill:#a72f14;fill-opacity:1;stroke:none"
       id="flowRoot3027-8-8"
       xml:space="preserve"><flowRegion
         id="flowRegion3029-9-3"><rect
           style="text-align:center;text-anchor:middle;fill:#a72f14;fill-opacity:1"
           y="219.33444"
           x="135.21135"
           height="376.21677"
           width="2230.314"
           id="rect3031-9-1" /></flowRegion><flowPara
         style="font-size:12px;line-height:1.25"
         id="flowPara3033-3-0"> </flowPara><flowPara
         id="flowPara3067-4"
         style="font-style:normal;font-variant:normal;font-weight:normal;font-stretch:normal;font-size:48px;line-height:1.25;font-family:Lavi;-inkscape-font-specification:Lavi;text-align:center;text-anchor:middle;fill:#a72f14;fill-opacity:1">https://www.patreon.com/davidrevoy</flowPara></flowRoot>
    <flowRoot
       transform="matrix(0.91226779,0,0,0.92588081,65.216963,1328.1228)"
       style="font-style:normal;font-variant:normal;font-weight:normal;font-stretch:normal;line-height:0.01%;font-family:Arial;-inkscape-font-specification:Arial;text-align:center;letter-spacing:0px;word-spacing:0px;text-anchor:middle;fill:#000000;fill-opacity:1;stroke:none"
       id="flowRoot3027-8-8-2"
       xml:space="preserve"><flowRegion
         id="flowRegion3029-9-3-5"><rect
           style="text-align:center;text-anchor:middle"
           y="219.33444"
           x="135.21135"
           height="376.21677"
           width="2230.314"
           id="rect3031-9-1-6" /></flowRegion><flowPara
         style="font-size:12px;line-height:1.25"
         id="flowPara3033-3-0-2"> </flowPara><flowPara
         id="flowPara3229"
         style="font-style:normal;font-variant:normal;font-weight:normal;font-stretch:normal;font-size:48px;line-height:1.25;font-family:Lavi;-inkscape-font-specification:Lavi;text-align:center;text-anchor:middle">Eun graund merchi à</flowPara><flowPara
         id="flowPara3231"
         style="font-style:normal;font-variant:normal;font-weight:normal;font-stretch:normal;font-size:48px;line-height:1.25;font-family:Lavi;-inkscape-font-specification:Lavi;text-align:center;text-anchor:middle">Amireeti, David Tschumperlé (G'MIC) </flowPara><flowPara
         id="flowPara3057"
         style="font-style:normal;font-variant:normal;font-weight:normal;font-stretch:normal;font-size:48px;line-height:1.25;font-family:Lavi;-inkscape-font-specification:Lavi;text-align:center;text-anchor:middle">et touote la 'team Krita' !</flowPara><flowPara
         id="flowPara3233"
         style="font-style:normal;font-variant:normal;font-weight:normal;font-stretch:normal;font-size:48px;line-height:1.25;font-family:Lavi;-inkscape-font-specification:Lavi;text-align:center;text-anchor:middle"> </flowPara></flowRoot>
    <flowRoot
       transform="matrix(0.74146229,0,0,0.78743223,305.21556,1573.1779)"
       style="font-style:normal;font-variant:normal;font-weight:normal;font-stretch:normal;line-height:0.01%;font-family:Arial;-inkscape-font-specification:Arial;text-align:center;letter-spacing:0px;word-spacing:0px;text-anchor:middle;fill:#000000;fill-opacity:1;stroke:none"
       id="flowRoot3027-8-8-2-8"
       xml:space="preserve"><flowRegion
         id="flowRegion3029-9-3-5-1"><rect
           style="text-align:center;text-anchor:middle"
           y="219.33444"
           x="135.21135"
           height="376.21677"
           width="2230.314"
           id="rect3031-9-1-6-8" /></flowRegion><flowPara
         style="font-size:12px;line-height:1.25"
         id="flowPara3033-3-0-2-4"> </flowPara><flowPara
         id="flowPara3231-9"
         style="font-style:normal;font-variant:normal;font-weight:normal;font-stretch:normal;font-size:48px;line-height:1.25;font-family:Lavi;-inkscape-font-specification:Lavi;text-align:center;text-anchor:middle">Cet épisode a été réalisé à 100% avec des outils libres,</flowPara><flowPara
         id="flowPara3279"
         style="font-style:normal;font-variant:normal;font-weight:normal;font-stretch:normal;font-size:48px;line-height:1.25;font-family:Lavi;-inkscape-font-specification:Lavi;text-align:center;text-anchor:middle">Krita et G'MIC sur Xubuntu (GNU/Linux)</flowPara><flowPara
         id="flowPara3233-6"
         style="font-style:normal;font-variant:normal;font-weight:normal;font-stretch:normal;font-size:48px;line-height:1.25;font-family:Lavi;-inkscape-font-specification:Lavi;text-align:center;text-anchor:middle"> </flowPara></flowRoot>
    <flowRoot
       transform="matrix(1.0543523,0,0,2.3557187,-38.747892,-23.934209)"
       style="font-style:normal;font-variant:normal;font-weight:normal;font-stretch:normal;line-height:0.01%;font-family:Arial;-inkscape-font-specification:Arial;text-align:center;letter-spacing:0px;word-spacing:0px;text-anchor:middle;display:inline;fill:#000000;fill-opacity:1;stroke:none"
       id="flowRoot3027-8-8-2-8-2"
       xml:space="preserve"><flowRegion
         id="flowRegion3029-9-3-5-1-8"><rect
           style="text-align:center;text-anchor:middle"
           y="219.33444"
           x="135.21135"
           height="81.528976"
           width="335.19684"
           id="rect3031-9-1-6-8-6" /></flowRegion><flowPara
         id="flowPara3279-1"
         style="font-style:normal;font-variant:normal;font-weight:normal;font-stretch:normal;font-size:33.8411px;line-height:1.25;font-family:Lavi;-inkscape-font-specification:Lavi;text-align:center;text-anchor:middle">Et merchi encos !</flowPara><flowPara
         id="flowPara3233-6-1"
         style="font-style:normal;font-variant:normal;font-weight:normal;font-stretch:normal;font-size:48px;line-height:1.25;font-family:Lavi;-inkscape-font-specification:Lavi;text-align:center;text-anchor:middle"> </flowPara></flowRoot>
  </g>
</svg>
