<?xml version="1.0" encoding="UTF-8" standalone="no"?>
<!-- Created with Inkscape (http://www.inkscape.org/) -->

<svg
   xmlns:dc="http://purl.org/dc/elements/1.1/"
   xmlns:cc="http://creativecommons.org/ns#"
   xmlns:rdf="http://www.w3.org/1999/02/22-rdf-syntax-ns#"
   xmlns:svg="http://www.w3.org/2000/svg"
   xmlns="http://www.w3.org/2000/svg"
   xmlns:xlink="http://www.w3.org/1999/xlink"
   xmlns:sodipodi="http://sodipodi.sourceforge.net/DTD/sodipodi-0.dtd"
   xmlns:inkscape="http://www.inkscape.org/namespaces/inkscape"
   id="svg2"
   version="1.1"
   inkscape:version="0.92.2 (5c3e80d, 2017-08-06)"
   width="2481"
   height="3503"
   sodipodi:docname="Pepper-and-Carrot_by-David-Revoy_E15P01.svg">
  <metadata
     id="metadata8">
    <rdf:RDF>
      <cc:Work
         rdf:about="">
        <dc:format>image/svg+xml</dc:format>
        <dc:type
           rdf:resource="http://purl.org/dc/dcmitype/StillImage" />
        <dc:title />
      </cc:Work>
    </rdf:RDF>
  </metadata>
  <defs
     id="defs6" />
  <sodipodi:namedview
     pagecolor="#ffffff"
     bordercolor="#666666"
     borderopacity="1"
     objecttolerance="10"
     gridtolerance="10"
     guidetolerance="10"
     inkscape:pageopacity="0"
     inkscape:pageshadow="2"
     inkscape:window-width="1366"
     inkscape:window-height="705"
     id="namedview4"
     showgrid="false"
     inkscape:zoom="0.21266211"
     inkscape:cx="589.64989"
     inkscape:cy="717.90247"
     inkscape:window-x="-8"
     inkscape:window-y="-8"
     inkscape:window-maximized="1"
     inkscape:current-layer="layer1" />
  <g
     inkscape:groupmode="layer"
     id="layer2"
     inkscape:label="artwork"
     sodipodi:insensitive="true">
    <image
       sodipodi:absref="E:\Users\jamesmichael\Downloads\Compressed\eps\peppercarrot_ep15_translation-master\peppercarrot_ep15_translation-master\ph\../gfx_Pepper-and-Carrot_by-David-Revoy_E15P01.png"
       xlink:href="../gfx_Pepper-and-Carrot_by-David-Revoy_E15P01.png"
       y="0"
       x="0"
       id="image10"
       height="3503"
       width="2481" />
  </g>
  <g
     inkscape:groupmode="layer"
     id="layer3"
     inkscape:label="speechbubbles" />
  <g
     inkscape:groupmode="layer"
     id="layer1"
     inkscape:label="txt">
    <text
       xml:space="preserve"
       style="font-style:normal;font-variant:normal;font-weight:normal;font-stretch:normal;font-size:81.33231354px;line-height:1.25;font-family:Lavi;-inkscape-font-specification:Lavi;letter-spacing:0px;word-spacing:0px;fill:#ffffff;fill-opacity:1;stroke:none;stroke-width:2.03330779"
       x="1829.3588"
       y="496.54797"
       id="text817"
       transform="rotate(12.99327)"><tspan
         sodipodi:role="line"
         id="tspan815"
         x="1829.3588"
         y="496.54797"
         style="fill:#ffffff;stroke-width:2.03330779">?</tspan></text>
    <text
       xml:space="preserve"
       style="font-style:normal;font-variant:normal;font-weight:normal;font-stretch:normal;font-size:53.71955109px;line-height:1.25;font-family:Lavi;-inkscape-font-specification:Lavi;letter-spacing:0px;word-spacing:0px;fill:#cccccc;fill-opacity:1;stroke:none;stroke-width:1.34298873"
       id="text821"
       transform="matrix(0.92709363,0.37482983,-0.85847061,0.7315546,679.68639,-337.6844)"
       inkscape:transform-center-x="-89.100684"
       inkscape:transform-center-y="33.293262"><textPath
         xlink:href="#path823"
         id="textPath825"><tspan
   style="fill:#cccccc;stroke-width:1.34298873"
   dy="0 -3.1575649"
   id="tspan819">Sshhhhhhh</tspan></textPath></text>
    <path
       style="fill:none;stroke:#000000;stroke-width:0.95953518px;stroke-linecap:butt;stroke-linejoin:miter;stroke-opacity:1;opacity:0"
       d="m 839.56888,1108.1648 c 0,0 68.09078,-41.5779 155.30825,-30.7677 87.21747,10.8103 123.17547,-45.7357 123.17547,-45.7357"
       id="path823"
       inkscape:connector-curvature="0" />
    <text
       xml:space="preserve"
       style="font-style:normal;font-variant:normal;font-weight:normal;font-stretch:normal;font-size:148.06040955px;line-height:1.25;font-family:'Drukaatie burti';-inkscape-font-specification:'Drukaatie burti';letter-spacing:0px;word-spacing:0px;fill:#ececec;fill-opacity:1;stroke:none;stroke-width:1.73508286"
       x="546.64337"
       y="1878.4967"
       id="text831"
       transform="matrix(0.99940718,0.03442719,0.21353028,1.0079488,0,0)"><tspan
         sodipodi:role="line"
         id="tspan829"
         x="546.64337"
         y="1878.4967"
         style="stroke-width:1.73508286">?!</tspan></text>
    <text
       xml:space="preserve"
       style="font-style:normal;font-weight:normal;font-size:98.47176361px;line-height:1.25;font-family:sans-serif;letter-spacing:0px;word-spacing:0px;fill:#ffffff;fill-opacity:1;stroke:none;stroke-width:2.46179414"
       x="2510.98"
       y="2796.3525"
       id="text835"
       transform="skewX(-20.999821)"><tspan
         sodipodi:role="line"
         id="tspan833"
         x="2510.98"
         y="2796.3525"
         style="stroke-width:2.46179414">♥ ♫♪</tspan></text>
  </g>
</svg>
