<?xml version="1.0" encoding="UTF-8" standalone="no"?>
<svg
   xmlns:dc="http://purl.org/dc/elements/1.1/"
   xmlns:cc="http://creativecommons.org/ns#"
   xmlns:rdf="http://www.w3.org/1999/02/22-rdf-syntax-ns#"
   xmlns:svg="http://www.w3.org/2000/svg"
   xmlns="http://www.w3.org/2000/svg"
   xmlns:xlink="http://www.w3.org/1999/xlink"
   xmlns:sodipodi="http://sodipodi.sourceforge.net/DTD/sodipodi-0.dtd"
   xmlns:inkscape="http://www.inkscape.org/namespaces/inkscape"
   sodipodi:docname="E35P03.svg"
   height="3503"
   width="2481"
   inkscape:version="1.0.1 (3bc2e813f5, 2020-09-07)"
   version="1.1"
   id="svg2">
  <metadata
     id="metadata8">
    <rdf:RDF>
      <cc:Work
         rdf:about="">
        <dc:format>image/svg+xml</dc:format>
        <dc:type
           rdf:resource="http://purl.org/dc/dcmitype/StillImage" />
        <dc:title />
      </cc:Work>
    </rdf:RDF>
  </metadata>
  <defs
     id="defs6">
    <filter
       x="-0.015227396"
       width="1.030456"
       y="-0.024240738"
       height="1.0484816"
       inkscape:menu-tooltip="Something like a water noise"
       inkscape:menu="Distort"
       inkscape:label="Lapping"
       id="filter3018-7-5"
       style="color-interpolation-filters:sRGB">
      <feTurbulence
         result="result1"
         baseFrequency="0.1"
         type="fractalNoise"
         seed="0"
         numOctaves="5"
         id="feTurbulence3020-0-6" />
      <feGaussianBlur
         result="result2"
         stdDeviation="2"
         id="feGaussianBlur3022-9-9" />
      <feDisplacementMap
         in="SourceGraphic"
         xChannelSelector="R"
         yChannelSelector="B"
         scale="50"
         in2="result2"
         id="feDisplacementMap3024-3-3" />
    </filter>
    <filter
       x="-0.014835256"
       width="1.0296723"
       y="-0.019186902"
       height="1.0383743"
       inkscape:menu-tooltip="Something like a water noise"
       inkscape:menu="Distort"
       inkscape:label="Lapping"
       id="filter3018-7-5-3"
       style="color-interpolation-filters:sRGB">
      <feTurbulence
         result="result1"
         baseFrequency="0.1"
         type="fractalNoise"
         seed="0"
         numOctaves="5"
         id="feTurbulence3020-0-6-6" />
      <feGaussianBlur
         result="result2"
         stdDeviation="2"
         id="feGaussianBlur3022-9-9-4" />
      <feDisplacementMap
         in="SourceGraphic"
         xChannelSelector="R"
         yChannelSelector="B"
         scale="50"
         in2="result2"
         id="feDisplacementMap3024-3-3-0" />
    </filter>
  </defs>
  <sodipodi:namedview
     inkscape:pagecheckerboard="0"
     inkscape:snap-global="false"
     inkscape:document-rotation="0"
     inkscape:current-layer="layer3"
     inkscape:window-maximized="1"
     inkscape:window-y="27"
     inkscape:window-x="72"
     inkscape:cy="3065.4475"
     inkscape:cx="1196.4907"
     inkscape:zoom="0.64686496"
     showgrid="false"
     id="namedview4"
     inkscape:window-height="1016"
     inkscape:window-width="1848"
     inkscape:pageshadow="2"
     inkscape:pageopacity="0"
     guidetolerance="10"
     gridtolerance="10"
     objecttolerance="10"
     borderopacity="1"
     bordercolor="#666666"
     pagecolor="#ffffff" />
  <g
     sodipodi:insensitive="true"
     inkscape:label="artwork"
     id="layer2"
     inkscape:groupmode="layer">
    <image
       sodipodi:absref="/home/emmiline/Documents/git/webcomics/ep35_The-Reflection/lang/gfx_Pepper-and-Carrot_by-David-Revoy_E35P03.png"
       xlink:href="../gfx_Pepper-and-Carrot_by-David-Revoy_E35P03.png"
       y="0"
       x="0"
       id="image10"
       height="3503"
       width="2481" />
  </g>
  <g
     inkscape:label="speechbubbles"
     id="layer3"
     inkscape:groupmode="layer">
    <path
       transform="matrix(1.1598318,0.01672257,-0.02427828,1.2539115,682.45321,-452.33196)"
       sodipodi:nodetypes="zsssssz"
       inkscape:connector-curvature="0"
       id="path3330-0-3"
       d="m 952.97852,1586.5918 c -48.21167,0.5602 -97.28537,2.2904 -143.5844,17.0643 -16.74826,7.6749 -26.84779,25.24 -29.85771,42.8741 -8.50782,33.1718 -14.41833,67.8644 -9.50754,102.0915 5.46979,31.3705 22.17352,59.7939 43.10427,83.3747 8.371,9.4007 17.88764,18.1657 29.61837,23.1391 15.89735,7.2787 33.73097,9.1349 51.02542,7.9014 43.51481,-0.9807 87.05372,-1.8681 130.50007,-4.6189 20.8642,-1.5327 41.8213,-3.3468 62.2674,-7.9357 10.9935,-2.6689 22.6218,-7.8138 27.9839,-18.4345 7.5173,-13.6313 8.6767,-29.5011 10.6746,-44.6364 3.796,-39.8786 -3.4192,-79.6037 -5.091,-119.3789 -0.048,-18.3134 3.967,-36.6101 1.8626,-54.8965 -3.2992,-11.236 -15.0218,-17.7899 -26.1655,-18.5553 -16.5947,-2.5821 -33.3699,-3.7518 -50.0785,-5.3327 -30.8594,-2.272 -61.819,-2.7767 -92.75198,-2.6562 z"
       style="color:#000000;font-variation-settings:normal;display:inline;overflow:visible;visibility:visible;vector-effect:none;fill:#000000;fill-opacity:1;fill-rule:nonzero;stroke:#000000;stroke-width:1.02241px;stroke-linecap:butt;stroke-linejoin:miter;stroke-miterlimit:4;stroke-dasharray:none;stroke-dashoffset:0;stroke-opacity:1;marker:none;filter:url(#filter3018-7-5-3);enable-background:accumulate;stop-color:#000000" />
    <path
       sodipodi:nodetypes="cssssc"
       inkscape:connector-curvature="0"
       id="path4546-6"
       d="m 414.33878,1686.3584 c 3.54061,-57.4107 43.17834,-99.2597 145.58715,-88.03 54.8557,6.0151 121.30384,10.0699 116.75391,94.1751 -4.54998,84.1054 -74.17388,81.2619 -116.76996,83.4604 -18.53849,0.9568 -114.77649,-7.3317 -131.45655,-36.0172 -10.44133,-17.9564 -14.51892,-35.8049 -14.11455,-53.5883 z"
       style="color:#000000;display:inline;overflow:visible;visibility:visible;fill:#ffffff;fill-opacity:1;fill-rule:nonzero;stroke:none;stroke-width:0.786419px;marker:none;enable-background:accumulate" />
    <path
       sodipodi:nodetypes="ccccccccccccccccc"
       inkscape:connector-curvature="0"
       id="path4496-2"
       d="m 634.54114,1906.0014 c 14.59712,-5.8706 26.29817,-25.6919 33.0509,-42.7644 1.81732,-4.8941 3.35817,-10.0845 3.44931,-15.3063 -1.11457,-5.4519 -6.12943,-9.0626 -11.35413,-10.1074 -7.44055,-2.0376 -16.10468,-1.0872 -22.43244,-6.159 6.62373,-30.7926 18.74668,-68.4402 -17.81815,-100.3755 -3.70155,-5.0208 -8.27562,-9.7554 -14.29935,-11.8512 -15.20805,-6.077 -34.1273,-3.517 -46.17318,7.9291 -6.99168,8.0303 -6.68349,22.0171 2.0681,28.6598 4.56751,3.5756 10.81069,3.4906 16.09434,1.8177 10.2879,-1.26 21.19532,-1.962 32.10285,4.7937 26.90502,21.3542 0.1543,60.804 6.34164,79.1456 4.62252,6.1074 12.88912,6.7863 19.94966,6.5539 7.28747,-0.052 15.73398,-0.9368 21.57373,4.3653 4.54779,3.1337 1.70824,8.9838 1.26798,13.3961 -3.27148,14.0224 -10.88009,26.8444 -20.66145,37.2985 -1.00695,0.926 -2.08089,1.7656 -3.15981,2.6041 z"
       style="color:#000000;display:inline;overflow:visible;visibility:visible;fill:#ffffff;fill-opacity:1;fill-rule:nonzero;stroke:none;stroke-width:1px;marker:none;enable-background:accumulate" />
    <path
       transform="matrix(1.1519453,0,0,1.2076542,-128.87486,-335.27777)"
       sodipodi:nodetypes="zsssssz"
       inkscape:connector-curvature="0"
       id="path3330-0"
       d="m 777.77605,1578.7499 c 31.97542,-17.3022 195.30977,-20.2429 269.47485,7.666 43.8378,16.4965 52.9774,46.4663 54.9826,88.3442 0.6193,12.9351 -9.7092,80.202 -31.7663,91.7496 -22.057,11.5468 -145.30106,18.1636 -167.35816,18.1636 -22.05703,0 -119.11217,1.0198 -136.93014,-15.8797 -17.04406,-16.1655 -20.37826,-172.7416 11.59715,-190.0437 z"
       style="color:#000000;font-variation-settings:normal;display:inline;overflow:visible;visibility:visible;opacity:1;vector-effect:none;fill:#000000;fill-opacity:1;fill-rule:nonzero;stroke:#000000;stroke-width:1.02241px;stroke-linecap:butt;stroke-linejoin:miter;stroke-miterlimit:4;stroke-dasharray:none;stroke-dashoffset:0;stroke-opacity:1;marker:none;filter:url(#filter3018-7-5);enable-background:accumulate;stop-color:#000000;stop-opacity:1" />
    <path
       sodipodi:nodetypes="zsssssz"
       inkscape:connector-curvature="0"
       id="path4530-1"
       d="m 2040.4256,1579.2032 c 8.5748,-32.023 49.1519,-22.4229 132.83,-16.4917 53.6573,3.8032 93.2699,-12.3263 117.5047,5.3891 11.4471,8.3679 22.1357,81.6157 9.9387,114.9931 -12.1968,33.3773 -49.6933,50.0702 -132.0131,49.9428 -73.1677,-0.1132 -93.5342,-12.5895 -104.9861,-21.1347 -36.8916,-27.5279 -31.8492,-100.6755 -23.2742,-132.6986 z"
       style="color:#000000;display:inline;overflow:visible;visibility:visible;fill:#ffffff;fill-opacity:1;fill-rule:nonzero;stroke:none;stroke-width:0.621797px;marker:none;enable-background:accumulate" />
    <path
       sodipodi:nodetypes="cscccc"
       inkscape:connector-curvature="0"
       id="path1367"
       d="m 2260.4896,1693.6187 c 0,0 1.1455,15.2829 18.5599,18.5871 25.0022,4.7439 49.3554,67.4676 36.9796,95.7568 20.9615,-42.7867 12.7402,-70.9857 7.3083,-83.7931 -5.4319,-12.8092 -39.1198,-60.7121 -39.1198,-60.7121 z"
       style="fill:#ffffff;fill-rule:evenodd;stroke:none;stroke-width:1.66048px;stroke-linecap:butt;stroke-linejoin:miter;stroke-opacity:1" />
    <rect
       y="1533.1331"
       x="1475.4626"
       height="45.576038"
       width="498.66214"
       id="rect955"
       style="color:#000000;overflow:visible;opacity:1;vector-effect:none;fill:#ffffff;fill-opacity:1;stroke:none;stroke-width:1.11214px;stroke-linecap:butt;stroke-linejoin:miter;stroke-miterlimit:4;stroke-dasharray:none;stroke-dashoffset:0;stroke-opacity:1;marker:none;paint-order:stroke fill markers;stop-color:#000000;stop-opacity:1" />
    <rect
       transform="rotate(90)"
       y="-1959.2345"
       x="1550.2794"
       height="32.770958"
       width="487.76147"
       id="rect955-1"
       style="color:#000000;overflow:visible;vector-effect:none;fill:#ffffff;fill-opacity:1;stroke:none;stroke-width:1.25424px;stroke-linecap:butt;stroke-linejoin:miter;stroke-miterlimit:4;stroke-dasharray:none;stroke-dashoffset:0;stroke-opacity:1;marker:none;paint-order:stroke fill markers;stop-color:#000000" />
    <rect
       transform="rotate(90)"
       y="-782.47455"
       x="1556.7144"
       height="32.770958"
       width="215.94513"
       id="rect955-1-9-5"
       style="color:#000000;overflow:visible;vector-effect:none;fill:#000000;fill-opacity:1;stroke:none;stroke-width:1.02241px;stroke-linecap:butt;stroke-linejoin:miter;stroke-miterlimit:4;stroke-dasharray:none;stroke-dashoffset:0;stroke-opacity:1;marker:none;paint-order:stroke fill markers;stop-color:#000000" />
    <rect
       y="1533.1924"
       x="724.89355"
       height="45.576038"
       width="421.44244"
       id="rect955-7"
       style="color:#000000;overflow:visible;vector-effect:none;fill:#ffffff;fill-opacity:1;stroke:none;stroke-width:1.02241px;stroke-linecap:butt;stroke-linejoin:miter;stroke-miterlimit:4;stroke-dasharray:none;stroke-dashoffset:0;stroke-opacity:1;marker:none;paint-order:stroke fill markers;stop-color:#000000" />
    <rect
       transform="rotate(90)"
       y="-757.57123"
       x="1571.7268"
       height="32.770958"
       width="324.11044"
       id="rect955-1-9"
       style="color:#000000;overflow:visible;vector-effect:none;fill:#ffffff;fill-opacity:1;stroke:none;stroke-width:1.02241px;stroke-linecap:butt;stroke-linejoin:miter;stroke-miterlimit:4;stroke-dasharray:none;stroke-dashoffset:0;stroke-opacity:1;marker:none;paint-order:stroke fill markers;stop-color:#000000" />
    <path
       sodipodi:nodetypes="ccsc"
       inkscape:connector-curvature="0"
       id="path5010-4"
       d="m 946.35011,1789.3312 c -9.44632,59.2056 7.29021,104.3022 43.61043,121.8505 -60.22225,-14.9162 -79.45997,-96.9634 -74.02289,-121.8959 5.32366,-24.4119 30.41246,0.045 30.41246,0.045 z"
       style="color:#000000;display:inline;overflow:visible;visibility:visible;fill:#000000;fill-opacity:1;fill-rule:nonzero;stroke:none;stroke-width:0.900695px;marker:none;enable-background:accumulate" />
    <path
       sodipodi:nodetypes="ccsc"
       inkscape:connector-curvature="0"
       id="path5010-4-3"
       d="m 1805.2267,1873.7513 c 28.985,43.0588 27.74,84.9496 -1.7932,112.5764 53.706,-34.6349 45.0442,-106.5896 31.4163,-124.1679 -13.3434,-17.2115 -29.6231,11.5915 -29.6231,11.5915 z"
       style="color:#000000;display:inline;overflow:visible;visibility:visible;fill:#000000;fill-opacity:1;fill-rule:nonzero;stroke:none;stroke-width:0.925107px;marker:none;enable-background:accumulate" />
  </g>
  <g
     inkscape:label="txt"
     id="layer1"
     inkscape:groupmode="layer">
    <text
       id="text4246-3-2-2"
       y="1671.2283"
       x="545.69452"
       style="font-style:normal;font-variant:normal;font-weight:normal;font-stretch:normal;font-size:45px;line-height:1.25;font-family:Lavi;-inkscape-font-specification:Lavi;text-align:center;letter-spacing:0px;word-spacing:0px;text-anchor:middle;fill:#000000;fill-opacity:1;stroke:none"
       xml:space="preserve"><tspan
         id="tspan873"
         y="1671.2283"
         x="545.69452"
         sodipodi:role="line"
         style="font-size:45px">Så du</tspan><tspan
         y="1727.4783"
         x="545.69452"
         sodipodi:role="line"
         style="font-size:45px"
         id="tspan50">det?</tspan></text>
    <text
       id="text4246-3-2-2-3"
       y="1639.9242"
       x="946.04449"
       style="font-style:normal;font-variant:normal;font-weight:normal;font-stretch:normal;font-size:51px;line-height:1.25;font-family:Lavi;-inkscape-font-specification:Lavi;text-align:center;letter-spacing:0px;word-spacing:0px;text-anchor:middle;fill:#000000;fill-opacity:1;stroke:none;stroke-width:0.900695"
       xml:space="preserve"><tspan
         y="1639.9242"
         x="946.04449"
         sodipodi:role="line"
         style="font-style:normal;font-variant:normal;font-weight:normal;font-stretch:normal;font-size:51px;font-family:Drukah;-inkscape-font-specification:Drukah;fill:#ffffff;stroke-width:0.900695"
         id="tspan58">Ja.</tspan><tspan
         y="1705.1448"
         x="946.04449"
         sodipodi:role="line"
         style="font-style:normal;font-variant:normal;font-weight:normal;font-stretch:normal;font-size:51px;font-family:Drukah;-inkscape-font-specification:Drukah;fill:#ffffff;stroke-width:0.900695"
         id="tspan51">Forfølgelsen</tspan><tspan
         y="1770.3652"
         x="946.04449"
         sodipodi:role="line"
         style="font-style:normal;font-variant:normal;font-weight:normal;font-stretch:normal;font-size:51px;font-family:Drukah;-inkscape-font-specification:Drukah;fill:#ffffff;stroke-width:0.900695"
         id="tspan60">er snart ovre.</tspan></text>
    <text
       id="text4246-3-2-2-3-3"
       y="1642.578"
       x="1753.6272"
       style="font-style:normal;font-variant:normal;font-weight:normal;font-stretch:normal;font-size:51px;line-height:1.25;font-family:Lavi;-inkscape-font-specification:Lavi;text-align:center;letter-spacing:0px;word-spacing:0px;text-anchor:middle;fill:#000000;fill-opacity:1;stroke:none;stroke-width:0.907609"
       xml:space="preserve"><tspan
         id="tspan895"
         y="1642.578"
         x="1753.6272"
         sodipodi:role="line"
         style="font-style:normal;font-variant:normal;font-weight:normal;font-stretch:normal;font-size:51px;font-family:Drukah;-inkscape-font-specification:Drukah;fill:#ffffff;stroke-width:0.907609">Det varer ikke</tspan><tspan
         y="1707.7986"
         x="1753.6272"
         sodipodi:role="line"
         style="font-style:normal;font-variant:normal;font-weight:normal;font-stretch:normal;font-size:51px;font-family:Drukah;-inkscape-font-specification:Drukah;fill:#ffffff;stroke-width:0.907609"
         id="tspan59">længe, før</tspan><tspan
         id="tspan899"
         y="1773.019"
         x="1753.6272"
         sodipodi:role="line"
         style="font-style:normal;font-variant:normal;font-weight:normal;font-stretch:normal;font-size:51px;font-family:Drukah;-inkscape-font-specification:Drukah;fill:#ffffff;stroke-width:0.907609">hun løber tør</tspan><tspan
         y="1838.2396"
         x="1753.6272"
         sodipodi:role="line"
         style="font-style:normal;font-variant:normal;font-weight:normal;font-stretch:normal;font-size:51px;font-family:Drukah;-inkscape-font-specification:Drukah;fill:#ffffff;stroke-width:0.907609"
         id="tspan67">for kræfter.</tspan></text>
    <text
       id="text4246-3-2-2-3-5"
       y="1630.567"
       x="2172.0164"
       style="font-style:normal;font-variant:normal;font-weight:normal;font-stretch:normal;font-size:45px;line-height:1.25;font-family:Lavi;-inkscape-font-specification:Lavi;text-align:center;letter-spacing:0px;word-spacing:0px;text-anchor:middle;fill:#000000;fill-opacity:1;stroke:none"
       xml:space="preserve"><tspan
         y="1630.567"
         x="2172.0164"
         sodipodi:role="line"
         style="font-size:45px"
         id="tspan76">Og så</tspan><tspan
         y="1686.817"
         x="2172.0164"
         sodipodi:role="line"
         style="font-size:45px"
         id="tspan55">angriber vi.</tspan></text>
  </g>
</svg>
