<?xml version="1.0" encoding="UTF-8" standalone="no"?>
<!-- Created with Inkscape (http://www.inkscape.org/) -->

<svg
   xmlns:dc="http://purl.org/dc/elements/1.1/"
   xmlns:cc="http://creativecommons.org/ns#"
   xmlns:rdf="http://www.w3.org/1999/02/22-rdf-syntax-ns#"
   xmlns:svg="http://www.w3.org/2000/svg"
   xmlns="http://www.w3.org/2000/svg"
   xmlns:xlink="http://www.w3.org/1999/xlink"
   xmlns:sodipodi="http://sodipodi.sourceforge.net/DTD/sodipodi-0.dtd"
   xmlns:inkscape="http://www.inkscape.org/namespaces/inkscape"
   id="svg2"
   version="1.1"
   inkscape:version="0.92.3 (2405546, 2018-03-11)"
   width="2481"
   height="3503"
   sodipodi:docname="E28P07.svg">
  <metadata
     id="metadata8">
    <rdf:RDF>
      <cc:Work
         rdf:about="">
        <dc:format>image/svg+xml</dc:format>
        <dc:type
           rdf:resource="http://purl.org/dc/dcmitype/StillImage" />
        <dc:title />
      </cc:Work>
    </rdf:RDF>
  </metadata>
  <defs
     id="defs6" />
  <sodipodi:namedview
     pagecolor="#ffffff"
     bordercolor="#666666"
     borderopacity="1"
     objecttolerance="10"
     gridtolerance="10"
     guidetolerance="10"
     inkscape:pageopacity="0"
     inkscape:pageshadow="2"
     inkscape:window-width="1856"
     inkscape:window-height="1151"
     id="namedview4"
     showgrid="false"
     inkscape:zoom="0.36415091"
     inkscape:cx="1721.1104"
     inkscape:cy="1638.9912"
     inkscape:window-x="64"
     inkscape:window-y="0"
     inkscape:window-maximized="1"
     inkscape:current-layer="layer3" />
  <g
     inkscape:groupmode="layer"
     id="layer2"
     inkscape:label="artwork"
     sodipodi:insensitive="true">
    <image
       sodipodi:absref="/home/fici/Desktop/P&amp;C/all/sl/../gfx_Pepper-and-Carrot_by-David-Revoy_E28P07.png"
       xlink:href="../gfx_Pepper-and-Carrot_by-David-Revoy_E28P07.png"
       y="0"
       x="0"
       id="image10"
       height="3503"
       width="2481" />
  </g>
  <g
     inkscape:groupmode="layer"
     id="layer3"
     inkscape:label="speechbubbles">
    <path
       style="fill:#ffffff;fill-rule:evenodd;stroke:none;stroke-width:0.99208754px;stroke-linecap:butt;stroke-linejoin:miter;stroke-opacity:1"
       d="m 135.4189,117.21992 c 60.78426,-36.241005 167.23133,-36.134997 225.58929,-35.227431 58.35798,0.907568 200.87925,0.02517 234.79337,22.244591 33.91411,22.21944 56.19788,24.11541 55.25136,73.68241 -0.94651,49.56701 -15.15107,74.13698 -55.10178,98.30653 -39.9507,24.16957 -198.00841,29.45863 -242.66468,30.31358 -44.65625,0.85495 -156.16381,-3.97804 -190.10752,-24.64851 -33.9437,-20.67045 -64.129201,-58.32619 -61.82123,-89.27887 2.30801,-30.95269 14.91445,-61.74521 34.06119,-75.3923 z"
       id="path1035"
       inkscape:connector-curvature="0" />
    <path
       style="fill:#ffffff;fill-rule:evenodd;stroke:none;stroke-width:1px;stroke-linecap:butt;stroke-linejoin:miter;stroke-opacity:1"
       d="m 193.68099,237.48753 c -32.89449,39.47339 -40.41323,56.39055 -51.69134,74.24756 -11.27811,17.85701 -8.45859,59.21009 6.57889,70.4882 15.03749,11.27811 23.49607,17.857 15.97733,33.83433 -7.51874,15.97732 -7.37083,33.58627 -0.79194,42.9847 6.5789,9.39842 29.92706,24.68396 29.92706,24.68396 0,0 -21.13136,-17.00501 -23.34412,-22.26143 -3.75295,-8.91514 -2.08603,-20.48379 2.61318,-28.94238 4.69922,-8.45858 19.28439,-35.64147 -2.76513,-53.11871 -14.61974,-11.58813 -21.61638,-35.71402 -1.87968,-65.78898 19.73669,-30.07496 90.22489,-81.76631 90.22489,-81.76631 z"
       id="path1037"
       inkscape:connector-curvature="0"
       sodipodi:nodetypes="csssccscsscc" />
    <path
       style="fill:#ffffff;fill-rule:evenodd;stroke:none;stroke-width:1.07340562px;stroke-linecap:butt;stroke-linejoin:miter;stroke-opacity:1"
       d="m 97.590793,964.16004 c 24.859417,-58.77799 65.952417,-64.43345 128.453587,-68.49367 62.50119,-4.06022 288.06492,-11.09272 342.99018,4.54269 54.92527,15.63538 70.2465,35.48167 86.13103,74.88863 13.84342,34.34331 17.85687,106.82091 4.59904,131.38631 -13.25781,24.5657 -36.08951,56.117 -92.90876,58.6079 -56.81924,2.4909 -335.77822,3.8921 -369.86976,3.4063 -34.09155,-0.4858 -100.484558,-16.391 -113.742469,-61.1381 C 69.98581,1062.6133 72.731394,1022.938 97.590793,964.16004 Z"
       id="path1039"
       inkscape:connector-curvature="0"
       sodipodi:nodetypes="zsssccssz" />
    <path
       style="fill:#ffffff;fill-rule:evenodd;stroke:none;stroke-width:1px;stroke-linecap:butt;stroke-linejoin:miter;stroke-opacity:1"
       d="m 197.23517,923.5374 c -17.7664,-36.95411 -18.47706,-61.82707 -3.55328,-69.64429 14.92378,-7.81721 21.31968,-12.7918 12.79181,-21.31968 -8.52787,-8.52787 -16.34509,-27.71558 -9.94919,-39.08608 6.39591,-11.37049 16.34509,-17.05574 26.29428,-18.47705 -15.63444,9.23852 -19.89837,17.05574 -19.18772,25.58361 0.71066,8.52787 2.84263,19.18771 12.79181,25.58362 9.94919,6.3959 23.45165,22.74099 2.13197,39.08608 -21.31968,16.34509 43.35002,66.09101 43.35002,66.09101 z"
       id="path1041"
       inkscape:connector-curvature="0" />
    <path
       style="fill:#ffffff;fill-rule:evenodd;stroke:none;stroke-width:0.88821274px;stroke-linecap:butt;stroke-linejoin:miter;stroke-opacity:1"
       d="m 1856.4196,188.73057 c 8.5392,-30.89516 27.5153,-41.58964 39.8497,-43.96619 12.3344,-2.37655 43.6449,1.18827 61.6721,2.37655 18.0273,1.18827 73.0578,1.18827 77.8017,0 4.7441,-1.18828 83.4947,7.12965 94.8802,4.7531 11.3857,-2.37655 39.9507,-4.4733 53.2339,-2.09675 13.2833,2.37655 35.1057,20.20068 37.0033,29.70689 1.8976,9.5062 6.5407,25.86225 2.7455,41.30983 -3.7952,15.44758 -26.5664,32.08343 -49.3378,40.40137 -22.7712,8.31792 -88.2385,1.18827 -97.7265,-1.18829 -9.4881,-2.37654 -43.6449,-10.69447 -62.621,-5.94136 -18.9761,4.75309 -73.0577,11.88274 -102.4706,7.12965 -29.4128,-4.75311 -54.0816,-19.01241 -55.0305,-33.27171 -0.9488,-14.25931 -2.8465,-10.69448 0,-39.21309 z"
       id="path1043"
       inkscape:connector-curvature="0"
       sodipodi:nodetypes="csscssccsccscc" />
    <path
       style="fill:#ffffff;fill-rule:evenodd;stroke:none;stroke-width:1px;stroke-linecap:butt;stroke-linejoin:miter;stroke-opacity:1"
       d="m 1944.3016,233.0595 c -22.8961,17.75617 -71.9593,58.40848 -78.0338,64.01569 -6.0744,5.60722 -9.8126,23.83066 4.2055,19.15798 14.018,-4.67267 32.2414,-13.0835 37.8487,-14.01803 5.6072,-0.93454 9.8126,-1.86907 13.5507,-1.4018 -18.2234,4.20541 -68.2211,21.49432 -96.7244,92.51903 35.5123,-65.4175 80.37,-77.0992 89.2481,-80.37007 8.8781,-3.27088 23.8307,-7.47629 24.298,-14.95257 0.4672,-7.47629 -9.8127,-14.95257 -27.5688,-10.27989 22.4288,-13.08351 59.343,-45.32499 73.8283,-45.32499 14.4853,0 -40.6523,-9.34535 -40.6523,-9.34535 z"
       id="path1045"
       inkscape:connector-curvature="0" />
    <path
       style="fill:#ffffff;fill-rule:evenodd;stroke:none;stroke-width:0.75144082px;stroke-linecap:butt;stroke-linejoin:miter;stroke-opacity:1"
       d="m 268.14496,1388.4396 c 24.50203,-22.0221 32.92461,-20.554 42.87857,-22.7562 9.95395,-2.2021 85.75714,-5.1384 100.30523,-3.6703 14.54809,1.4682 79.63163,7.3407 100.30523,27.8946 20.67359,20.554 40.58151,38.1715 38.28444,69.0022 -2.29706,30.8308 -8.42259,86.6201 -22.20497,104.9715 -13.78242,18.3518 -43.64427,30.831 -77.33457,37.4376 -33.69032,6.6066 -130.93279,-2.9363 -145.48088,-4.4045 -14.54808,-1.4681 -49.76977,-15.4155 -61.25509,-33.767 -11.48534,-18.3518 -28.33049,-59.4595 -22.97067,-86.62 5.35982,-27.1603 18.37652,-63.8638 47.47271,-88.0879 z"
       id="path1047"
       inkscape:connector-curvature="0" />
    <path
       style="fill:#ffffff;fill-rule:evenodd;stroke:none;stroke-width:1.16843259px;stroke-linecap:butt;stroke-linejoin:miter;stroke-opacity:1"
       d="m 266.4717,1600.3386 c 49.15322,-28.5732 79.4818,-32.1448 107.71875,-34.526 28.23697,-2.3811 92.03157,1.1904 122.36015,16.6677 30.32859,15.4771 51.24486,45.241 58.56554,60.7181 7.32069,15.4771 13.59557,65.4802 2.09162,88.1007 -11.50394,22.6205 -50.19903,55.9558 -73.20692,66.6707 -23.00788,10.7151 -124.45177,14.2866 -166.28428,0 -41.83254,-14.2865 -72.16112,-36.907 -82.61927,-69.0518 -10.45812,-32.1448 -10.45812,-102.3873 31.37441,-128.5794 z"
       id="path1049"
       inkscape:connector-curvature="0" />
    <path
       style="fill:#ffffff;fill-rule:evenodd;stroke:none;stroke-width:1px;stroke-linecap:butt;stroke-linejoin:miter;stroke-opacity:1"
       d="m 499.42248,1510.7654 c 17.98424,-40.2832 71.76845,-119.5037 108.05655,-143.4955 36.28809,-23.992 91.175,-36.3205 109.67553,-36.3837 15.80455,-0.1662 37.93392,14.6205 59.78999,35.2187 -18.66033,-28.2242 -52.76606,-42.6127 -58.26089,-43.0359 -18.79073,-2.0442 -111.15901,-12.2992 -212.38604,95.7677 -101.227,108.067 -36.36888,127.0736 -36.36888,127.0736 z"
       id="path1051"
       inkscape:connector-curvature="0"
       sodipodi:nodetypes="cccccscc" />
    <path
       style="fill:#ffffff;fill-rule:evenodd;stroke:none;stroke-width:0.79882342px;stroke-linecap:butt;stroke-linejoin:miter;stroke-opacity:1"
       d="m 218.8865,2222.383 c -1.07769,-31.4542 20.47602,-42.3423 38.79668,-45.9716 18.32065,-3.6294 81.9041,-3.6294 92.68095,-1.2098 10.77685,2.4195 74.36029,0 87.29251,1.2098 12.93223,1.2097 54.96195,9.6782 62.50577,31.4543 7.54379,21.776 18.32064,27.8249 7.54379,48.3912 -10.77686,20.5663 -23.70908,38.713 -67.89419,43.5521 -44.18509,4.8392 -139.02141,1.2098 -178.89578,-10.888 -39.87436,-12.0978 -42.02973,-36.2934 -42.02973,-66.538 z"
       id="path1053"
       inkscape:connector-curvature="0" />
    <path
       style="fill:#ffffff;fill-rule:evenodd;stroke:none;stroke-width:1px;stroke-linecap:butt;stroke-linejoin:miter;stroke-opacity:1"
       d="m 348.19942,2246.5661 c -29.42116,45.7663 -39.16091,33.6645 -43.24718,61.4512 -4.08627,27.7866 9.73975,53.7817 22.81582,64.406 13.07607,10.6243 34.32468,25.3349 15.52783,41.68 -18.79685,16.3451 -40.04547,26.1521 -35.95919,72.7356 4.08627,46.5835 21.24861,49.0353 27.78665,53.1215 -25.33489,-10.1025 -30.23842,-73.5529 -15.52784,-93.167 14.71058,-19.6141 16.91712,-15.0754 32.69018,-26.1521 13.88076,-9.7478 27.00207,-30.3114 -3.85728,-57.4442 -30.85936,-27.1329 -14.46952,-78.6996 28.77766,-101.4055 85.22691,-44.7462 -29.00665,-15.2255 -29.00665,-15.2255 z"
       id="path1055"
       inkscape:connector-curvature="0"
       sodipodi:nodetypes="csssscsszsc" />
    <path
       style="fill:#ffffff;fill-rule:evenodd;stroke:none;stroke-width:0.93052113px;stroke-linecap:butt;stroke-linejoin:miter;stroke-opacity:1"
       d="m 796.43384,2254.3658 c 26.51386,-43.8457 55.5836,-48.7715 95.2555,-55.703 85.97214,-8.0511 158.97736,2.6235 241.46096,0.2511 42.7056,-1.2895 101.0281,16.7647 120.1392,39.977 19.1115,23.2124 48.6399,92.8496 41.8709,114.7724 -6.7689,21.9229 -19.2353,79.954 -47.8931,95.4289 -28.6578,15.4749 -49.83,29.6604 -98.2385,33.5291 -48.4086,3.8687 -232.06416,6.4479 -254.23711,5.1583 -22.173,-1.2896 -85.98553,-20.6333 -104.17295,-60.6103 -18.18741,-39.9768 -20.41452,-134.1161 5.8151,-172.8035 z"
       id="path1057"
       inkscape:connector-curvature="0"
       sodipodi:nodetypes="cccscssssc" />
    <path
       style="fill:#ffffff;fill-rule:evenodd;stroke:none;stroke-width:1px;stroke-linecap:butt;stroke-linejoin:miter;stroke-opacity:1"
       d="m 1078.5698,2470.4285 c 7.4155,31.516 12.9772,52.5267 19.7748,59.9423 6.7976,7.4155 22.8646,14.2131 33.3699,15.449 10.5054,1.236 21.0107,6.1796 6.1796,23.4826 -14.831,17.3029 -1.8538,54.9986 45.1112,57.4704 -46.965,-11.7413 -43.8752,-47.583 -27.8082,-54.3806 16.067,-6.7976 20.3927,-39.5496 -16.685,-50.6729 -32.752,-8.6514 -11.1233,-129.7719 -11.1233,-129.7719 z"
       id="path1059"
       inkscape:connector-curvature="0" />
  </g>
  <g
     inkscape:groupmode="layer"
     id="layer1"
     inkscape:label="txt"
     style="opacity:1">
    <text
       xml:space="preserve"
       style="font-style:normal;font-variant:normal;font-weight:normal;font-stretch:normal;line-height:0%;font-family:Lavi;-inkscape-font-specification:Lavi;text-align:center;letter-spacing:0px;word-spacing:0px;text-anchor:middle;fill:#000000;fill-opacity:1;stroke:none"
       x="375.40958"
       y="151.65408"
       id="text4246"><tspan
         sodipodi:role="line"
         style="font-size:45px;line-height:1.20000005"
         x="375.40958"
         y="151.65408"
         id="tspan53">Tako smešno je da se</tspan><tspan
         sodipodi:role="line"
         style="font-size:45px;line-height:1.20000005"
         x="375.40958"
         y="205.65408"
         id="tspan825">moram skrivati samo zato</tspan><tspan
         sodipodi:role="line"
         style="font-size:45px;line-height:1.20000005"
         x="375.40958"
         y="259.65411"
         id="tspan64">da lahko nekaj pojem.</tspan></text>
    <text
       xml:space="preserve"
       style="font-style:normal;font-variant:normal;font-weight:normal;font-stretch:normal;line-height:0%;font-family:Lavi;-inkscape-font-specification:Lavi;text-align:center;letter-spacing:0px;word-spacing:0px;text-anchor:middle;fill:#000000;fill-opacity:1;stroke:none"
       x="372.4762"
       y="958.34235"
       id="text4246-3"><tspan
         sodipodi:role="line"
         style="font-size:45px;line-height:1.20000005"
         x="372.4762"
         y="958.34235"
         id="tspan825-5">Ampak naša učiteljica</tspan><tspan
         sodipodi:role="line"
         style="font-size:45px;line-height:1.20000005"
         x="372.4762"
         y="1012.3423"
         id="tspan68">pravi da moramo izgledati</tspan><tspan
         sodipodi:role="line"
         style="font-size:45px;line-height:1.20000005"
         x="372.4762"
         y="1066.3423"
         id="tspan868">kot nadnaravna bitja brez</tspan><tspan
         sodipodi:role="line"
         style="font-size:45px;line-height:1.20000005"
         x="372.4762"
         y="1120.3423"
         id="tspan81">osnovnih človeških potreb.</tspan></text>
    <text
       xml:space="preserve"
       style="font-style:normal;font-variant:normal;font-weight:normal;font-stretch:normal;line-height:0%;font-family:Lavi;-inkscape-font-specification:Lavi;text-align:center;letter-spacing:0px;word-spacing:0px;text-anchor:middle;fill:#000000;fill-opacity:1;stroke:none"
       x="2047.1042"
       y="217.40169"
       id="text4246-3-3"><tspan
         sodipodi:role="line"
         style="font-size:45px;line-height:1.20000005"
         x="2047.1042"
         y="217.40169"
         id="tspan868-9">Ha! Tukaj ste!</tspan></text>
    <text
       xml:space="preserve"
       style="font-style:normal;font-variant:normal;font-weight:normal;font-stretch:normal;line-height:0%;font-family:Lavi;-inkscape-font-specification:Lavi;text-align:center;letter-spacing:0px;word-spacing:0px;text-anchor:middle;fill:#000000;fill-opacity:1;stroke:none"
       x="390.62448"
       y="1438.835"
       id="text4246-3-3-1"><tspan
         sodipodi:role="line"
         style="font-size:45px;line-height:1.20000005"
         x="390.62448"
         y="1438.835"
         id="tspan924">Končno!</tspan><tspan
         sodipodi:role="line"
         style="font-size:45px;line-height:1.20000005"
         x="390.62448"
         y="1492.835"
         id="tspan928">Kotiček brez</tspan><tspan
         sodipodi:role="line"
         style="font-size:45px;line-height:1.20000005"
         x="390.62448"
         y="1546.835"
         id="tspan98">fotografov.</tspan></text>
    <text
       xml:space="preserve"
       style="font-style:normal;font-variant:normal;font-weight:normal;font-stretch:normal;line-height:0%;font-family:Lavi;-inkscape-font-specification:Lavi;text-align:center;letter-spacing:0px;word-spacing:0px;text-anchor:middle;fill:#000000;fill-opacity:1;stroke:none"
       x="390.59467"
       y="1647.7544"
       id="text4246-3-3-1-7"><tspan
         sodipodi:role="line"
         style="font-size:45px;line-height:1.20000005"
         x="390.59467"
         y="1647.7544"
         id="tspan966">Še zmešalo</tspan><tspan
         sodipodi:role="line"
         style="font-size:45px;line-height:1.20000005"
         x="390.59467"
         y="1701.7544"
         id="tspan85">se mi bo</tspan><tspan
         sodipodi:role="line"
         style="font-size:45px;line-height:1.20000005"
         x="390.59467"
         y="1755.7544"
         id="tspan91">zaradi njih.</tspan></text>
    <text
       xml:space="preserve"
       style="font-style:normal;font-variant:normal;font-weight:normal;font-stretch:normal;line-height:0%;font-family:Lavi;-inkscape-font-specification:Lavi;text-align:center;letter-spacing:0px;word-spacing:0px;text-anchor:middle;fill:#000000;fill-opacity:1;stroke:none"
       x="366.20749"
       y="2249.782"
       id="text4246-3-3-1-7-0"><tspan
         sodipodi:role="line"
         style="font-size:45px;line-height:1.20000005"
         x="366.20749"
         y="2249.782"
         id="tspan966-2">Fotografi?</tspan></text>
    <text
       xml:space="preserve"
       style="font-style:normal;font-variant:normal;font-weight:normal;font-stretch:normal;line-height:0%;font-family:Lavi;-inkscape-font-specification:Lavi;text-align:center;letter-spacing:0px;word-spacing:0px;text-anchor:middle;fill:#000000;fill-opacity:1;stroke:none"
       x="1031.8519"
       y="2278.7559"
       id="text4246-3-3-1-7-0-6"><tspan
         sodipodi:role="line"
         style="font-size:45px;line-height:1.20000005"
         x="1031.8519"
         y="2278.7559"
         id="tspan966-2-1">Poizkusi se izogniti</tspan><tspan
         sodipodi:role="line"
         style="font-size:45px;line-height:1.20000005"
         x="1031.8519"
         y="2332.7559"
         id="tspan102">dolgočasnim pogovorom</tspan><tspan
         sodipodi:role="line"
         style="font-size:45px;line-height:1.20000005"
         x="1031.8519"
         y="2386.7559"
         id="tspan104">s politiki, medtem ko</tspan><tspan
         sodipodi:role="line"
         style="font-size:45px;line-height:1.20000005"
         x="1031.8519"
         y="2440.7559"
         id="tspan1023">imaš to reč na glavi.</tspan></text>
    <text
       xml:space="preserve"
       style="font-style:normal;font-variant:normal;font-weight:normal;font-stretch:normal;font-size:13.67166328px;line-height:0%;font-family:Lavi;-inkscape-font-specification:Lavi;text-align:center;letter-spacing:0px;word-spacing:0px;text-anchor:middle;fill:#ffffff;fill-opacity:0.43137255;stroke:#ffffff;stroke-width:0.41015574;stroke-miterlimit:4;stroke-dasharray:none;stroke-opacity:1"
       x="1669.1143"
       y="2520.2651"
       id="text4246-8"
       transform="matrix(0.89761483,-0.24846861,0.02683826,1.1066345,0,0)"><tspan
         sodipodi:role="line"
         style="font-size:35.04694366px;line-height:1.25;fill:#ffffff;fill-opacity:0.43137255;stroke:#ffffff;stroke-width:0.41015574;stroke-miterlimit:4;stroke-dasharray:none;stroke-opacity:1"
         x="1669.1143"
         y="2520.2651"
         id="tspan4150-8">prask</tspan><tspan
         sodipodi:role="line"
         style="font-size:35.04694366px;line-height:1.25;fill:#ffffff;fill-opacity:0.43137255;stroke:#ffffff;stroke-width:0.41015574;stroke-miterlimit:4;stroke-dasharray:none;stroke-opacity:1"
         x="1669.1143"
         y="2564.0737"
         id="tspan1033">prask</tspan></text>
  </g>
</svg>
