<?xml version="1.0" encoding="UTF-8" standalone="no"?>
<!-- Created with Inkscape (http://www.inkscape.org/) -->

<svg
   xmlns:dc="http://purl.org/dc/elements/1.1/"
   xmlns:cc="http://creativecommons.org/ns#"
   xmlns:rdf="http://www.w3.org/1999/02/22-rdf-syntax-ns#"
   xmlns:svg="http://www.w3.org/2000/svg"
   xmlns="http://www.w3.org/2000/svg"
   xmlns:xlink="http://www.w3.org/1999/xlink"
   xmlns:sodipodi="http://sodipodi.sourceforge.net/DTD/sodipodi-0.dtd"
   xmlns:inkscape="http://www.inkscape.org/namespaces/inkscape"
   id="svg2"
   version="1.1"
   inkscape:version="0.92.3 (2405546, 2018-03-11)"
   width="2481"
   height="3503"
   sodipodi:docname="E32P02.svg">
  <metadata
     id="metadata8">
    <rdf:RDF>
      <cc:Work
         rdf:about="">
        <dc:format>image/svg+xml</dc:format>
        <dc:type
           rdf:resource="http://purl.org/dc/dcmitype/StillImage" />
        <dc:title />
      </cc:Work>
    </rdf:RDF>
  </metadata>
  <defs
     id="defs6" />
  <sodipodi:namedview
     pagecolor="#ffffff"
     bordercolor="#666666"
     borderopacity="1"
     objecttolerance="10"
     gridtolerance="10"
     guidetolerance="10"
     inkscape:pageopacity="0"
     inkscape:pageshadow="2"
     inkscape:window-width="1366"
     inkscape:window-height="713"
     id="namedview4"
     showgrid="false"
     inkscape:zoom="0.46000001"
     inkscape:cx="1308.622"
     inkscape:cy="475.29562"
     inkscape:window-x="0"
     inkscape:window-y="27"
     inkscape:window-maximized="1"
     inkscape:current-layer="layer3"
     inkscape:snap-global="false" />
  <g
     inkscape:groupmode="layer"
     id="layer2"
     inkscape:label="artwork"
     sodipodi:insensitive="true">
    <image
       sodipodi:absref="/home/juanjo/Comics/Pepper and Carrot/lang-ep-32-final/es/../gfx_Pepper-and-Carrot_by-David-Revoy_E32P02.png"
       xlink:href="../gfx_Pepper-and-Carrot_by-David-Revoy_E32P02.png"
       y="0"
       x="0"
       id="image10"
       height="3503"
       width="2481" />
  </g>
  <g
     inkscape:groupmode="layer"
     id="layer3"
     inkscape:label="speechbubbles"
     style="display:inline">
    <path
       style="color:#000000;display:inline;overflow:visible;visibility:visible;fill:#ffffff;fill-opacity:1;fill-rule:nonzero;stroke:none;stroke-width:1.02533054px;marker:none;enable-background:accumulate"
       d="m 314.2926,244.75319 c 6.47674,-13.52294 33.78984,-11.75789 43.45615,-7.81931 -18.30912,-17.89529 -16.45315,-27.58142 11.1039,-26.13173 -42.56912,-33.28904 -5.55538,-24.94083 2.69327,-31.31974 -34.8981,-13.66266 -17.33435,-24.06 -9.48819,-35.45462 -41.38762,-4.90327 -25.53843,-22.81386 -25.46205,-38.43781 -4.36816,6.86259 -23.66076,27.1044 -21.76537,2.44499 -30.17418,20.4547 -64.97323,32.00967 -62.75339,-9.264327 -13.47853,19.424807 -25.51778,26.948047 -21.76544,2.444977 -31.1393,29.02512 -54.36736,14.84821 -78.03324,3.12826 -7.63645,8.95162 -10.14519,23.70202 -30.75129,17.94983 1.81655,9.88906 -6.05649,15.69913 -22.543233,17.87001 20.612423,8.08676 23.832833,14.47431 -16.465371,16.60927 30.014584,3.87937 57.921514,8.18919 20.037384,26.24949 11.01185,1.72912 39.44384,-13.68528 20.88185,38.4265 21.06367,-15.04513 42.49623,-22.28695 63.74356,16.3079 14.17276,-16.59663 36.13395,-23.19111 42.5919,0.15633 4.39629,-9.17917 18.38041,-11.29549 29.94379,-10.48382 4.00446,4.26924 7.98842,9.90966 11.98392,17.16744 9.50226,-13.30138 22.34533,-21.58905 42.59185,0.15636 z"
       id="path3549-3-7-5"
       inkscape:connector-curvature="0"
       sodipodi:nodetypes="cccccccccccccccccccc" />
    <path
       style="color:#000000;display:inline;overflow:visible;visibility:visible;fill:#ffffff;fill-opacity:1;fill-rule:nonzero;stroke:none;stroke-width:0.86484861px;marker:none;enable-background:accumulate"
       d="m 386.17578,159.02173 c -63.51422,1.21169 -127.43843,6.72671 -188.25272,21.81328 -25.4391,6.61917 -48.98174,19.3942 -63.25755,37.53568 -10.55928,13.47849 -12.61096,30.35004 -8.25792,45.62347 4.05418,14.09439 14.14169,27.46815 29.58185,35.54049 16.37253,8.97189 35.38466,14.15101 53.88742,19.65577 41.73157,11.77258 85.77821,19.23324 130.21525,19.34607 45.79165,-0.39056 91.63841,0.0203 137.36241,-2.29932 42.2313,-2.42399 84.98342,-8.84283 122.64314,-24.74402 20.59617,-8.69935 40.01227,-20.41249 52.16147,-36.44121 9.55374,-12.75899 13.57771,-28.37638 9.06074,-42.9086 -5.05919,-17.97902 -20.72531,-33.45682 -40.652,-42.73253 -25.8074,-12.75923 -56.00792,-18.16566 -85.65247,-22.21995 -49.13376,-6.53344 -99.07748,-8.41635 -148.83962,-8.16913 z"
       id="path3970-3"
       inkscape:connector-curvature="0"
       sodipodi:nodetypes="cccscsc" />
    <path
       style="color:#000000;display:inline;overflow:visible;visibility:visible;fill:#ffffff;fill-opacity:1;fill-rule:nonzero;stroke:none;stroke-width:1px;marker:none;enable-background:accumulate"
       d="m 577.63531,445.55553 c 24.15675,-46.43871 15.15598,-67.79787 10.19676,-83.83511 -5.04081,0.18752 -14.08073,-1.23448 -14.08073,-1.23448 0,0 -7.00281,-32.37916 -13.50272,-43.8635 -6.49993,-11.48435 -19.9552,-4.33851 -19.9552,-4.33851 0,0 12.13026,63.2638 10.96525,77.57434 13.78917,-1.09946 20.70461,0.20644 25.45323,-2.31613 5.66701,8.19382 8.96155,41.29633 0.92341,58.01339 z"
       id="path4456-8"
       inkscape:connector-curvature="0" />
    <path
       style="color:#000000;display:inline;overflow:visible;visibility:visible;opacity:1;fill:#ffffff;fill-opacity:1;fill-rule:nonzero;stroke:none;stroke-width:0.93505698px;marker:none;enable-background:accumulate"
       d="M 933.66992 588.00586 C 900.31407 588.8981 866.36288 593.14034 835.60351 606.76326 C 819.98811 614.2592 809.29272 628.76514 800.97329 643.47607 C 778.30647 683.60262 772.6747 733.78304 788.88305 777.24139 C 797.7584 799.36157 817.36187 815.89645 839.29652 824.32927 C 862.32655 833.33449 887.0185 837.06274 911.52547 839.29285 C 928.56276 840.67171 945.66372 841.59472 962.76034 841.41303 C 998.7813 840.67201 1034.9855 834.62151 1068.4761 821.07088 C 1086.2443 812.61336 1098.115 794.73469 1102.2911 775.85357 C 1108.866 749.98246 1107.8206 722.74724 1102.7056 696.72186 C 1097.0721 668.40339 1082.7464 641.12968 1059.8274 623.07663 C 1032.5913 601.51074 997.92127 591.64454 963.74676 588.75172 C 953.74496 587.93739 943.69965 587.70887 933.66992 588.00586 z "
       id="path4040-5"
       inkscape:connector-curvature="0"
       sodipodi:nodetypes="zssssz" />
    <path
       style="color:#000000;display:inline;overflow:visible;visibility:visible;fill:#ffffff;fill-opacity:1;fill-rule:nonzero;stroke:none;stroke-width:1px;marker:none;enable-background:accumulate"
       d="m 1172.2087,638.16525 c -22.426,10.78245 -21.9205,17.27525 -23.5228,31.76828 -1.6032,14.49315 -6.5002,31.6111 -27.1248,48.30404 -30.1996,17.58679 -94.1328,69.98654 -71.7029,5.83439 5.3345,-23.46958 48.5109,-22.99772 64.4153,-32.38817 15.9045,-9.39055 14.6245,-34.55514 25.6984,-44.48017 11.0738,-9.92492 18.2375,-9.80409 32.2368,-9.03837 z"
       id="path4538-0"
       inkscape:connector-curvature="0"
       sodipodi:nodetypes="ccccccc" />
    <path
       style="fill:#ffffff;stroke:none;stroke-width:1"
       d="M 863.61133 442.7793 C 836.43744 443.80406 808.71915 451.68158 787.42488 469.12029 C 768.41327 485.24278 758.81976 510.97607 760.68968 535.62649 C 760.42923 549.86906 761.2754 565.15916 769.54968 577.3187 C 780.60802 593.90916 798.8577 604.22282 817.57458 609.91859 C 846.5517 619.63921 877.60335 618.57558 907.69264 616.76951 C 929.30551 615.28942 951.64202 613.03488 971.1405 602.84113 C 988.89899 592.95261 1001.6166 574.02125 1002.7754 553.57422 C 1004.6128 533.5667 999.92406 513.37321 991.7512 495.17755 C 982.46878 476.30736 965.75182 461.36494 946.0857 453.97891 C 920.03825 443.30965 891.35495 442.5302 863.61133 442.7793 z "
       id="path3280-10"
       inkscape:connector-curvature="0"
       sodipodi:nodetypes="csssc" />
    <path
       style="display:inline;fill:#ffffff;fill-rule:evenodd;stroke:none;stroke-width:1.04566765px;stroke-linecap:butt;stroke-linejoin:miter;stroke-opacity:1"
       d="m 1393.8457,2570.402 c -2.334,22.7801 -5.8827,46.2081 -17.3761,66.3245 -13.5618,16.6728 -38.8734,20.7084 -57.5641,11.0111 -11.7091,-5.6034 -22.8638,-12.3806 -34.5945,-17.8979 -0.4976,0.6486 0.5567,2.5043 0.6657,3.6233 5.7426,21.4191 13.3633,42.8258 13.2068,65.3065 -2.0938,8.4531 -14.5884,10.5353 -19.7889,3.909 -2.9933,-2.1499 -6.0327,-4.2646 -9.3353,-5.9035 5.384,11.5192 12.8073,22.7957 13.2282,35.9418 -2.5549,9.7935 -13.9552,14.6741 -23.1869,12.4525 -6.008,-1.0137 -11.9092,-3.1074 -18.0687,-2.8683 8.2786,10.5369 16.4895,22.4891 17.0382,36.4304 -0.3916,11.8648 -8.1715,22.0643 -17.0888,29.0807 -7.5138,5.6215 -16.563,8.4526 -24.5094,13.329 -2.2091,1.2136 -4.4181,2.4273 -6.6271,3.6409 23.0291,0.4762 46.3617,1.5392 68.611,8.1064 -19.3691,4.005 -38.7523,7.9862 -58.2897,11.0681 14.8619,5.7539 29.8501,12.1488 42.1685,22.5928 -0.1844,8.1112 -11.8812,12.2983 -17.1449,6.2559 -4.2684,-1.9118 -8.5368,-3.8235 -12.8052,-5.7352 3.3422,5.3353 6.6845,10.6708 10.0268,16.0063 -12.7396,-4.7919 -24.2633,-12.2342 -35.5979,-19.7091 9.1196,11.2893 18.1359,22.8966 24.2786,36.1821 -1.5498,7.5121 -9.8651,12.7458 -17.1942,10.7758 -0.5153,6.7807 7.1077,11.7108 5.1188,18.6299 -2.114,5.122 -8.2812,8.1336 -13.5391,6.4941 2.0512,6.1119 10.327,6.0319 12.769,11.8779 6.6316,9.3027 10.4273,20.4152 17.7138,29.274 2.7941,4.5704 4.6504,11.4095 0.4083,15.7123 -5.3086,5.4069 -13.3562,5.102 -20.3142,5.3973 -4.8712,0.5965 -9.7914,1.3207 -14.381,3.1578 18.5005,8.5305 38.912,13.9426 54.7466,27.4509 6.8868,6.6898 5.2549,19.7417 -2.9266,24.6254 -1.1166,4.3275 4.6477,7.2812 8.0665,5.2928 8.4132,0.082 12.9813,11.8279 7.6561,18.1184 -4.9997,8.2041 -11.7105,15.1369 -17.321,22.8914 -12.5005,15.5224 -25.6316,30.6387 -36.1673,47.6552 18.9856,-13.1034 37.2032,-27.6379 58.0092,-37.7562 7.5911,0.6541 10.8914,11.0808 6.624,16.9152 -0.9515,1.5017 -2.548,3.9993 -0.9756,5.5074 2.934,0.3129 4.2004,-3.1638 6.636,-4.198 8.5432,-6.6601 17.3899,-13.0048 26.993,-18.0123 3.1765,7.361 0.3257,16.0211 -4.7941,21.7116 1.2368,2.7775 4.8713,0.9239 6.0711,-0.9326 4.4965,-2.5503 9.3005,-4.5325 14.2612,-5.9401 7.2581,8.5415 6.4488,21.5308 1.1392,30.8595 -2.7481,8.7378 -5.5595,17.4549 -8.4271,26.1531 17.3941,-22.1396 33.9729,-45.6906 56.8629,-62.4495 8.2425,-4.5155 19.8981,1.5288 21.0715,10.9579 5.3071,4.073 12.7211,1.6369 17.3721,-2.2898 8.7377,-3.6177 18.7258,-5.5324 27.9187,-2.5263 5.0739,7.1599 15.4594,8.3027 22.8577,4.4357 11.2135,-2.9551 22.9416,-6.85 34.5981,-4.1173 5.2663,3.0677 6.4132,10.9391 12.7894,12.4218 7.0516,0.01 14.7604,-3.2938 21.2886,0.8069 6.0228,3.8844 9.836,10.4817 11.7759,17.3102 4.8728,1.7531 9.1981,-2.6332 11.4215,-6.5514 19.0058,-18.1482 51.6545,-17.7826 70.7143,0.095 3.3295,2.7085 6.6659,5.4083 10.007,8.1022 7.0783,-4.091 7.3525,-13.4047 12.2723,-19.3004 5.2913,-6.8334 16.4921,-8.2032 22.6915,-1.8588 7.6173,6.5994 10.4362,16.7388 15.3976,25.2197 3.5287,6.9994 6.9266,14.0654 10.4498,21.0675 1.6906,-18.6302 3.5943,-38.1209 13.3843,-54.4673 12.9375,-18.5171 38.7031,-25.4219 59.4298,-17.6263 14.3619,4.1138 27.966,10.4191 41.8663,15.8379 -2.3745,-14.2095 -7.8354,-27.5967 -11.7895,-41.3787 6.4569,-1.8443 12.1899,2.8712 17.1261,6.3951 6.7429,4.6218 13.4746,9.2613 20.2839,13.7826 -7.3986,-12.2276 -14.7038,-24.9125 -17.7357,-39.0798 6.0313,-12.6404 22.9953,-17.2177 35.0026,-10.8988 5.2145,1.065 10.4289,2.13 15.6434,3.195 -10.7129,-10.2226 -18.7302,-24.8027 -17.503,-40.085 4.2758,-15.9238 17.4493,-27.8598 31.9963,-34.2861 6.9689,-3.5679 13.9728,-7.0696 20.8419,-10.8334 -18.9668,-2.5378 -37.9623,-5.1946 -56.5825,-9.7344 7.2014,-7.5145 17.3853,-11.1911 27.4129,-12.7302 -8.0634,-1.7878 -17.1184,-1.2964 -24.0158,-6.5764 -4.7009,-7.3006 3.4117,-18.233 11.6354,-15.742 13.275,0.9119 26.2999,3.9452 39.5561,5.0364 -13.66,-8.5351 -27.4727,-16.8302 -40.8367,-25.8409 0.6399,-6.5763 8.0004,-11.6167 14.2241,-9.366 1.4375,-4.2414 -2.7771,-7.3885 -5.8956,-9.2867 -2.9096,-2.3399 -5.5183,-7.2471 -2.5276,-10.5198 6.7988,-6.1946 17.4336,-5.1355 24.7167,-0.3993 8.9328,4.1383 17.875,8.2577 26.7327,12.5601 -11.5695,-10.7678 -23.1578,-21.7695 -32.1021,-34.9526 0.5259,-8.5711 10.4268,-15.1624 18.3147,-11.6568 2.0917,-5.1738 -3.4834,-9.2776 -3.3618,-14.2656 1.6492,-7.2709 10.6099,-10.8866 17.1156,-8.0569 2.0379,-0.6322 -0.097,-3.0278 -1.4374,-2.9828 -5.2402,-3.3657 -11.9434,-6.7411 -13.1583,-13.5636 -1.3066,-10.7551 -10.7565,-18.9281 -10.3271,-30.089 3.3222,-7.7431 12.6724,-10.69 20.4015,-9.4039 5.4506,-0.3859 10.9766,-0.6382 16.2536,-2.1989 -16.4419,-9.7956 -36.0094,-14.1034 -50.4762,-27.2307 -5.0157,-5.9527 -2.91,-16.0615 3.6322,-19.9554 0.5036,-4.0744 -4.7197,-5.9736 -7.8709,-4.5557 -8.6579,-1.2184 -12.461,-13.3997 -6.8986,-19.9035 7.7469,-14.4674 18.0876,-27.253 27.7625,-40.4022 15.3689,-19.7479 31.8424,-38.5805 47.2491,-58.2974 -28.1358,24.8625 -55.49,51.1868 -87.8111,70.5158 -7.2443,2.3875 -14.8111,-6.7826 -11.2085,-13.5853 -4.4317,-2.3817 -9.1845,1.2717 -11.8271,4.742 -6.645,5.0484 -13.5998,9.9681 -21.5674,12.6061 -5.2647,-4.5247 -3.6878,-13.3522 1.2034,-17.5198 0.8059,-1.3702 2.3739,-3.8327 0.4545,-4.9468 -6.0803,3.7054 -12.3682,7.4214 -19.4114,8.8372 -7.1155,-7.4274 -6.8595,-19.5 -2.1382,-28.1498 2.9425,-9.7857 5.8974,-19.5675 8.8649,-29.3454 -18.1012,23.6909 -35.5525,48.4849 -58.8688,67.3077 -8.7771,4.2511 -20.5681,-2.1399 -21.933,-11.9052 -10.1957,-1.0648 -18.4525,6.348 -27.866,8.8361 -7.5047,2.085 -16.7727,2.8587 -22.8974,-2.9613 -4.5621,-4.5203 -11.7971,-3.2454 -16.922,-0.4987 -12.7378,3.6732 -25.7868,8.4437 -39.2097,7.1051 -5.1837,-2.9403 -6.8059,-10.4559 -13.1228,-11.6421 -7.7606,0.7692 -16.1953,3.9341 -23.5727,-0.1428 -6.0541,-3.4153 -10.4601,-9.652 -11.7209,-16.5545 -6.0543,-0.9725 -10.446,4.2995 -14.1284,8.3192 -17.6779,13.4743 -42.7462,13.86 -62.2174,4.2071 -7.9961,-4.1665 -14.7268,-10.4011 -22.7271,-14.5608 -3.4623,1.0108 -4.1859,5.1664 -6.1856,7.7454 -3.0542,5.7675 -7.1001,12.4465 -14.1389,13.3194 -10.3171,1.6644 -20.3424,-5.4993 -24.4793,-14.8042 -10.1121,-15.968 -17.8428,-33.374 -23.7499,-51.3529 -2.5683,-7.4917 -5.0007,-15.0303 -7.452,-22.5619 -0.1127,1.4725 -0.2253,2.9451 -0.3379,4.4176 z"
       id="path4508-2"
       inkscape:connector-curvature="0"
       sodipodi:nodetypes="ccccccccccccccccccccccccccccccccccccccccccccccccccc" />
    <path
       style="color:#000000;display:inline;overflow:visible;visibility:visible;fill:#ffffff;fill-opacity:1;fill-rule:nonzero;stroke:none;stroke-width:0.99999988px;marker:none;enable-background:accumulate"
       d="m 1159.215,2912.3636 c 24.9289,15.9696 53.0046,32.3355 73.7186,51.7212 l -4.4671,-22.5612 c 12.3017,3.6243 20.5576,9.2984 29.8695,16.4802 l 0.282,-14.4184 c 28.8782,8.8394 47.895,25.3613 71.6781,38.17 l -1.1627,-32.9839 c -26.1704,-10.6456 -58.8089,-18.5611 -82.5747,-33.2158 l 0.2558,18.7223 c -9.1838,-4.1156 -21.518,-9.7867 -29.518,-15.5652 l 2.2339,19.9359 z"
       id="path4032-7"
       inkscape:connector-curvature="0"
       sodipodi:nodetypes="cccccccccccc" />
    <path
       style="fill:#ffffff;fill-rule:evenodd;stroke:none;stroke-width:1px;stroke-linecap:butt;stroke-linejoin:miter;stroke-opacity:1"
       d="m 1753.7087,204.34351 c 1.185,-20.50278 15.4056,-58.09068 36.7365,-64.92493 21.3308,-6.83426 80.5831,-6.83426 92.4336,-3.41661 11.8505,3.41661 30.8112,28.4752 35.5515,38.72712 4.7402,10.25086 17.7757,46.69954 -3.5551,61.50728 -21.3309,14.80774 -42.6617,26.19782 -65.1777,25.0586 -22.5159,-1.13922 -67.5477,-9.1127 -78.2131,-22.78016 -10.6654,-13.66852 -17.7757,-34.1713 -17.7757,-34.1713 z"
       id="path1355"
       inkscape:connector-curvature="0" />
    <path
       style="fill:#ffffff;stroke:none"
       d="m 1847.3696,354.09054 c -13.8328,-28.3217 -7.9502,-36.13851 -0.501,-44.49778 7.4497,-8.36018 15.1632,-15.13458 14.5125,-22.36198 -0.6506,-7.22728 -5.6372,-15.60621 -10.1839,-21.34253 -4.5468,-5.73632 4.0413,-9.66514 7.9076,-16.31667 3.8657,-6.6508 10.7042,-47.80659 10.7042,-47.80659 0,0 -26.0852,17.5715 -32.236,25.43439 -6.1509,7.86277 -8.4405,10.70667 -10.0173,14.51431 -1.5759,3.80696 -4.0646,13.75357 -0.9533,20.82655 3.1118,7.07218 9.494,12.21912 13.0595,17.0376 3.5649,4.81933 -1.3116,12.15392 -5.5827,19.6909 -4.2712,7.53691 -6.1414,13.7099 -2.3508,27.83912 3.2494,12.11102 15.6412,26.98268 15.6412,26.98268 z"
       id="path3023-4"
       inkscape:connector-curvature="0"
       sodipodi:nodetypes="csssscssssssc" />
    <path
       style="color:#000000;display:inline;overflow:visible;visibility:visible;fill:#ffffff;fill-opacity:1;fill-rule:nonzero;stroke:none;stroke-width:1.17200863px;marker:none;enable-background:accumulate"
       d="m 1754.0052,1332.9203 c 4.4248,-11.4313 28.0601,-46.8388 34.9772,-9.3815 50.9291,-50.1559 113.7793,-32.4824 127.7108,-25.1738 -6.4287,-14.8483 6.5328,-41.5377 43.5522,-34.9754 -7.0338,-14.3444 3.5861,-25.1153 29.9577,-32.6965 -37.3732,-6.7107 -45.2721,-15.4399 20.4805,-29.2199 -51.2023,2.066 -99.1294,2.9293 -43.8589,-34.0858 -18.9101,0.3 -59.6301,30.8689 -50.1825,-52.1106 -28.6911,28.0798 -61.161,44.5578 -112.0183,-7.7114 -10.2881,22.4314 -28.1269,38.2207 -70.4621,10.9426 -5.1959,21.9689 -51.088,26.4713 -68.6739,23.1069 37.5632,22.0143 38.4596,37.014 -7.6897,42.0769 83.9446,38.7184 19.3529,35.9467 8.3158,47.6729 63.2631,11.3161 38.4595,31.4867 30.1321,50.6243 70.4218,-3.5169 51.5177,27.4942 57.7591,50.9313 z"
       id="path3549-3-8"
       inkscape:connector-curvature="0"
       sodipodi:nodetypes="ccccccccccccccc" />
    <path
       style="color:#000000;display:inline;overflow:visible;visibility:visible;fill:#ffffff;fill-opacity:1;fill-rule:nonzero;stroke:none;stroke-width:1px;marker:none;enable-background:accumulate"
       d="m 1862.3291,1246.0499 c 14.3861,24.2296 28.6134,53.9163 31.3484,61.3263 -9.104,1.8541 -16.3446,4.7584 -22.9617,5.3139 6.2417,13.3724 31.8119,68.3466 45.0873,79.3414 -33.7825,-25.8525 -61.563,-70.2493 -70.1237,-92.8544 8.499,-2.3387 14.007,-2.5569 18.4447,-3.9047 -3.7254,-11.4708 -23.6989,-46.1206 -23.6989,-46.1206 z"
       id="path5066-8"
       inkscape:connector-curvature="0"
       sodipodi:nodetypes="cccccccc" />
    <path
       style="fill:#ffffff;stroke:none;stroke-width:0.99999988"
       d="m 585.04713,1483.669 c -1.37338,-27.1718 23.25103,-95.1953 143.36788,-90.0791 120.11691,5.1162 157.71158,35.0056 161.23156,83.3044 5.56834,76.4076 -57.625,96.826 -148.365,102.4861 -93.54306,5.8339 -157.68622,-46.6144 -156.23444,-95.7114 z"
       id="path3280-7"
       inkscape:connector-curvature="0"
       sodipodi:nodetypes="csssc" />
    <path
       style="color:#000000;display:inline;overflow:visible;visibility:visible;fill:#ffffff;fill-opacity:1;fill-rule:nonzero;stroke:none;stroke-width:1px;marker:none;enable-background:accumulate"
       d="m 869.08895,1636.9955 c -67.24677,1.2844 -93.00504,-48.0053 -100.0269,-87.4546 -9.92573,-55.7646 -2.09042,-31.0329 -2.09042,-31.0329 l -33.99104,26.0816 c -4.43616,0.2077 36.58553,127.7062 136.10836,92.4059 z"
       id="path3072-12"
       inkscape:connector-curvature="0"
       sodipodi:nodetypes="csccc" />
    <path
       style="fill:#ffffff;fill-rule:evenodd;stroke:none;stroke-width:1.06666005px;stroke-linecap:butt;stroke-linejoin:miter;stroke-opacity:1"
       d="m 529.79565,1378.9971 c 1.2297,-19.455 15.98627,-55.122 38.12123,-61.607 22.13485,-6.485 83.62064,-6.485 95.91782,-3.242 12.29718,3.242 31.97265,27.02 36.89153,36.748 4.9189,9.727 18.44578,44.313 -3.68908,58.364 -22.13497,14.051 -44.26982,24.859 -67.63448,23.778 -23.36467,-1.081 -70.09387,-8.647 -81.16125,-21.616 -11.06749,-12.97 -18.44577,-32.425 -18.44577,-32.425 z"
       id="path1355-3"
       inkscape:connector-curvature="0" />
  </g>
  <g
     inkscape:groupmode="layer"
     id="layer1"
     inkscape:label="txt">
    <text
       xml:space="preserve"
       style="font-style:normal;font-variant:normal;font-weight:normal;font-stretch:normal;line-height:0%;font-family:Lavi;-inkscape-font-specification:Lavi;text-align:center;letter-spacing:0px;word-spacing:0px;text-anchor:middle;fill:#000000;fill-opacity:1;stroke:none"
       x="219.87317"
       y="180.54718"
       id="text4246-3-3"><tspan
         sodipodi:role="line"
         style="font-style:normal;font-variant:normal;font-weight:bold;font-stretch:normal;font-size:45px;line-height:1.25;font-family:Lavi;-inkscape-font-specification:'Lavi Bold'"
         x="219.87317"
         y="180.54718"
         id="tspan67">	¡Oficial!</tspan><tspan
         sodipodi:role="line"
         style="font-style:normal;font-variant:normal;font-weight:bold;font-stretch:normal;font-size:45px;line-height:1.25;font-family:Lavi;-inkscape-font-specification:'Lavi Bold'"
         x="219.87317"
         y="199.05417"
         id="tspan852" /></text>
    <text
       xml:space="preserve"
       style="font-style:normal;font-variant:normal;font-weight:normal;font-stretch:normal;line-height:0%;font-family:Lavi;-inkscape-font-specification:Lavi;text-align:center;letter-spacing:0px;word-spacing:0px;text-anchor:middle;fill:#000000;fill-opacity:1;stroke:none"
       x="385.97449"
       y="234.32552"
       id="text4246-3-5-9"><tspan
         sodipodi:role="line"
         style="font-size:45px;line-height:1.25"
         x="385.97449"
         y="234.32552"
         id="tspan903">¿Habéis reclutado</tspan><tspan
         sodipodi:role="line"
         style="font-size:45px;line-height:1.25"
         x="385.97449"
         y="290.5755"
         id="tspan916">una bruja, como pedí?</tspan></text>
    <text
       xml:space="preserve"
       style="font-style:normal;font-variant:normal;font-weight:normal;font-stretch:normal;line-height:0%;font-family:Lavi;-inkscape-font-specification:Lavi;text-align:center;letter-spacing:0px;word-spacing:0px;text-anchor:middle;fill:#000000;fill-opacity:1;stroke:none"
       x="883.4093"
       y="509.67288"
       id="text4246-1-6"><tspan
         sodipodi:role="line"
         style="font-style:normal;font-variant:normal;font-weight:normal;font-stretch:normal;font-size:45px;line-height:1.25;font-family:Lavi;-inkscape-font-specification:Lavi"
         x="890.44055"
         y="509.67288"
         id="tspan915">¡Sí, </tspan><tspan
         sodipodi:role="line"
         style="font-style:normal;font-variant:normal;font-weight:normal;font-stretch:normal;font-size:45px;line-height:1.25;font-family:Lavi;-inkscape-font-specification:Lavi"
         x="883.4093"
         y="565.92285"
         id="tspan920">mi señor!</tspan></text>
    <text
       xml:space="preserve"
       style="font-style:normal;font-variant:normal;font-weight:normal;font-stretch:normal;line-height:0%;font-family:Lavi;-inkscape-font-specification:Lavi;text-align:center;letter-spacing:0px;word-spacing:0px;text-anchor:middle;display:inline;fill:#000000;fill-opacity:1;stroke:none"
       x="945.81696"
       y="670.9931"
       id="text4246-7-6-1-7-6-3-5"><tspan
         sodipodi:role="line"
         style="font-size:45px;line-height:1.25"
         x="952.84821"
         y="670.9931"
         id="tspan929">Ella está </tspan><tspan
         sodipodi:role="line"
         style="font-size:45px;line-height:1.25"
         x="952.84821"
         y="727.2431"
         id="tspan927">ahí mismo, </tspan><tspan
         sodipodi:role="line"
         style="font-size:45px;line-height:1.25"
         x="945.81696"
         y="783.4931"
         id="tspan938">a vuestro lado.</tspan></text>
    <text
       xml:space="preserve"
       style="font-style:normal;font-variant:normal;font-weight:normal;font-stretch:normal;font-size:15.90748692px;line-height:0%;font-family:Lavi;-inkscape-font-specification:Lavi;text-align:center;letter-spacing:0px;word-spacing:0px;text-anchor:middle;fill:#000000;fill-opacity:1;stroke:none;stroke-width:0.99999988"
       x="1859.6963"
       y="214.15907"
       id="text4246-86-3-3"
       transform="scale(0.98795945,1.0121873)"><tspan
         sodipodi:role="line"
         style="font-size:59.65306854px;line-height:1.20000005;stroke-width:0.99999988"
         x="1859.6963"
         y="214.15907"
         id="tspan1044-3"><tspan
           style="font-style:normal;font-variant:normal;font-weight:bold;font-stretch:normal;font-family:Lavi;-inkscape-font-specification:'Lavi Bold';stroke-width:0.99999988"
           id="tspan1046-9">¿...?</tspan></tspan></text>
    <text
       xml:space="preserve"
       style="font-style:normal;font-variant:normal;font-weight:normal;font-stretch:normal;line-height:0%;font-family:Lavi;-inkscape-font-specification:Lavi;text-align:center;letter-spacing:0px;word-spacing:0px;text-anchor:middle;fill:#000000;fill-opacity:1;stroke:none"
       x="622.40643"
       y="1389.9771"
       id="text4246-3-7-7-6-7-2-9-6-1-4"><tspan
         sodipodi:role="line"
         style="font-size:45px;line-height:1.20000005"
         x="622.40643"
         y="1389.9771"
         id="tspan1183-0">¡Hola!</tspan></text>
    <text
       xml:space="preserve"
       style="font-style:normal;font-variant:normal;font-weight:normal;font-stretch:normal;line-height:0%;font-family:Lavi;-inkscape-font-specification:Lavi;text-align:center;letter-spacing:0px;word-spacing:0px;text-anchor:middle;fill:#000000;fill-opacity:1;stroke:none"
       x="736.13556"
       y="1476.2469"
       id="text4246-7-5"><tspan
         sodipodi:role="line"
         style="font-size:45px;line-height:1.25"
         x="736.13556"
         y="1476.2469"
         id="tspan1089">Mi nombre es</tspan><tspan
         sodipodi:role="line"
         style="font-size:45px;line-height:1.25"
         x="736.13556"
         y="1532.4969"
         id="tspan950"> Pepp...</tspan></text>
    <text
       xml:space="preserve"
       style="font-style:normal;font-variant:normal;font-weight:normal;font-stretch:normal;line-height:0%;font-family:Lavi;-inkscape-font-specification:Lavi;text-align:center;letter-spacing:0px;word-spacing:0px;text-anchor:middle;display:inline;fill:#000000;fill-opacity:1;stroke:none"
       x="2271.7188"
       y="1112.7358"
       id="text4246-2-3-1-3-9-9-7"
       transform="matrix(0.89365154,0,-0.19329856,1.1190044,0,0)"><tspan
         sodipodi:role="line"
         style="font-size:104.29582214px;line-height:1.25;letter-spacing:-5px"
         x="2269.2188"
         y="1112.7358"
         id="tspan4161-6">¡¡¿?!!</tspan></text>
    <text
       xml:space="preserve"
       style="font-style:normal;font-variant:normal;font-weight:normal;font-stretch:normal;font-size:28.73172379px;line-height:0%;font-family:Lavi;-inkscape-font-specification:Lavi;text-align:center;letter-spacing:29.10897446px;word-spacing:0px;text-anchor:middle;fill:#000000;fill-opacity:1;stroke:none;stroke-width:1"
       x="2274.2424"
       y="2618.3271"
       id="text4246-6-6-3-6"
       transform="matrix(0.94427779,0,-0.21829887,1.0590104,0,0)"><tspan
         sodipodi:role="line"
         style="font-style:normal;font-variant:normal;font-weight:bold;font-stretch:normal;font-size:81.33332825px;line-height:1.20000005;font-family:Lavi;-inkscape-font-specification:'Lavi Bold';letter-spacing:4px;stroke-width:1"
         x="2276.2424"
         y="2618.3271"
         id="tspan4252-00-4-7-3">¡¡¡IMBÉCIL!!!</tspan></text>
    <text
       xml:space="preserve"
       style="font-style:normal;font-variant:normal;font-weight:normal;font-stretch:normal;font-size:14.11471462px;line-height:0%;font-family:Lavi;-inkscape-font-specification:Lavi;text-align:center;letter-spacing:14.30004215px;word-spacing:0px;text-anchor:middle;fill:#000000;fill-opacity:1;stroke:none;stroke-width:1"
       x="1640.6864"
       y="2712.9067"
       id="text4246-6-3"
       transform="scale(0.94973823,1.0529217)"><tspan
         sodipodi:role="line"
         style="font-style:normal;font-variant:normal;font-weight:bold;font-stretch:normal;font-size:52.9301796px;line-height:1.20000005;font-family:Lavi;-inkscape-font-specification:'Lavi Bold';letter-spacing:0.90000004px;stroke-width:1"
         x="1649.8567"
         y="2712.9067"
         id="tspan1117">¡¿Por qué habéis </tspan><tspan
         sodipodi:role="line"
         style="font-style:normal;font-variant:normal;font-weight:bold;font-stretch:normal;font-size:52.9301796px;line-height:1.20000005;font-family:Lavi;-inkscape-font-specification:'Lavi Bold';letter-spacing:0.90000004px;stroke-width:1"
         x="1641.1365"
         y="2776.4229"
         id="tspan954">contratado esta niña?!</tspan></text>
    <text
       xml:space="preserve"
       style="font-style:normal;font-variant:normal;font-weight:normal;font-stretch:normal;font-size:14.11471462px;line-height:0%;font-family:Lavi;-inkscape-font-specification:Lavi;text-align:center;letter-spacing:14.30004215px;word-spacing:0px;text-anchor:middle;fill:#000000;fill-opacity:1;stroke:none;stroke-width:1"
       x="1633.1113"
       y="2846.6846"
       id="text4246-6-3-4"
       transform="scale(0.94973823,1.0529217)"><tspan
         sodipodi:role="line"
         style="font-style:normal;font-variant:normal;font-weight:bold;font-stretch:normal;font-size:52.9301796px;line-height:1.20000005;font-family:Lavi;-inkscape-font-specification:'Lavi Bold';letter-spacing:0.90000004px;stroke-width:1"
         x="1633.5614"
         y="2846.6846"
         id="tspan1142">¡Necesito una verdadera</tspan><tspan
         sodipodi:role="line"
         style="font-style:normal;font-variant:normal;font-weight:bold;font-stretch:normal;font-size:52.9301796px;line-height:1.20000005;font-family:Lavi;-inkscape-font-specification:'Lavi Bold';letter-spacing:0.90000004px;stroke-width:1"
         x="1633.5614"
         y="2910.2007"
         id="tspan958">hechicera de combate!</tspan></text>
  </g>
</svg>
