<?xml version="1.0" encoding="UTF-8" standalone="no"?>
<svg
   xmlns:dc="http://purl.org/dc/elements/1.1/"
   xmlns:cc="http://creativecommons.org/ns#"
   xmlns:rdf="http://www.w3.org/1999/02/22-rdf-syntax-ns#"
   xmlns:svg="http://www.w3.org/2000/svg"
   xmlns="http://www.w3.org/2000/svg"
   xmlns:xlink="http://www.w3.org/1999/xlink"
   xmlns:sodipodi="http://sodipodi.sourceforge.net/DTD/sodipodi-0.dtd"
   xmlns:inkscape="http://www.inkscape.org/namespaces/inkscape"
   id="svg2"
   version="1.1"
   inkscape:version="1.0.2-2 (e86c870879, 2021-01-15)"
   width="2481"
   height="3503"
   sodipodi:docname="E26P05.svg">
  <metadata
     id="metadata8">
    <rdf:RDF>
      <cc:Work
         rdf:about="">
        <dc:format>image/svg+xml</dc:format>
        <dc:type
           rdf:resource="http://purl.org/dc/dcmitype/StillImage" />
        <dc:title />
      </cc:Work>
    </rdf:RDF>
  </metadata>
  <defs
     id="defs6" />
  <sodipodi:namedview
     pagecolor="#ffffff"
     bordercolor="#666666"
     borderopacity="1"
     objecttolerance="10"
     gridtolerance="10"
     guidetolerance="10"
     inkscape:pageopacity="0"
     inkscape:pageshadow="2"
     inkscape:window-width="1920"
     inkscape:window-height="1057"
     id="namedview4"
     showgrid="false"
     inkscape:zoom="1.2098299"
     inkscape:cx="1410.7864"
     inkscape:cy="2950.4051"
     inkscape:window-x="1358"
     inkscape:window-y="-8"
     inkscape:window-maximized="1"
     inkscape:current-layer="layer1"
     inkscape:snap-global="false"
     inkscape:document-rotation="0" />
  <g
     inkscape:groupmode="layer"
     id="layer2"
     inkscape:label="artwork"
     sodipodi:insensitive="true">
    <image
       sodipodi:absref="C:\Users\quentinlipeck\Downloads\webcomics-master-ec7d62e6553c2c63bb1cf2e799ee31f9cb9ce5e2\webcomics-master-ec7d62e6553c2c63bb1cf2e799ee31f9cb9ce5e2\ep26_Books-Are-Great\lang\gfx_Pepper-and-Carrot_by-David-Revoy_E26P05.png"
       xlink:href="../gfx_Pepper-and-Carrot_by-David-Revoy_E26P05.png"
       width="2481"
       height="3503"
       id="image10"
       x="0"
       y="0" />
  </g>
  <g
     inkscape:groupmode="layer"
     id="layer3"
     inkscape:label="speechbubbles">
    <path
       style="color:#000000;display:inline;overflow:visible;visibility:visible;fill:#ffffff;fill-opacity:1;fill-rule:nonzero;stroke:none;stroke-width:0.810904px;marker:none;enable-background:accumulate"
       d="m 680.13191,173.25335 c 21.4962,-21.13771 188.64941,-34.40508 242.65004,15.76899 54.00063,50.17408 14.00888,103.3325 -20.80327,118.76043 -34.81214,15.42801 -134.4332,28.18798 -177.81574,10.03761 -43.38265,-18.15038 -76.23641,-43.12903 -74.49619,-89.63194 0.71026,-18.9797 8.9689,-33.7973 30.46516,-54.93509 z"
       id="path4040"
       inkscape:connector-curvature="0"
       sodipodi:nodetypes="zssssz" />
    <path
       style="color:#000000;display:inline;overflow:visible;visibility:visible;fill:#ffffff;fill-opacity:1;fill-rule:nonzero;stroke:none;stroke-width:1px;marker:none;enable-background:accumulate"
       d="m 723.30366,175.8066 c 15.6509,39.1272 126.32477,118.49941 138.62187,131.91441 12.2971,13.415 38.0092,32.4196 58.1317,35.7734 20.1226,3.3537 29.8656,-15.8488 47.3048,-18.9433 14.983,-2.6587 26.47777,2.1745 35.42117,12.2357 -14.533,-25.7121 -39.12717,-25.7121 -49.18837,-21.2404 -10.0613,4.4717 -27.948,17.8867 -44.7168,5.5896 -16.7687,-12.2971 -86.0797,-88.31561 -103.96637,-91.66931 -17.8867,-3.3538 -40.245,-29.0659 -40.245,-43.5988 0,-14.533 -41.363,-10.0613 -41.363,-10.0613 z"
       id="path4562"
       inkscape:connector-curvature="0"
       sodipodi:nodetypes="cssscssssc" />
    <path
       style="color:#000000;display:inline;overflow:visible;visibility:visible;fill:#ffffff;fill-opacity:1;fill-rule:nonzero;stroke:none;stroke-width:1px;marker:none;enable-background:accumulate"
       d="m 629.44972,1397.2356 c 5.31864,112.846 187.39235,142.8215 217.19246,120.0477 -67.73192,45.7834 -243.1513,-13.454 -259.18624,-91.6691 -22.55675,-34.7368 41.99378,-28.3786 41.99378,-28.3786 z"
       id="path4480"
       inkscape:connector-curvature="0"
       sodipodi:nodetypes="cccc" />
    <path
       style="color:#000000;display:inline;overflow:visible;visibility:visible;fill:#ffffff;fill-opacity:1;fill-rule:nonzero;stroke:none;stroke-width:0.852668px;marker:none;enable-background:accumulate"
       d="m 1697.506,1500.0196 c 5.6292,-57.773 52.8446,-98.0604 171.6921,-81.6794 63.6611,8.7747 136.0402,15.9375 128.5345,100.6053 -7.5057,84.6676 -111.6467,77.695 -133.2255,78.6912 -21.5789,0.9961 -133.3386,-13.0563 -151.9897,-42.832 -11.6753,-18.6388 -15.9497,-36.8553 -15.0114,-54.7851 z"
       id="path4546-6"
       inkscape:connector-curvature="0"
       sodipodi:nodetypes="cssssc" />
    <path
       style="fill:#ffffff;fill-opacity:1;stroke:none;stroke-width:1.17012"
       d="m 1822.1841,1642.7664 c -3.072,-33.1575 17.3038,-49.6518 35.8561,-57.4653 23.5123,-9.9025 193.1276,-20.9391 213.5953,6.8159 18.8502,25.5615 32.243,72.5563 -24.0436,95.7706 -56.2865,23.2142 -150.2248,10.4987 -166.2153,6.278 -15.9905,-4.2208 -55.9945,-15.5227 -59.1925,-51.3992 z"
       id="path3659-8"
       inkscape:connector-curvature="0"
       sodipodi:nodetypes="cssssc" />
    <path
       style="fill:#ffffff;fill-opacity:1;fill-rule:evenodd;stroke:none;stroke-width:0.570741px;stroke-linecap:butt;stroke-linejoin:miter;stroke-opacity:1"
       d="m 2045.2157,1752.4365 c 2.8478,6.2781 -2.7067,12.8754 -6.6854,14.9282 -4.7257,4.1933 -9.9339,3.4238 -14.756,2.3824 -4.7156,-1.6167 -8.9124,2.4725 -12.725,6.7734 -5.8446,5.4542 -13.3739,6.5511 -18.6228,1.2394 -3.9397,-3.6716 -8.4641,-8.1406 -13.7451,-5.3035 -6.2088,2.7499 -13.9137,4.8375 -18.6038,-1.7964 -2.9664,-7.3562 -9.8827,-5.3756 -15.0565,-3.3626 -6.6035,2.2865 -13.6152,3.2535 -19.5505,-0.695 -3.9688,-2.3804 -9.0795,-3.9874 -10.2159,-11.0177 -1.4774,-7.7322 -2.9448,-16.9207 -8.5192,-19.9579 -3.8972,-2.4942 -9.7267,-4.4919 -9.6976,-12.3212 1.0837,-6.8382 4.2374,-13.2886 7.0808,-18.978 7.0153,-6.9042 15.2764,0.321 23.1079,-0.7647 5.1177,-0.6887 10.1757,-3.071 14.8599,-6.8213 7.3585,-4.1094 14.4416,1.0655 21.8212,-1.2502 8.5897,-1.9266 17.2829,-0.2509 25.7891,-4.696 9.5237,-3.9035 19.6465,-0.7854 26.2121,8.5566 2.7393,4.5693 6.7227,6.697 11.0541,6.5043 5.6774,0.514 8.7552,-0.3982 11.9308,7.2374 2.6334,5.4974 1.9582,3.7813 3.3976,9.6865 1.5504,5.8484 6.7819,7.8078 7.4887,14.5687 0.4858,5.574 -4.44,9.3467 -4.5644,15.0876 z"
       id="path4367-3-5"
       inkscape:connector-curvature="0"
       sodipodi:nodetypes="ccccccccccccccccccccccc" />
    <path
       style="opacity:1;fill:#ffffff;fill-rule:evenodd;stroke:none;stroke-width:1.34438px;stroke-linecap:butt;stroke-linejoin:miter;stroke-opacity:1"
       d="m 1542.1535,1496.6176 c 57.2733,-8.6915 60.9764,19.7045 77.6569,27.317 17.2205,7.8588 50.5803,-25.7702 66.8815,-19.2081 16.3015,6.562 20.9961,40.3754 46.6514,50.2361 25.6551,9.861 44.0985,-16.5088 14.0519,-27.3374 -30.0465,-10.8286 -24.8419,-34.9697 -49.8325,-40.9228 -41.6779,-9.928 -54.8951,20.1792 -69.9481,24.4763 -9.9661,2.8447 -19.8986,-16.3184 -38.035,-21.5527 -18.1365,-5.2344 -47.4261,6.9916 -47.4261,6.9916 z"
       id="path4272"
       inkscape:connector-curvature="0"
       sodipodi:nodetypes="csssssssc" />
    <path
       style="color:#000000;display:inline;overflow:visible;visibility:visible;fill:#ffffff;fill-opacity:1;fill-rule:nonzero;stroke:none;stroke-width:0.831804px;marker:none;enable-background:accumulate"
       d="m 1149.402,2966.1872 c -11.9817,-10.5306 -30.6309,-105.9453 24.3897,-108.9445 -68.8122,-25.4199 -55.0926,-86.5215 -17.8825,-97.5114 -56.72,-2.4623 -61.7437,-5.9422 13.6316,-86.1248 -87.6941,76.5575 -95.6455,77.6987 -100.6247,39.8671 -15.0687,22.2479 -44.1433,20.2317 -39.1854,-13.2081 -17.1947,26.9328 -62.91294,44.4068 -64.84843,3.5626 -21.47606,32.1468 -41.81372,30.134 -62.94616,23.193 4.39128,24.5984 3.15326,72.2255 2.26711,110.2578 -1.1002,22.4558 1.19628,109.1694 5.61688,124.6743 -3.59001,24.576 2.67539,25.021 5.51483,43.2742 37.1703,-21.8896 37.19493,-19.3678 37.83834,8.5148 67.95133,-49.2416 54.63623,-10.5176 69.95563,-3.5241 25.4474,-37.6615 50.9588,-14.6169 77.3594,-9.0224 11.7859,-43.0546 28.6506,-39.8265 48.9137,-35.0085 z"
       id="path3549-3-78"
       inkscape:connector-curvature="0"
       sodipodi:nodetypes="ccccccccccccccc" />
    <path
       style="fill:#ffffff;fill-rule:evenodd;stroke:none;stroke-width:1.13943px;stroke-linecap:butt;stroke-linejoin:miter;stroke-opacity:1"
       d="m 1055.299,2900.717 c -25.1197,64.215 -54.0457,72.7746 -87.66413,12.7138 -8.94606,20.4377 -0.83517,78.6676 -57.38081,-6.3569 6.07008,38.7216 -2.66014,49.8986 -17.75406,49.2317 v 226.6974 c 14.68992,-5.4113 25.97406,-1.0175 30.50535,22.8308 31.78739,-26.212 53.67595,-27.9814 55.78782,19.0706 29.93623,-53.9416 42.33503,-32.1147 55.78603,-14.8326 45.2271,-52.0727 63.9393,-12.5032 89.2571,4.2378 -4.6254,-29.1834 2.9855,-44.4248 57.3808,-6.3568 -10.25,-18.5154 -25.6357,-38.1685 38.2539,-40.2577 -27.2868,-15.0872 -40.5494,-36.3181 -20.7218,-72.0419 -37.323,-24.5226 -18.4415,-44.6505 15.9391,-63.5661 -49.4938,-12.3263 -41.2442,-33.6833 -19.127,-57.2092 -50.0593,22.3563 -99.7623,16.6001 -73.5418,-25.5226 -30.7635,23.2235 -52.5198,43.9887 -66.7205,-48.6383 z"
       id="path4582"
       inkscape:connector-curvature="0"
       sodipodi:nodetypes="cccccccccccccccc" />
    <path
       style="fill:#ffffff;fill-rule:evenodd;stroke:none;stroke-width:0.978647px;stroke-linecap:butt;stroke-linejoin:miter;stroke-opacity:1"
       d="m 889.1222,3206.1477 c 26.68633,2.7051 65.76398,-10.089 44.18918,-50.8159 41.87691,28.8558 76.21162,23.8184 144.33082,-21.4911 -5.6607,63.1309 24.7852,57.2326 52.2327,45.1123 -26.342,21.244 20.9429,33.4174 46.3779,34.6108 -53.8053,45.9493 -25.5515,60.5625 -4.3504,77.8691 -52.8779,-12.8043 -40.0892,13.1396 -46.4049,27.8104 -45.3613,-33.2402 -78.3497,-25.3512 -104.4112,5.5621 -13.6306,-16.8115 -17.9091,-51.558 -68.15728,1.854 18.47745,-46.1099 -5.74243,-41.27 -44.95483,-18.5402 6.14546,-15.7057 42.67059,-39.5884 -18.85199,-37.0806 38.42816,-14.9306 46.48674,-35.1561 0,-64.8909 z"
       id="path4584"
       inkscape:connector-curvature="0"
       sodipodi:nodetypes="cccccccccccc" />
    <path
       style="fill:#ffffff;fill-opacity:1;fill-rule:evenodd;stroke:none;stroke-width:1.09969px;stroke-linecap:butt;stroke-linejoin:miter;stroke-opacity:1"
       d="m 2000.4917,2095.4121 c -16.0943,-1.455 -25.0656,17.25 -37.8769,24.1978 -13.1286,3.2493 -27.7961,-8.8053 -39.6919,2.3915 -10.7643,6.4399 -22.4377,18.4901 -18.6783,34.4797 1.0677,14.5148 -12.4002,23.199 -10.6779,37.512 0.4844,14.9876 15.5303,22.9474 13.1149,38.6673 -4.1803,14.4332 -13.4794,31.2861 -3.0687,45.7315 10.8239,16.4632 31.2785,7.3034 44.1747,18.313 10.3304,16.4451 22.5461,35.3547 41.3021,36.3645 17.5339,1.4166 30.6234,-13.7588 48.2899,-11.3603 13.0758,-0.2743 28.7771,13.0535 41.7063,17.0684 10.8445,-0.9747 23.0881,2.8301 32.6269,-5.2936 9.2447,-10.9424 21.9061,-9.9512 27.9566,4.2911 10.159,10.8294 25.2709,3.2684 35.8409,-2.9753 12.9024,-11.2104 24.5951,5.7337 35.7393,11.7228 15.1276,8.5166 30.6261,-19.7741 38.9795,-34.174 8.0193,-15.7777 24.3595,-8.0933 36.6778,-11.1197 11.2946,-5.3118 22.6107,-16.7119 25.947,-31.2344 -1.9388,-13.1731 -2.8272,-27.7059 4.1134,-39.5519 4.1036,-14.5929 -6.2566,-26.4673 -14.1297,-35.506 -9.7084,-14.3198 4.2493,-29.8117 0.2015,-45.0946 -3.306,-20.0832 -22.6043,-22.8669 -36.6192,-20.484 -12.8335,3.5888 -20.5505,-8.6408 -28.9977,-17.5181 -12.7451,-14.4281 -32.3692,-18.472 -48.2315,-9.1296 -14.039,9.3712 -26.5565,2.1835 -42.3223,4.8547 -11.4465,3.6209 -23.0652,14.2403 -35.0501,12.1074 -10.0149,-2.3973 -21.8382,14.5509 -32.3561,-1.2023 -8.4294,-12.5056 -22.178,-4.2472 -33.258,-0.3323 -14.7106,8.5891 -23.8884,-11.7057 -34.8357,-19.1901 -3.2965,-2.2431 -7.0595,-3.6585 -10.8768,-3.5355 z"
       id="path4367"
       inkscape:connector-curvature="0"
       sodipodi:nodetypes="cccccccccccccccccccccccccccccc" />
    <path
       style="color:#000000;display:inline;overflow:visible;visibility:visible;fill:#ffffff;fill-opacity:1;fill-rule:nonzero;stroke:none;stroke-width:1.38371px;marker:none;enable-background:accumulate"
       d="m 2170.3615,2309.0962 c -0.3713,38.0127 6.7641,58.9988 10.8638,63.5533 4.0997,4.5543 14.1043,16.9116 18.197,24.3263 3.3617,6.1716 9.6066,12.58 5.6022,19.0563 -4.0042,6.4764 -34.1758,30.3537 -35.5389,56.2139 -1.3632,25.8606 5.3064,30.7584 16.8647,34.3062 11.5583,3.5478 26.5828,8.5604 26.6542,27.601 0.071,19.0406 -9.8738,34.7396 -15.8025,39.9571 -5.9287,5.2176 -38.3186,24.4352 -54.9686,48.0709 -8.8964,12.629 -3.6957,116.332 -77.1531,147.1353 96.1421,-38.7249 86.06,-126.0636 93.2119,-138.7724 6.2517,-11.109 19.0349,-23.9504 28.6904,-28.7662 12.35,-6.1599 23.5652,-12.3444 30.546,-25.4347 6.9807,-13.0901 15.9013,-23.3083 13.774,-42.6236 -2.1271,-19.3153 -5.4443,-39.4224 -23.4332,-41.8264 -11.5582,-3.5478 -18.351,-12.9635 -18.0761,-18.9365 0.2753,-5.9731 12.8845,-27.1311 24.7298,-33.5613 11.8453,-6.4303 16.5638,-17.6507 16.086,-29.7343 -0.4779,-12.0835 -10.5747,-31.5425 -12.3436,-41.7953 -1.7687,-10.2527 -15.6194,-65.4734 -15.6194,-65.4734 z"
       id="path5058"
       inkscape:connector-curvature="0"
       sodipodi:nodetypes="cscsssssscssssccscccc" />
  </g>
  <g
     inkscape:groupmode="layer"
     id="layer1"
     inkscape:label="txt">
    <text
       xml:space="preserve"
       style="color:#000000;font-style:normal;font-variant:normal;font-weight:normal;font-stretch:normal;font-size:14.5637px;line-height:0.01%;font-family:Arial;-inkscape-font-specification:Arial;letter-spacing:1.17454px;word-spacing:0px;display:inline;overflow:visible;visibility:visible;fill:#e69d76;fill-opacity:1;fill-rule:nonzero;stroke:#e99f77;stroke-width:2;stroke-miterlimit:4;stroke-dasharray:none;stroke-opacity:1;marker:none;enable-background:accumulate"
       x="-789.3432"
       y="134.55949"
       id="text1711-2"
       transform="matrix(-0.05075958,-0.85891373,1.1934833,0.49447225,0,0)"><tspan
         sodipodi:role="line"
         x="-787.76733"
         y="134.55949"
         id="tspan1709-8"
         style="font-style:normal;font-variant:normal;font-weight:bold;font-stretch:normal;font-family:Lavi;-inkscape-font-specification:'Lavi Bold';letter-spacing:3.1517px;word-spacing:0px;fill:#ffffff;fill-opacity:1;stroke:#ffffff;stroke-width:2;stroke-miterlimit:4;stroke-dasharray:none;stroke-opacity:1"><tspan
           x="-789.3432"
           y="134.55949"
           style="color:#000000;font-style:normal;font-variant:normal;font-weight:bold;font-stretch:normal;font-size:77.6733px;line-height:1.25;font-family:Lavi;-inkscape-font-specification:'Lavi Bold';text-align:center;letter-spacing:3.1517px;word-spacing:0px;text-anchor:middle;display:inline;overflow:visible;visibility:visible;fill:#ffffff;fill-opacity:1;fill-rule:nonzero;stroke:#ffffff;stroke-width:2;stroke-miterlimit:4;stroke-dasharray:none;stroke-opacity:1;marker:none;enable-background:accumulate"
           id="tspan1707-9">Sssinpin!</tspan></tspan></text>
    <text
       xml:space="preserve"
       style="font-style:normal;font-variant:normal;font-weight:normal;font-stretch:normal;line-height:0%;font-family:Lavi;-inkscape-font-specification:Lavi;text-align:center;letter-spacing:0px;word-spacing:0px;text-anchor:middle;fill:#000000;fill-opacity:1;stroke:none"
       x="796.22394"
       y="217.64046"
       id="text4246-5-3"><tspan
         sodipodi:role="line"
         style="font-size:45px;line-height:1.25"
         x="796.22394"
         y="217.64046"
         id="tspan843">aa!</tspan><tspan
         sodipodi:role="line"
         style="font-size:45px;line-height:1.25"
         x="796.22394"
         y="273.89044"
         id="tspan849">pini li lon!</tspan><tspan
         sodipodi:role="line"
         x="796.22394"
         y="292.39746"
         id="tspan917" /></text>
    <text
       xml:space="preserve"
       style="color:#000000;font-style:normal;font-variant:normal;font-weight:normal;font-stretch:normal;font-size:10.939px;line-height:0.01%;font-family:Arial;-inkscape-font-specification:Arial;letter-spacing:0.882204px;word-spacing:0px;display:inline;overflow:visible;visibility:visible;fill:#e69d76;fill-opacity:1;fill-rule:nonzero;stroke:#e99f77;stroke-width:2;stroke-miterlimit:4;stroke-dasharray:none;stroke-opacity:1;marker:none;enable-background:accumulate"
       x="224.66396"
       y="1548.6953"
       id="text1711-2-3"
       transform="matrix(-0.02665862,-0.84533119,1.1912388,0.26225273,0,0)"><tspan
         sodipodi:role="line"
         x="225.8476"
         y="1548.6953"
         id="tspan1709-8-6"
         style="font-style:normal;font-variant:normal;font-weight:bold;font-stretch:normal;font-family:Lavi;-inkscape-font-specification:'Lavi Bold';letter-spacing:2.36727px;word-spacing:0px;fill:#ffffff;fill-opacity:1;stroke:#ffffff;stroke-width:2;stroke-miterlimit:4;stroke-dasharray:none;stroke-opacity:1"><tspan
           x="224.66396"
           y="1548.6953"
           style="color:#000000;font-style:normal;font-variant:normal;font-weight:bold;font-stretch:normal;font-size:58.3411px;line-height:1.25;font-family:Lavi;-inkscape-font-specification:'Lavi Bold';text-align:center;letter-spacing:2.36727px;word-spacing:0px;text-anchor:middle;display:inline;overflow:visible;visibility:visible;fill:#ffffff;fill-opacity:1;fill-rule:nonzero;stroke:#ffffff;stroke-width:2;stroke-miterlimit:4;stroke-dasharray:none;stroke-opacity:1;marker:none;enable-background:accumulate"
           id="tspan1707-9-7">Aanpa!</tspan></tspan></text>
    <path
       style="fill:#ffffff;fill-opacity:1;fill-rule:evenodd;stroke:none;stroke-width:0.932613px;stroke-linecap:butt;stroke-linejoin:miter;stroke-opacity:1"
       d="m 337.8574,1202.3778 c -6.6742,-8.5996 1.61188,-19.3901 8.21833,-23.2096 7.40645,-7.1039 16.92229,-7.0471 25.81571,-6.5131 8.84698,1.3971 15.33255,-5.4459 21.07721,-12.5198 9.0924,-9.1782 22.29458,-12.3279 33.02412,-5.6348 7.97424,4.5624 17.1955,10.1714 25.93609,4.9375 10.4235,-5.2969 23.69134,-9.9318 33.75259,-1.1899 7.15722,10.1523 19.04019,5.8356 27.796,1.8292 11.24623,-4.6999 23.55466,-7.5533 35.17073,-2.9954 7.70197,2.6678 17.25376,3.9699 21.05348,14.0209 4.58625,11.0078 9.52022,24.1481 20.26112,27.4471 7.60272,2.8488 18.5393,4.575 20.45326,16.0339 -0.22279,10.2257 -4.24825,20.309 -7.90926,29.2151 -10.82405,11.5394 -27.42592,2.6654 -41.172,5.8607 -8.98795,2.0576 -17.44373,6.5807 -24.88679,13.028 -12.14017,7.5216 -26.11864,1.4049 -38.74673,6.3068 -14.89227,4.5811 -30.87408,3.9138 -44.98427,12.162 -16.0674,7.6646 -34.97082,5.1806 -49.06923,-7.1381 -6.05085,-6.1221 -13.71569,-8.4171 -21.4206,-7.2464 -10.29187,0.4132 -15.57209,2.3794 -23.17406,-8.1387 -6.09402,-7.5017 -4.4547,-5.1298 -8.514,-13.4728 -4.24387,-8.2372 -14.10059,-10.0299 -17.06344,-19.7751 -2.26948,-8.0541 5.60073,-14.584 4.38174,-23.0075 z"
       id="path4367-3"
       inkscape:connector-curvature="0"
       sodipodi:nodetypes="ccccccccccccccccccccccc" />
    <path
       style="color:#000000;display:inline;overflow:visible;visibility:visible;fill:#ffffff;fill-opacity:1;fill-rule:nonzero;stroke:none;stroke-width:1.06085px;marker:none;enable-background:accumulate"
       d="m 427.72495,1255.9894 c 45.77849,-31.0122 248.78612,-48.6592 333.70272,11.7569 84.91656,60.4162 54.85454,144.7816 6.13183,167.8496 -48.72259,23.068 -199.28575,31.4455 -268.25614,21.7797 -116.89489,-16.3821 -126.22513,-52.4527 -129.55213,-112.9715 -1.35787,-24.7002 12.19525,-57.4025 57.97372,-88.4147 z"
       id="path4040-3"
       inkscape:connector-curvature="0"
       sodipodi:nodetypes="zssssz" />
    <text
       xml:space="preserve"
       style="font-style:normal;font-variant:normal;font-weight:normal;font-stretch:normal;line-height:0%;font-family:Lavi;-inkscape-font-specification:Lavi;text-align:center;letter-spacing:0px;word-spacing:0px;text-anchor:middle;fill:#000000;fill-opacity:1;stroke:none"
       x="480.21338"
       y="1231.5508"
       id="text4246-5-3-7-2-0"><tspan
         sodipodi:role="line"
         style="font-style:normal;font-variant:normal;font-weight:bold;font-stretch:normal;font-size:53.3333px;line-height:1.25;font-family:Lavi;-inkscape-font-specification:'Lavi Bold'"
         x="480.21338"
         y="1231.5508"
         id="tspan950-2-3">jaki a...</tspan><tspan
         sodipodi:role="line"
         x="480.21338"
         y="1252.8373"
         id="tspan917-6-7-6" /></text>
    <text
       xml:space="preserve"
       style="font-style:normal;font-variant:normal;font-weight:normal;font-stretch:normal;font-size:45px;line-height:0%;font-family:Lavi;-inkscape-font-specification:'Lavi, Normal';font-variant-ligatures:normal;font-variant-caps:normal;font-variant-numeric:normal;font-feature-settings:normal;text-align:center;letter-spacing:0px;word-spacing:0px;writing-mode:lr-tb;text-anchor:middle;fill:#000000;fill-opacity:1;stroke:none"
       x="584.40906"
       y="1305.2369"
       id="text4246-5-3-5"><tspan
         sodipodi:role="line"
         style="font-style:normal;font-variant:normal;font-weight:normal;font-stretch:normal;font-size:45px;line-height:1.25;font-family:Lavi;-inkscape-font-specification:'Lavi, Normal';font-variant-ligatures:normal;font-variant-caps:normal;font-variant-numeric:normal;font-feature-settings:normal;text-align:center;writing-mode:lr-tb;text-anchor:middle"
         x="584.40906"
         y="1305.2369"
         id="tspan917-2">pilin la, mi ken </tspan><tspan
         sodipodi:role="line"
         style="font-style:normal;font-variant:normal;font-weight:normal;font-stretch:normal;font-size:45px;line-height:1.25;font-family:Lavi;-inkscape-font-specification:'Lavi, Normal';font-variant-ligatures:normal;font-variant-caps:normal;font-variant-numeric:normal;font-feature-settings:normal;text-align:center;writing-mode:lr-tb;text-anchor:middle"
         x="584.40906"
         y="1361.4869"
         id="tspan91">weka e ijo ni </tspan><tspan
         sodipodi:role="line"
         style="font-style:normal;font-variant:normal;font-weight:normal;font-stretch:normal;font-size:45px;line-height:1.25;font-family:Lavi;-inkscape-font-specification:'Lavi, Normal';font-variant-ligatures:normal;font-variant-caps:normal;font-variant-numeric:normal;font-feature-settings:normal;text-align:center;writing-mode:lr-tb;text-anchor:middle"
         x="584.40906"
         y="1417.7369"
         id="tspan94">tan toki lipu...</tspan></text>
    <text
       xml:space="preserve"
       style="font-style:normal;font-variant:normal;font-weight:normal;font-stretch:normal;font-size:9.23768px;line-height:0%;font-family:Lavi;-inkscape-font-specification:Lavi;text-align:center;letter-spacing:0px;word-spacing:0px;text-anchor:middle;fill:#000000;fill-opacity:1;stroke:none;stroke-width:0.769806"
       x="1847.3668"
       y="1472.6697"
       id="text4246-5-3-5-7"><tspan
         sodipodi:role="line"
         style="font-style:normal;font-variant:normal;font-weight:normal;font-stretch:normal;font-size:34.6667px;line-height:1.25;font-family:Lavi;-inkscape-font-specification:Lavi;stroke-width:0.769806"
         x="1847.3668"
         y="1472.6697"
         id="tspan1049">soweli Kawa o... </tspan><tspan
         sodipodi:role="line"
         style="font-style:normal;font-variant:normal;font-weight:normal;font-stretch:normal;font-size:34.6667px;line-height:1.25;font-family:Lavi;-inkscape-font-specification:Lavi;stroke-width:0.769806"
         x="1847.3668"
         y="1516.0031"
         id="tspan80">sina ken lukin e </tspan><tspan
         sodipodi:role="line"
         style="font-style:normal;font-variant:normal;font-weight:normal;font-stretch:normal;font-size:34.6667px;line-height:1.25;font-family:Lavi;-inkscape-font-specification:Lavi;stroke-width:0.769806"
         x="1847.3668"
         y="1559.3364"
         id="tspan82">lipu anu seme?</tspan><tspan
         sodipodi:role="line"
         x="1847.3668"
         y="1573.5917"
         id="tspan917-2-2" /></text>
    <text
       xml:space="preserve"
       style="font-style:normal;font-variant:normal;font-weight:normal;font-stretch:normal;font-size:9.49034px;line-height:0%;font-family:Lavi;-inkscape-font-specification:Lavi;text-align:center;letter-spacing:0px;word-spacing:0px;text-anchor:middle;fill:#000000;fill-opacity:1;stroke:none;stroke-width:0.790862"
       x="1955.5698"
       y="1632.374"
       id="text4246-5-3-5-7-6"><tspan
         sodipodi:role="line"
         style="font-style:normal;font-variant:normal;font-weight:normal;font-stretch:normal;font-size:30.6667px;line-height:1.25;font-family:Lavi;-inkscape-font-specification:Lavi;stroke-width:0.790862"
         x="1955.5698"
         y="1632.374"
         id="tspan1080">a... sina sona ala </tspan><tspan
         sodipodi:role="line"
         style="font-style:normal;font-variant:normal;font-weight:normal;font-stretch:normal;font-size:30.6667px;line-height:1.25;font-family:Lavi;-inkscape-font-specification:Lavi;stroke-width:0.790862"
         x="1955.5698"
         y="1670.7074"
         id="tspan86">e sitelen...</tspan><tspan
         sodipodi:role="line"
         x="1955.5698"
         y="1683.7021"
         id="tspan917-2-2-9" /></text>
    <text
       xml:space="preserve"
       style="font-style:normal;font-variant:normal;font-weight:normal;font-stretch:normal;font-size:10.4834px;line-height:0%;font-family:Lavi;-inkscape-font-specification:Lavi;text-align:center;letter-spacing:0px;word-spacing:0px;text-anchor:middle;fill:#000000;fill-opacity:1;stroke:none;stroke-width:0.87362"
       x="1984.7023"
       y="1743.8298"
       id="text4246-5-3-5-7-6-2"><tspan
         sodipodi:role="line"
         style="font-style:normal;font-variant:normal;font-weight:normal;font-stretch:normal;font-size:26.6667px;line-height:1.25;font-family:Lavi;-inkscape-font-specification:Lavi;stroke-width:0.87362"
         x="1984.7023"
         y="1743.8298"
         id="tspan1080-3">ike a...</tspan><tspan
         sodipodi:role="line"
         x="1984.7023"
         y="1755.7798"
         id="tspan917-2-2-9-7" /></text>
    <text
       xml:space="preserve"
       style="color:#000000;font-style:normal;font-variant:normal;font-weight:normal;font-stretch:normal;font-size:13.6801px;line-height:0.01%;font-family:Arial;-inkscape-font-specification:Arial;letter-spacing:1.10327px;word-spacing:0px;display:inline;overflow:visible;visibility:visible;fill:#e69d76;fill-opacity:1;fill-rule:nonzero;stroke:#e99f77;stroke-width:0;stroke-miterlimit:4;stroke-dasharray:none;stroke-opacity:1;marker:none;enable-background:accumulate"
       x="2813.7102"
       y="434.09442"
       id="text1711-2-3-9"
       transform="matrix(0.8793411,0.03700556,-0.36761453,1.1217447,0,0)"><tspan
         sodipodi:role="line"
         x="2815.1904"
         y="434.09442"
         id="tspan1709-8-6-2"
         style="font-style:normal;font-variant:normal;font-weight:bold;font-stretch:normal;font-family:Lavi;-inkscape-font-specification:'Lavi Bold';letter-spacing:2.96047px;word-spacing:0px;fill:#ffffff;fill-opacity:1;stroke:#ffffff;stroke-width:0;stroke-miterlimit:4;stroke-dasharray:none;stroke-opacity:1"><tspan
           x="2813.7102"
           y="434.09442"
           style="color:#000000;font-style:normal;font-variant:normal;font-weight:bold;font-stretch:normal;font-size:72.9606px;line-height:1.25;font-family:Lavi;-inkscape-font-specification:'Lavi Bold';text-align:center;letter-spacing:2.96047px;word-spacing:0px;text-anchor:middle;display:inline;overflow:visible;visibility:visible;fill:#ffffff;fill-opacity:1;fill-rule:nonzero;stroke:#ffffff;stroke-width:0;stroke-miterlimit:4;stroke-dasharray:none;stroke-opacity:1;marker:none;enable-background:accumulate"
           id="tspan1707-9-7-2">?!</tspan></tspan></text>
    <text
       xml:space="preserve"
       style="font-style:normal;font-variant:normal;font-weight:normal;font-stretch:normal;line-height:0%;font-family:Lavi;-inkscape-font-specification:Lavi;text-align:center;letter-spacing:0px;word-spacing:0px;text-anchor:middle;fill:#000000;fill-opacity:1;stroke:none"
       x="1035.7271"
       y="3264.3809"
       id="text4246-5-3-5-5"><tspan
         sodipodi:role="line"
         style="font-style:normal;font-variant:normal;font-weight:bold;font-stretch:normal;font-size:53.3333px;line-height:1.25;font-family:Lavi;-inkscape-font-specification:'Lavi Bold'"
         x="1035.7271"
         y="3264.3809"
         id="tspan954-2">ike a!!!</tspan><tspan
         sodipodi:role="line"
         x="1035.7271"
         y="3285.6675"
         id="tspan917-2-0" /></text>
    <text
       xml:space="preserve"
       style="font-style:normal;font-variant:normal;font-weight:normal;font-stretch:normal;font-size:10.7232px;line-height:0%;font-family:Lavi;-inkscape-font-specification:Lavi;text-align:center;letter-spacing:0px;word-spacing:0px;text-anchor:middle;fill:#000000;fill-opacity:1;stroke:none;stroke-width:0.893597"
       x="1024.2609"
       y="2804.3015"
       id="text4246-5-3-5-5-9"><tspan
         sodipodi:role="line"
         style="font-style:normal;font-variant:normal;font-weight:bold;font-stretch:normal;font-size:41.7012px;line-height:1.25;font-family:Lavi;-inkscape-font-specification:'Lavi Bold';stroke-width:0.893597"
         x="1024.2609"
         y="2804.3015"
         id="tspan119">PILIN </tspan><tspan
         sodipodi:role="line"
         style="font-style:normal;font-variant:normal;font-weight:bold;font-stretch:normal;font-size:41.7012px;line-height:1.25;font-family:Lavi;-inkscape-font-specification:'Lavi Bold';stroke-width:0.893597"
         x="1024.2609"
         y="2856.428"
         id="tspan123">IKE MI </tspan><tspan
         sodipodi:role="line"
         style="font-style:normal;font-variant:normal;font-weight:bold;font-stretch:normal;font-size:41.7012px;line-height:1.25;font-family:Lavi;-inkscape-font-specification:'Lavi Bold';stroke-width:0.893597"
         x="1024.2609"
         y="2908.5544"
         id="tspan125">LI KAMA </tspan><tspan
         sodipodi:role="line"
         style="font-style:normal;font-variant:normal;font-weight:bold;font-stretch:normal;font-size:41.7012px;line-height:1.25;font-family:Lavi;-inkscape-font-specification:'Lavi Bold';stroke-width:0.893597"
         x="1024.2609"
         y="2960.6809"
         id="tspan127">LON A!!!</tspan><tspan
         sodipodi:role="line"
         x="1024.2609"
         y="2977.7156"
         id="tspan917-2-0-0" /></text>
    <text
       xml:space="preserve"
       style="font-style:normal;font-variant:normal;font-weight:normal;font-stretch:normal;line-height:0%;font-family:Lavi;-inkscape-font-specification:Lavi;text-align:center;letter-spacing:0px;word-spacing:0px;text-anchor:middle;fill:#000000;fill-opacity:1;stroke:none"
       x="1051.8331"
       y="3043.2583"
       id="text4246-5-3-5-9"><tspan
         sodipodi:role="line"
         style="font-style:normal;font-variant:normal;font-weight:normal;font-stretch:normal;font-size:45px;line-height:1.25;font-family:Lavi;-inkscape-font-specification:Lavi"
         x="1051.8331"
         y="3043.2583"
         id="tspan101">pona li ken </tspan><tspan
         sodipodi:role="line"
         style="font-style:normal;font-variant:normal;font-weight:normal;font-stretch:normal;font-size:45px;line-height:1.25;font-family:Lavi;-inkscape-font-specification:Lavi"
         x="1051.8331"
         y="3099.5083"
         id="tspan103">ala awen </tspan><tspan
         sodipodi:role="line"
         style="font-style:normal;font-variant:normal;font-weight:normal;font-stretch:normal;font-size:45px;line-height:1.25;font-family:Lavi;-inkscape-font-specification:Lavi"
         x="1051.8331"
         y="3155.7583"
         id="tspan111">lon mi!</tspan><tspan
         sodipodi:role="line"
         x="1051.8331"
         y="3174.2654"
         id="tspan917-2-9" /></text>
    <text
       xml:space="preserve"
       style="font-style:normal;font-variant:normal;font-weight:normal;font-stretch:normal;line-height:0%;font-family:Lavi;-inkscape-font-specification:Lavi;text-align:center;letter-spacing:0px;word-spacing:0px;text-anchor:middle;fill:#000000;fill-opacity:1;stroke:none"
       x="2109.0674"
       y="2183.5332"
       id="text4246-5-3-5-9-2"><tspan
         sodipodi:role="line"
         style="font-style:normal;font-variant:normal;font-weight:normal;font-stretch:normal;font-size:45px;line-height:1.25;font-family:Lavi;-inkscape-font-specification:Lavi"
         x="2109.0674"
         y="2183.5332"
         id="tspan1117">ken la, </tspan><tspan
         sodipodi:role="line"
         style="font-style:normal;font-variant:normal;font-weight:normal;font-stretch:normal;font-size:45px;line-height:1.25;font-family:Lavi;-inkscape-font-specification:Lavi"
         x="2109.0674"
         y="2239.7832"
         id="tspan95">lipu li pona ala </tspan><tspan
         sodipodi:role="line"
         style="font-style:normal;font-variant:normal;font-weight:normal;font-stretch:normal;font-size:45px;line-height:1.25;font-family:Lavi;-inkscape-font-specification:Lavi"
         x="2109.0674"
         y="2296.0332"
         id="tspan93">tawa ale...</tspan><tspan
         sodipodi:role="line"
         x="2109.0674"
         y="2314.5403"
         id="tspan917-2-9-3" /></text>
    <text
       xml:space="preserve"
       style="color:#000000;font-style:normal;font-variant:normal;font-weight:normal;font-stretch:normal;font-size:10.939px;line-height:0.01%;font-family:Arial;-inkscape-font-specification:Arial;letter-spacing:0.882204px;word-spacing:0px;display:inline;overflow:visible;visibility:visible;fill:#e69d76;fill-opacity:1;fill-rule:nonzero;stroke:#e99f77;stroke-width:2;stroke-miterlimit:4;stroke-dasharray:none;stroke-opacity:1;marker:none;enable-background:accumulate"
       x="4271.3828"
       y="2071.3848"
       id="text1711-2-3-1"
       transform="matrix(0.79338838,0.2929682,-0.69069394,1.0053697,0,0)"><tspan
         sodipodi:role="line"
         x="4272.5664"
         y="2071.3848"
         id="tspan1709-8-6-29"
         style="font-style:normal;font-variant:normal;font-weight:bold;font-stretch:normal;font-family:Lavi;-inkscape-font-specification:'Lavi Bold';letter-spacing:2.36727px;word-spacing:0px;fill:#ffffff;fill-opacity:1;stroke:#ffffff;stroke-width:2;stroke-miterlimit:4;stroke-dasharray:none;stroke-opacity:1"><tspan
           x="4271.3828"
           y="2071.3848"
           style="color:#000000;font-style:normal;font-variant:normal;font-weight:bold;font-stretch:normal;font-size:58.3411px;line-height:1.25;font-family:Lavi;-inkscape-font-specification:'Lavi Bold';text-align:center;letter-spacing:2.36727px;word-spacing:0px;text-anchor:middle;display:inline;overflow:visible;visibility:visible;fill:#ffffff;fill-opacity:1;fill-rule:nonzero;stroke:#ffffff;stroke-width:2;stroke-miterlimit:4;stroke-dasharray:none;stroke-opacity:1;marker:none;enable-background:accumulate"
           id="tspan1707-9-7-3">Supa!</tspan></tspan></text>
  </g>
</svg>
