<?xml version="1.0" encoding="UTF-8" standalone="no"?>
<svg
   xmlns:dc="http://purl.org/dc/elements/1.1/"
   xmlns:cc="http://creativecommons.org/ns#"
   xmlns:rdf="http://www.w3.org/1999/02/22-rdf-syntax-ns#"
   xmlns:svg="http://www.w3.org/2000/svg"
   xmlns="http://www.w3.org/2000/svg"
   xmlns:xlink="http://www.w3.org/1999/xlink"
   xmlns:sodipodi="http://sodipodi.sourceforge.net/DTD/sodipodi-0.dtd"
   xmlns:inkscape="http://www.inkscape.org/namespaces/inkscape"
   sodipodi:docname="E36P06.svg"
   height="3503"
   width="2481"
   inkscape:version="1.0 (4035a4fb49, 2020-05-01)"
   version="1.1"
   id="svg2">
  <metadata
     id="metadata8">
    <rdf:RDF>
      <cc:Work
         rdf:about="">
        <dc:format>image/svg+xml</dc:format>
        <dc:type
           rdf:resource="http://purl.org/dc/dcmitype/StillImage" />
        <dc:title />
      </cc:Work>
    </rdf:RDF>
  </metadata>
  <defs
     id="defs6" />
  <sodipodi:namedview
     inkscape:document-rotation="0"
     inkscape:snap-global="false"
     inkscape:pagecheckerboard="0"
     inkscape:current-layer="layer1"
     inkscape:window-maximized="1"
     inkscape:window-y="-8"
     inkscape:window-x="-8"
     inkscape:cy="2676.0869"
     inkscape:cx="1180.4347"
     inkscape:zoom="0.46000002"
     showgrid="false"
     id="namedview4"
     inkscape:window-height="715"
     inkscape:window-width="1366"
     inkscape:pageshadow="2"
     inkscape:pageopacity="0"
     guidetolerance="10"
     gridtolerance="10"
     objecttolerance="10"
     borderopacity="1"
     bordercolor="#111111"
     pagecolor="#1e1e1e" />
  <g
     sodipodi:insensitive="true"
     inkscape:label="artwork"
     id="layer2"
     inkscape:groupmode="layer">
    <image
       sodipodi:absref="D:\Pepper&amp;Carrot translation\ep36_the-suprise-attack\lang\gfx_Pepper-and-Carrot_by-David-Revoy_E36P06.png"
       xlink:href="../gfx_Pepper-and-Carrot_by-David-Revoy_E36P06.png"
       y="0"
       x="0"
       id="image10"
       height="3503"
       width="2481" />
  </g>
  <g
     style="display:inline"
     inkscape:label="speechbubbles"
     id="layer3"
     inkscape:groupmode="layer">
    <path
       sodipodi:nodetypes="ccszccccccc"
       inkscape:connector-curvature="0"
       id="path4064-5-5"
       d="m 577.39062,1890.3496 c 13.55459,4.6614 27.39899,10.6876 36.98583,21.7461 6.87829,8.625 7.56098,20.6709 4.66066,30.9708 -1.44275,5.9611 -3.11819,12.8374 0.29351,18.4496 3.25292,4.4413 8.97247,5.7004 13.65335,8.0759 1.68146,0.5503 3.16657,2.0604 4.93205,2.0447 3.65441,-0.7862 8.30688,-4.5636 7.78517,-7.7805 0.4108,-14.3571 1.10006,-28.425 -3.6806,-42.3235 -4.09402,-10.8462 -16.4336,-19.4968 -27.02744,-23.2608 -13.09899,-5.2184 -27.0995,-7.7878 -41.09862,-9.0336 1.16537,0.3704 2.33073,0.7409 3.49609,1.1113 z"
       style="color:#000000;display:inline;overflow:visible;visibility:visible;fill:#ffffff;fill-opacity:1;fill-rule:nonzero;stroke:none;stroke-width:0.825943px;marker:none;enable-background:accumulate" />
    <path
       sodipodi:nodetypes="cssccsc"
       inkscape:connector-curvature="0"
       id="path3365-8"
       d="m 455.60235,2048.4792 c -0.0344,-37.438 25.90507,-73.0461 63.46254,-94.7307 28.06808,-16.4379 63.36151,-25.2476 98.21051,-23.0054 38.50308,1.3754 77.17295,9.878 109.08815,27.509 27.90588,15.1916 51.01118,37.9289 57.29754,64.9295 7.20452,29.3061 -8.93246,59.9981 -36.09575,79.737 -16.81595,12.4353 -37.97909,20.7997 -60.38153,24.5248 -48.77854,8.4912 -100.04662,8.1558 -148.49737,-1.5898 -41.89692,-12.184 -73.13913,-43.0597 -83.08409,-77.3744 z"
       style="color:#000000;display:inline;overflow:visible;visibility:visible;fill:#ffffff;fill-opacity:1;fill-rule:nonzero;stroke:none;stroke-width:1.27888px;marker:none;enable-background:accumulate" />
    <path
       sodipodi:nodetypes="ccccc"
       inkscape:connector-curvature="0"
       id="path3525-1"
       d="m 1890.6321,1568.1278 c -59.9807,4.5496 -133.256,-0.8824 -176.2793,34.9436 -42.7299,40.8183 -36.7181,101.1268 7.3973,139.3533 46.5264,29.2802 115.1343,26.1173 174.2887,30.1655 65.4723,1.0834 133.9201,0.1781 195.8989,-16.1448 54.7912,-21.4543 68.8196,-69.7465 58.0027,-109.1338 -3.8601,-36.5754 -43.2373,-70.1267 -98.2317,-72.711 -53.1186,-5.9245 -107.4658,-4.218 -161.0766,-6.4728 z"
       style="color:#000000;display:inline;overflow:visible;visibility:visible;fill:#ffffff;fill-opacity:1;fill-rule:nonzero;stroke:none;stroke-width:1.31024px;marker:none;enable-background:accumulate" />
    <path
       sodipodi:nodetypes="ccszc"
       inkscape:connector-curvature="0"
       id="path4064-5"
       d="m 1995.93,1822.7607 c -18.1752,-11.0216 -34.1079,-35.6909 -38.6041,-62.1813 -3.212,-15.891 -4.9491,-32.3534 -3.0603,-47.1809 2.5292,-4.9506 8.5452,-3.2093 12.36,1.2176 6.174,5.2735 12.9392,8.5628 18.8573,14.6149 3.5725,5.1778 3.8133,12.417 2.6585,17.788 -1.1636,10.2097 -2.5765,21.1708 0.8478,32.3369 4.2315,15.7365 13.9898,28.6271 24.2515,37.2817 12.3531,10.7595 26.1526,15.1864 39.0912,15.7949 0.045,0.4487 -1.409,0.4203 -1.8941,0.6592 -17.1414,4.2654 -36.4098,1.3261 -54.5078,-10.331 z"
       style="color:#000000;display:inline;overflow:visible;visibility:visible;fill:#ffffff;fill-opacity:1;fill-rule:nonzero;stroke:none;stroke-width:0.844663px;marker:none;enable-background:accumulate" />
    <path
       inkscape:connector-curvature="0"
       id="path3100-2"
       d="m 423.86932,2274.0092 c -58.40363,0.4665 -117.26087,0.298 -174.90429,6.4477 -21.16955,2.266 -42.51486,5.3836 -61.20751,11.7187 -14.43766,4.8948 -26.60492,12.0975 -33.83521,20.8205 -9.82269,11.7868 -11.42046,25.4768 -6.85182,38.1728 5.77415,15.9095 22.16588,30.7228 46.19547,39.5337 18.47495,6.8872 40.36725,10.2286 62.19658,11.0878 41.10539,2.5097 82.30628,4.4909 123.56674,5.938 28.80174,1.0359 57.6133,2.048 86.45432,2.6367 59.43052,0.791 118.97024,-1.5625 177.7084,-6.7769 21.58424,-2.2177 43.33876,-6.3509 60.2464,-14.6413 15.7863,-7.7375 25.22958,-18.9857 29.29038,-30.5225 3.67302,-9.8613 4.67502,-20.0656 2.89474,-30.0975 -2.02238,-9.2065 -8.16997,-18.3369 -19.52725,-25.0892 -12.61369,-7.9531 -29.73232,-13.334 -47.91359,-15.7666 -19.37289,-3.0655 -39.378,-4.4282 -59.14188,-6.3784 -61.25736,-5.25 -123.26784,-7.2536 -185.17148,-7.0835 z"
       style="fill:#ffffff;stroke:none;stroke-width:1.0207" />
    <path
       inkscape:connector-curvature="0"
       id="path3100-2-1"
       d="m 419.29924,2374.1172 c -57.69023,1.0462 -116.18902,1.1684 -172.31646,10.9806 -22.82183,4.0989 -45.61052,11.8229 -59.02389,25.3988 -18.19834,19.7635 -15.9672,46.0979 0.80947,66.1599 15.15351,18.3227 44.32323,30.6409 74.99204,32.6293 40.48286,3.1381 81.13333,5.066 121.80868,6.3048 21.04122,0.6134 42.06567,1.5646 63.10838,2.1013 53.40991,0.8938 106.84794,-1.709 159.59023,-6.9807 22.40029,-2.3401 45.3844,-6.5572 62.85774,-16.7212 12.20121,-6.9057 19.94486,-16.745 23.96101,-27.0671 5.6775,-14.1691 5.76644,-29.1924 2.73889,-43.7079 -2.9411,-11.5834 -10.99402,-23.5779 -26.59543,-29.7425 -16.71343,-6.6721 -36.47798,-7.4709 -55.04157,-10.0134 -65.0203,-7.5992 -131.08482,-10.2479 -196.88909,-9.3419 z"
       style="fill:#ffffff;stroke:none;stroke-width:0.987156" />
    <path
       inkscape:connector-curvature="0"
       id="path3100-2-1-9"
       d="m 476.26484,2478.3373 c -74.02946,2.183 -151.87869,-0.015 -220.67802,20.6734 -35.86935,12.5722 -51.7243,40.3765 -48.05682,65.7758 1.83224,33.2609 36.49266,68.7215 90.49444,72.9287 54.86469,4.4824 110.21964,6.6512 165.46293,8.3309 72.51547,1.3501 146.69007,-0.2493 216.39797,-14.3839 35.39278,-9.2288 55.34539,-33.4103 57.62246,-57.2802 7.50792,-29.9184 -8.34907,-65.1934 -52.67664,-79.4107 -39.07907,-10.3742 -82.27521,-11.3662 -123.76898,-14.631 -28.19781,-1.5211 -56.50454,-2.1694 -84.79734,-2.003 z"
       style="fill:#ffffff;stroke:none;stroke-width:1.07615" />
    <path
       sodipodi:nodetypes="cscsc"
       inkscape:connector-curvature="0"
       id="path1357"
       d="m 471.87977,2637.9487 c 0,0 15.49435,31.1557 18.76123,47.2541 3.26688,16.0984 -2.23396,98.2886 -54.0297,124.672 60.58129,-13.8373 97.25045,-97.2182 74.9118,-174.2445 -8.13467,-28.0492 -39.64333,2.3184 -39.64333,2.3184 z"
       style="fill:#ffffff;fill-rule:evenodd;stroke:none;stroke-width:1px;stroke-linecap:butt;stroke-linejoin:miter;stroke-opacity:1" />
    <path
       sodipodi:nodetypes="cssssc"
       inkscape:connector-curvature="0"
       id="path4546-6-89"
       d="m 1105.6621,1613.416 c -27.3074,0.665 -55.2641,4.8405 -79.6671,17.7518 -20.9178,11.7343 -35.48479,32.595 -42.92872,55.0672 -5.21266,14.3929 -8.21701,30.6636 -2.8761,45.4728 6.59215,18.412 23.13312,31.7974 41.28642,37.9765 29.138,11.2748 60.784,12.4073 91.6361,13.4689 33.4435,0.8833 66.9833,1.6213 100.3641,-1.086 18.1912,-1.7873 36.6147,-6.7791 51.3797,-17.9635 12.1435,-8.7548 22.0772,-21.8232 23.7559,-37.0517 2.4369,-17.9924 -2.3337,-36.2294 -9.9127,-52.4672 -10.3009,-21.0264 -28.628,-38.1831 -50.7572,-46.1168 -28.177,-10.962 -58.7375,-12.5985 -88.5948,-14.3303 -11.2167,-0.5894 -22.4527,-0.9884 -33.6856,-0.7217 z"
       style="color:#000000;display:inline;overflow:visible;visibility:visible;fill:#ffffff;fill-opacity:1;fill-rule:nonzero;stroke:none;stroke-width:1.03864px;marker:none;enable-background:accumulate" />
    <path
       sodipodi:nodetypes="ccsc"
       inkscape:connector-curvature="0"
       id="path4480-3"
       d="m 1191.4693,1723.1631 c 34.2678,49.2543 68.9523,97.6924 121.3421,87.479 -53.9312,29.956 -129.2913,-39.4416 -157.7344,-79.0515 -24.1583,-33.6427 36.3923,-8.4275 36.3923,-8.4275 z"
       style="color:#000000;display:inline;overflow:visible;visibility:visible;fill:#ffffff;fill-opacity:1;fill-rule:nonzero;stroke:none;stroke-width:1px;marker:none;enable-background:accumulate" />
    <path
       sodipodi:nodetypes="cssssc"
       inkscape:connector-curvature="0"
       id="path4546-6-89-3"
       d="m 926.821,2389.163 c 1.21384,-38.6448 64.12265,-67.0932 236.4517,-60.311 92.3088,3.6336 196.9247,5.8914 196.2128,62.5005 -0.7122,56.609 -150.8408,55.5781 -181.6592,56.9891 -30.8179,1.411 -192.70934,-4.0672 -222.98222,-23.2372 -18.95016,-12.0003 -27.24008,-23.9756 -28.02308,-35.9414 z"
       style="color:#000000;display:inline;overflow:visible;visibility:visible;fill:#ffffff;fill-opacity:1;fill-rule:nonzero;stroke:none;stroke-width:0.993583px;marker:none;enable-background:accumulate" />
    <path
       sodipodi:nodetypes="csssc"
       inkscape:connector-curvature="0"
       id="path3280-8-0"
       d="m 1236.3574,2419.2627 c 153.8152,-0.267 211.929,7.1487 231.9827,105.7777 27.7556,136.5026 -101.458,147.7148 -281.9776,147.4022 -194.76898,-0.3373 -206.90287,-80.8977 -210.37151,-146.8331 -5.98642,-113.7826 102.92271,-103.3253 260.36641,-106.3468 z"
       style="fill:#ffffff;stroke:none;stroke-width:0.778087" />
    <path
       sodipodi:nodetypes="ccszc"
       inkscape:connector-curvature="0"
       id="path4064-3"
       d="m 1320.2777,2650.5264 c -14.7937,34.7302 -29.7284,103.9977 49.732,149.2666 -38.7431,-11.0789 -115.7589,-45.8618 -84.4037,-150.4179 9.0983,-30.339 16.322,-15.8945 23.6557,-14.9665 7.3338,0.9279 11.016,16.1178 11.016,16.1178 z"
       style="color:#000000;display:inline;overflow:visible;visibility:visible;fill:#ffffff;fill-opacity:1;fill-rule:nonzero;stroke:none;stroke-width:1px;marker:none;enable-background:accumulate" />
    <path
       inkscape:connector-curvature="0"
       id="path3533-6"
       d="m 1651.2761,2304.8762 c 32.6168,-39.6682 88.4024,-42.2159 135.8304,-42.2394 44.6528,1.0129 91.3023,3.7125 132.3042,22.7913 26.4222,12.2041 44.2843,44.8101 29.4638,72.1033 -18.2817,23.4202 -51.4037,23.0482 -78.0181,29.5615 -52.513,7.4345 -105.6559,0.6211 -157.9247,-5.5691 -23.8316,-4.6029 -53.1587,-9.8591 -62.9091,-35.6353 -5.5358,-12.5917 -8.0263,-29.5328 1.2535,-41.0123 z"
       style="color:#000000;display:inline;overflow:visible;visibility:visible;fill:#ffffff;fill-opacity:1;fill-rule:nonzero;stroke:none;stroke-width:0.800752px;marker:none;enable-background:accumulate" />
    <path
       sodipodi:nodetypes="ccscc"
       inkscape:connector-curvature="0"
       id="path4248"
       d="m 1882.582,2368.8585 c 33.9534,32.2939 25.2378,98.5148 5.21,126.3583 16.6982,-13.5989 67.5762,-88.6625 18.8996,-149.3734 -40.0561,-49.9592 -29.2155,15.9213 -29.2155,15.9213 z"
       style="fill:#ffffff;fill-rule:evenodd;stroke:none;stroke-width:1.38581px;stroke-linecap:butt;stroke-linejoin:miter;stroke-opacity:1" />
    <path
       sodipodi:nodetypes="csssc"
       inkscape:connector-curvature="0"
       id="path3280-64"
       d="m 2045.1426,2362.7934 c 0.7299,-47.1977 27.663,-89.6364 150.0183,-82.0615 122.3555,7.5748 162.5358,12.6601 162.786,77.0121 0.2619,67.3475 -60.5828,83.1874 -153.1945,85.7943 -95.4725,2.6872 -159.2319,-24.6821 -159.6098,-80.7449 z"
       style="display:inline;fill:#ffffff;stroke:none;stroke-width:1.09445" />
    <path
       sodipodi:nodetypes="ccccc"
       inkscape:connector-curvature="0"
       id="path3072-56"
       d="m 2225.6941,2499.207 c 29.3281,-35.4419 42.8909,-48.473 14.1537,-86.3903 -28.7372,-37.9162 -14.1521,-48.0944 -14.1521,-48.0944 l 30.5785,11.3041 c 0,0 63.9999,68.3303 -30.5801,123.1806 z"
       style="color:#000000;display:inline;overflow:visible;visibility:visible;fill:#ffffff;fill-opacity:1;fill-rule:nonzero;stroke:none;stroke-width:1.00876px;marker:none;enable-background:accumulate" />
    <path
       sodipodi:nodetypes="zssssz"
       inkscape:connector-curvature="0"
       id="path4040-4-5-3-6"
       d="m 2121.8448,2844.4879 c 14.5963,-9.9895 118.7077,-19.5563 148.2592,6.1257 24.6662,21.4363 23.0835,63.4313 0.4928,79.2151 -23.0149,16.0793 -110.7216,10.4002 -144.6205,2.6999 -31.9221,-7.2509 -31.3445,-24.7778 -30.4738,-55.3282 0.3554,-12.4682 11.746,-22.7237 26.3423,-32.7125 z"
       style="color:#000000;display:inline;overflow:visible;visibility:visible;fill:#ffffff;fill-opacity:1;fill-rule:nonzero;stroke:none;stroke-width:0.67124px;marker:none;enable-background:accumulate" />
    <path
       sodipodi:nodetypes="zssssz"
       inkscape:connector-curvature="0"
       id="path4040-4-5-3"
       d="M 2206.4844 2907.5449 C 2175.4305 2908.1903 2144.161 2910.592 2114.0656 2918.6941 C 2096.2668 2922.8372 2077.5821 2925.3815 2061.5579 2934.7569 C 2048.1514 2942.4442 2036.0549 2952.4597 2025.9786 2964.168 C 2019.8872 2972.1306 2017.1014 2982.2405 2017.1777 2992.1864 C 2016.0581 3008.0241 2018.6153 3024.8996 2028.1901 3037.9705 C 2037.9739 3051.3249 2053.1368 3059.5337 2068.6014 3064.5623 C 2108.5003 3078.9601 2151.2892 3082.4279 2193.3995 3083.0817 C 2228.1674 3083.3676 2263.3303 3083.4093 2297.4478 3075.8269 C 2311.3394 3072.6893 2325.0899 3068.4854 2337.9124 3062.2365 C 2358.1519 3050.8194 2370.8101 3028.2613 2372.1674 3005.3065 C 2373.7268 2985.0535 2367.2964 2963.6088 2352.5307 2949.254 C 2340.5455 2938.1399 2324.5733 2933.0012 2309.1 2928.8787 C 2282.1139 2921.9981 2255.6568 2912.6117 2227.969 2908.8131 C 2220.8513 2907.8578 2213.6644 2907.4524 2206.4844 2907.5449 z "
       style="color:#000000;display:inline;overflow:visible;visibility:visible;fill:#ffffff;fill-opacity:1;fill-rule:nonzero;stroke:none;stroke-width:0.890822px;marker:none;enable-background:accumulate" />
    <path
       sodipodi:nodetypes="cscssc"
       inkscape:connector-curvature="0"
       id="path4186-80"
       d="m 2230.8069,2888.0547 c -59.0902,-10.6562 16.1202,-61.0715 -1.0396,-83.0609 -8.296,-10.6309 -45.3019,13.7249 -85.4552,-27.1328 44.274,25.5713 73.4492,-3.2499 94.1628,5.6982 39.3401,16.9937 6.1746,61.0235 5.4438,70.8494 -0.9776,13.1415 -13.1118,33.6461 -13.1118,33.6461 z"
       style="display:inline;fill:#ffffff;fill-rule:evenodd;stroke:none;stroke-width:1px;stroke-linecap:butt;stroke-linejoin:miter;stroke-opacity:1" />
  </g>
  <g
     style="display:inline"
     inkscape:label="txt"
     id="layer1"
     inkscape:groupmode="layer">
    <text
       xml:space="preserve"
       style="font-style:normal;font-variant:normal;font-weight:normal;font-stretch:normal;line-height:0%;font-family:'Xiaolai SC';-inkscape-font-specification:'Xiaolai SC';text-align:center;letter-spacing:0px;word-spacing:0px;text-anchor:middle;fill:#000000;fill-opacity:1;stroke:none"
       x="620.6286"
       y="2018.4624"
       id="text4246-4-2-7"><tspan
         id="tspan2677"
         sodipodi:role="line"
         style="font-style:normal;font-variant:normal;font-weight:normal;font-stretch:normal;font-size:45px;line-height:1.25;font-family:'Xiaolai SC';-inkscape-font-specification:'Xiaolai SC'"
         x="620.6286"
         y="2018.4624">我们差点儿</tspan><tspan
         id="tspan74"
         sodipodi:role="line"
         style="font-style:normal;font-variant:normal;font-weight:normal;font-stretch:normal;font-size:45px;line-height:1.25;font-family:'Xiaolai SC';-inkscape-font-specification:'Xiaolai SC'"
         x="620.6286"
         y="2074.7124">就成功了…</tspan></text>
    <text
       xml:space="preserve"
       style="font-style:normal;font-variant:normal;font-weight:normal;font-stretch:normal;line-height:0%;font-family:'Xiaolai SC';-inkscape-font-specification:'Xiaolai SC';text-align:center;letter-spacing:0px;word-spacing:0px;text-anchor:middle;fill:#000000;fill-opacity:1;stroke:none"
       x="1137.0778"
       y="1678.9263"
       id="text4246-4-2-7-3-2"><tspan
         id="tspan99796"
         sodipodi:role="line"
         style="font-style:normal;font-variant:normal;font-weight:normal;font-stretch:normal;font-size:45px;line-height:1.25;font-family:'Xiaolai SC';-inkscape-font-specification:'Xiaolai SC'"
         x="1137.0778"
         y="1678.9263">是啊，</tspan><tspan
         id="tspan103302"
         sodipodi:role="line"
         style="font-style:normal;font-variant:normal;font-weight:normal;font-stretch:normal;font-size:45px;line-height:1.25;font-family:'Xiaolai SC';-inkscape-font-specification:'Xiaolai SC'"
         x="1137.0778"
         y="1735.1763">就差一点儿。</tspan></text>
    <text
       xml:space="preserve"
       style="font-style:normal;font-variant:normal;font-weight:normal;font-stretch:normal;line-height:0%;font-family:'Xiaolai SC';-inkscape-font-specification:'Xiaolai SC';text-align:center;letter-spacing:0px;word-spacing:0px;text-anchor:middle;fill:#000000;fill-opacity:1;stroke:none"
       x="1913.2146"
       y="1633.46"
       id="text4246-4-2-7-3"><tspan
         id="tspan14192"
         sodipodi:role="line"
         style="font-style:normal;font-variant:normal;font-weight:normal;font-stretch:normal;font-size:45px;line-height:1.25;font-family:'Xiaolai SC';-inkscape-font-specification:'Xiaolai SC'"
         x="1913.2146"
         y="1633.46">说起来，你知道</tspan><tspan
         id="tspan84"
         sodipodi:role="line"
         style="font-style:normal;font-variant:normal;font-weight:normal;font-stretch:normal;font-size:45px;line-height:1.25;font-family:'Xiaolai SC';-inkscape-font-specification:'Xiaolai SC'"
         x="1913.2146"
         y="1689.71">为什么绿芥末对我</tspan><tspan
         id="tspan118"
         sodipodi:role="line"
         style="font-style:normal;font-variant:normal;font-weight:normal;font-stretch:normal;font-size:45px;line-height:1.25;font-family:'Xiaolai SC';-inkscape-font-specification:'Xiaolai SC'"
         x="1913.2146"
         y="1745.96">如此防备吗？</tspan></text>
    <text
       xml:space="preserve"
       style="font-style:normal;font-variant:normal;font-weight:normal;font-stretch:normal;line-height:0%;font-family:'Xiaolai SC';-inkscape-font-specification:'Xiaolai SC';text-align:center;letter-spacing:0px;word-spacing:0px;text-anchor:middle;fill:#000000;fill-opacity:1;stroke:none"
       x="437.71973"
       y="2355.592"
       id="text4246-4-2-7-3-6-7"><tspan
         id="tspan143860"
         sodipodi:role="line"
         style="font-style:normal;font-variant:normal;font-weight:normal;font-stretch:normal;font-size:45px;line-height:1.25;font-family:'Xiaolai SC';-inkscape-font-specification:'Xiaolai SC';fill:#000000"
         x="437.71973"
         y="2355.592">她害怕混沌阿的女巫…</tspan></text>
    <text
       xml:space="preserve"
       style="font-style:normal;font-variant:normal;font-weight:normal;font-stretch:normal;line-height:0%;font-family:'Xiaolai SC';-inkscape-font-specification:'Xiaolai SC';text-align:center;letter-spacing:0px;word-spacing:0px;text-anchor:middle;fill:#000000;fill-opacity:1;stroke:none"
       x="452.15799"
       y="2459.1648"
       id="text4246-4-2-7-3-6-7-6"><tspan
         id="tspan83621"
         sodipodi:role="line"
         style="font-style:normal;font-variant:normal;font-weight:normal;font-stretch:normal;font-size:45px;line-height:1.25;font-family:'Xiaolai SC';-inkscape-font-specification:'Xiaolai SC';fill:#000000"
         x="452.15799"
         y="2459.1648">特别是你们的连锁反应。</tspan></text>
    <text
       xml:space="preserve"
       style="font-style:normal;font-variant:normal;font-weight:normal;font-stretch:normal;line-height:0%;font-family:'Xiaolai SC';-inkscape-font-specification:'Xiaolai SC';text-align:center;letter-spacing:0px;word-spacing:0px;text-anchor:middle;fill:#000000;fill-opacity:1;stroke:none"
       x="487.55356"
       y="2557.0244"
       id="text4246-4-2-7-3-6-7-6-6"><tspan
         id="tspan83621-1"
         sodipodi:role="line"
         style="font-style:normal;font-variant:normal;font-weight:normal;font-stretch:normal;font-size:45px;line-height:1.25;font-family:'Xiaolai SC';-inkscape-font-specification:'Xiaolai SC';fill:#000000"
         x="487.55356"
         y="2557.0244">对于她来说是</tspan><tspan
         id="tspan94"
         sodipodi:role="line"
         style="font-style:normal;font-variant:normal;font-weight:normal;font-stretch:normal;font-size:45px;line-height:1.25;font-family:'Xiaolai SC';-inkscape-font-specification:'Xiaolai SC';fill:#000000"
         x="487.55356"
         y="2613.2744">她计划里最大的威胁。</tspan></text>
    <text
       xml:space="preserve"
       style="font-style:normal;font-variant:normal;font-weight:normal;font-stretch:normal;line-height:0%;font-family:'Xiaolai SC';-inkscape-font-specification:'Xiaolai SC';text-align:center;letter-spacing:0px;word-spacing:0px;text-anchor:middle;fill:#000000;fill-opacity:1;stroke:none"
       x="1159.0848"
       y="2405.1445"
       id="text4246-4-2-7-3-6-7-6-6-4"><tspan
         id="tspan83621-1-4"
         sodipodi:role="line"
         style="font-style:normal;font-variant:normal;font-weight:normal;font-stretch:normal;font-size:45px;line-height:1.25;font-family:'Xiaolai SC';-inkscape-font-specification:'Xiaolai SC';fill:#000000"
         x="1159.0848"
         y="2405.1445">咳，就因为这个呀。</tspan></text>
    <text
       xml:space="preserve"
       style="font-style:normal;font-variant:normal;font-weight:normal;font-stretch:normal;line-height:0%;font-family:'Xiaolai SC';-inkscape-font-specification:'Xiaolai SC';text-align:center;letter-spacing:0px;word-spacing:0px;text-anchor:middle;fill:#000000;fill-opacity:1;stroke:none"
       x="1230.3933"
       y="2488.2925"
       id="text4246-4-2-7-3-6-7-6-6-4-5"><tspan
         id="tspan8797"
         sodipodi:role="line"
         style="font-style:normal;font-variant:normal;font-weight:normal;font-stretch:normal;font-size:45px;line-height:1.25;font-family:'Xiaolai SC';-inkscape-font-specification:'Xiaolai SC';fill:#000000"
         x="1230.3933"
         y="2488.2925">那她真是多虑了：</tspan><tspan
         id="tspan106"
         sodipodi:role="line"
         style="font-style:normal;font-variant:normal;font-weight:normal;font-stretch:normal;font-size:45px;line-height:1.25;font-family:'Xiaolai SC';-inkscape-font-specification:'Xiaolai SC';fill:#000000"
         x="1230.3933"
         y="2544.5425">我至今还没成功过</tspan><tspan
         id="tspan108"
         sodipodi:role="line"
         style="font-style:normal;font-variant:normal;font-weight:normal;font-stretch:normal;font-size:45px;line-height:1.25;font-family:'Xiaolai SC';-inkscape-font-specification:'Xiaolai SC';fill:#000000"
         x="1230.3933"
         y="2600.7925">任何一条连锁反应呢。</tspan></text>
    <text
       xml:space="preserve"
       style="font-style:normal;font-variant:normal;font-weight:normal;font-stretch:normal;line-height:0%;font-family:'Xiaolai SC';-inkscape-font-specification:'Xiaolai SC';text-align:center;letter-spacing:0px;word-spacing:0px;text-anchor:middle;fill:#000000;fill-opacity:1;stroke:none"
       x="1809.7136"
       y="2342.5198"
       id="text4246-4-2-7-3-6-7-6-6-4-5-1"><tspan
         id="tspan186800-2"
         sodipodi:role="line"
         style="font-style:normal;font-variant:normal;font-weight:normal;font-stretch:normal;font-size:45px;line-height:1.25;font-family:'Xiaolai SC';-inkscape-font-specification:'Xiaolai SC';fill:#000000"
         x="1809.7136"
         y="2342.5198">真的么？</tspan></text>
    <text
       xml:space="preserve"
       style="font-style:normal;font-variant:normal;font-weight:normal;font-stretch:normal;font-size:39px;line-height:0%;font-family:'Xiaolai SC';-inkscape-font-specification:'Xiaolai SC';text-align:center;letter-spacing:0px;word-spacing:0px;text-anchor:middle;fill:#000000;fill-opacity:1;stroke:none"
       x="2217.2812"
       y="2351.8303"
       id="text4246-4-2-7-3-6-7-6-6-4-5-1-6"><tspan
         id="tspan201029"
         sodipodi:role="line"
         style="font-style:normal;font-variant:normal;font-weight:normal;font-stretch:normal;font-size:39px;line-height:1.25;font-family:'Xiaolai SC';-inkscape-font-specification:'Xiaolai SC';fill:#000000"
         x="2217.2812"
         y="2351.8303">是真的。</tspan><tspan
         id="tspan112"
         sodipodi:role="line"
         style="font-style:normal;font-variant:normal;font-weight:normal;font-stretch:normal;font-size:39px;line-height:1.25;font-family:'Xiaolai SC';-inkscape-font-specification:'Xiaolai SC';fill:#000000"
         x="2217.2812"
         y="2400.5803">哈哈哈哈！</tspan></text>
    <text
       xml:space="preserve"
       style="font-style:normal;font-variant:normal;font-weight:normal;font-stretch:normal;font-size:42.5063px;line-height:0%;font-family:'Xiaolai SC';-inkscape-font-specification:'Xiaolai SC';text-align:center;letter-spacing:0px;word-spacing:0px;text-anchor:middle;fill:#000000;fill-opacity:1;stroke:none;stroke-width:1.0899"
       x="2194.6721"
       y="2903.6599"
       id="text4246-4-2-7-3-6-7-6-6-4-5-1-6-5"><tspan
         id="tspan201029-4"
         sodipodi:role="line"
         style="font-style:normal;font-variant:normal;font-weight:normal;font-stretch:normal;font-size:42.5063px;line-height:1.25;font-family:'Xiaolai SC';-inkscape-font-specification:'Xiaolai SC';fill:#000000;stroke-width:1.0899"
         x="2194.6721"
         y="2903.6599">嘿嘿嘿！</tspan></text>
    <text
       xml:space="preserve"
       style="font-style:normal;font-variant:normal;font-weight:normal;font-stretch:normal;font-size:39px;line-height:0%;font-family:'Xiaolai SC';-inkscape-font-specification:'Xiaolai SC';text-align:center;letter-spacing:0px;word-spacing:0px;text-anchor:middle;fill:#000000;fill-opacity:1;stroke:none"
       x="2203.822"
       y="2989.4729"
       id="text4246-4-2-7-3-6-7-6-6-4-5-1-6-5-7"><tspan
         id="tspan215195"
         sodipodi:role="line"
         style="font-style:normal;font-variant:normal;font-weight:normal;font-stretch:normal;font-size:39px;line-height:1.25;font-family:'Xiaolai SC';-inkscape-font-specification:'Xiaolai SC';fill:#000000"
         x="2203.822"
         y="2989.4729">她真的过于</tspan><tspan
         id="tspan116"
         sodipodi:role="line"
         style="font-style:normal;font-variant:normal;font-weight:normal;font-stretch:normal;font-size:39px;line-height:1.25;font-family:'Xiaolai SC';-inkscape-font-specification:'Xiaolai SC';fill:#000000"
         x="2203.822"
         y="3038.2229">偏执了…</tspan></text>
  </g>
</svg>
