<?xml version="1.0" encoding="UTF-8" standalone="no"?>
<svg
   xmlns:dc="http://purl.org/dc/elements/1.1/"
   xmlns:cc="http://creativecommons.org/ns#"
   xmlns:rdf="http://www.w3.org/1999/02/22-rdf-syntax-ns#"
   xmlns:svg="http://www.w3.org/2000/svg"
   xmlns="http://www.w3.org/2000/svg"
   xmlns:xlink="http://www.w3.org/1999/xlink"
   xmlns:sodipodi="http://sodipodi.sourceforge.net/DTD/sodipodi-0.dtd"
   xmlns:inkscape="http://www.inkscape.org/namespaces/inkscape"
   sodipodi:docname="E36P09.svg"
   height="3503"
   width="2481"
   inkscape:version="1.0 (4035a4fb49, 2020-05-01)"
   version="1.1"
   id="svg2">
  <metadata
     id="metadata8">
    <rdf:RDF>
      <cc:Work
         rdf:about="">
        <dc:format>image/svg+xml</dc:format>
        <dc:type
           rdf:resource="http://purl.org/dc/dcmitype/StillImage" />
        <dc:title />
      </cc:Work>
    </rdf:RDF>
  </metadata>
  <defs
     id="defs6">
    <filter
       height="1.0213294"
       width="1.0065445"
       y="-0.010664709"
       x="-0.0032722622"
       inkscape:label="deevad outline effect"
       id="filter4375-4-1-1-1-9-6-9-2-1-7-1"
       style="color-interpolation-filters:sRGB">
      <feFlood
         result="flood"
         flood-color="rgb(0,0,0)"
         flood-opacity="1"
         id="feFlood4377-7-9-0-8-1-0-2-2-06-3-9" />
      <feComposite
         result="composite1"
         operator="in"
         in="flood"
         in2="SourceGraphic"
         id="feComposite4379-3-8-8-2-77-6-0-8-3-6-4" />
      <feMorphology
         result="result3"
         radius="4"
         operator="dilate"
         id="feMorphology4393-1-0-49-8-9-2-2-9-2-1-7" />
      <feComposite
         result="composite2"
         operator="over"
         in="SourceGraphic"
         in2="result3"
         id="feComposite4385-9-5-7-0-8-6-3-7-0-2-8" />
    </filter>
    <filter
       height="1.0219297"
       width="1.007094"
       y="-0.010964841"
       x="-0.0035469919"
       inkscape:label="deevad outline effect"
       id="filter4375-4-1-1-1-9-6-9-2-1-7-1-3"
       style="color-interpolation-filters:sRGB">
      <feFlood
         result="flood"
         flood-color="rgb(0,0,0)"
         flood-opacity="1"
         id="feFlood4377-7-9-0-8-1-0-2-2-06-3-9-6" />
      <feComposite
         result="composite1"
         operator="in"
         in="flood"
         in2="SourceGraphic"
         id="feComposite4379-3-8-8-2-77-6-0-8-3-6-4-7" />
      <feMorphology
         result="result3"
         radius="4"
         operator="dilate"
         id="feMorphology4393-1-0-49-8-9-2-2-9-2-1-7-5" />
      <feComposite
         result="composite2"
         operator="over"
         in="SourceGraphic"
         in2="result3"
         id="feComposite4385-9-5-7-0-8-6-3-7-0-2-8-3" />
    </filter>
    <filter
       height="1.0771344"
       width="1.0114872"
       y="-0.0054734909"
       x="-0.00081513583"
       inkscape:label="Drop Shadow"
       id="filter4375-4-1-1-1-9-5-8"
       style="color-interpolation-filters:sRGB">
      <feFlood
         result="flood"
         flood-color="rgb(108,125,133)"
         flood-opacity="1"
         id="feFlood4377-7-9-0-8-1-7-3" />
      <feComposite
         result="composite1"
         operator="in"
         in="flood"
         in2="SourceGraphic"
         id="feComposite4379-3-8-8-2-77-4-1" />
      <feMorphology
         result="result3"
         radius="6.2000000000000002"
         operator="dilate"
         id="feMorphology4393-1-0-49-8-9-3-0" />
      <feComposite
         result="fbSourceGraphic"
         operator="over"
         in="SourceGraphic"
         in2="result3"
         id="feComposite4385-9-5-7-0-8-8-7" />
      <feColorMatrix
         id="feColorMatrix4544"
         values="0 0 0 -1 0 0 0 0 -1 0 0 0 0 -1 0 0 0 0 1 0"
         in="fbSourceGraphic"
         result="fbSourceGraphicAlpha" />
      <feTurbulence
         result="turbulence"
         baseFrequency="0.129 0.0050000000000000001"
         seed="37"
         numOctaves="3"
         type="fractalNoise"
         id="feTurbulence4546" />
      <feDisplacementMap
         result="fbSourceGraphic"
         xChannelSelector="R"
         yChannelSelector="G"
         scale="6.6"
         in="fbSourceGraphic"
         in2="turbulence"
         id="feDisplacementMap4548" />
      <feColorMatrix
         id="feColorMatrix4670"
         values="0 0 0 -1 0 0 0 0 -1 0 0 0 0 -1 0 0 0 0 1 0"
         in="fbSourceGraphic"
         result="fbSourceGraphicAlpha" />
      <feFlood
         in="fbSourceGraphic"
         result="flood"
         flood-color="rgb(17,52,65)"
         flood-opacity="1"
         id="feFlood4672" />
      <feComposite
         result="composite1"
         operator="in"
         in="flood"
         in2="fbSourceGraphic"
         id="feComposite4674" />
      <feGaussianBlur
         result="blur"
         stdDeviation="0"
         in="composite1"
         id="feGaussianBlur4676" />
      <feOffset
         result="offset"
         dy="6"
         dx="6"
         id="feOffset4678" />
      <feComposite
         result="composite2"
         operator="over"
         in="fbSourceGraphic"
         in2="offset"
         id="feComposite4680" />
    </filter>
    <filter
       height="1.0782335"
       width="1.0281299"
       y="-0.0055514814"
       x="-0.0019961096"
       inkscape:label="Drop Shadow"
       id="filter4375-4-1-1-1-9-5-8-2"
       style="color-interpolation-filters:sRGB">
      <feFlood
         result="flood"
         flood-color="rgb(108,125,133)"
         flood-opacity="1"
         id="feFlood4377-7-9-0-8-1-7-3-9" />
      <feComposite
         result="composite1"
         operator="in"
         in="flood"
         in2="SourceGraphic"
         id="feComposite4379-3-8-8-2-77-4-1-1" />
      <feMorphology
         result="result3"
         radius="6.2000000000000002"
         operator="dilate"
         id="feMorphology4393-1-0-49-8-9-3-0-2" />
      <feComposite
         result="fbSourceGraphic"
         operator="over"
         in="SourceGraphic"
         in2="result3"
         id="feComposite4385-9-5-7-0-8-8-7-7" />
      <feColorMatrix
         id="feColorMatrix4544-0"
         values="0 0 0 -1 0 0 0 0 -1 0 0 0 0 -1 0 0 0 0 1 0"
         in="fbSourceGraphic"
         result="fbSourceGraphicAlpha" />
      <feTurbulence
         result="turbulence"
         baseFrequency="0.129 0.0050000000000000001"
         seed="37"
         numOctaves="3"
         type="fractalNoise"
         id="feTurbulence4546-9" />
      <feDisplacementMap
         result="fbSourceGraphic"
         xChannelSelector="R"
         yChannelSelector="G"
         scale="6.6"
         in="fbSourceGraphic"
         in2="turbulence"
         id="feDisplacementMap4548-3" />
      <feColorMatrix
         id="feColorMatrix4670-6"
         values="0 0 0 -1 0 0 0 0 -1 0 0 0 0 -1 0 0 0 0 1 0"
         in="fbSourceGraphic"
         result="fbSourceGraphicAlpha" />
      <feFlood
         in="fbSourceGraphic"
         result="flood"
         flood-color="rgb(17,52,65)"
         flood-opacity="1"
         id="feFlood4672-0" />
      <feComposite
         result="composite1"
         operator="in"
         in="flood"
         in2="fbSourceGraphic"
         id="feComposite4674-6" />
      <feGaussianBlur
         result="blur"
         stdDeviation="0"
         in="composite1"
         id="feGaussianBlur4676-2" />
      <feOffset
         result="offset"
         dy="6"
         dx="6"
         id="feOffset4678-6" />
      <feComposite
         result="composite2"
         operator="over"
         in="fbSourceGraphic"
         in2="offset"
         id="feComposite4680-1" />
    </filter>
    <filter
       height="1.0782335"
       width="1.0251811"
       y="-0.0055514814"
       x="-0.0017868597"
       inkscape:label="Drop Shadow"
       id="filter4375-4-1-1-1-9-5-8-9"
       style="color-interpolation-filters:sRGB">
      <feFlood
         result="flood"
         flood-color="rgb(108,125,133)"
         flood-opacity="1"
         id="feFlood4377-7-9-0-8-1-7-3-2" />
      <feComposite
         result="composite1"
         operator="in"
         in="flood"
         in2="SourceGraphic"
         id="feComposite4379-3-8-8-2-77-4-1-2" />
      <feMorphology
         result="result3"
         radius="6.2000000000000002"
         operator="dilate"
         id="feMorphology4393-1-0-49-8-9-3-0-8" />
      <feComposite
         result="fbSourceGraphic"
         operator="over"
         in="SourceGraphic"
         in2="result3"
         id="feComposite4385-9-5-7-0-8-8-7-9" />
      <feColorMatrix
         id="feColorMatrix4544-7"
         values="0 0 0 -1 0 0 0 0 -1 0 0 0 0 -1 0 0 0 0 1 0"
         in="fbSourceGraphic"
         result="fbSourceGraphicAlpha" />
      <feTurbulence
         result="turbulence"
         baseFrequency="0.129 0.0050000000000000001"
         seed="37"
         numOctaves="3"
         type="fractalNoise"
         id="feTurbulence4546-3" />
      <feDisplacementMap
         result="fbSourceGraphic"
         xChannelSelector="R"
         yChannelSelector="G"
         scale="6.6"
         in="fbSourceGraphic"
         in2="turbulence"
         id="feDisplacementMap4548-6" />
      <feColorMatrix
         id="feColorMatrix4670-1"
         values="0 0 0 -1 0 0 0 0 -1 0 0 0 0 -1 0 0 0 0 1 0"
         in="fbSourceGraphic"
         result="fbSourceGraphicAlpha" />
      <feFlood
         in="fbSourceGraphic"
         result="flood"
         flood-color="rgb(17,52,65)"
         flood-opacity="1"
         id="feFlood4672-2" />
      <feComposite
         result="composite1"
         operator="in"
         in="flood"
         in2="fbSourceGraphic"
         id="feComposite4674-9" />
      <feGaussianBlur
         result="blur"
         stdDeviation="0"
         in="composite1"
         id="feGaussianBlur4676-3" />
      <feOffset
         result="offset"
         dy="6"
         dx="6"
         id="feOffset4678-1" />
      <feComposite
         result="composite2"
         operator="over"
         in="fbSourceGraphic"
         in2="offset"
         id="feComposite4680-9" />
    </filter>
    <filter
       height="1.0993121"
       width="1.0384627"
       y="-0.0070472328"
       x="-0.0027293262"
       inkscape:label="Drop Shadow"
       id="filter4375-4-1-1-1-9-5-8-2-4"
       style="color-interpolation-filters:sRGB">
      <feFlood
         result="flood"
         flood-color="rgb(108,125,133)"
         flood-opacity="1"
         id="feFlood4377-7-9-0-8-1-7-3-9-7" />
      <feComposite
         result="composite1"
         operator="in"
         in="flood"
         in2="SourceGraphic"
         id="feComposite4379-3-8-8-2-77-4-1-1-8" />
      <feMorphology
         result="result3"
         radius="6.2000000000000002"
         operator="dilate"
         id="feMorphology4393-1-0-49-8-9-3-0-2-4" />
      <feComposite
         result="fbSourceGraphic"
         operator="over"
         in="SourceGraphic"
         in2="result3"
         id="feComposite4385-9-5-7-0-8-8-7-7-5" />
      <feColorMatrix
         id="feColorMatrix4544-0-0"
         values="0 0 0 -1 0 0 0 0 -1 0 0 0 0 -1 0 0 0 0 1 0"
         in="fbSourceGraphic"
         result="fbSourceGraphicAlpha" />
      <feTurbulence
         result="turbulence"
         baseFrequency="0.129 0.0050000000000000001"
         seed="37"
         numOctaves="3"
         type="fractalNoise"
         id="feTurbulence4546-9-3" />
      <feDisplacementMap
         result="fbSourceGraphic"
         xChannelSelector="R"
         yChannelSelector="G"
         scale="6.6"
         in="fbSourceGraphic"
         in2="turbulence"
         id="feDisplacementMap4548-3-6" />
      <feColorMatrix
         id="feColorMatrix4670-6-1"
         values="0 0 0 -1 0 0 0 0 -1 0 0 0 0 -1 0 0 0 0 1 0"
         in="fbSourceGraphic"
         result="fbSourceGraphicAlpha" />
      <feFlood
         in="fbSourceGraphic"
         result="flood"
         flood-color="rgb(17,52,65)"
         flood-opacity="1"
         id="feFlood4672-0-0" />
      <feComposite
         result="composite1"
         operator="in"
         in="flood"
         in2="fbSourceGraphic"
         id="feComposite4674-6-6" />
      <feGaussianBlur
         result="blur"
         stdDeviation="0"
         in="composite1"
         id="feGaussianBlur4676-2-3" />
      <feOffset
         result="offset"
         dy="6"
         dx="6"
         id="feOffset4678-6-2" />
      <feComposite
         result="composite2"
         operator="over"
         in="fbSourceGraphic"
         in2="offset"
         id="feComposite4680-1-0" />
    </filter>
  </defs>
  <sodipodi:namedview
     inkscape:document-rotation="0"
     inkscape:snap-global="false"
     inkscape:pagecheckerboard="0"
     inkscape:current-layer="layer1"
     inkscape:window-maximized="1"
     inkscape:window-y="-8"
     inkscape:window-x="-8"
     inkscape:cy="2146.1574"
     inkscape:cx="1246.7712"
     inkscape:zoom="0.42"
     showgrid="false"
     id="namedview4"
     inkscape:window-height="715"
     inkscape:window-width="1366"
     inkscape:pageshadow="2"
     inkscape:pageopacity="0"
     guidetolerance="10"
     gridtolerance="10"
     objecttolerance="10"
     borderopacity="1"
     bordercolor="#111111"
     pagecolor="#1e1e1e" />
  <g
     sodipodi:insensitive="true"
     inkscape:label="artwork"
     id="layer2"
     inkscape:groupmode="layer">
    <image
       sodipodi:absref="D:\Pepper&amp;Carrot translation\ep36_the-suprise-attack\lang\gfx_Pepper-and-Carrot_by-David-Revoy_E36P09.png"
       xlink:href="../gfx_Pepper-and-Carrot_by-David-Revoy_E36P09.png"
       y="0"
       x="0"
       id="image10"
       height="3503"
       width="2481" />
  </g>
  <g
     style="display:inline"
     inkscape:label="speechbubbles"
     id="layer3"
     inkscape:groupmode="layer">
    <path
       sodipodi:nodetypes="ccccccccccccccccccccccsccccccccccccccccccccccccccccccccccccccccccccc"
       id="path4040-0"
       d="m 1490.4799,151.0589 -36.397,15.99852 5.9155,-3.06285 -15.893,0.98573 c -38.7135,-8.89188 -88.0037,-7.03882 -126.5802,-0.65352 l -10.7417,-6.37646 -1.5582,8.63635 c -1.7588,0.35741 -3.4982,0.72115 -5.192,1.09623 l -11.6621,-7.91219 1.4585,10.3828 c -0.2109,0.0553 -0.4185,0.11183 -0.628,0.16789 l -16.1733,-8.72859 2.9891,12.77432 c -0.7554,0.26758 -1.4948,0.53607 -2.2155,0.80666 l -20.7205,-19.04547 8.3791,24.8721 c -1.2209,0.77047 -2.2745,1.54276 -3.1706,2.31596 l -10.5793,-8.97226 5.1892,15.05903 c -1.1756,1.43907 -2.2862,2.84519 -3.3508,4.2285 l -13.3452,-1.98016 7.4087,10.26262 c -8.7563,13.36131 -11.9824,24.67787 -11.3474,37.80135 0.1275,2.63417 0.3669,5.18616 0.7043,7.66521 l -9.7003,6.69961 11.4444,2.26601 c 0.75,2.92447 1.6572,5.73369 2.7145,8.43067 l -11.9657,17.04733 h 14.5763 l -12.2749,14.5734 22.9179,-10.20173 c 0.2908,0.32606 0.5892,0.6461 0.8858,0.96783 l -7.6929,17.43246 16.111,-5.46621 -15.3429,20.03962 38.1473,-15.90742 -0.8362,28.79701 19.947,-13.66316 1.823,-0.0341 c 5.4839,2.3451 0.736,0.73569 6.6381,2.76196 31.1323,10.68865 89.3009,3.61447 130.8459,-7.62903 l 20.5473,10.22966 -6.703,-14.32321 c 0.4385,-0.14249 0.854,-0.28808 1.2864,-0.43128 l 21.5275,15.66463 -4.6028,-12.75121 20.7137,10.92921 -13.0416,-21.8601 11.5068,6.37644 -8.1102,-11.00487 c 0.9492,-0.64487 1.8941,-1.32019 2.8339,-2.02466 l 10.6471,3.01058 -6.5963,-6.26462 c 1.5629,-1.3398 3.0988,-2.75567 4.5945,-4.24819 l 16.5781,5.0465 -9.0711,-13.64015 c 0.9069,-1.1935 1.7878,-2.41473 2.6327,-3.66562 h 12.5757 l -5.759,-12.43026 c 8.1824,-19.08978 7.9911,-42.15103 -10.4835,-64.20105 l 6.3715,-9.95488 -12.3773,2.78835 5.0109,-21.5304 -18.8204,5.13489 11.2862,-13.0835 -15.8889,3.06455 12.6139,-13.26636 z"
       style="color:#000000;display:inline;overflow:visible;visibility:visible;fill:#ffffff;fill-opacity:1;fill-rule:nonzero;stroke:none;stroke-width:0.911406px;marker:none;enable-background:accumulate"
       inkscape:connector-curvature="0" />
    <path
       sodipodi:nodetypes="csssc"
       inkscape:connector-curvature="0"
       id="path3280-8-3"
       d="m 1640.3206,247.2037 c -1.1406,-13.30372 19.3109,-46.60819 119.0723,-44.10307 99.7615,2.50512 130.9853,17.1383 133.9087,40.78578 4.6247,37.40933 -47.8597,47.40616 -123.2225,50.17728 -77.691,2.8563 -130.9642,-22.82253 -129.7585,-46.85999 z"
       style="display:inline;fill:#ffffff;stroke:none;stroke-width:0.556289" />
    <path
       sodipodi:nodetypes="csssc"
       inkscape:connector-curvature="0"
       id="path3280-8-3-6"
       d="m 1686.0586,328.1032 c -1.0713,-18.56882 18.1381,-65.05394 111.8409,-61.55739 93.7029,3.49655 123.0305,23.921 125.7764,56.92725 4.3438,52.21453 -44.9532,66.16773 -115.7391,70.03555 -72.9728,3.98671 -123.0107,-31.85483 -121.8782,-65.40541 z"
       style="display:inline;fill:#ffffff;stroke:none;stroke-width:0.636944" />
    <path
       sodipodi:nodetypes="csssc"
       inkscape:connector-curvature="0"
       id="path3280-8-3-6-5"
       d="m 1965.7078,751.38994 c -1.367,-19.27887 23.1424,-67.54152 142.6979,-63.91126 119.556,3.63025 156.9751,24.8357 160.4786,59.10406 5.5423,54.21114 -57.3559,68.69789 -147.6718,72.71361 -93.1063,4.13915 -156.9497,-33.07291 -155.5047,-67.90641 z"
       style="display:inline;fill:#ffffff;stroke:none;stroke-width:0.733093" />
    <path
       sodipodi:nodetypes="csssc"
       inkscape:connector-curvature="0"
       id="path3280-8-3-6-1"
       d="m 1719.7977,412.82376 c -1.2,-18.56882 20.3162,-65.05394 125.2714,-61.55739 104.9553,3.49655 137.8047,23.921 140.8804,56.92725 4.8654,52.21453 -50.3515,66.16773 -129.6378,70.03555 -81.7358,3.98671 -137.7825,-31.85483 -136.514,-65.40541 z"
       style="display:inline;fill:#ffffff;stroke:none;stroke-width:0.674104" />
    <path
       sodipodi:nodetypes="cscc"
       inkscape:connector-curvature="0"
       id="path4035-4"
       d="m 1994.3633,497.40752 c 26.4763,-24.04182 38.2287,-79.53679 -27.9332,-97.77721 -29.9281,-8.25083 -20.468,15.10178 -20.468,15.10178 18.7003,6.91299 84.5389,19.28667 48.4012,82.67543 z"
       style="color:#000000;display:inline;overflow:visible;visibility:visible;fill:#ffffff;fill-opacity:1;fill-rule:nonzero;stroke:none;stroke-width:0.726834px;marker:none;enable-background:accumulate" />
    <path
       sodipodi:nodetypes="ccccc"
       inkscape:connector-curvature="0"
       id="path3072-56"
       d="m 2178.1785,620.93948 c -23.0277,32.44689 -18.8501,67.85601 1.0934,80.85132 10.7271,34.11102 -6.908,26.68939 -6.908,26.68939 l -15.2972,-2.68538 c -17.3389,-28.7972 -28.1116,-80.24692 21.1118,-104.85533 z"
       style="color:#000000;display:inline;overflow:visible;visibility:visible;fill:#ffffff;fill-opacity:1;fill-rule:nonzero;stroke:none;stroke-width:0.713612px;marker:none;enable-background:accumulate" />
    <path
       sodipodi:nodetypes="csssc"
       inkscape:connector-curvature="0"
       id="path3280-64"
       d="m 214.71413,1300.0799 c 0.7191,-55.0786 27.25411,-104.6033 147.80099,-95.7636 120.54698,8.8397 160.13339,14.7739 160.37989,89.871 0.25808,78.5925 -59.68732,97.0774 -150.9301,100.1195 -94.06146,3.1358 -156.87853,-28.8032 -157.25078,-94.2269 z"
       style="display:inline;fill:#ffffff;stroke:none;stroke-width:1.17353" />
    <path
       sodipodi:nodetypes="csssc"
       inkscape:connector-curvature="0"
       id="path3280-64-3"
       d="m 274.58228,1469.4105 c 0.76696,-52.3128 29.06771,-99.3281 157.63625,-90.8275 128.56865,8.5006 170.78931,14.1713 171.05221,85.4983 0.27525,74.6471 -63.65916,92.1519 -160.9736,94.9619 -100.32067,2.8967 -167.31785,-27.4933 -167.71486,-89.6327 z"
       style="display:inline;fill:#ffffff;stroke:none;stroke-width:1.18114" />
    <path
       sodipodi:nodetypes="ccccccssc"
       inkscape:connector-curvature="0"
       id="path1081"
       d="m 514.9694,1536.754 c -11.53719,28.8096 -11.89495,35.669 -10.75405,46.6441 1.14092,10.9751 18.8596,27.895 37.58928,32.4679 18.72967,4.5729 32.89639,19.2064 27.10954,29.267 -5.78678,10.0605 -29.03251,49.8451 33.59167,62.1921 -56.81275,-21.5856 -26.68209,-49.5976 -22.04127,-56.4569 4.64088,-6.8595 9.09415,-27.4534 -18.92786,-43.916 -28.02209,-16.4627 -44.32532,-25.8975 -18.18083,-57.9083 26.14444,-32.0106 -28.38648,-12.2899 -28.38648,-12.2899 z"
       style="fill:#ffffff;fill-rule:evenodd;stroke:none;stroke-width:0.744339px;stroke-linecap:butt;stroke-linejoin:miter;stroke-opacity:1" />
    <path
       sodipodi:nodetypes="zssssz"
       inkscape:connector-curvature="0"
       id="path4040-40"
       d="m 1187.6917,1823.3759 c -46.4005,0.6844 -93.4356,3.7026 -136.9126,13.2195 -29.9819,7.5696 -52.67931,23.3207 -60.1975,41.1231 -3.95786,9.4659 -2.73313,19.5609 3.64271,28.616 10.31469,15.376 31.80959,27.6917 56.29549,36.4385 24.2778,8.6664 52.3755,13.3977 80.6818,15.8837 46.3552,4.3254 93.5228,4.8329 140.4186,4.5976 25.4058,-0.295 50.7892,-2.4466 74.9675,-6.855 17.8742,-3.1215 35.5396,-6.7837 52.176,-11.5982 16.3185,-5.6562 29.2341,-13.8343 40.582,-22.3598 10.0448,-8.5776 13.0255,-19.3303 9.7879,-29.3307 -5.3685,-20.805 -29.4929,-39.9169 -63.351,-49.3338 -20.7414,-5.9796 -43.7712,-8.7625 -66.3608,-11.6665 -32.7571,-3.8442 -66.0117,-6.2264 -99.2991,-8.0888 -10.7879,-0.4678 -21.6091,-0.7231 -32.431,-0.6456 z"
       style="color:#000000;display:inline;overflow:visible;visibility:visible;fill:#ffffff;fill-opacity:1;fill-rule:nonzero;stroke:none;stroke-width:0.749562px;marker:none;enable-background:accumulate" />
    <path
       sodipodi:nodetypes="csssssc"
       inkscape:connector-curvature="0"
       id="path3270-6-0"
       d="m 1053.6189,1987.1687 c 5.4439,-29.0177 24.2504,-56.7927 137.5835,-60.5236 56.6666,-1.8654 165.8966,-2.6545 220.2768,10.8985 54.3803,13.554 53.9107,41.451 54.1581,52.4371 0.2475,10.985 4.7925,38.2169 -51.0629,48.8921 -55.8555,10.6751 -172.1114,4.7935 -217.8901,5.2077 -91.5574,0.8294 -140.096,-0.1191 -143.0654,-56.9118 z"
       style="display:inline;fill:#ffffff;stroke:none;stroke-width:1.0136" />
    <path
       sodipodi:nodetypes="csssssc"
       inkscape:connector-curvature="0"
       id="path3270-6-0-4"
       d="m 1491.2944,2069.3255 c -4.9977,26.06 -24.0261,51.1378 -142.6798,55.5976 -59.3269,2.2297 -173.7533,4.0126 -231.0599,-7.5985 -57.3067,-11.612 -57.4937,-36.6186 -58.0202,-46.4623 -0.5268,-9.8425 -5.9516,-34.2037 52.311,-44.3211 58.2628,-10.1173 180.2127,-5.9909 228.1672,-6.8129 95.9089,-1.6448 146.7882,-1.2727 151.2817,49.5972 z"
       style="display:inline;fill:#ffffff;stroke:none;stroke-width:0.982333" />
    <path
       sodipodi:nodetypes="ccscc"
       inkscape:connector-curvature="0"
       id="path4035-4-3"
       d="m 1214.5521,1847.5799 c 38.7674,-26.2088 5.5435,-82.6347 -60.2586,-97.084 25.29,5.3642 112.2954,4.2086 101.853,112.7345 -5.1653,53.6821 -27.461,-10.4151 -27.461,-10.4151 z"
       style="color:#000000;display:inline;overflow:visible;visibility:visible;fill:#ffffff;fill-opacity:1;fill-rule:nonzero;stroke:none;stroke-width:1px;marker:none;enable-background:accumulate" />
    <path
       sodipodi:nodetypes="zssssz"
       inkscape:connector-curvature="0"
       id="path4040-3"
       d="m 1696.0469,2000.709 c -41.2686,0.209 -82.7773,4.3329 -122.5845,15.5597 -14.9601,6.4991 -25.7745,19.8575 -33.031,34.0856 -5.5947,13.0143 -2.1461,29.3662 8.5647,38.7434 12.4778,12.247 29.8114,17.5968 46.5703,20.8652 28.4258,5.1978 57.4457,4.0814 86.1979,4.9433 51.7458,0.7198 103.542,1.9083 155.259,-0.593 21.746,-1.2277 43.5716,-3.4304 64.722,-8.7976 15.0785,-4.9268 28.326,-17.6984 30.7899,-33.7832 2.81,-18.0522 -7.7575,-36.8217 -24.0562,-44.7201 -17.1089,-9.07 -36.6754,-10.8563 -55.4048,-14.3519 -49.6806,-9.6286 -100.4373,-11.407 -150.9088,-11.9574 -2.0395,-0.011 -4.079,7e-4 -6.1185,0.01 z"
       style="color:#000000;display:inline;overflow:visible;visibility:visible;fill:#ffffff;fill-opacity:1;fill-rule:nonzero;stroke:none;stroke-width:0.728631px;marker:none;enable-background:accumulate" />
    <path
       sodipodi:nodetypes="zssssz"
       inkscape:connector-curvature="0"
       id="path4040-3-8"
       d="m 1751.2004,2087.8591 c -21.6503,0.5276 -43.2884,1.4691 -64.9114,2.5814 -26.6679,1.5504 -53.4143,3.9312 -79.4455,9.6351 -17.5485,5.0734 -31.2862,17.8641 -39.801,32.4497 -12.3759,19.8958 -14.9555,45.2894 -4.3573,66.2981 10.2615,20.8767 31.3345,36.3938 54.9783,43.2604 29.72,10.1982 61.7244,12.2496 93.1393,13.7991 33.1928,1.7271 66.4995,1.4956 99.6582,-0.7142 31.5154,-2.2332 63.2531,-3.2484 94.3815,-8.6287 10.4658,-1.9124 21.1621,-4.061 30.2921,-9.3667 20.1886,-11.0687 32.4208,-32.147 33.5013,-53.3952 0.7755,-12.4708 -2.406,-25.0451 -8.8541,-36.0427 -11.7251,-21.003 -33.7091,-36.5392 -58.3462,-43.0615 -28.9647,-8.7253 -59.3435,-12.7392 -89.645,-15.0748 -20.1565,-1.4023 -40.3807,-1.8016 -60.5902,-1.74 z"
       style="color:#000000;display:inline;overflow:visible;visibility:visible;fill:#ffffff;fill-opacity:1;fill-rule:nonzero;stroke:none;stroke-width:0.880219px;marker:none;enable-background:accumulate" />
    <path
       sodipodi:nodetypes="ccccc"
       inkscape:transform-center-y="-27.769577"
       inkscape:transform-center-x="5.7456817"
       inkscape:connector-curvature="0"
       id="path3072-5"
       d="m 1805.2502,1871.4038 c -48.5665,4.6894 -79.412,70.1969 -56.1848,132.2934 25.15,70.1387 26.677,77.2265 26.677,77.2265 l -56.6491,9.3192 c 0,0 -38.1773,-219.1208 86.1569,-218.8391 z"
       style="color:#000000;display:inline;overflow:visible;visibility:visible;fill:#ffffff;fill-opacity:1;fill-rule:nonzero;stroke:none;stroke-width:1.49143px;marker:none;enable-background:accumulate" />
    <path
       sodipodi:nodetypes="csssc"
       inkscape:connector-curvature="0"
       id="path3938-8"
       d="m 122.32915,2423.2315 c -0.65099,-46.575 18.78716,-57.033 38.51304,-63.589 19.72588,-6.5549 81.03137,0.7107 76.52794,57.7048 -4.50335,56.993 -34.16537,64.8916 -58.67289,62.3722 -24.50759,-2.5194 -52.81201,-12.3567 -56.36809,-56.488 z"
       style="fill:#ffffff;stroke:none;stroke-width:1.02243" />
    <path
       inkscape:connector-curvature="0"
       id="path3072-5-5"
       d="m 198.99826,2535.3479 c -21.21366,-18.4099 -27.69466,-26.333 -17.76531,-61.1618 9.92883,-34.8282 -1.89984,-37.3442 -1.89984,-37.3442 l -17.26661,17.1288 c 0,0 -16.48003,75.3965 36.93176,81.3772 z"
       style="color:#000000;display:inline;overflow:visible;visibility:visible;fill:#ffffff;fill-opacity:1;fill-rule:nonzero;stroke:none;stroke-width:0.705046px;marker:none;enable-background:accumulate" />
    <path
       sodipodi:nodetypes="cccccccccccc"
       inkscape:connector-curvature="0"
       id="path4584-7"
       d="m 708.75495,2449.0155 c 14.5963,-5.0277 29.45823,-7.6419 14.76359,-43.3636 20.36423,17.6363 51.43599,27.3966 64.4721,-10.3504 10.65105,35.9524 36.70966,20.1185 52.44579,10.2994 -11.51376,43.378 4.24036,35.1798 24.6432,29.1678 -34.8123,39.3654 -23.48569,65.7992 -2.37948,83.4552 -33.1887,-8.7171 -48.73493,-0.3027 -39.05901,31.0035 -23.90174,-32.391 -51.48174,-26.1466 -43.431,4.7626 -5.92921,-14.6738 -5.30213,-45.4111 -37.27911,1.9875 10.10638,-49.4182 -5.62787,-39.5296 -30.4995,-21.2855 14.72945,-17.2591 29.25012,-41.013 -4.40012,-38.3256 21.01857,-16.0026 28.32042,-28.1664 0.72354,-47.3509 z"
       style="fill:#ffffff;fill-rule:evenodd;stroke:none;stroke-width:0.749286px;stroke-linecap:butt;stroke-linejoin:miter;stroke-opacity:1" />
    <path
       inkscape:transform-center-y="-49.401625"
       inkscape:transform-center-x="2.4319054"
       sodipodi:nodetypes="csccc"
       inkscape:connector-curvature="0"
       id="path4000-2"
       d="m 781.98136,2627.2511 c 16.94744,-54.9279 15.7357,-83.4683 13.28083,-110.1888 -1.15529,-12.5729 -25.39345,0.9196 -25.39345,0.9196 l 6.2837,24.2557 c 0,0 14.8528,36.3747 5.82892,85.0135 z"
       style="color:#000000;display:inline;overflow:visible;visibility:visible;fill:#ffffff;fill-opacity:1;fill-rule:nonzero;stroke:none;stroke-width:0.903953px;marker:none;enable-background:accumulate" />
    <path
       sodipodi:nodetypes="cccccccccccccccccccc"
       inkscape:connector-curvature="0"
       id="path1096"
       d="m 1124.7443,2386.4076 c 28.5199,21.7746 23.2685,31.2802 -16.9356,28.0878 64.0979,33.4358 37.6375,38.4404 -2.9452,39.0109 27.2431,12.2127 57.3871,24.1635 -5.1544,44.4726 36.2434,3.2928 67.8229,7.942 5.8908,39.791 32.1318,-1.3079 58.6768,-4.204 25.7715,40.5716 43.292,-28.2156 67.1884,-34.6217 61.8518,23.4065 21.8309,-28.9142 49.607,-51.6771 54.4884,-10.923 9.894,-27.8161 27.5279,-17.464 55.2249,7.022 -5.401,-17.6591 -21.6734,-45.6462 27.2443,-11.7032 -14.7881,-26.5591 -15.847,-55.5279 41.1694,-30.2747 -22.2671,-25.2188 -46.6144,-59.7778 9.0117,-60.1176 -42.7808,-12.711 -28.0959,1.1783 -1.5895,-15.2579 -49.5678,-9.0838 -19.4881,-15.8532 -0.63,-16.9548 -22.7787,-8.1536 -47.1255,-13.6133 1.3725,-50.6039 -53.3828,15.3566 -37.934,-10.616 -35.3439,-28.8681 -24.6352,14.4932 -52.4941,37.2415 -54.4885,-6.2418 -33.0473,53.9488 -45.5598,12.7039 -64.0609,-0.7801 -19.2429,64.1941 -62.8644,5.0311 -75.1056,0.7801 24.9635,26.2745 29.3221,38.1711 -25.7717,8.5826 z"
       style="display:inline;fill:#ffffff;fill-rule:evenodd;stroke:none;stroke-width:0.895046px;stroke-linecap:butt;stroke-linejoin:miter;stroke-opacity:1" />
    <path
       sodipodi:nodetypes="cccccccc"
       inkscape:connector-curvature="0"
       id="path5066"
       d="m 1307.2436,2488.0482 c 34.4691,10.3214 137.2116,18.8814 147.5061,20.5688 -2.7296,-8.2946 -2.8183,-15.8452 -3.0574,-21.7386 18.7731,4.1984 104.5487,26.9164 121.1894,37.5539 -39.5082,-27.2781 -102.8788,-47.4443 -134.3176,-52.7848 -1.8623,7.7288 -1.338,12.6103 -2.4791,16.6583 -15.8621,-2.1642 -120.7089,-19.7202 -120.7089,-19.7202 z"
       style="color:#000000;display:inline;overflow:visible;visibility:visible;fill:#ffffff;fill-opacity:1;fill-rule:nonzero;stroke:none;stroke-width:1.09189px;marker:none;enable-background:accumulate" />
    <path
       sodipodi:nodetypes="ccccccccccccc"
       inkscape:transform-center-y="-26.822495"
       inkscape:transform-center-x="-20.153642"
       inkscape:connector-curvature="0"
       id="path4496-9"
       d="m 1271.7294,480.1254 c -11.0023,-15.06298 -38.8277,-56.07942 -16.1175,-66.94339 6.656,-3.61412 12.7461,-3.99316 17.5532,-10.18221 -1.5928,-28.79108 -29.0451,-53.82693 -8.5176,-97.73612 2.2848,-5.53581 5.4855,-11.00583 10.7601,-14.34816 13.1154,-9.17132 32.0236,-11.14031 46.5765,-3.23776 8.8026,5.8805 12.0877,18.99851 5.3452,27.21065 -3.4903,4.3872 -9.5362,5.74632 -15.0619,5.40264 -10.2475,1.19375 -25.7267,8.83678 -29.9056,17.75168 -8.6972,20.74768 -1.1751,35.54466 5.9227,53.81721 2.4542,13.57995 -3.3565,25.01922 -9.1759,26.29344 -7.0448,1.62984 -15.4205,2.75049 -19.696,9.04109 -4.4656,11.69677 4.8011,35.34372 12.3168,52.93093 z"
       style="color:#000000;display:inline;overflow:visible;visibility:visible;fill:#ffffff;fill-opacity:1;fill-rule:nonzero;stroke:none;stroke-width:1px;marker:none;enable-background:accumulate" />
  </g>
  <g
     style="display:inline"
     inkscape:label="txt"
     id="layer1"
     inkscape:groupmode="layer">
    <text
       transform="matrix(0.55850362,-0.1661484,-0.08410394,0.62710861,377.14256,-370.91536)"
       id="text4580-6-0-8"
       y="1584.5073"
       x="787.65729"
       style="font-style:normal;font-variant:normal;font-weight:normal;font-stretch:normal;line-height:0%;font-family:'Xiaolai SC';-inkscape-font-specification:'Xiaolai SC';letter-spacing:0px;word-spacing:0px;fill:#ffffff;fill-opacity:1;stroke:#98b9ca;stroke-width:0.992362;stroke-miterlimit:4;stroke-dasharray:none;stroke-opacity:1;filter:url(#filter4375-4-1-1-1-9-5-8-2-4)"
       xml:space="preserve"><tspan
         style="font-style:normal;font-variant:normal;font-weight:normal;font-stretch:normal;font-size:70px;line-height:1.25;font-family:'Xiaolai SC';-inkscape-font-specification:'Xiaolai SC';fill:#ffffff;fill-opacity:1;stroke:#98b9ca;stroke-opacity:1"
         y="1584.5073"
         x="787.65729"
         id="tspan4582-1-1-7"
         sodipodi:role="line"><tspan
           id="tspan4315-8-9"
           style="font-style:normal;font-variant:normal;font-weight:normal;font-stretch:normal;font-size:93.1495px;font-family:'Xiaolai SC';-inkscape-font-specification:'Xiaolai SC';fill:#ffffff;fill-opacity:1;stroke:#98b9ca;stroke-opacity:1">咳咳</tspan></tspan></text>
    <text
       transform="matrix(0.55850362,-0.1661484,-0.08410394,0.62710861,445.1572,-320.82968)"
       id="text4580-6-0"
       y="1584.5073"
       x="787.65729"
       style="font-style:normal;font-variant:normal;font-weight:normal;font-stretch:normal;line-height:0%;font-family:'Xiaolai SC';-inkscape-font-specification:'Xiaolai SC';letter-spacing:0px;word-spacing:0px;fill:#ffffff;fill-opacity:1;stroke:#98b9ca;stroke-width:0.992362;stroke-miterlimit:4;stroke-dasharray:none;stroke-opacity:1;filter:url(#filter4375-4-1-1-1-9-5-8-9)"
       xml:space="preserve"><tspan
         id="tspan147"
         style="font-style:normal;font-variant:normal;font-weight:normal;font-stretch:normal;font-size:70px;line-height:1.25;font-family:'Xiaolai SC';-inkscape-font-specification:'Xiaolai SC';fill:#ffffff;fill-opacity:1;stroke:#98b9ca;stroke-opacity:1"
         y="1584.5073"
         x="787.65729"
         sodipodi:role="line"><tspan
           id="tspan4315-8"
           style="font-style:normal;font-variant:normal;font-weight:normal;font-stretch:normal;font-size:93.1495px;font-family:'Xiaolai SC';-inkscape-font-specification:'Xiaolai SC';fill:#ffffff;fill-opacity:1;stroke:#98b9ca;stroke-opacity:1">咳咳！</tspan><tspan
           id="tspan149"
           style="font-style:normal;font-variant:normal;font-weight:normal;font-stretch:normal;font-size:114.732px;font-family:'Xiaolai SC';-inkscape-font-specification:'Xiaolai SC';fill:#ffffff;fill-opacity:1;stroke:#98b9ca;stroke-opacity:1" /></tspan></text>
    <text
       transform="scale(0.99789912,1.0021053)"
       id="text4246-1-3-2-8"
       y="221.42824"
       x="1385.8785"
       style="font-style:normal;font-variant:normal;font-weight:normal;font-stretch:normal;font-size:48px;line-height:0%;font-family:'Xiaolai SC';-inkscape-font-specification:'Xiaolai SC';text-align:center;letter-spacing:0px;word-spacing:0px;text-anchor:middle;fill:#000000;fill-opacity:1;stroke:none;stroke-width:0.925737"
       xml:space="preserve"><tspan
         id="tspan22950"
         y="221.42824"
         x="1385.8785"
         style="font-style:normal;font-variant:normal;font-weight:normal;font-stretch:normal;font-size:48px;line-height:1.25;font-family:'Xiaolai SC';-inkscape-font-specification:'Xiaolai SC';stroke-width:0.925737"
         sodipodi:role="line">七味粉，</tspan><tspan
         id="tspan158"
         y="281.42822"
         x="1385.8785"
         style="font-style:normal;font-variant:normal;font-weight:normal;font-stretch:normal;font-size:48px;line-height:1.25;font-family:'Xiaolai SC';-inkscape-font-specification:'Xiaolai SC';stroke-width:0.925737"
         sodipodi:role="line">还好吗？</tspan></text>
    <text
       xml:space="preserve"
       style="font-style:normal;font-variant:normal;font-weight:normal;font-stretch:normal;line-height:0%;font-family:'Xiaolai SC';-inkscape-font-specification:'Xiaolai SC';text-align:center;letter-spacing:0px;word-spacing:0px;text-anchor:middle;fill:#000000;fill-opacity:1;stroke:none"
       x="1785.0497"
       y="260.35748"
       id="text4246-4-2-7"><tspan
         id="tspan33376"
         sodipodi:role="line"
         style="font-style:normal;font-variant:normal;font-weight:normal;font-stretch:normal;font-size:45px;line-height:1.25;font-family:'Xiaolai SC';-inkscape-font-specification:'Xiaolai SC'"
         x="1785.0497"
         y="260.35748">还好！</tspan></text>
    <text
       xml:space="preserve"
       style="font-style:normal;font-variant:normal;font-weight:normal;font-stretch:normal;line-height:0%;font-family:'Xiaolai SC';-inkscape-font-specification:'Xiaolai SC';text-align:center;letter-spacing:0px;word-spacing:0px;text-anchor:middle;fill:#000000;fill-opacity:1;stroke:none"
       x="1815.5814"
       y="346.55103"
       id="text4246-4-2-7-0"><tspan
         id="tspan33376-3"
         sodipodi:role="line"
         style="font-style:normal;font-variant:normal;font-weight:normal;font-stretch:normal;font-size:45px;line-height:1.25;font-family:'Xiaolai SC';-inkscape-font-specification:'Xiaolai SC'"
         x="1815.5814"
         y="346.55103">你呢？</tspan></text>
    <text
       xml:space="preserve"
       style="font-style:normal;font-variant:normal;font-weight:normal;font-stretch:normal;line-height:0%;font-family:'Xiaolai SC';-inkscape-font-specification:'Xiaolai SC';text-align:center;letter-spacing:0px;word-spacing:0px;text-anchor:middle;fill:#000000;fill-opacity:1;stroke:none"
       x="1870.5101"
       y="433.27176"
       id="text4246-4-2-7-0-7"><tspan
         id="tspan33376-3-5"
         sodipodi:role="line"
         style="font-style:normal;font-variant:normal;font-weight:normal;font-stretch:normal;font-size:45px;line-height:1.25;font-family:'Xiaolai SC';-inkscape-font-specification:'Xiaolai SC'"
         x="1870.5101"
         y="433.27176">萝卜头呢？</tspan></text>
    <text
       xml:space="preserve"
       style="font-style:normal;font-variant:normal;font-weight:normal;font-stretch:normal;line-height:0%;font-family:'Xiaolai SC';-inkscape-font-specification:'Xiaolai SC';text-align:center;letter-spacing:0px;word-spacing:0px;text-anchor:middle;fill:#000000;fill-opacity:1;stroke:none"
       x="2131.125"
       y="766.52582"
       id="text4246-4-2-7-0-7-5"><tspan
         id="tspan33376-3-5-4"
         sodipodi:role="line"
         style="font-style:normal;font-variant:normal;font-weight:normal;font-stretch:normal;font-size:45px;line-height:1.25;font-family:'Xiaolai SC';-inkscape-font-specification:'Xiaolai SC'"
         x="2131.125"
         y="766.52582">我们也还好。</tspan></text>
    <text
       xml:space="preserve"
       style="font-style:normal;font-variant:normal;font-weight:normal;font-stretch:normal;line-height:0%;font-family:'Xiaolai SC';-inkscape-font-specification:'Xiaolai SC';text-align:center;letter-spacing:0px;word-spacing:0px;text-anchor:middle;fill:#000000;fill-opacity:1;stroke:none"
       x="364.25861"
       y="1281.8848"
       id="text4246-4-2-7-0-7-5-7"><tspan
         id="tspan48860"
         sodipodi:role="line"
         style="font-style:normal;font-variant:normal;font-weight:normal;font-stretch:normal;font-size:45px;line-height:1.25;font-family:'Xiaolai SC';-inkscape-font-specification:'Xiaolai SC'"
         x="364.25861"
         y="1281.8848">这到底是</tspan><tspan
         id="tspan164"
         sodipodi:role="line"
         style="font-style:normal;font-variant:normal;font-weight:normal;font-stretch:normal;font-size:45px;line-height:1.25;font-family:'Xiaolai SC';-inkscape-font-specification:'Xiaolai SC'"
         x="364.25861"
         y="1338.1348">怎么回事…</tspan></text>
    <text
       xml:space="preserve"
       style="font-style:normal;font-variant:normal;font-weight:normal;font-stretch:normal;line-height:0%;font-family:'Xiaolai SC';-inkscape-font-specification:'Xiaolai SC';text-align:center;letter-spacing:0px;word-spacing:0px;text-anchor:middle;fill:#000000;fill-opacity:1;stroke:none"
       x="437.53149"
       y="1454.4156"
       id="text4246-4-2-7-0-7-5-7-5"><tspan
         id="tspan52516"
         sodipodi:role="line"
         style="font-style:normal;font-variant:normal;font-weight:normal;font-stretch:normal;font-size:45px;line-height:1.25;font-family:'Xiaolai SC';-inkscape-font-specification:'Xiaolai SC'"
         x="437.53149"
         y="1454.4156">我…简直…</tspan><tspan
         id="tspan168"
         sodipodi:role="line"
         style="font-style:normal;font-variant:normal;font-weight:normal;font-stretch:normal;font-size:45px;line-height:1.25;font-family:'Xiaolai SC';-inkscape-font-specification:'Xiaolai SC'"
         x="437.53149"
         y="1510.6656">不敢相信…</tspan></text>
    <text
       xml:space="preserve"
       style="font-style:normal;font-variant:normal;font-weight:normal;font-stretch:normal;line-height:0%;font-family:'Xiaolai SC';-inkscape-font-specification:'Xiaolai SC';text-align:center;letter-spacing:0px;word-spacing:0px;text-anchor:middle;fill:#000000;fill-opacity:1;stroke:none"
       x="1226.4077"
       y="1907.5272"
       id="text4246-4-2-7-0-7-5-7-5-7"><tspan
         id="tspan60233"
         sodipodi:role="line"
         style="font-style:normal;font-variant:normal;font-weight:normal;font-stretch:normal;font-size:45px;line-height:1.25;font-family:'Xiaolai SC';-inkscape-font-specification:'Xiaolai SC'"
         x="1226.4077"
         y="1907.5272">从哪儿来的军队？！</tspan></text>
    <text
       xml:space="preserve"
       style="font-style:normal;font-variant:normal;font-weight:normal;font-stretch:normal;line-height:0%;font-family:'Xiaolai SC';-inkscape-font-specification:'Xiaolai SC';text-align:center;letter-spacing:0px;word-spacing:0px;text-anchor:middle;fill:#000000;fill-opacity:1;stroke:none"
       x="1270.9497"
       y="2005.4408"
       id="text4246-4-2-7-0-7-5-7-5-7-2"><tspan
         id="tspan60233-4"
         sodipodi:role="line"
         style="font-style:normal;font-variant:normal;font-weight:normal;font-stretch:normal;font-size:45px;line-height:1.25;font-family:'Xiaolai SC';-inkscape-font-specification:'Xiaolai SC'"
         x="1270.9497"
         y="2005.4408">还有弩炮？！</tspan></text>
    <text
       xml:space="preserve"
       style="font-style:normal;font-variant:normal;font-weight:normal;font-stretch:normal;line-height:0%;font-family:'Xiaolai SC';-inkscape-font-specification:'Xiaolai SC';text-align:center;letter-spacing:0px;word-spacing:0px;text-anchor:middle;fill:#000000;fill-opacity:1;stroke:none"
       x="1279.6863"
       y="2086.3462"
       id="text4246-4-2-7-0-7-5-7-5-7-2-7"><tspan
         id="tspan87192"
         sodipodi:role="line"
         style="font-style:normal;font-variant:normal;font-weight:normal;font-stretch:normal;font-size:45px;line-height:1.25;font-family:'Xiaolai SC';-inkscape-font-specification:'Xiaolai SC'"
         x="1279.6863"
         y="2086.3462">他们想把咱们怎样？</tspan></text>
    <text
       xml:space="preserve"
       style="font-style:normal;font-variant:normal;font-weight:normal;font-stretch:normal;line-height:0%;font-family:'Xiaolai SC';-inkscape-font-specification:'Xiaolai SC';text-align:center;letter-spacing:0px;word-spacing:0px;text-anchor:middle;fill:#000000;fill-opacity:1;stroke:none"
       x="1742.6324"
       y="2074.8538"
       id="text4246-4-2-7-0-7-5-7-5-7-2-7-0"><tspan
         id="tspan87192-8"
         sodipodi:role="line"
         style="font-style:normal;font-variant:normal;font-weight:normal;font-stretch:normal;font-size:45px;line-height:1.25;font-family:'Xiaolai SC';-inkscape-font-specification:'Xiaolai SC'"
         x="1742.6324"
         y="2074.8538">我也不知道……</tspan></text>
    <text
       xml:space="preserve"
       style="font-style:normal;font-variant:normal;font-weight:normal;font-stretch:normal;line-height:0%;font-family:'Xiaolai SC';-inkscape-font-specification:'Xiaolai SC';text-align:center;letter-spacing:0px;word-spacing:0px;text-anchor:middle;fill:#000000;fill-opacity:1;stroke:none"
       x="1751.7799"
       y="2168.2126"
       id="text4246-4-2-7-0-7-5-7-5-7-2-7-0-6"><tspan
         id="tspan94572"
         sodipodi:role="line"
         style="font-style:normal;font-variant:normal;font-weight:normal;font-stretch:normal;font-size:45px;line-height:1.25;font-family:'Xiaolai SC';-inkscape-font-specification:'Xiaolai SC'"
         x="1751.7799"
         y="2168.2126">但我认识率军的</tspan><tspan
         id="tspan176"
         sodipodi:role="line"
         style="font-style:normal;font-variant:normal;font-weight:normal;font-stretch:normal;font-size:45px;line-height:1.25;font-family:'Xiaolai SC';-inkscape-font-specification:'Xiaolai SC'"
         x="1751.7799"
         y="2224.4626">那两个人。</tspan></text>
    <text
       transform="scale(1.0415118,0.96014276)"
       xml:space="preserve"
       style="font-style:normal;font-variant:normal;font-weight:normal;font-stretch:normal;font-size:20.1855px;line-height:0%;font-family:'Xiaolai SC';-inkscape-font-specification:'Xiaolai SC';text-align:center;letter-spacing:0px;word-spacing:0px;text-anchor:middle;fill:#000000;fill-opacity:1;stroke:none;stroke-width:1.68213;"
       x="171.54672"
       y="2545.9878"
       id="text4246-4-2-7-0-7-5-7-5-7-2-7-0-6-4"><tspan
         id="tspan94572-1"
         sodipodi:role="line"
         style="font-style:normal;font-variant:normal;font-weight:normal;font-stretch:normal;font-size:75.6958px;line-height:1.25;font-family:'Xiaolai SC';-inkscape-font-specification:'Xiaolai SC';stroke-width:1.68213;"
         x="171.54672"
         y="2545.9878">?</tspan></text>
    <text
       transform="scale(1.0289557,0.97185912)"
       xml:space="preserve"
       style="font-style:normal;font-variant:normal;font-weight:normal;font-stretch:normal;font-size:18.2467px;line-height:0%;font-family:'Xiaolai SC';-inkscape-font-specification:'Xiaolai SC';text-align:center;letter-spacing:0px;word-spacing:0px;text-anchor:middle;fill:#000000;fill-opacity:1;stroke:none;stroke-width:1.52057;"
       x="757.89764"
       y="2570.4646"
       id="text4246-4-2-7-0-7-5-7-5-7-2-7-0-6-4-4"><tspan
         id="tspan94572-1-9"
         sodipodi:role="line"
         style="font-style:normal;font-variant:normal;font-weight:normal;font-stretch:normal;font-size:68.4254px;line-height:1.25;font-family:'Xiaolai SC';-inkscape-font-specification:'Xiaolai SC';stroke-width:1.52057;"
         x="757.89764"
         y="2570.4646"><tspan
   id="tspan113997"
   style="font-size:63.2767px;stroke-width:1.52057;-inkscape-font-specification:'Xiaolai SC';font-family:'Xiaolai SC';font-weight:normal;font-style:normal;font-stretch:normal;font-variant:normal;"><tspan
   id="tspan117389"
   style="font-size:58.7569px;stroke-width:1.52057;-inkscape-font-specification:'Xiaolai SC';font-family:'Xiaolai SC';font-weight:normal;font-style:normal;font-stretch:normal;font-variant:normal;">!</tspan>!</tspan>!</tspan></text>
    <text
       xml:space="preserve"
       style="font-style:normal;font-variant:normal;font-weight:normal;font-stretch:normal;font-size:11.0046px;line-height:0%;font-family:'Xiaolai SC';-inkscape-font-specification:'Xiaolai SC';text-align:center;letter-spacing:0px;word-spacing:0px;text-anchor:middle;fill:#000000;fill-opacity:1;stroke:none;stroke-width:0.917051"
       x="1257.2621"
       y="2472.5437"
       id="text4246-4-2-7-0-7-5-7-5-7-2-7-0-6-2"><tspan
         id="tspan119847"
         sodipodi:role="line"
         style="font-style:normal;font-variant:normal;font-weight:normal;font-stretch:normal;font-size:41.2673px;line-height:1.25;font-family:'Xiaolai SC';-inkscape-font-specification:'Xiaolai SC';stroke-width:0.917051"
         x="1257.2621"
         y="2472.5437">香榧子，</tspan><tspan
         id="tspan180"
         sodipodi:role="line"
         style="font-style:normal;font-variant:normal;font-weight:normal;font-stretch:normal;font-size:41.2673px;line-height:1.25;font-family:'Xiaolai SC';-inkscape-font-specification:'Xiaolai SC';stroke-width:0.917051"
         x="1257.2621"
         y="2524.1279">这里！</tspan></text>
  </g>
</svg>
