<?xml version="1.0" encoding="UTF-8" standalone="no"?>
<!-- Created with Inkscape (http://www.inkscape.org/) -->

<svg
   id="svg2"
   version="1.1"
   inkscape:version="1.1.2 (1:1.1+202202050950+0a00cf5339)"
   width="2481"
   height="3503"
   sodipodi:docname="E36P06.svg"
   xmlns:inkscape="http://www.inkscape.org/namespaces/inkscape"
   xmlns:sodipodi="http://sodipodi.sourceforge.net/DTD/sodipodi-0.dtd"
   xmlns:xlink="http://www.w3.org/1999/xlink"
   xmlns="http://www.w3.org/2000/svg"
   xmlns:svg="http://www.w3.org/2000/svg"
   xmlns:rdf="http://www.w3.org/1999/02/22-rdf-syntax-ns#"
   xmlns:cc="http://creativecommons.org/ns#"
   xmlns:dc="http://purl.org/dc/elements/1.1/">
  <metadata
     id="metadata8">
    <rdf:RDF>
      <cc:Work
         rdf:about="">
        <dc:format>image/svg+xml</dc:format>
        <dc:type
           rdf:resource="http://purl.org/dc/dcmitype/StillImage" />
        <dc:title />
      </cc:Work>
    </rdf:RDF>
  </metadata>
  <defs
     id="defs6" />
  <sodipodi:namedview
     pagecolor="#1e1e1e"
     bordercolor="#111111"
     borderopacity="1"
     objecttolerance="10"
     gridtolerance="10"
     guidetolerance="10"
     inkscape:pageopacity="0"
     inkscape:pageshadow="2"
     inkscape:window-width="1216"
     inkscape:window-height="704"
     id="namedview4"
     showgrid="false"
     inkscape:zoom="0.46000002"
     inkscape:cx="1788.0434"
     inkscape:cy="2765.2173"
     inkscape:window-x="0"
     inkscape:window-y="0"
     inkscape:window-maximized="0"
     inkscape:current-layer="layer1"
     inkscape:pagecheckerboard="0"
     inkscape:snap-global="false" />
  <g
     inkscape:groupmode="layer"
     id="layer2"
     inkscape:label="artwork"
     sodipodi:insensitive="true">
    <image
       xlink:href="../gfx_Pepper-and-Carrot_by-David-Revoy_E36P06.png"
       y="0"
       x="0"
       id="image10"
       height="3503"
       width="2481" />
  </g>
  <g
     inkscape:groupmode="layer"
     id="layer3"
     inkscape:label="speechbubbles"
     style="display:inline">
    <path
       style="color:#000000;display:inline;overflow:visible;visibility:visible;fill:#ffffff;fill-opacity:1;fill-rule:nonzero;stroke:none;stroke-width:0.825943px;marker:none;enable-background:accumulate"
       d="m 577.39062,1890.3496 c 13.55459,4.6614 27.39899,10.6876 36.98583,21.7461 6.87829,8.625 7.56098,20.6709 4.66066,30.9708 -1.44275,5.9611 -3.11819,12.8374 0.29351,18.4496 3.25292,4.4413 8.97247,5.7004 13.65335,8.0759 1.68146,0.5503 3.16657,2.0604 4.93205,2.0447 3.65441,-0.7862 8.30688,-4.5636 7.78517,-7.7805 0.4108,-14.3571 1.10006,-28.425 -3.6806,-42.3235 -4.09402,-10.8462 -16.4336,-19.4968 -27.02744,-23.2608 -13.09899,-5.2184 -27.0995,-7.7878 -41.09862,-9.0336 1.16537,0.3704 2.33073,0.7409 3.49609,1.1113 z"
       id="path4064-5-5"
       inkscape:connector-curvature="0"
       sodipodi:nodetypes="ccszccccccc" />
    <path
       style="color:#000000;display:inline;overflow:visible;visibility:visible;fill:#ffffff;fill-opacity:1;fill-rule:nonzero;stroke:none;stroke-width:1.4029px;marker:none;enable-background:accumulate"
       d="m 455.60235,2072.4923 c -0.0344,-45.0514 25.90507,-87.9009 63.46254,-113.9953 28.06808,-19.7807 63.36151,-30.3819 98.21051,-27.6838 38.50308,1.6551 77.17295,11.8868 109.08815,33.1033 27.90588,18.281 51.01118,45.6422 57.29754,78.1336 7.20452,35.2659 -8.93246,72.1995 -36.09575,95.9525 -16.81595,14.9641 -37.97909,25.0295 -60.38153,29.5122 -48.77854,10.2179 -100.04662,9.8144 -148.49737,-1.9131 -41.89692,-14.6618 -73.13913,-51.8164 -83.08409,-93.1094 z"
       id="path3365-8"
       inkscape:connector-curvature="0"
       sodipodi:nodetypes="cssccsc" />
    <path
       style="color:#000000;display:inline;overflow:visible;visibility:visible;fill:#ffffff;fill-opacity:1;fill-rule:nonzero;stroke:none;stroke-width:1.38472px;marker:none;enable-background:accumulate"
       d="m 1900.1746,1570.3017 c -58.7861,5.1775 -130.8013,-1.0042 -172.3771,39.7662 -41.1971,46.4515 -34.2028,115.083 9.7883,158.5851 46.1949,33.3212 113.4735,29.7218 171.6045,34.3286 64.2782,1.2329 131.4406,0.2027 191.9743,-18.3729 53.3861,-24.4151 66.2783,-79.3721 54.9473,-124.1952 -4.4522,-41.6231 -43.7079,-79.8047 -97.7296,-82.7457 -52.2412,-6.7421 -105.5499,-4.8002 -158.2077,-7.3661 z"
       id="path3525-1"
       inkscape:connector-curvature="0"
       sodipodi:nodetypes="ccccc" />
    <path
       style="color:#000000;display:inline;overflow:visible;visibility:visible;fill:#ffffff;fill-opacity:1;fill-rule:nonzero;stroke:none;stroke-width:0.844663px;marker:none;enable-background:accumulate"
       d="m 1967.6691,1870.5868 c -18.1752,-11.0216 -34.1079,-35.6909 -38.6041,-62.1813 -3.212,-15.891 -4.9491,-32.3534 -3.0603,-47.1809 2.5292,-4.9506 8.5452,-3.2093 12.36,1.2176 6.174,5.2735 12.9392,8.5628 18.8573,14.6149 3.5725,5.1778 3.8133,12.417 2.6585,17.788 -1.1636,10.2097 -2.5765,21.1708 0.8478,32.3369 4.2315,15.7365 13.9898,28.6271 24.2515,37.2817 12.3531,10.7595 26.1526,15.1864 39.0912,15.7949 0.045,0.4487 -1.409,0.4203 -1.8941,0.6592 -17.1414,4.2654 -36.4098,1.3261 -54.5078,-10.331 z"
       id="path4064-5"
       inkscape:connector-curvature="0"
       sodipodi:nodetypes="ccszc" />
    <path
       style="fill:#ffffff;stroke:none;stroke-width:1.2244"
       d="m 425.1376,2274.0147 c -53.96429,0.7266 -108.34771,0.4642 -161.60958,10.0414 -19.56042,3.5289 -39.28324,8.3841 -56.55504,18.2501 -13.34023,7.6229 -24.58264,18.84 -31.26335,32.4248 -9.07605,18.3562 -10.55237,39.6762 -6.331,59.4484 5.33525,24.7766 20.48102,47.8461 42.68409,61.5678 17.07064,10.7258 37.29888,15.9294 57.46893,17.2676 37.98091,3.9084 76.05007,6.9938 114.17426,9.2475 26.61248,1.6133 53.23404,3.1895 79.88281,4.1063 54.91312,1.2318 109.92715,-2.4334 164.20054,-10.554 19.94359,-3.4538 40.04452,-9.8906 55.66699,-22.8016 14.58636,-12.0501 23.31184,-29.5674 27.06397,-47.5343 3.39383,-15.3575 4.31967,-31.2491 2.67471,-46.8723 -1.86866,-14.3377 -7.54896,-28.5569 -18.04296,-39.0727 -11.6549,-12.3857 -27.47232,-20.7657 -44.27161,-24.5541 -17.90033,-4.774 -36.38482,-6.8962 -54.64642,-9.9334 -56.60111,-8.176 -113.89808,-11.2963 -171.09634,-11.0315 z"
       id="path3100-2"
       inkscape:connector-curvature="0" />
    <path
       style="fill:#ffffff;stroke:none;stroke-width:1.10366"
       d="m 433.84763,2411.1355 c -52.92425,1.4255 -106.59026,1.592 -158.08082,14.9613 -20.93645,5.5849 -41.84249,16.109 -54.14773,34.6065 -16.69492,26.9283 -14.6481,62.8095 0.74259,90.1445 13.90163,24.9652 40.66154,41.749 68.7967,44.4582 37.13844,4.2758 74.43064,6.9026 111.74566,8.5905 19.30293,0.8358 38.59048,2.1318 57.89479,2.863 48.99753,1.2179 98.02087,-2.3285 146.40594,-9.5113 20.54973,-3.1885 41.63505,-8.9344 57.66485,-22.783 11.19323,-9.4092 18.29715,-22.8156 21.98152,-36.8796 5.20846,-19.3058 5.29005,-39.7754 2.51262,-59.5531 -2.69813,-15.7827 -10.08577,-32.1256 -24.3983,-40.5249 -15.33267,-9.0909 -33.46441,-10.1793 -50.4944,-13.6435 C 554.8223,2413.51 494.21559,2409.901 433.84763,2411.1355 Z"
       id="path3100-2-1"
       inkscape:connector-curvature="0" />
    <path
       style="fill:#ffffff;stroke:none;stroke-width:1.27715"
       d="m 526.09194,2539.2194 c -69.91343,3.2557 -143.43425,-0.022 -208.40834,30.8316 -33.87502,18.7498 -48.84843,60.2161 -45.38487,98.0957 1.73037,49.6041 34.46368,102.4889 85.46296,108.7634 51.81422,6.6848 104.09144,9.9193 156.26321,12.4244 68.48361,2.0134 138.53411,-0.3719 204.36626,-21.4517 33.42494,-13.7635 52.26819,-49.8269 54.41865,-85.4257 7.09048,-44.6192 -7.88486,-97.2272 -49.74782,-118.4303 -36.90628,-15.4717 -77.70072,-16.9512 -116.88743,-21.8202 -26.63002,-2.2685 -53.3629,-3.2354 -80.08262,-2.9872 z"
       id="path3100-2-1-9"
       inkscape:connector-curvature="0" />
    <path
       style="fill:#ffffff;fill-rule:evenodd;stroke:none;stroke-width:1px;stroke-linecap:butt;stroke-linejoin:miter;stroke-opacity:1"
       d="m 565.35803,2748.8183 c 0,0 15.49435,31.1557 18.76123,47.2541 3.26688,16.0984 -2.23396,98.2886 -54.0297,124.672 60.58129,-13.8373 97.25045,-97.2182 74.9118,-174.2445 -8.13467,-28.0492 -39.64333,2.3184 -39.64333,2.3184 z"
       id="path1357"
       inkscape:connector-curvature="0"
       sodipodi:nodetypes="cscsc" />
    <path
       style="color:#000000;display:inline;overflow:visible;visibility:visible;fill:#ffffff;fill-opacity:1;fill-rule:nonzero;stroke:none;stroke-width:1.03864px;marker:none;enable-background:accumulate"
       d="m 1105.6621,1613.416 c -27.3074,0.665 -55.2641,4.8405 -79.6671,17.7518 -20.9178,11.7343 -35.48479,32.595 -42.92872,55.0672 -5.21266,14.3929 -8.21701,30.6636 -2.8761,45.4728 6.59215,18.412 23.13312,31.7974 41.28642,37.9765 29.138,11.2748 60.784,12.4073 91.6361,13.4689 33.4435,0.8833 66.9833,1.6213 100.3641,-1.086 18.1912,-1.7873 36.6147,-6.7791 51.3797,-17.9635 12.1435,-8.7548 22.0772,-21.8232 23.7559,-37.0517 2.4369,-17.9924 -2.3337,-36.2294 -9.9127,-52.4672 -10.3009,-21.0264 -28.628,-38.1831 -50.7572,-46.1168 -28.177,-10.962 -58.7375,-12.5985 -88.5948,-14.3303 -11.2167,-0.5894 -22.4527,-0.9884 -33.6856,-0.7217 z"
       id="path4546-6-89"
       inkscape:connector-curvature="0"
       sodipodi:nodetypes="cssssc" />
    <path
       style="color:#000000;display:inline;overflow:visible;visibility:visible;fill:#ffffff;fill-opacity:1;fill-rule:nonzero;stroke:none;stroke-width:1px;marker:none;enable-background:accumulate"
       d="m 1191.4693,1723.1631 c 34.2678,49.2543 68.9523,97.6924 121.3421,87.479 -53.9312,29.956 -129.2913,-39.4416 -157.7344,-79.0515 -24.1583,-33.6427 36.3923,-8.4275 36.3923,-8.4275 z"
       id="path4480-3"
       inkscape:connector-curvature="0"
       sodipodi:nodetypes="ccsc" />
    <path
       style="color:#000000;display:inline;overflow:visible;visibility:visible;fill:#ffffff;fill-opacity:1;fill-rule:nonzero;stroke:none;stroke-width:0.888144px;marker:none;enable-background:accumulate"
       d="m 926.821,2389.163 c 0.96989,-38.6448 51.23545,-67.0932 188.9303,-60.311 73.7568,3.6336 157.3472,5.8914 156.7784,62.5005 -0.569,56.609 -120.5252,55.5781 -145.1498,56.9891 -24.6242,1.411 -153.97911,-4.0672 -178.16782,-23.2372 -15.14161,-12.0003 -21.76544,-23.9756 -22.39108,-35.9414 z"
       id="path4546-6-89-3"
       inkscape:connector-curvature="0"
       sodipodi:nodetypes="cssssc" />
    <path
       style="fill:#ffffff;stroke:none;stroke-width:0.812813"
       d="m 1174.7217,2419.2655 c 117.4359,-0.3816 161.805,10.2176 177.1158,151.1882 21.191,195.1031 -77.4619,211.1288 -215.2862,210.6819 -148.70359,-0.4821 -157.96766,-115.6271 -160.61592,-209.8685 -4.57055,-162.6296 78.58012,-147.683 198.78632,-152.0016 z"
       id="path3280-8-0"
       inkscape:connector-curvature="0"
       sodipodi:nodetypes="csssc" />
    <path
       style="color:#000000;display:inline;overflow:visible;visibility:visible;fill:#ffffff;fill-opacity:1;fill-rule:nonzero;stroke:none;stroke-width:1px;marker:none;enable-background:accumulate"
       d="m 1185.4951,2698.3525 c -14.7937,34.7302 -29.7284,103.9977 49.732,149.2666 -38.7431,-11.0789 -115.7589,-45.8618 -84.4037,-150.4179 9.0983,-30.339 16.322,-15.8945 23.6557,-14.9665 7.3338,0.9279 11.016,16.1178 11.016,16.1178 z"
       id="path4064-3"
       inkscape:connector-curvature="0"
       sodipodi:nodetypes="ccszc" />
    <path
       style="color:#000000;display:inline;overflow:visible;visibility:visible;fill:#ffffff;fill-opacity:1;fill-rule:nonzero;stroke:none;stroke-width:0.800752px;marker:none;enable-background:accumulate"
       d="m 1651.2761,2304.8762 c 32.6168,-39.6682 88.4024,-42.2159 135.8304,-42.2394 44.6528,1.0129 91.3023,3.7125 132.3042,22.7913 26.4222,12.2041 44.2843,44.8101 29.4638,72.1033 -18.2817,23.4202 -51.4037,23.0482 -78.0181,29.5615 -52.513,7.4345 -105.6559,0.6211 -157.9247,-5.5691 -23.8316,-4.6029 -53.1587,-9.8591 -62.9091,-35.6353 -5.5358,-12.5917 -8.0263,-29.5328 1.2535,-41.0123 z"
       id="path3533-6"
       inkscape:connector-curvature="0" />
    <path
       style="fill:#ffffff;fill-rule:evenodd;stroke:none;stroke-width:1.38581px;stroke-linecap:butt;stroke-linejoin:miter;stroke-opacity:1"
       d="m 1882.582,2368.8585 c 33.9534,32.2939 25.2378,98.5148 5.21,126.3583 16.6982,-13.5989 67.5762,-88.6625 18.8996,-149.3734 -40.0561,-49.9592 -29.2155,15.9213 -29.2155,15.9213 z"
       id="path4248"
       inkscape:connector-curvature="0"
       sodipodi:nodetypes="ccscc" />
    <path
       style="display:inline;fill:#ffffff;stroke:none;stroke-width:1.09445"
       d="m 2045.1426,2362.7934 c 0.7299,-47.1977 27.663,-89.6364 150.0183,-82.0615 122.3555,7.5748 162.5358,12.6601 162.786,77.0121 0.2619,67.3475 -60.5828,83.1874 -153.1945,85.7943 -95.4725,2.6872 -159.2319,-24.6821 -159.6098,-80.7449 z"
       id="path3280-64"
       inkscape:connector-curvature="0"
       sodipodi:nodetypes="csssc" />
    <path
       style="color:#000000;display:inline;overflow:visible;visibility:visible;fill:#ffffff;fill-opacity:1;fill-rule:nonzero;stroke:none;stroke-width:1.00876px;marker:none;enable-background:accumulate"
       d="m 2225.6941,2499.207 c 29.3281,-35.4419 42.8909,-48.473 14.1537,-86.3903 -28.7372,-37.9162 -14.1521,-48.0944 -14.1521,-48.0944 l 30.5785,11.3041 c 0,0 63.9999,68.3303 -30.5801,123.1806 z"
       id="path3072-56"
       inkscape:connector-curvature="0"
       sodipodi:nodetypes="ccccc" />
    <path
       style="color:#000000;display:inline;overflow:visible;visibility:visible;fill:#ffffff;fill-opacity:1;fill-rule:nonzero;stroke:none;stroke-width:0.67124px;marker:none;enable-background:accumulate"
       d="m 2121.8448,2844.4879 c 14.5963,-9.9895 118.7077,-19.5563 148.2592,6.1257 24.6662,21.4363 23.0835,63.4313 0.4928,79.2151 -23.0149,16.0793 -110.7216,10.4002 -144.6205,2.6999 -31.9221,-7.2509 -31.3445,-24.7778 -30.4738,-55.3282 0.3554,-12.4682 11.746,-22.7237 26.3423,-32.7125 z"
       id="path4040-4-5-3-6"
       inkscape:connector-curvature="0"
       sodipodi:nodetypes="zssssz" />
    <path
       style="color:#000000;display:inline;overflow:visible;visibility:visible;fill:#ffffff;fill-opacity:1;fill-rule:nonzero;stroke:none;stroke-width:0.890822px;marker:none;enable-background:accumulate"
       d="M 2206.4844 2907.5449 C 2175.4305 2908.1903 2144.161 2910.592 2114.0656 2918.6941 C 2096.2668 2922.8372 2077.5821 2925.3815 2061.5579 2934.7569 C 2048.1514 2942.4442 2036.0549 2952.4597 2025.9786 2964.168 C 2019.8872 2972.1306 2017.1014 2982.2405 2017.1777 2992.1864 C 2016.0581 3008.0241 2018.6153 3024.8996 2028.1901 3037.9705 C 2037.9739 3051.3249 2053.1368 3059.5337 2068.6014 3064.5623 C 2108.5003 3078.9601 2151.2892 3082.4279 2193.3995 3083.0817 C 2228.1674 3083.3676 2263.3303 3083.4093 2297.4478 3075.8269 C 2311.3394 3072.6893 2325.0899 3068.4854 2337.9124 3062.2365 C 2358.1519 3050.8194 2370.8101 3028.2613 2372.1674 3005.3065 C 2373.7268 2985.0535 2367.2964 2963.6088 2352.5307 2949.254 C 2340.5455 2938.1399 2324.5733 2933.0012 2309.1 2928.8787 C 2282.1139 2921.9981 2255.6568 2912.6117 2227.969 2908.8131 C 2220.8513 2907.8578 2213.6644 2907.4524 2206.4844 2907.5449 z "
       id="path4040-4-5-3"
       inkscape:connector-curvature="0"
       sodipodi:nodetypes="zssssz" />
    <path
       style="display:inline;fill:#ffffff;fill-rule:evenodd;stroke:none;stroke-width:1px;stroke-linecap:butt;stroke-linejoin:miter;stroke-opacity:1"
       d="m 2230.8069,2888.0547 c -59.0902,-10.6562 16.1202,-61.0715 -1.0396,-83.0609 -8.296,-10.6309 -45.3019,13.7249 -85.4552,-27.1328 44.274,25.5713 73.4492,-3.2499 94.1628,5.6982 39.3401,16.9937 6.1746,61.0235 5.4438,70.8494 -0.9776,13.1415 -13.1118,33.6461 -13.1118,33.6461 z"
       id="path4186-80"
       inkscape:connector-curvature="0"
       sodipodi:nodetypes="cscssc" />
  </g>
  <g
     inkscape:groupmode="layer"
     id="layer1"
     inkscape:label="txt"
     style="display:inline">
    <text
       id="text4246-4-2-7"
       y="2018.4624"
       x="620.6286"
       style="font-style:normal;font-variant:normal;font-weight:normal;font-stretch:normal;line-height:0%;font-family:Lavi;-inkscape-font-specification:Lavi;text-align:center;letter-spacing:0px;word-spacing:0px;text-anchor:middle;fill:#000000;fill-opacity:1;stroke:none"
       xml:space="preserve"><tspan
         y="2018.4624"
         x="620.6286"
         style="font-size:45px;line-height:1.25"
         sodipodi:role="line"
         id="tspan907">Ni tiom</tspan><tspan
         y="2074.7124"
         x="620.6286"
         style="font-size:45px;line-height:1.25"
         sodipodi:role="line"
         id="tspan2565">proksimis al</tspan><tspan
         y="2130.9624"
         x="620.6286"
         style="font-size:45px;line-height:1.25"
         sodipodi:role="line"
         id="tspan2677">la celo…</tspan></text>
    <text
       id="text4246-4-2-7-3-2"
       y="1680.9263"
       x="1135.0778"
       style="font-style:normal;font-variant:normal;font-weight:normal;font-stretch:normal;line-height:0%;font-family:Lavi;-inkscape-font-specification:Lavi;text-align:center;letter-spacing:0px;word-spacing:0px;text-anchor:middle;fill:#000000;fill-opacity:1;stroke:none"
       xml:space="preserve"><tspan
         y="1680.9263"
         x="1135.0778"
         style="font-size:45px;line-height:1.25"
         sodipodi:role="line"
         id="tspan103302">Jes, tiom</tspan><tspan
         y="1737.1763"
         x="1135.0778"
         style="font-size:45px;line-height:1.25"
         sodipodi:role="line"
         id="tspan7614">proksimis…</tspan></text>
    <text
       id="text4246-4-2-7-3"
       y="1637.8077"
       x="1937.1276"
       style="font-style:normal;font-variant:normal;font-weight:normal;font-stretch:normal;line-height:0%;font-family:Lavi;-inkscape-font-specification:Lavi;text-align:center;letter-spacing:0px;word-spacing:0px;text-anchor:middle;fill:#000000;fill-opacity:1;stroke:none"
       xml:space="preserve"><tspan
         y="1637.8077"
         x="1937.1276"
         style="font-size:45px;line-height:1.25"
         sodipodi:role="line"
         id="tspan6129">Fakte, ĉu vi scias</tspan><tspan
         y="1694.0577"
         x="1937.1276"
         style="font-size:45px;line-height:1.25"
         sodipodi:role="line"
         id="tspan12052">kial Vasabio tiom</tspan><tspan
         y="1750.3077"
         x="1937.1276"
         style="font-size:45px;line-height:1.25"
         sodipodi:role="line"
         id="tspan14192">penas kontraŭ mi ?</tspan></text>
    <text
       id="text4246-4-2-7-3-6-7"
       y="2359.9399"
       x="448.58929"
       style="font-style:normal;font-variant:normal;font-weight:normal;font-stretch:normal;line-height:0%;font-family:Lavi;-inkscape-font-specification:Lavi;text-align:center;letter-spacing:0px;word-spacing:0px;text-anchor:middle;fill:#000000;fill-opacity:1;stroke:none"
       xml:space="preserve"><tspan
         y="2359.9399"
         x="448.58929"
         style="font-size:45px;line-height:1.25;fill:#000000"
         sodipodi:role="line"
         id="tspan117778">Ŝi timas sorĉistinojn</tspan><tspan
         y="2416.1899"
         x="448.58929"
         style="font-size:45px;line-height:1.25;fill:#000000"
         sodipodi:role="line"
         id="tspan143860">de Ĥaosaho, Pipro…</tspan></text>
    <text
       id="text4246-4-2-7-3-6-7-6"
       y="2496.1213"
       x="456.50583"
       style="font-style:normal;font-variant:normal;font-weight:normal;font-stretch:normal;line-height:0%;font-family:Lavi;-inkscape-font-specification:Lavi;text-align:center;letter-spacing:0px;word-spacing:0px;text-anchor:middle;fill:#000000;fill-opacity:1;stroke:none"
       xml:space="preserve"><tspan
         y="2496.1213"
         x="456.50583"
         style="font-size:45px;line-height:1.25;fill:#000000"
         sodipodi:role="line"
         id="tspan107372">Kaj precipe viajn</tspan><tspan
         y="2552.3713"
         x="456.50583"
         style="font-size:45px;line-height:1.25;fill:#000000"
         sodipodi:role="line"
         id="tspan83621"><tspan
           style="font-weight:bold"
           id="tspan175408">ĉenajn reagojn.</tspan></tspan></text>
    <text
       id="text4246-4-2-7-3-6-7-6-6"
       y="2635.2852"
       x="531.0318"
       style="font-style:normal;font-variant:normal;font-weight:normal;font-stretch:normal;line-height:0%;font-family:Lavi;-inkscape-font-specification:Lavi;text-align:center;letter-spacing:0px;word-spacing:0px;text-anchor:middle;fill:#000000;fill-opacity:1;stroke:none"
       xml:space="preserve"><tspan
         y="2635.2852"
         x="531.0318"
         style="font-size:45px;line-height:1.25;fill:#000000"
         sodipodi:role="line"
         id="tspan112984-9"> Tio estas grava</tspan><tspan
         y="2691.5352"
         x="531.0318"
         style="font-size:45px;line-height:1.25;fill:#000000"
         sodipodi:role="line"
         id="tspan83619-3">minaco al ŝiaj planoj,</tspan><tspan
         y="2747.7852"
         x="531.0318"
         style="font-size:45px;line-height:1.25;fill:#000000"
         sodipodi:role="line"
         id="tspan83621-1">ŝiaopinie.</tspan></text>
    <text
       id="text4246-4-2-7-3-6-7-6-6-4"
       y="2396.4487"
       x="1106.911"
       style="font-style:normal;font-variant:normal;font-weight:normal;font-stretch:normal;line-height:0%;font-family:Lavi;-inkscape-font-specification:Lavi;text-align:center;letter-spacing:0px;word-spacing:0px;text-anchor:middle;fill:#000000;fill-opacity:1;stroke:none"
       xml:space="preserve"><tspan
         y="2396.4487"
         x="1106.911"
         style="font-size:45px;line-height:1.25;fill:#000000"
         sodipodi:role="line"
         id="tspan83621-1-4">Ha, tio, pff…</tspan></text>
    <text
       id="text4246-4-2-7-3-6-7-6-6-4-5"
       y="2503.5098"
       x="1165.3499"
       style="font-style:normal;font-variant:normal;font-weight:normal;font-stretch:normal;line-height:0%;font-family:Lavi;-inkscape-font-specification:Lavi;text-align:center;letter-spacing:0px;word-spacing:0px;text-anchor:middle;fill:#000000;fill-opacity:1;stroke:none"
       xml:space="preserve"><tspan
         y="2503.5098"
         x="1165.3499"
         style="font-size:45px;line-height:1.25;fill:#000000"
         sodipodi:role="line"
         id="tspan186796">Ŝi ne devas</tspan><tspan
         y="2559.7598"
         x="1165.3499"
         style="font-size:45px;line-height:1.25;fill:#000000"
         sodipodi:role="line"
         id="tspan38204">tiom prizorgi :</tspan><tspan
         y="2616.0098"
         x="1165.3499"
         style="font-size:45px;line-height:1.25;fill:#000000"
         sodipodi:role="line"
         id="tspan42463">mi neniam jam</tspan><tspan
         y="2672.2598"
         x="1165.3499"
         style="font-size:45px;line-height:1.25;fill:#000000"
         sodipodi:role="line"
         id="tspan45335">sukcesis je unu</tspan><tspan
         y="2728.5098"
         x="1165.3499"
         style="font-size:45px;line-height:1.25;fill:#000000"
         sodipodi:role="line"
         id="tspan45337">el tiaj.</tspan></text>
    <text
       id="text4246-4-2-7-3-6-7-6-6-4-5-1"
       y="2340.3459"
       x="1798.8441"
       style="font-style:normal;font-variant:normal;font-weight:normal;font-stretch:normal;line-height:0%;font-family:Lavi;-inkscape-font-specification:Lavi;text-align:center;letter-spacing:0px;word-spacing:0px;text-anchor:middle;fill:#000000;fill-opacity:1;stroke:none"
       xml:space="preserve"><tspan
         y="2340.3459"
         x="1798.8441"
         style="font-size:45px;line-height:1.25;fill:#000000"
         sodipodi:role="line"
         id="tspan186800-2">Ĉu vere ?</tspan></text>
    <text
       id="text4246-4-2-7-3-6-7-6-6-4-5-1-6"
       y="2351.8303"
       x="2202.064"
       style="font-style:normal;font-variant:normal;font-weight:normal;font-stretch:normal;font-size:39px;line-height:0%;font-family:Lavi;-inkscape-font-specification:Lavi;text-align:center;letter-spacing:0px;word-spacing:0px;text-anchor:middle;fill:#000000;fill-opacity:1;stroke:none"
       xml:space="preserve"><tspan
         y="2351.8303"
         x="2202.064"
         style="font-size:39px;line-height:1.25;fill:#000000"
         sodipodi:role="line"
         id="tspan186800-2-1">Jes, vere,</tspan><tspan
         y="2400.5803"
         x="2202.064"
         style="font-size:39px;line-height:1.25;fill:#000000"
         sodipodi:role="line"
         id="tspan201029">ha ha ha !</tspan></text>
    <text
       id="text4246-4-2-7-3-6-7-6-6-4-5-1-6-5"
       y="2903.6599"
       x="2194.6721"
       style="font-style:normal;font-variant:normal;font-weight:normal;font-stretch:normal;font-size:42.5063px;line-height:0%;font-family:Lavi;-inkscape-font-specification:Lavi;text-align:center;letter-spacing:0px;word-spacing:0px;text-anchor:middle;fill:#000000;fill-opacity:1;stroke:none;stroke-width:1.0899"
       xml:space="preserve"><tspan
         y="2903.6599"
         x="2194.6721"
         style="font-size:42.5063px;line-height:1.25;fill:#000000;stroke-width:1.0899"
         sodipodi:role="line"
         id="tspan201029-4">Hi hi hi !</tspan></text>
    <text
       id="text4246-4-2-7-3-6-7-6-6-4-5-1-6-5-7"
       y="2989.4729"
       x="2197.3003"
       style="font-style:normal;font-variant:normal;font-weight:normal;font-stretch:normal;font-size:39px;line-height:0%;font-family:Lavi;-inkscape-font-specification:Lavi;text-align:center;letter-spacing:0px;word-spacing:0px;text-anchor:middle;fill:#000000;fill-opacity:1;stroke:none"
       xml:space="preserve"><tspan
         y="2989.4729"
         x="2197.3003"
         style="font-size:39px;line-height:1.25;fill:#000000"
         sodipodi:role="line"
         id="tspan215195">Ŝi vere estas</tspan><tspan
         y="3038.2229"
         x="2197.3003"
         style="font-size:39px;line-height:1.25;fill:#000000"
         sodipodi:role="line"
         id="tspan64779">trozorgema…</tspan></text>
  </g>
</svg>
