<?xml version="1.0" encoding="UTF-8" standalone="no"?>
<!-- Created with Inkscape (http://www.inkscape.org/) -->

<svg
   id="svg2"
   version="1.1"
   inkscape:version="1.1.1 (3bf5ae0d25, 2021-09-20)"
   width="2481"
   height="3503"
   sodipodi:docname="E37P04.svg"
   xmlns:inkscape="http://www.inkscape.org/namespaces/inkscape"
   xmlns:sodipodi="http://sodipodi.sourceforge.net/DTD/sodipodi-0.dtd"
   xmlns:xlink="http://www.w3.org/1999/xlink"
   xmlns="http://www.w3.org/2000/svg"
   xmlns:svg="http://www.w3.org/2000/svg"
   xmlns:rdf="http://www.w3.org/1999/02/22-rdf-syntax-ns#"
   xmlns:cc="http://creativecommons.org/ns#"
   xmlns:dc="http://purl.org/dc/elements/1.1/">
  <metadata
     id="metadata8">
    <rdf:RDF>
      <cc:Work
         rdf:about="">
        <dc:format>image/svg+xml</dc:format>
        <dc:type
           rdf:resource="http://purl.org/dc/dcmitype/StillImage" />
      </cc:Work>
    </rdf:RDF>
  </metadata>
  <defs
     id="defs6">
    <filter
       inkscape:label="Ripple"
       inkscape:menu="Distort"
       inkscape:menu-tooltip="Horizontal rippling of edges"
       style="color-interpolation-filters:sRGB"
       id="filter4265-7-37"
       y="0"
       x="0"
       width="1"
       height="1">
      <feTurbulence
         numOctaves="1"
         baseFrequency="0.002 0.107"
         id="feTurbulence4267-7-7" />
      <feColorMatrix
         values="5 0 0 0 0 0 0 0 0 0 0 0 0 0 0 0 0 0 4 0 "
         result="result91"
         id="feColorMatrix4269-1-2" />
      <feDisplacementMap
         yChannelSelector="A"
         xChannelSelector="R"
         scale="14.3"
         in="SourceGraphic"
         in2="result91"
         id="feDisplacementMap4271-2-64" />
    </filter>
    <filter
       inkscape:label="Magmah-FX"
       inkscape:menu="Distort"
       inkscape:menu-tooltip="Horizontal rippling of edges"
       style="color-interpolation-filters:sRGB"
       id="filter4265-7"
       y="0"
       x="0"
       width="1"
       height="1">
      <feTurbulence
         numOctaves="1"
         baseFrequency="0.002 0.107"
         id="feTurbulence4267-7" />
      <feColorMatrix
         values="5 0 0 0 0 0 0 0 0 0 0 0 0 0 0 0 0 0 4 0 "
         result="result91"
         id="feColorMatrix4269-1" />
      <feDisplacementMap
         yChannelSelector="A"
         xChannelSelector="R"
         scale="14.3"
         in="SourceGraphic"
         in2="result91"
         id="feDisplacementMap4271-2" />
    </filter>
    <filter
       style="color-interpolation-filters:sRGB"
       inkscape:label="Magmah-spell-glow"
       id="filter4751"
       x="-0.035967053"
       y="-0.17833759"
       width="1.0719341"
       height="1.3566752">
      <feFlood
         flood-opacity="1"
         flood-color="rgb(255,255,255)"
         result="flood"
         id="feFlood4753" />
      <feComposite
         in="flood"
         in2="SourceGraphic"
         operator="in"
         result="composite1"
         id="feComposite4755" />
      <feGaussianBlur
         in="composite1"
         stdDeviation="5.4"
         result="blur"
         id="feGaussianBlur4757" />
      <feOffset
         dx="0"
         dy="0"
         result="offset"
         id="feOffset4759" />
      <feComposite
         in="SourceGraphic"
         in2="offset"
         operator="over"
         result="composite2"
         id="feComposite4761" />
    </filter>
  </defs>
  <sodipodi:namedview
     pagecolor="#ffffff"
     bordercolor="#666666"
     borderopacity="1"
     objecttolerance="10"
     gridtolerance="10"
     guidetolerance="10"
     inkscape:pageopacity="0"
     inkscape:pageshadow="2"
     inkscape:window-width="1536"
     inkscape:window-height="795"
     id="namedview4"
     showgrid="false"
     inkscape:zoom="0.26243539"
     inkscape:cx="920.22649"
     inkscape:cy="1775.6751"
     inkscape:window-x="0"
     inkscape:window-y="32"
     inkscape:window-maximized="1"
     inkscape:current-layer="layer3"
     inkscape:pagecheckerboard="0"
     inkscape:showpageshadow="0"
     inkscape:deskcolor="#d1d1d1"
     inkscape:snap-text-baseline="false" />
  <g
     inkscape:groupmode="layer"
     id="layer2"
     inkscape:label="artwork"
     sodipodi:insensitive="true">
    <image
       xlink:href="../gfx_Pepper-and-Carrot_by-David-Revoy_E37P04.png"
       y="0"
       x="0"
       id="image10"
       height="3503"
       width="2481" />
  </g>
  <g
     inkscape:groupmode="layer"
     id="layer3"
     inkscape:label="speechbubbles">
    <path
       style="color:#000000;display:inline;overflow:visible;visibility:visible;fill:#ffffff;fill-opacity:1;fill-rule:nonzero;stroke:none;stroke-width:0.968957px;marker:none;enable-background:accumulate"
       d="m 345.23833,1470.9924 c -55.07732,0.3758 -110.69584,1.8065 -164.60367,15.7641 -23.20579,7.2159 -43.46865,27.9932 -49.53473,54.5259 -3.11864,16.7152 1.88983,33.617 7.96048,48.7314 7.92144,19.592 24.31332,33.5779 42.24159,40.209 38.64737,17.0255 80.54297,19.728 121.46509,23.653 19.94537,2.0243 39.90992,4.1887 59.9568,4.2181 39.31449,0.4917 78.60908,-2.2454 117.92385,-1.2401 24.78482,-0.073 49.70436,-3.1225 73.49224,-11.1826 16.8887,-5.1691 33.90112,-11.0065 49.02217,-21.1332 17.60934,-12.7738 31.81164,-33.0897 35.15774,-56.7242 3.47471,-26.3385 -10.01869,-53.7727 -31.13207,-65.5062 -15.53422,-9.0527 -32.91513,-12.9859 -50.04973,-16.1135 -19.41297,-3.2377 -38.96088,-5.3116 -58.45787,-7.7826 -50.97139,-5.6943 -102.22873,-7.9233 -153.44189,-7.4191 z"
       id="path4040-4-4"
       inkscape:connector-curvature="0"
       sodipodi:nodetypes="zssssz" />
    <path
       style="color:#000000;display:inline;overflow:visible;visibility:visible;fill:#ffffff;fill-opacity:1;fill-rule:nonzero;stroke:none;stroke-width:1.10661px;marker:none;enable-background:accumulate"
       d="m 232.88521,1829.6545 c -15.49911,-4.3258 -30.36527,-25.9083 -39.85487,-45.1151 -2.6023,-5.5279 -4.9768,-11.4623 -5.91137,-17.7034 0.23014,-6.7406 4.6456,-11.9989 9.68489,-14.2208 7.08756,-3.8231 15.87763,-4.2925 21.36573,-11.5454 3.88883,-5.3975 2.44347,-12.8787 1.69304,-19.2745 -2.17932,-16.2588 -6.20379,-32.2732 -6.21379,-48.8483 -1.02235,-18.6687 -0.97071,-38.3918 6.06435,-55.4786 2.87848,-6.7043 6.67303,-13.2274 12.33892,-16.8574 14.17763,-10.1059 33.45012,-10.5499 47.30692,0.9314 8.26682,8.3259 10.21944,25.1454 2.569,34.7308 -3.97524,5.1331 -10.21215,6.1902 -15.7493,5.1661 -10.4586,0.3997 -20.04905,8.0914 -25.18673,18.8336 -4.36159,8.7814 -6.37218,19.1354 -6.13892,29.3576 -2.73879,13.9759 2.82926,27.469 5.69121,40.7504 1.23215,6.0908 2.19987,12.6668 0.87478,18.791 -3.62099,8.1775 -11.75152,10.5256 -18.8271,11.5577 -7.27261,1.2901 -15.83507,1.7981 -20.79951,9.2364 -4.02698,4.5998 -0.25135,11.0835 0.90045,16.2897 5.52666,16.1978 15.18264,30.1517 26.62182,40.8647 1.15331,0.9227 2.35952,1.7296 3.57048,2.5341 z"
       id="path4496-8"
       inkscape:connector-curvature="0"
       sodipodi:nodetypes="ccccccccccccccccccccc" />
    <path
       style="fill:#ffffff;stroke:none;stroke-width:0.933901"
       d="m 2089.3046,3158.3653 c -45.5026,0.1771 -91.6583,2.283 -135.5677,15.9065 -20.9434,6.7425 -41.6084,17.6326 -55.6374,35.7889 -14.6004,19.6738 -20.1668,45.4846 -18.5222,70.0665 1.7607,23.7159 9.7594,47.5609 25.3071,65.2182 12.2124,13.7498 28.5609,22.5334 45.3726,28.4081 38.277,13.5939 79.2216,13.4853 119.1611,13.3171 38.7716,-0.4948 77.5814,0.8746 116.3204,-1.3552 21.7733,-1.4523 43.6963,-3.5012 64.8015,-9.5982 18.813,-5.5051 37.4903,-14.9675 49.8342,-31.3619 8.7997,-11.2822 14.2423,-25.0572 17.0772,-39.2472 4.1888,-20.1693 4.1197,-41.2181 0.6695,-61.4983 -3.5167,-18.2116 -12.4468,-35.685 -26.6788,-47.0762 -18.2946,-15.3591 -41.0889,-23.1818 -63.6888,-28.3437 -31.9294,-7.0137 -64.6481,-8.362 -97.1478,-9.7132 -13.7632,-0.4042 -27.5327,-0.5323 -41.3009,-0.5114 z"
       id="path3280-10"
       inkscape:connector-curvature="0"
       sodipodi:nodetypes="csssc" />
    <path
       style="color:#000000;display:inline;overflow:visible;visibility:visible;fill:#ffffff;fill-opacity:1;fill-rule:nonzero;stroke:none;stroke-width:0.999999px;marker:none;enable-background:accumulate"
       d="m 2277.3144,3069.2866 c 21.1533,40.5816 26.0863,56.0003 -12.7047,94.096 -38.791,38.0948 -21.8429,50.5398 -21.8429,50.5398 l 38.5724,-9.167 c 0,0 76.0812,-86.3431 -4.0248,-135.4688 z"
       id="path3072-56"
       inkscape:connector-curvature="0" />
    <path
       style="display:inline;fill:#ffffff;stroke:none;stroke-width:0.897974"
       d="m 848.86825,1509.0074 c -29.80474,0.8488 -60.01854,5.8631 -87.27372,19.5036 -21.43921,11.1682 -38.31197,32.7427 -43.81923,57.9687 -4.43439,19.6749 -3.9023,40.1069 -3.46242,60.2003 0.67807,18.0928 3.67011,36.6869 12.57667,52.3067 11.34697,20.1554 30.61458,34.1223 51.40851,40.3541 28.64009,9.6092 58.89079,10.8595 88.65247,11.052 35.07349,0.017 70.47592,0.3985 105.04313,-6.9658 19.72723,-5.109 38.75634,-16.1162 51.40004,-33.647 10.9202,-15.7274 15.4785,-35.4372 17.2881,-54.7267 2.1332,-26.1753 -1.6987,-52.7302 -9.8716,-77.3947 -8.2387,-21.8986 -25.1935,-39.3291 -45.19857,-48.4294 -17.7768,-8.4573 -37.00631,-12.4312 -56.09567,-15.5921 -26.69958,-4.0756 -53.72386,-4.7231 -80.64771,-4.6297 z"
       id="path3280-8-1"
       inkscape:connector-curvature="0"
       sodipodi:nodetypes="csssc" />
    <path
       style="display:inline;fill:#ffffff;stroke:none;stroke-width:0.799679"
       d="m 1366.1265,1555.3086 c -48.7891,0.7786 -97.7797,-2.0803 -146.3679,4.5744 -23.062,3.8117 -46.3293,12.6614 -64.3207,30.782 -16.2101,16.6005 -25.1659,42.2043 -24.469,67.4923 0.102,34.4702 11.7672,69.4965 33.7965,92.4883 14.5054,14.6996 32.6111,23.124 50.6205,29.7804 29.986,10.4917 61.3197,13.2239 92.2509,17.2485 29.2189,3.3336 58.685,3.6572 87.9329,0.6136 23.2999,-2.2732 46.6128,-5.5967 69.3829,-12.0127 21.9616,-7.0515 43.4726,-19.7107 58.2927,-40.6981 22.258,-31.2816 27.6508,-78.1734 12.6253,-115.1449 -8.9628,-23.0237 -25.6319,-41.5414 -45.4989,-50.8767 -22.4386,-11.7996 -46.7141,-17.722 -70.9391,-21.5337 -17.6925,-2.3514 -35.5176,-2.8035 -53.3061,-2.7134 z"
       id="path3280-8-1-0"
       inkscape:connector-curvature="0"
       sodipodi:nodetypes="csssc" />
    <path
       style="display:inline;fill:#ffffff;stroke:none;stroke-width:0.846733"
       d="m 2030.5534,1623.2419 c -66.716,1.602 -133.4145,4.2417 -200.0722,7.6778 -38.7335,2.4986 -77.9285,6.0699 -115.123,18.9836 -34.3307,14.1092 -57.1082,53.8758 -57.0894,93.8394 -2.5451,40.6561 2.5191,82.3524 17.0812,119.9352 12.3287,26.2666 36.5156,43.9094 62.3566,50.0652 35.6684,10.6036 72.7458,12.9435 109.3993,16.2689 95.0007,6.6312 190.2643,4.063 285.3424,1.2578 53.5215,-2.5077 108.3046,-8.6324 157.678,-33.1665 29.1203,-17.5306 44.3661,-54.3159 46.9206,-89.6388 3.0421,-41.236 -2.7199,-84.9265 -23.7816,-119.9432 -12.1264,-20.829 -31.0424,-36.0558 -52.1404,-44.0514 -26.3869,-10.7905 -54.8275,-10.7711 -82.4545,-14.0455 -49.2354,-4.6945 -98.6748,-8.2096 -148.117,-7.1825 z"
       id="path3280-8-1-0-6"
       inkscape:connector-curvature="0"
       sodipodi:nodetypes="csssc" />
    <path
       style="color:#000000;display:inline;overflow:visible;visibility:visible;fill:#ffffff;fill-opacity:1;fill-rule:nonzero;stroke:none;stroke-width:0.999999px;marker:none;enable-background:accumulate"
       d="m 1778.817,1868.4621 c -12.833,-0.6526 -23.8662,8.7491 -27.831,19.5381 -19.6036,19.4059 -1.839,-8.6641 -6.4214,4.8364 -13.5019,11.0957 -15.4266,35.2523 -15.8537,65.4931 -5.2817,5.1994 -14.9376,-8.1861 -19.6475,-2.164 -4.937,10.3078 -6.0593,21.8252 -6.4897,33.0281 -0.3179,32.1806 14.1211,63.8185 37.0812,87.8622 7.5298,8.5773 15.2692,16.9924 22.966,25.4398 -17.5595,-23.2829 -32.5888,-49.3497 -36.2923,-77.8541 -1.1276,-8.6692 1.6106,-30.4788 3.0954,-39.0712 10.4198,2.2428 18.5432,14.1601 29.054,13.5885 -3.9254,-39.033 12.0854,-78.9568 32.5429,-100.807 3.2112,-8.5188 -4.1806,-18.0085 -1.2971,-26.6329 -3.0138,-2.4158 -7.0942,-3.0258 -10.9068,-3.257 z"
       id="path4456-8"
       inkscape:connector-curvature="0"
       inkscape:transform-center-x="-13.453102"
       inkscape:transform-center-y="80.02882"
       sodipodi:nodetypes="cccccccccccccc" />
    <path
       style="color:#000000;display:inline;overflow:visible;visibility:visible;fill:#ffffff;fill-opacity:1;fill-rule:nonzero;stroke:none;stroke-width:1px;marker:none;enable-background:accumulate"
       d="m 820.0369,1693.3353 c -3.48578,39.7252 -1.62886,86.2092 5.54134,93.7569 -12.06557,-4.746 -23.61413,-7.3843 -32.58824,-9.1289 -2.74679,19.0391 9.33544,52.9316 19.75971,79.3624 -34.85384,-28.0115 -46.11754,-83.8349 -45.91311,-113.8427 11.20297,7.5747 21.79689,11.4361 28.26889,11.3872 1.30177,-15.339 -8.85591,-66.1714 -9.7642,-66.4676 z"
       id="path5066-6"
       inkscape:connector-curvature="0"
       sodipodi:nodetypes="cccccccc" />
    <path
       style="display:inline;fill:#ffffff;stroke:none;stroke-width:1"
       d="m 1204.2177,1950.0192 c -44.4885,-30.4335 -65.5015,-120.9246 -25.0786,-163.4599 23.8495,-25.0955 36.2779,-40.3926 36.2779,-40.3926 l -33.7128,-17.199 c -98.5183,93.7979 -30.177,190.842 22.5135,221.0515 z"
       id="path3063-1-0"
       inkscape:connector-curvature="0"
       sodipodi:nodetypes="csccc" />
  </g>
  <g
     inkscape:groupmode="layer"
     id="layer1"
     inkscape:label="txt">
    <text
       xml:space="preserve"
       style="font-style:normal;font-variant:normal;font-weight:normal;font-stretch:normal;font-size:62.7469px;line-height:100%;font-family:'Nanum Pen Script OTF';-inkscape-font-specification:'Nanum Pen Script OTF';text-align:center;letter-spacing:0px;word-spacing:0px;text-anchor:middle;fill:#000000;fill-opacity:1;stroke:#000000;stroke-width:1.88191871;stroke-opacity:1"
       x="880.84375"
       y="1591.8319"
       id="text933"><tspan
         sodipodi:role="line"
         style="font-style:normal;font-variant:normal;font-weight:normal;font-stretch:normal;font-size:62.7469px;font-family:'Nanum Pen Script OTF';-inkscape-font-specification:'Nanum Pen Script OTF';stroke:#000000;stroke-width:1.88191871;stroke-opacity:1"
         x="880.84375"
         y="1591.8319"
         id="tspan931">만나뵙게 되어</tspan><tspan
         sodipodi:role="line"
         style="font-style:normal;font-variant:normal;font-weight:normal;font-stretch:normal;font-size:62.7469px;font-family:'Nanum Pen Script OTF';-inkscape-font-specification:'Nanum Pen Script OTF';stroke:#000000;stroke-width:1.88191871;stroke-opacity:1"
         x="880.84375"
         y="1654.5789"
         id="tspan5453">영광입니다,</tspan><tspan
         sodipodi:role="line"
         style="font-style:normal;font-variant:normal;font-weight:normal;font-stretch:normal;font-size:62.7469px;font-family:'Nanum Pen Script OTF';-inkscape-font-specification:'Nanum Pen Script OTF';stroke:#000000;stroke-width:1.88191871;stroke-opacity:1"
         x="880.84375"
         y="1717.3257"
         id="tspan5455">불사조님!</tspan></text>
    <text
       xml:space="preserve"
       style="font-style:normal;font-variant:normal;font-weight:normal;font-stretch:normal;font-size:62.1224px;line-height:100%;font-family:'Nanum Pen Script OTF';-inkscape-font-specification:'Nanum Pen Script OTF';text-align:center;letter-spacing:0px;word-spacing:0px;text-anchor:middle;fill:#000000;fill-opacity:1;stroke:none;stroke-width:1.28629"
       x="384.86923"
       y="1554.902"
       id="text925"><tspan
         sodipodi:role="line"
         style="font-style:normal;font-variant:normal;font-weight:normal;font-stretch:normal;font-size:62.1224px;font-family:'Nanum Pen Script OTF';-inkscape-font-specification:'Nanum Pen Script OTF';stroke-width:1.28629"
         x="384.86923"
         y="1554.902"
         id="tspan3221">어떤 인간이 나를</tspan><tspan
         sodipodi:role="line"
         style="font-style:normal;font-variant:normal;font-weight:normal;font-stretch:normal;font-size:62.1224px;font-family:'Nanum Pen Script OTF';-inkscape-font-specification:'Nanum Pen Script OTF';stroke-width:1.28629"
         x="384.86923"
         y="1617.0244"
         id="tspan893">자꾸 이리 귀찮게 구나?</tspan></text>
    <text
       xml:space="preserve"
       style="font-style:normal;font-variant:normal;font-weight:normal;font-stretch:normal;font-size:60.0712px;line-height:100%;font-family:'Nanum Pen Script OTF';-inkscape-font-specification:'Nanum Pen Script OTF';text-align:center;letter-spacing:0px;word-spacing:0px;text-anchor:middle;fill:#000000;fill-opacity:1;stroke:none;stroke-width:1.3251"
       x="1334.9261"
       y="1642.0819"
       id="text941"><tspan
         sodipodi:role="line"
         style="font-style:normal;font-variant:normal;font-weight:normal;font-stretch:normal;font-size:60.0712px;font-family:'Nanum Pen Script OTF';-inkscape-font-specification:'Nanum Pen Script OTF';stroke-width:1.3251"
         x="1334.9261"
         y="1642.0819"
         id="tspan939">제 이름은 후추이고,</tspan><tspan
         sodipodi:role="line"
         style="font-style:normal;font-variant:normal;font-weight:normal;font-stretch:normal;font-size:60.0712px;font-family:'Nanum Pen Script OTF';-inkscape-font-specification:'Nanum Pen Script OTF';stroke-width:1.3251"
         x="1334.9261"
         y="1702.1531"
         id="tspan17549">저는 카오사의</tspan><tspan
         sodipodi:role="line"
         style="font-style:normal;font-variant:normal;font-weight:normal;font-stretch:normal;font-size:60.0712px;font-family:'Nanum Pen Script OTF';-inkscape-font-specification:'Nanum Pen Script OTF';stroke-width:1.3251"
         x="1334.9261"
         y="1762.2244"
         id="tspan17551">마녀입니다.</tspan></text>
    <text
       xml:space="preserve"
       style="font-style:normal;font-variant:normal;font-weight:normal;font-stretch:normal;font-size:59.4179px;line-height:100%;font-family:'Nanum Pen Script OTF';-inkscape-font-specification:'Nanum Pen Script OTF';text-align:center;letter-spacing:0px;word-spacing:0px;text-anchor:middle;fill:#000000;fill-opacity:1;stroke:none;stroke-width:1.31069"
       x="1988.9758"
       y="1705.2269"
       id="text951"><tspan
         sodipodi:role="line"
         style="font-style:normal;font-variant:normal;font-weight:normal;font-stretch:normal;font-size:59.4179px;font-family:'Nanum Pen Script OTF';-inkscape-font-specification:'Nanum Pen Script OTF';stroke-width:1.31069"
         x="1988.9758"
         y="1705.2269"
         id="tspan949">제가 최근 용의 레아를</tspan><tspan
         sodipodi:role="line"
         style="font-style:normal;font-variant:normal;font-weight:normal;font-stretch:normal;font-size:59.4179px;font-family:'Nanum Pen Script OTF';-inkscape-font-specification:'Nanum Pen Script OTF';stroke-width:1.31069"
         x="1988.9758"
         y="1764.6448"
         id="tspan32251">다량으로 흡수하였는데,</tspan><tspan
         sodipodi:role="line"
         style="font-style:normal;font-variant:normal;font-weight:normal;font-stretch:normal;font-size:59.4179px;font-family:'Nanum Pen Script OTF';-inkscape-font-specification:'Nanum Pen Script OTF';stroke-width:1.31069"
         x="1988.9758"
         y="1824.0627"
         id="tspan19041">그 이후로 제 몸에 이런 것이 생겨</tspan><tspan
         sodipodi:role="line"
         style="font-style:normal;font-variant:normal;font-weight:normal;font-stretch:normal;font-size:59.4179px;font-family:'Nanum Pen Script OTF';-inkscape-font-specification:'Nanum Pen Script OTF';stroke-width:1.31069"
         x="1988.9758"
         y="1883.4806"
         id="tspan27171">날마다 자라나기 시작했습니다...</tspan></text>
    <text
       xml:space="preserve"
       style="font-style:normal;font-variant:normal;font-weight:normal;font-stretch:normal;font-size:58.5526px;line-height:100%;font-family:'Nanum Pen Script OTF';-inkscape-font-specification:'Nanum Pen Script OTF';text-align:center;letter-spacing:0px;word-spacing:0px;text-anchor:middle;fill:#000000;fill-opacity:1;stroke:none;stroke-width:1.2916"
       x="2104.9094"
       y="3231.6221"
       id="text959"><tspan
         sodipodi:role="line"
         style="font-style:normal;font-variant:normal;font-weight:normal;font-stretch:normal;font-size:58.5526px;font-family:'Nanum Pen Script OTF';-inkscape-font-specification:'Nanum Pen Script OTF';stroke-width:1.2916"
         x="2104.9094"
         y="3231.6221"
         id="tspan957">제 모든 능력을</tspan><tspan
         sodipodi:role="line"
         style="font-style:normal;font-variant:normal;font-weight:normal;font-stretch:normal;font-size:58.5526px;font-family:'Nanum Pen Script OTF';-inkscape-font-specification:'Nanum Pen Script OTF';stroke-width:1.2916"
         x="2104.9094"
         y="3290.1746"
         id="tspan22811">무력화시키고 나중엔</tspan><tspan
         sodipodi:role="line"
         style="font-style:normal;font-variant:normal;font-weight:normal;font-stretch:normal;font-size:58.5526px;font-family:'Nanum Pen Script OTF';-inkscape-font-specification:'Nanum Pen Script OTF';stroke-width:1.2916"
         x="2104.9094"
         y="3348.7273"
         id="tspan22813">저를 죽일 수도 있죠.</tspan></text>
  </g>
</svg>
