<?xml version="1.0" encoding="UTF-8" standalone="no"?>
<svg
   id="svg2"
   version="1.1"
   inkscape:version="1.1 (c68e22c387, 2021-05-23)"
   width="2481"
   height="3503"
   sodipodi:docname="E11P06.svg"
   xmlns:inkscape="http://www.inkscape.org/namespaces/inkscape"
   xmlns:sodipodi="http://sodipodi.sourceforge.net/DTD/sodipodi-0.dtd"
   xmlns:xlink="http://www.w3.org/1999/xlink"
   xmlns="http://www.w3.org/2000/svg"
   xmlns:svg="http://www.w3.org/2000/svg"
   xmlns:rdf="http://www.w3.org/1999/02/22-rdf-syntax-ns#"
   xmlns:cc="http://creativecommons.org/ns#"
   xmlns:dc="http://purl.org/dc/elements/1.1/">
  <sodipodi:namedview
     pagecolor="#ffffff"
     bordercolor="#666666"
     inkscape:pageopacity="0"
     inkscape:pageshadow="2"
     inkscape:window-width="1920"
     inkscape:window-height="1057"
     id="namedview70"
     showgrid="false"
     inkscape:zoom="1.1313708"
     inkscape:cx="1295.7732"
     inkscape:cy="3510.3432"
     inkscape:current-layer="layer3"
     inkscape:document-rotation="0"
     inkscape:window-x="1358"
     inkscape:window-y="-8"
     inkscape:window-maximized="1"
     borderopacity="1.0"
     inkscape:pagecheckerboard="0" />
  <metadata
     id="metadata8">
    <rdf:RDF>
      <cc:Work
         rdf:about="">
        <dc:format>image/svg+xml</dc:format>
        <dc:type
           rdf:resource="http://purl.org/dc/dcmitype/StillImage" />
        <dc:title />
      </cc:Work>
    </rdf:RDF>
  </metadata>
  <defs
     id="defs6">
    <filter
       style="color-interpolation-filters:sRGB"
       id="filter4375-4-1-1-1"
       inkscape:label="deevad outline effect"
       x="-0.016759418"
       y="-0.023622885"
       width="1.0335188"
       height="1.0472458">
      <feFlood
         id="feFlood4377-7-9-0-8"
         flood-opacity="1"
         flood-color="rgb(0,161,193)"
         result="flood" />
      <feComposite
         id="feComposite4379-3-8-8-2"
         in2="SourceGraphic"
         in="flood"
         operator="in"
         result="composite1" />
      <feMorphology
         id="feMorphology4393-1-0-49-8"
         operator="dilate"
         radius="4"
         result="result3" />
      <feComposite
         id="feComposite4385-9-5-7-0"
         in2="result3"
         in="SourceGraphic"
         operator="over"
         result="composite2" />
    </filter>
    <filter
       style="color-interpolation-filters:sRGB"
       id="filter4375-5"
       inkscape:label="deevad outline effect"
       x="0"
       y="0"
       width="1"
       height="1">
      <feFlood
         id="feFlood4377-0"
         flood-opacity="1"
         flood-color="rgb(170,74,53)"
         result="flood" />
      <feComposite
         id="feComposite4379-6"
         in2="SourceGraphic"
         in="flood"
         operator="in"
         result="composite1" />
      <feMorphology
         id="feMorphology4393-0"
         operator="dilate"
         radius="4"
         result="result3" />
      <feComposite
         id="feComposite4385-7"
         in2="result3"
         in="SourceGraphic"
         operator="over"
         result="composite2" />
    </filter>
  </defs>
  <sodipodi:namedview
     pagecolor="#ffffff"
     bordercolor="#666666"
     borderopacity="1"
     objecttolerance="10"
     gridtolerance="10"
     guidetolerance="10"
     inkscape:pageopacity="0"
     inkscape:pageshadow="2"
     inkscape:window-width="1920"
     inkscape:window-height="1025"
     id="namedview4"
     showgrid="false"
     inkscape:zoom="0.3478261"
     inkscape:cx="1545.4326"
     inkscape:cy="472.53258"
     inkscape:window-x="0"
     inkscape:window-y="26"
     inkscape:window-maximized="1"
     inkscape:current-layer="layer3" />
  <g
     inkscape:groupmode="layer"
     id="layer2"
     inkscape:label="artwork"
     sodipodi:insensitive="true">
    <image
       xlink:href="../gfx_Pepper-and-Carrot_by-David-Revoy_E11P06.png"
       width="2481"
       height="3503"
       id="image10"
       x="0"
       y="0" />
  </g>
  <g
     inkscape:groupmode="layer"
     id="layer3"
     inkscape:label="speechbubbles">
    <path
       style="color:#000000;display:inline;overflow:visible;visibility:visible;fill:#ffffff;fill-opacity:1;fill-rule:nonzero;stroke:none;stroke-width:0.821581px;marker:none;enable-background:accumulate"
       d="m 883.44281,2553.6891 c 7.48748,-68.508 60.62226,-95.1587 81.79211,-89.7976 21.16984,5.3616 75.45418,13.8103 88.54998,14.9142 13.0958,1.104 53.2787,3.1045 76.0064,13.5232 20.603,9.4447 38.8329,54.878 36.3643,81.4953 -2.4687,26.617 -17.8933,100.4278 -63.1874,105.5511 -45.2942,5.1234 -89.0908,-9.4272 -119.22439,-8.7964 -22.2548,0.4659 -49.50061,7.178 -71.78871,-12.5978 -22.28992,-19.7774 -35.99978,-35.7842 -28.51229,-104.292 z"
       id="path4554"
       inkscape:connector-curvature="0"
       sodipodi:nodetypes="zsssssssz" />
    <path
       style="color:#000000;display:inline;overflow:visible;visibility:visible;fill:#ffffff;fill-opacity:1;fill-rule:nonzero;stroke:none;stroke-width:1px;marker:none;enable-background:accumulate"
       d="m 823.48308,2729.7538 c 26.39251,-47.5832 73.87487,-74.0017 224.22282,-71.3252 150.3481,2.6767 178.2975,11.3756 198.5366,24.0892 20.239,12.7138 50.116,85.6506 34.6957,135.8364 -15.4205,50.1859 -77.1016,103.0484 -224.5583,99.0335 -147.45677,-4.015 -147.75974,-5.8457 -170.5872,-16.0595 -43.36972,-19.4052 -88.70214,-123.9911 -62.30962,-171.5744 z"
       id="path4530"
       inkscape:connector-curvature="0"
       sodipodi:nodetypes="zsssssz" />
    <path
       style="color:#000000;display:inline;overflow:visible;visibility:visible;fill:#ffffff;fill-opacity:1;fill-rule:nonzero;stroke:none;stroke-width:1px;marker:none;enable-background:accumulate"
       d="m 964.90215,2748.855 c -69.24383,-114.0421 124.96985,-212.6858 140.55595,-228.5292 15.5861,-15.8434 48.1752,-38.2882 73.6797,-42.2491 25.5046,-3.9608 37.8535,18.7178 59.957,22.3724 18.9904,3.14 33.5596,-2.5681 44.895,-14.4506 -18.42,30.3665 -49.5922,30.3665 -62.3444,25.0854 -12.7523,-5.2812 -35.423,-21.1246 -56.6768,-6.6015 -21.2537,14.5232 -109.1027,104.3026 -131.7734,108.2633 -22.6707,3.961 -70.6231,61.2969 -44.47095,134.8511 5.74995,16.172 -23.8221,1.2582 -23.8221,1.2582 z"
       id="path4562"
       inkscape:connector-curvature="0"
       sodipodi:nodetypes="cssscssssc" />
    <flowRoot
       xml:space="preserve"
       id="flowRoot2987-4-9-3-5-9-8-3-5-4-3"
       style="font-style:normal;font-variant:normal;font-weight:normal;font-stretch:normal;font-size:60px;line-height:0.01%;font-family:'linja sike';text-align:center;letter-spacing:0px;word-spacing:0px;text-anchor:middle;fill:#000000;fill-opacity:1;stroke:none"
       transform="translate(729.81177,2444.7706)"><flowRegion
         id="flowRegion2989-5-4-5-8-9-5-4-2-2-6"
         style="font-size:60px"><rect
           id="rect2991-7-9-6-5-7-5-4-9-5-0"
           width="410.2095"
           height="198.25995"
           x="120.55252"
           y="265.53046"
           style="font-style:normal;font-variant:normal;font-weight:normal;font-stretch:normal;font-family:'linja sike';text-align:center;text-anchor:middle;stroke-width:1;font-size:60px" /></flowRegion><flowPara
         style="font-size:60px;line-height:1.25;text-align:center;text-anchor:middle"
         id="flowPara3030-8-1-8-7-8-3-5-2">jan [_pana+e_pona+ante] o   </flowPara><flowPara
         style="font-size:60px;line-height:1.25;text-align:center;text-anchor:middle"
         id="flowPara9541">pali sina kama li pali mute a&gt;__</flowPara></flowRoot>
    <flowRoot
       xml:space="preserve"
       id="flowRoot2987-4-9-3-6-3-8-7-2-7-2"
       style="font-style:normal;font-variant:normal;font-weight:normal;font-stretch:normal;line-height:0.01%;font-family:'linja sike';text-align:end;letter-spacing:0px;word-spacing:0px;text-anchor:end;opacity:1;fill:#ffffff;fill-opacity:1;stroke:none"
       transform="translate(979.61783,3345.4292)"><flowRegion
         id="flowRegion2989-5-4-5-5-3-0-6-76-8-1"><rect
           id="rect2991-7-9-6-21-9-8-0-3-1-7"
           width="1808.0892"
           height="54.711319"
           x="-643.67096"
           y="-2.5750711"
           style="font-style:normal;font-variant:normal;font-weight:normal;font-stretch:normal;font-family:'linja sike';-inkscape-font-specification:'linja sike;text-align:end;text-anchor:end;fill:#ffffff;fill-opacity:1" /></flowRegion><flowPara
         style="font-size:32.9703px;line-height:1.25;text-align:center;text-anchor:middle;fill:#ffffff;fill-opacity:1"
         id="flowPara3272-6-3-1">tenpo+mun nanpa luka+tu tu lon tenpo+sike nanpa <flowSpan
   style="font-style:normal;font-variant:normal;font-weight:normal;font-stretch:normal;font-family:Lavi;-inkscape-font-specification:Lavi"
   id="flowSpan11607">2015</flowSpan>  -   musi sitelen en toki li tan jan [<flowSpan
   style="font-style:normal;font-variant:normal;font-weight:normal;font-stretch:normal;font-size:40px;font-family:Lavi;-inkscape-font-specification:Lavi"
   id="flowSpan16447">David Revoy</flowSpan>]  -  ante+toki li tan jan [_kiwen+en] [_tomo+anu_mi+insa]</flowPara></flowRoot>
    <flowRoot
       transform="matrix(0.87151273,0,-0.21233453,1.5605106,849.25717,2964.4505)"
       style="font-style:normal;font-variant:normal;font-weight:normal;font-stretch:normal;line-height:0.01%;font-family:'linja sike';text-align:center;letter-spacing:0px;word-spacing:0px;text-anchor:middle;fill:#000000;fill-opacity:1;stroke:#000000;stroke-width:4.70035;stroke-miterlimit:4;stroke-dasharray:none;stroke-opacity:1"
       id="flowRoot4212-3-7-8-6-5"
       xml:space="preserve"><flowRegion
         id="flowRegion4214-6-7-8-3-6"><rect
           style="font-style:normal;font-variant:normal;font-weight:normal;font-stretch:normal;font-family:'linja sike';-inkscape-font-specification:'linja sike;text-align:center;text-anchor:middle;stroke:#000000;stroke-width:4.7003541;stroke-miterlimit:4;stroke-dasharray:none;stroke-opacity:1"
           y="265.53046"
           x="120.55251"
           height="355.03918"
           width="798.1947"
           id="rect4216-4-0-26-5-2" /></flowRegion><flowPara
         style="font-size:66.6667px;line-height:1.25;text-align:center;letter-spacing:5.20896px;text-anchor:middle;stroke:#000000;stroke-width:4.70035;stroke-miterlimit:4;stroke-dasharray:none;stroke-opacity:1"
         id="flowPara4358-7-1-0">pini a</flowPara></flowRoot>
  </g>
  <g
     inkscape:groupmode="layer"
     id="layer1"
     inkscape:label="txt">
    <flowRoot
       xml:space="preserve"
       id="flowRoot2987-7-9-9-7-0-3-4-1"
       style="font-style:normal;font-variant:normal;font-weight:normal;font-stretch:normal;line-height:0.01%;font-family:'linja sike';letter-spacing:0px;word-spacing:0px;fill:#d0f6f5;fill-opacity:1;stroke:#000000;stroke-width:1.58519;stroke-miterlimit:4;stroke-dasharray:none;stroke-dashoffset:0;stroke-opacity:1;filter:url(#filter4375-4-1-1-1)"
       transform="matrix(1.4223171,-0.65385119,0.27226356,2.6387991,290.79869,481.73172)"><flowRegion
         id="flowRegion2989-4-5-8-7-41-7-62-2"
         style="stroke-width:5.40286"><rect
           id="rect2991-45-1-3-3-8-0-4-6"
           width="319.66232"
           height="56.089447"
           x="120.55251"
           y="265.53046"
           style="font-style:normal;font-variant:normal;font-weight:normal;font-stretch:normal;font-family:'linja sike';-inkscape-font-specification:'linja sike;fill:#d0f6f5;fill-opacity:1;stroke:#000000;stroke-width:1.58519495;stroke-miterlimit:4;stroke-dasharray:none;stroke-dashoffset:0;stroke-opacity:1" /></flowRegion><flowPara
         id="flowPara2995-4-1-5-0-7-2-6-4"
         style="font-weight:normal;font-size:66.6667px;line-height:1.25;-inkscape-font-specification:Lavi;letter-spacing:7.06853px;fill:#d0f6f5;fill-opacity:1;stroke:#ffffff;stroke-width:1.58519;stroke-linejoin:miter;stroke-miterlimit:4;stroke-dasharray:none;stroke-dashoffset:0;stroke-opacity:1">Ko!</flowPara></flowRoot>
    <path
       style="color:#000000;display:inline;overflow:visible;visibility:visible;fill:#ffffff;fill-opacity:1;fill-rule:nonzero;stroke:none;stroke-width:1.5274px;marker:none;enable-background:accumulate"
       d="m 2084.6684,1000.1073 c 5.7847,-11.97758 35.7852,-48.92144 42.8875,-9.3449 50.0582,-53.84219 103.2568,-37.19497 156.2766,-24.55444 11.4634,-16.11085 10.0285,-40.12656 54.2194,-36.18025 -8.0551,-15.22377 5.2443,-26.40896 37.5983,-33.99085 -45.2388,-7.64729 -54.5434,-16.96827 25.9448,-30.47197 -62.3735,1.38579 -120.7193,1.55521 -52.1699,-36.59443 -23.0195,0.0236 -73.6385,31.60585 -59.2321,-55.6843 -35.8952,29.14496 -75.9813,46.00588 -136.0291,-9.85621 -13.305,23.4772 -35.5643,39.83892 -86.1192,10.44264 -7.0928,23.06853 -63.0903,27.10347 -84.3701,23.28627 44.9332,23.77787 45.4974,39.59711 -10.8324,44.21868 100.7824,42.0941 22.2865,38.17674 8.4459,50.36225 76.5792,12.90087 45.6915,33.77114 34.8877,53.8089 85.8097,-2.61845 61.7202,29.76618 68.4926,54.55861 z"
       id="path3549-3"
       inkscape:connector-curvature="0"
       sodipodi:nodetypes="ccccccccccccccc" />
    <path
       style="color:#000000;display:inline;overflow:visible;visibility:visible;fill:#ffffff;fill-opacity:1;fill-rule:nonzero;stroke:none;stroke-width:1px;marker:none;enable-background:accumulate"
       d="m 1926.3734,927.68592 c 26.2468,-47.6331 46.661,-50.5494 61.2425,-54.4378 1.9442,4.8605 6.8047,12.6373 6.8047,12.6373 0,0 28.191,-10.6931 39.8562,-10.6931 11.6653,0 11.6653,16.5258 11.6653,16.5258 0,0 -54.4378,22.3583 -65.1309,31.1072 -4.8605,-13.6094 -8.7489,-19.442 -8.7489,-25.2746 -8.749,-0.9721 -35.9678,13.6094 -45.6889,30.1352 z"
       id="path4456"
       inkscape:connector-curvature="0" />
    <flowRoot
       transform="matrix(1.2404487,0,-0.43024075,1.9867666,1655.0138,264.47397)"
       style="font-style:normal;font-variant:normal;font-weight:normal;font-stretch:normal;line-height:0.01%;font-family:'linja sike';text-align:center;letter-spacing:-0.00636997px;word-spacing:-0.00636997px;text-anchor:middle;fill:#000000;fill-opacity:1;stroke:#000000;stroke-width:2.27917;stroke-miterlimit:4;stroke-dasharray:none;stroke-opacity:1"
       id="flowRoot4212-3-7-8-6"
       xml:space="preserve"><flowRegion
         id="flowRegion4214-6-7-8-3"><rect
           style="font-style:normal;font-variant:normal;font-weight:normal;font-stretch:normal;font-family:'linja sike';text-align:center;text-anchor:middle;stroke:#000000;stroke-width:2.27917409;stroke-miterlimit:4;stroke-dasharray:none;stroke-opacity:1"
           y="265.53046"
           x="120.55251"
           height="355.03918"
           width="798.1947"
           id="rect4216-4-0-26-5" /></flowRegion><flowPara
         style="font-size:66.6667px;line-height:1.25;text-align:center;text-anchor:middle;stroke:#000000;stroke-width:2.27917;stroke-miterlimit:4;stroke-dasharray:none;stroke-opacity:1"
         id="flowPara4358-7-1">a&gt;_pilin_wawa]</flowPara></flowRoot>
    <flowRoot
       xml:space="preserve"
       id="flowRoot2987-7-9-9-7-4"
       style="font-style:normal;font-variant:normal;font-weight:normal;font-stretch:normal;line-height:0.01%;font-family:'linja sike';letter-spacing:0px;word-spacing:0px;fill:#ffea7c;fill-opacity:1;stroke:none;stroke-width:0.992362;stroke-miterlimit:4;stroke-dasharray:none;stroke-opacity:1;filter:url(#filter4375-5)"
       transform="matrix(0.68657424,-0.31607506,0.16874351,0.83940746,1226.4375,1331.3279)"><flowRegion
         id="flowRegion2989-4-5-8-7-8"
         style="stroke-width:5.40286"><rect
           id="rect2991-45-1-3-3-4"
           width="319.66232"
           height="56.089447"
           x="120.55251"
           y="265.53046"
           style="font-style:normal;font-variant:normal;font-weight:normal;font-stretch:normal;font-family:'linja sike';-inkscape-font-specification:'linja sike;fill:#ffea7c;fill-opacity:1;stroke:none;stroke-width:0.99236238;stroke-miterlimit:4;stroke-dasharray:none;stroke-opacity:1" /></flowRegion><flowPara
         id="flowPara2995-4-1-5-0-07"
         style="font-weight:normal;font-size:66.6667px;line-height:1.25;-inkscape-font-specification:Lavi;fill:#ffea7c;fill-opacity:1;stroke:none;stroke-width:0.992362;stroke-linejoin:miter;stroke-miterlimit:4;stroke-dasharray:none;stroke-opacity:1">a&gt;_seli]</flowPara></flowRoot>
    <flowRoot
       xml:space="preserve"
       id="flowRoot2987-4-9-3-5-9-8-3-5-4"
       style="font-style:normal;font-variant:normal;font-weight:normal;font-stretch:normal;font-size:60px;line-height:0.01%;font-family:'linja sike';text-align:center;letter-spacing:0px;word-spacing:0px;text-anchor:middle;fill:#000000;fill-opacity:1;stroke:none"
       transform="translate(717.27167,2230.1118)"><flowRegion
         id="flowRegion2989-5-4-5-8-9-5-4-2-2"
         style="font-size:60px"><rect
           id="rect2991-7-9-6-5-7-5-4-9-5"
           width="370.2095"
           height="303.25995"
           x="120.55251"
           y="265.53046"
           style="font-style:normal;font-variant:normal;font-weight:normal;font-stretch:normal;font-family:'linja sike';text-align:center;text-anchor:middle;font-size:60px" /></flowRegion><flowPara
         style="font-size:60px;line-height:1.25;text-align:center;text-anchor:middle"
         id="flowPara3030-8-1-8-7-8-3-5">pali nanpa wan </flowPara></flowRoot>
    <flowRoot
       transform="translate(719.83314,2305.0371)"
       style="font-style:normal;font-variant:normal;font-weight:normal;font-stretch:normal;font-size:60px;line-height:0.01%;font-family:'linja sike';text-align:center;letter-spacing:0px;word-spacing:0px;text-anchor:middle;fill:#000000;fill-opacity:1;stroke:#000000;stroke-width:2;stroke-miterlimit:4;stroke-dasharray:none;stroke-opacity:1"
       id="flowRoot4222"
       xml:space="preserve"><flowRegion
         id="flowRegion4224"
         style="font-size:60px"><rect
           style="font-style:normal;font-variant:normal;font-weight:normal;font-stretch:normal;font-size:60px;font-family:'linja sike';text-align:center;text-anchor:middle;stroke:#000000;stroke-width:2;stroke-miterlimit:4;stroke-dasharray:none;stroke-opacity:1"
           y="265.53046"
           x="120.55251"
           height="69"
           width="361.50186"
           id="rect4226" /></flowRegion><flowPara
         id="flowPara4228"
         style="font-size:60px;line-height:1.25;text-align:center;text-anchor:middle;stroke:#000000;stroke-width:2;stroke-miterlimit:4;stroke-dasharray:none;stroke-opacity:1">li ike+ale a</flowPara></flowRoot>
  </g>
</svg>
