<?xml version="1.0" encoding="UTF-8" standalone="no"?>
<svg
   xmlns:dc="http://purl.org/dc/elements/1.1/"
   xmlns:cc="http://creativecommons.org/ns#"
   xmlns:rdf="http://www.w3.org/1999/02/22-rdf-syntax-ns#"
   xmlns:svg="http://www.w3.org/2000/svg"
   xmlns="http://www.w3.org/2000/svg"
   xmlns:xlink="http://www.w3.org/1999/xlink"
   xmlns:sodipodi="http://sodipodi.sourceforge.net/DTD/sodipodi-0.dtd"
   xmlns:inkscape="http://www.inkscape.org/namespaces/inkscape"
   id="svg2"
   version="1.1"
   inkscape:version="0.92.5 (2060ec1f9f, 2020-04-08)"
   width="2481"
   height="3503"
   sodipodi:docname="E35P06.svg">
  <metadata
     id="metadata8">
    <rdf:RDF>
      <cc:Work
         rdf:about="">
        <dc:format>image/svg+xml</dc:format>
        <dc:type
           rdf:resource="http://purl.org/dc/dcmitype/StillImage" />
        <dc:title />
      </cc:Work>
    </rdf:RDF>
  </metadata>
  <defs
     id="defs6" />
  <sodipodi:namedview
     pagecolor="#ffffff"
     bordercolor="#666666"
     borderopacity="1"
     objecttolerance="10"
     gridtolerance="10"
     guidetolerance="10"
     inkscape:pageopacity="0"
     inkscape:pageshadow="2"
     inkscape:window-width="1920"
     inkscape:window-height="1023"
     id="namedview4"
     showgrid="false"
     inkscape:zoom="0.37194737"
     inkscape:cx="987.59933"
     inkscape:cy="300.92276"
     inkscape:window-x="0"
     inkscape:window-y="0"
     inkscape:window-maximized="1"
     inkscape:current-layer="layer1"
     inkscape:document-rotation="0"
     inkscape:snap-global="false"
     inkscape:pagecheckerboard="0" />
  <g
     inkscape:groupmode="layer"
     id="layer2"
     inkscape:label="artwork"
     sodipodi:insensitive="true">
    <image
       sodipodi:absref="/home/peppercarrot/webcomics/"
       xlink:href="../gfx_Pepper-and-Carrot_by-David-Revoy_E35P06.png"
       y="0"
       x="0"
       id="image10"
       height="3503"
       width="2481" />
  </g>
  <g
     inkscape:groupmode="layer"
     id="layer3"
     inkscape:label="speechbubbles"
     style="display:inline">
    <path
       style="fill:#ffffff;stroke:none;stroke-width:0.82273394"
       d="m 634.55966,174.80745 c -12.76571,0.33903 -25.5067,1.49496 -38.19758,3.01176 -19.5977,2.53151 -39.19136,6.72051 -57.57152,14.86637 -21.82297,10.53811 -38.10669,33.453 -43.29072,59.2178 -8.25383,30.76007 -8.93188,64.52208 0.52451,95.09884 6.21365,18.85692 20.10159,33.67285 36.11374,42.34602 25.92743,14.4807 54.90658,22.23322 83.90256,21.84608 17.60696,0.0693 35.22464,-0.67009 52.76049,-2.39638 21.48911,-2.37478 43.11229,-8.34353 61.55522,-21.22279 12.25993,-8.62838 22.19297,-21.57456 27.10138,-36.87168 4.34763,-12.91138 5.15666,-26.90515 4.65774,-40.58376 -0.33513,-23.20582 -1.14193,-46.84338 -7.72519,-69.08497 -4.42506,-14.36981 -14.00231,-26.20556 -25.18066,-34.60592 -7.68345,-5.77365 -16.26251,-9.8156 -24.74367,-13.86876 -20.20058,-9.22814 -41.60392,-15.40883 -63.37063,-17.41394 -2.17513,-0.18392 -4.35503,-0.29374 -6.53567,-0.33867 z"
       id="path3286-6"
       inkscape:connector-curvature="0"
       sodipodi:nodetypes="csssssssc" />
    <path
       style="display:inline;fill:#ffffff;fill-rule:evenodd;stroke:none;stroke-width:1.36247px;stroke-linecap:butt;stroke-linejoin:miter;stroke-opacity:1"
       d="m -11.698607,1502.9614 c 47.285128,0.9709 41.020285,18.9206 23.991775,40.2832 13.099827,-1.4369 43.737529,-21.2257 25.570695,10.0555 39.667306,-11.3646 56.420658,15.5887 53.197356,27.1509 19.484341,-3.9803 39.465281,-0.6376 19.136541,40.2724 19.63803,-9.167 36.84145,-36.8642 34.60501,7.2244 15.89818,-5.4725 36.78638,-26.5581 39.43737,9.4172 21.01567,-17.7601 41.89473,-32.9121 60.6718,-7.9194 19.53008,-36.1747 39.245,-23.3546 52.60208,12.4772 6.27564,-43.4296 43.52626,-25.9104 66.90689,19.5777 -7.42371,-37.6335 -38.94668,-89.6447 54.67081,-13.5228 -39.72841,-55.9177 -44.6055,-77.4348 72.48794,-15.7856 -14.94217,-22.6503 -39.19887,-77.1061 56.32185,-18.4508 -64.83065,-67.3048 -26.58017,-74.4012 20.0383,-86.5626 -56.61095,-1.7957 -73.29896,-19.4105 -12.88074,-26.8793 -92.57779,-8.7403 -70.1637,-30.4201 -40.69585,-66.7128 -47.37424,27.6916 -40.57833,11.5769 -29.22077,-3.1512 -84.20036,29.1003 -49.08304,-16.958 -41.30815,-34.9119 -41.35702,19.0141 -54.17414,16.8415 -50.28863,-11.8494 -22.95791,24.5753 -47.24278,23.9494 -45.05674,14.2836 l -57.8602,-8.2257 -275.30273,5.4155 -12.063932,88.2476 c 72.623699,-4.1891 28.465227,14.6958 -14.960675,19.5663 z"
       id="path961"
       sodipodi:nodetypes="cccccccccccccccccccccccc" />
    <path
       style="color:#000000;display:inline;overflow:visible;visibility:visible;fill:#ffffff;fill-opacity:1;fill-rule:nonzero;stroke:none;stroke-width:1.0025773px;marker:none;enable-background:accumulate"
       d="m 571.67675,2285.3556 c -7.52071,-35.9524 12.53488,-131.4529 166.71224,-123.5877 154.17734,7.8642 179.24689,52.8058 183.00725,66.2874 3.76035,13.4827 36.35073,89.8831 -83.98275,110.1061 -120.3337,20.2239 -228.13241,-1.1239 -265.73674,-52.8058 z"
       id="path3525-0"
       inkscape:connector-curvature="0" />
    <path
       style="color:#000000;display:inline;overflow:visible;visibility:visible;fill:#ffffff;fill-opacity:1;fill-rule:nonzero;stroke:none;stroke-width:1px;marker:none;enable-background:accumulate"
       d="m 777.45911,2075.5812 c 24.221,32.672 31.0089,45.658 8.1243,87.146 -22.8847,41.487 -7.3195,49.577 -7.3195,49.577 l 28.2503,-15.376 c 0,0 42.659,-91.848 -29.0551,-121.347 z"
       id="path3072-56"
       inkscape:connector-curvature="0" />
    <path
       style="color:#000000;display:inline;overflow:visible;visibility:visible;fill:#ffffff;fill-opacity:1;fill-rule:nonzero;stroke:none;stroke-width:1px;marker:none;enable-background:accumulate"
       d="m 787.3973,441.92617 c -47.0829,-20.24287 -67.22496,-54.55991 -84.15983,-115.70701 -17.59681,-45.717 -36.07245,-33.52653 -36.07245,-33.52653 l 6.37734,17.91035 c 0,0 -3.04742,117.01808 113.85494,131.32319 z"
       id="path3072-5-5"
       inkscape:connector-curvature="0"
       sodipodi:nodetypes="ccccc" />
    <path
       style="display:inline;fill:#ffffff;fill-opacity:1;stroke:none;stroke-width:1.10947"
       d="m 393.56677,1606.3671 c 21.51156,33.7205 38.79051,39.1501 50.26035,53.0664 11.46981,13.9172 -2.88402,43.4737 0.19353,53.5399 3.70439,9.4958 0.69509,16.2497 29.83986,39.4536 -46.26,-20.9908 -40.86354,-33.0957 -44.26871,-41.9175 -4.68096,-12.128 3.84885,-26.4644 -8.51834,-37.4754 -11.9791,-10.667 -55.59571,-40.8524 -64.07404,-63.4543 -8.47865,-22.6019 -12.84256,-23.9886 -12.84256,-23.9886 z"
       id="path3282-7"
       inkscape:connector-curvature="0"
       sodipodi:nodetypes="csccssscc" />
  </g>
  <g
     inkscape:groupmode="layer"
     id="layer1"
     inkscape:label="txt">
    <text
       xml:space="preserve"
       style="font-style:normal;font-variant:normal;font-weight:normal;font-stretch:normal;font-size:45px;line-height:1.25;font-family:Lavi;-inkscape-font-specification:Lavi;text-align:center;letter-spacing:0px;word-spacing:0px;text-anchor:middle;fill:#000000;fill-opacity:1;stroke:none"
       x="626.79279"
       y="258.95941"
       id="text4246-3-2-2"><tspan
         style="font-size:45px"
         sodipodi:role="line"
         x="633.82404"
         y="258.95941"
         id="tspan868">Siud uamh </tspan><tspan
         style="font-size:45px"
         sodipodi:role="line"
         x="633.82404"
         y="315.20938"
         id="tspan851">Loch nan </tspan><tspan
         style="font-size:45px"
         sodipodi:role="line"
         x="626.79279"
         y="371.45938"
         id="tspan853">Adharc!</tspan><tspan
         style="font-size:45px"
         sodipodi:role="line"
         x="626.79279"
         y="427.70938"
         id="tspan905" /></text>
    <text
       xml:space="preserve"
       style="font-style:normal;font-variant:normal;font-weight:normal;font-stretch:normal;font-size:45px;line-height:1.25;font-family:Lavi;-inkscape-font-specification:Lavi;text-align:center;letter-spacing:0px;word-spacing:0px;text-anchor:middle;fill:#000000;fill-opacity:1;stroke:none"
       x="308.20319"
       y="1503.6958"
       id="text4246-3-2-2-3"><tspan
         style="font-size:45px"
         sodipodi:role="line"
         x="315.23444"
         y="1503.6958"
         id="tspan857">A Churrain, </tspan><tspan
         style="font-size:45px"
         sodipodi:role="line"
         x="308.20319"
         y="1559.9458"
         id="tspan859">siud ar cothrom!</tspan></text>
    <text
       xml:space="preserve"
       style="font-style:normal;font-variant:normal;font-weight:normal;font-stretch:normal;font-size:45px;line-height:1.25;font-family:Lavi;-inkscape-font-specification:Lavi;text-align:center;letter-spacing:0px;word-spacing:0px;text-anchor:middle;fill:#000000;fill-opacity:1;stroke:none"
       x="753.95697"
       y="2239.4163"
       id="text4246-3-2-2-3-5"><tspan
         style="font-size:45px"
         sodipodi:role="line"
         x="760.98822"
         y="2239.4163"
         id="tspan958">Tha mi eòlach </tspan><tspan
         style="font-size:45px"
         sodipodi:role="line"
         x="753.95697"
         y="2295.6663"
         id="tspan873">air an uamh ud.</tspan></text>
    <text
       xml:space="preserve"
       style="font-style:normal;font-variant:normal;font-weight:normal;font-stretch:normal;font-size:45px;line-height:1.25;font-family:Lavi;-inkscape-font-specification:Lavi;text-align:center;letter-spacing:0px;word-spacing:0px;text-anchor:middle;fill:#ffffff;fill-opacity:1;stroke:none"
       x="201.94211"
       y="2549.3845"
       id="text4246-3-2-2-3-5-9"><tspan
         style="font-size:45px;text-align:start;text-anchor:start;fill:#ffffff"
         sodipodi:role="line"
         x="201.94211"
         y="2549.3845"
         id="tspan924">Tha cumhang fada lùbach innte </tspan><tspan
         style="font-size:45px;text-align:start;text-anchor:start;fill:#ffffff"
         sodipodi:role="line"
         x="201.94211"
         y="2605.6345"
         id="tspan880">a ruigeas ceann a thuit ’na bhroinn.</tspan></text>
    <text
       xml:space="preserve"
       style="font-style:normal;font-variant:normal;font-weight:normal;font-stretch:normal;font-size:45px;line-height:1.25;font-family:Lavi;-inkscape-font-specification:Lavi;text-align:center;letter-spacing:0px;word-spacing:0px;text-anchor:middle;fill:#ffffff;fill-opacity:1;stroke:none"
       x="1335.3069"
       y="3059.7258"
       id="text4246-3-2-2-3-5-9-7"><tspan
         style="font-size:45px;text-align:end;text-anchor:end;fill:#ffffff"
         sodipodi:role="line"
         x="1349.3694"
         y="3059.7258"
         id="tspan884">Tha cruach de dh’aol-chluigein ’na balla spìceach san </tspan><tspan
         style="font-size:45px;text-align:end;text-anchor:end;fill:#ffffff"
         sodipodi:role="line"
         x="1335.3069"
         y="3115.9758"
         id="tspan912">roinn ud thall a thuit. ’S e ribe marbhtach a th’ innte!</tspan></text>
    <text
       xml:space="preserve"
       style="font-style:normal;font-variant:normal;font-weight:normal;font-stretch:normal;font-size:45px;line-height:1.25;font-family:Lavi;-inkscape-font-specification:Lavi;text-align:center;letter-spacing:0px;word-spacing:0px;text-anchor:middle;fill:#000000;fill-opacity:1;stroke:none"
       x="1482.9749"
       y="2753.425"
       id="text4246-3-2-2-3-5-9-7-3"><tspan
         style="font-size:45px;text-align:start;text-anchor:start;fill:#ffffff"
         sodipodi:role="line"
         x="1482.9749"
         y="2753.425"
         id="tspan888">Tha beulag ri a taobh a tha </tspan><tspan
         style="font-size:45px;text-align:start;text-anchor:start;fill:#ffffff"
         sodipodi:role="line"
         x="1482.9749"
         y="2809.675"
         id="tspan892">leathann gu leòr ach am </tspan><tspan
         style="font-size:45px;text-align:start;text-anchor:start;fill:#ffffff"
         sodipodi:role="line"
         x="1482.9749"
         y="2865.925"
         id="tspan894">faigh sinne troimhpe</tspan></text>
    <text
       xml:space="preserve"
       style="font-style:normal;font-variant:normal;font-weight:normal;font-stretch:normal;font-size:45px;line-height:1.25;font-family:Lavi;-inkscape-font-specification:Lavi;text-align:center;letter-spacing:0px;word-spacing:0px;text-anchor:middle;fill:#000000;fill-opacity:1;stroke:none;stroke-width:1.25014997"
       x="2301.0408"
       y="3223.4587"
       id="text4246-3-2-2-3-5-9-7-3-3"><tspan
         style="font-size:45px;text-align:end;text-anchor:end;fill:#ffffff;stroke-width:1.25014997"
         sodipodi:role="line"
         x="2301.0408"
         y="3223.4587"
         id="tspan860">ach cha stad a’ bhana-dràgon ri àm</tspan><tspan
         style="font-size:45px;text-align:end;text-anchor:end;fill:#ffffff;stroke-width:1.25014997"
         sodipodi:role="line"
         x="2301.0408"
         y="3279.7087"
         id="tspan864"> ’s bualaidh i ris a’ bhalla air astar mòr!</tspan><tspan
         style="font-size:45px;text-align:end;text-anchor:end;fill:#ffffff;stroke-width:1.25014997"
         sodipodi:role="line"
         x="2301.0408"
         y="3335.9587"
         id="tspan904">Mùhahaha!</tspan></text>
  </g>
</svg>
