<?xml version="1.0" encoding="UTF-8" standalone="no"?>
<!-- Created with Inkscape (http://www.inkscape.org/) -->

<svg
   id="svg2"
   version="1.1"
   inkscape:version="1.1.1 (3bf5ae0d25, 2021-09-20)"
   width="2481"
   height="3503"
   sodipodi:docname="E36P15.svg"
   xmlns:inkscape="http://www.inkscape.org/namespaces/inkscape"
   xmlns:sodipodi="http://sodipodi.sourceforge.net/DTD/sodipodi-0.dtd"
   xmlns:xlink="http://www.w3.org/1999/xlink"
   xmlns="http://www.w3.org/2000/svg"
   xmlns:svg="http://www.w3.org/2000/svg"
   xmlns:rdf="http://www.w3.org/1999/02/22-rdf-syntax-ns#"
   xmlns:cc="http://creativecommons.org/ns#"
   xmlns:dc="http://purl.org/dc/elements/1.1/">
  <metadata
     id="metadata8">
    <rdf:RDF>
      <cc:Work
         rdf:about="">
        <dc:format>image/svg+xml</dc:format>
        <dc:type
           rdf:resource="http://purl.org/dc/dcmitype/StillImage" />
      </cc:Work>
    </rdf:RDF>
  </metadata>
  <defs
     id="defs6" />
  <sodipodi:namedview
     pagecolor="#1e1e1e"
     bordercolor="#111111"
     borderopacity="1"
     objecttolerance="10"
     gridtolerance="10"
     guidetolerance="10"
     inkscape:pageopacity="0"
     inkscape:pageshadow="2"
     inkscape:window-width="1920"
     inkscape:window-height="967"
     id="namedview4"
     showgrid="false"
     inkscape:zoom="0.80454291"
     inkscape:cx="1463.5639"
     inkscape:cy="3161.4224"
     inkscape:window-x="0"
     inkscape:window-y="72"
     inkscape:window-maximized="1"
     inkscape:current-layer="layer1"
     inkscape:pagecheckerboard="0"
     inkscape:snap-global="false" />
  <g
     inkscape:groupmode="layer"
     id="layer2"
     inkscape:label="artwork"
     sodipodi:insensitive="true">
    <image
       xlink:href="../gfx_Pepper-and-Carrot_by-David-Revoy_E36P15.png"
       y="0"
       x="0"
       id="image10"
       height="3503"
       width="2481" />
  </g>
  <g
     inkscape:groupmode="layer"
     id="layer3"
     inkscape:label="speechbubbles"
     style="display:inline">
    <path
       sodipodi:nodetypes="zsssszcccacccccz"
       inkscape:connector-curvature="0"
       id="path4040-4-9-3"
       d="m 300.31161,1095.7409 c -43.74445,0.4967 -90.26572,-2.1357 -129.19799,13.7102 -19.62298,8.7858 -34.36346,31.5983 -42.51133,48.2297 -7.53003,19.2331 5.85028,41.4579 14.96946,60.4509 10.42328,20.1699 20.0032,34.5939 47.08418,39.7935 24.91188,5.1853 50.89768,2.8076 76.29795,2.1517 20.85757,-0.7229 41.78292,-1.0122 62.61354,0.2808 42.3609,1.2074 72.85521,1.7988 114.98085,-1.6315 19.13696,-1.9898 45.91611,-20.9689 60.49053,-31.173 16.77203,-11.6681 16.82434,-23.7616 19.91745,-37.6049 3.0743,-13.7591 9.33329,-29.0524 -2.00538,-42.2475 -10.31908,-11.8157 -18.14671,-24.4811 -33.23961,-32.179 -22.22014,-11.0037 -55.38037,-14.0924 -81.76695,-16.1013 -33.94415,-3.3734 -68.23182,-3.4548 -102.39613,-3.6856 -1.74552,0 -3.49103,0 -5.23657,0.01 z"
       style="color:#000000;display:inline;overflow:visible;visibility:visible;fill:#ffffff;fill-opacity:1;fill-rule:nonzero;stroke:none;stroke-width:0.928823px;marker:none;enable-background:accumulate" />
    <path
       sodipodi:nodetypes="zssssz"
       inkscape:connector-curvature="0"
       id="path4040-4-9-3-0"
       d="m 1073.6519,1103.4746 c -54.301,0.6452 -109.61575,5.7225 -160.72657,27.2362 -16.92078,7.1074 -32.8146,21.0634 -37.89889,40.8274 -6.18578,23.5475 3.3743,49.2855 19.76113,64.9858 14.54167,14.2208 33.63431,20.8677 52.14248,26.1281 33.85918,8.7248 68.80575,10.0899 103.42075,11.6213 74.4633,2.5795 148.9146,-2.5414 223.1375,-8.6252 30.9362,-2.8393 62.8906,-9.1366 89.2438,-28.2133 23.7471,-19.2428 32.2543,-59.0686 16.3393,-86.9357 -10.8419,-19.0725 -30.1914,-30.425 -49.937,-34.4716 -31.5607,-7.0561 -63.9056,-7.8082 -95.9825,-9.3 -38.6916,-1.5299 -77.4091,-2.1286 -116.1173,-2.9692 -14.4598,-0.2288 -28.9212,-0.3939 -43.3827,-0.2838 z"
       style="color:#000000;display:inline;overflow:visible;visibility:visible;fill:#ffffff;fill-opacity:1;fill-rule:nonzero;stroke:none;stroke-width:1.15972px;marker:none;enable-background:accumulate" />
    <path
       sodipodi:nodetypes="zsssszcccccz"
       inkscape:connector-curvature="0"
       id="path4040-4-9-3-0-9"
       d="m 1500.7166,1126.0021 c -47.6392,0.9673 -96.1969,8.1228 -137.8178,26.7677 -24.6819,11.8288 -38.0371,34.5975 -37.9235,56.6266 -1.2269,26.7122 11.8943,54.5933 38.8849,71.9384 24.137,15.1155 55.0206,21.5442 85.1222,25.4096 41.1209,4.9897 82.8368,6.1085 124.398,6.4063 53.8242,-0.043 107.8608,-2.8389 160.6935,-11.064 30.7205,-5.9919 60.7246,-18.2385 79.6406,-38.3925 20.5619,-22.3844 26.6362,-53.3168 11.5694,-78.5981 -12.9602,-30.8271 -35.9013,-41.6562 -66.9756,-46.1384 -45.3207,-9.0923 -77.4395,-8.3636 -123.8911,-10.8846 -37.8319,-2.0371 -95.7673,-2.2339 -133.7006,-2.071 z"
       style="color:#000000;display:inline;overflow:visible;visibility:visible;fill:#ffffff;fill-opacity:1;fill-rule:nonzero;stroke:none;stroke-width:1.2304px;marker:none;enable-background:accumulate" />
    <path
       style="fill:#ffffff;fill-rule:evenodd;stroke:none;stroke-width:0.943598px;stroke-linecap:butt;stroke-linejoin:miter;stroke-opacity:1"
       d="m 318.08963,1240.1318 c -44.24869,0.8784 -88.74544,-0.2682 -132.70973,4.2836 -14.0019,1.6342 -27.46461,5.7546 -38.80224,12.1291 -22.13306,12.0615 -36.84242,31.2571 -39.93009,51.5708 -3.46506,17.1735 -3.12883,34.9901 3.12114,51.7912 5.88707,13.996 19.04541,26.3832 36.67875,33.0376 19.70364,7.9949 42.01008,11.1675 63.83471,14.1763 42.1506,5.3329 85.07635,5.8753 127.71826,5.1205 30.38294,-0.7154 60.60999,-3.3031 90.95552,-4.5014 27.94345,-1.3479 56.20404,-3.6042 82.65455,-10.8702 12.7339,-3.2988 26.19001,-7.1546 34.90208,-15.2347 9.83285,-9.4543 12.57042,-21.7177 13.86734,-33.3419 1.98806,-20.0022 -0.60339,-40.3548 -8.56034,-59.5404 -3.30502,-7.5667 -7.34911,-15.1191 -13.70925,-21.5589 -8.83205,-7.8136 -21.98394,-11.842 -34.9095,-14.389 -31.67676,-7.8205 -65.33556,-8.5722 -98.36028,-9.7567 -28.90357,-1.1469 -57.77869,-3.1814 -86.75092,-2.9159 z"
       id="path4430-0"
       inkscape:connector-curvature="0"
       sodipodi:nodetypes="cccc" />
    <path
       style="fill:#ffffff;fill-rule:evenodd;stroke:none;stroke-width:0.914223px;stroke-linecap:butt;stroke-linejoin:miter;stroke-opacity:1"
       d="m 486.57288,1577.4452 c 28.81918,-66.6247 20.74358,-99.1008 19.77331,-112.4088 -16.52174,10.815 -24.86604,14.1576 -24.65914,13.2895 3.00972,-12.6265 -35.44872,-115.6984 -44.45394,-112.059 l 18.96701,-39.5995 c 16.57291,47.9099 30.322,74.2909 38.66556,123.6461 0,0 15.80065,-9.8432 23.58886,-12.9706 2.56416,11.9254 27.41455,66.0411 -31.88166,140.1023 z"
       id="path891"
       inkscape:connector-curvature="0"
       sodipodi:nodetypes="ccsccccc" />
    <path
       id="path889"
       style="fill:#ffffff;fill-rule:evenodd;stroke:none;stroke-width:1.16912px;stroke-linecap:butt;stroke-linejoin:miter;stroke-opacity:1"
       d="m 2296.3652,1086.7009 c -54.9342,0.2839 -109.8719,0.3258 -164.8075,0.5075 -47.4814,0.1154 -94.9629,0.2292 -142.4444,0.3436 -8.1673,7.5551 -14.0865,18.1813 -20.1539,28.2667 -19.3139,34.7843 -29.8342,76.0849 -36.201,117.5219 -6.7034,45.0767 -8.1257,91.9503 -0.6155,137.0169 4.2281,23.67 12.697,46.9677 27.3238,63.1401 12.9632,14.8106 29.5968,23.6085 46.6373,27.4493 23.7839,6.7526 48.066,10.0177 72.2721,13.2038 39.4868,3.9246 79.1109,4.5628 118.6758,6.3895 31.168,-0.1268 61.7861,-8.9359 91.8311,-18.6878 16.8167,-5.9061 33.5734,-13.3479 48.2962,-25.4572 15.7018,-15.1896 24.8256,-39.0853 28.3635,-63.3423 9.3224,-50.658 11.5811,-103.7165 4.4067,-155.0626 -3.9654,-29.9447 -10.4425,-59.725 -21.8893,-86.5293 -7.6505,-17.0343 -18.3501,-33.1276 -33.0349,-40.5154 -5.9286,-2.9216 -12.3015,-4.3747 -18.66,-4.2447 z" />
    <path
       style="display:inline;fill:#ffffff;stroke:none;stroke-width:0.912419"
       d="m 2037.0746,1597.3475 c -33.153,-32.8759 -38.8858,-123.5948 0.3904,-163.0573 23.1728,-23.2827 35.5381,-37.608 35.5381,-37.608 l -25.8875,-19.1211 c -94.4367,86.4289 -50.0669,186.6132 -10.041,219.7864 z"
       id="path3063-1-0"
       inkscape:connector-curvature="0"
       sodipodi:nodetypes="csccc" />
    <path
       style="fill:#ffffff;fill-rule:evenodd;stroke:none;stroke-width:0.88706px;stroke-linecap:butt;stroke-linejoin:miter;stroke-opacity:1"
       d="m 1441.5434,2270.0269 c -31.9554,0.7492 -64.3381,5.1306 -94.5276,20.008 -14.3615,7.2967 -28.098,19.063 -36.5327,36.7004 -8.1383,23.2714 -7.5314,52.2433 2.7899,74.1323 5.6848,12.1664 14.246,21.4392 23.6851,27.948 12.9058,9.0695 27.1209,14.171 41.3378,17.9646 23.6814,5.8629 47.8435,7.0687 71.8732,7.0243 31.5305,-0.4001 63.0712,-3.9324 94.1394,-11.2273 19.8005,-5.657 39.8744,-13.2405 56.6533,-29.0356 8.3398,-11.2315 11.7598,-27.0845 13.8618,-42.2778 3.4463,-24.7659 -3.682,-52.2735 -19.0269,-67.2448 -10.8585,-10.1372 -23.8727,-14.6881 -36.5047,-19.0847 -20.9503,-6.5334 -42.4198,-9.1334 -63.7676,-12.1249 -17.9486,-2.0608 -35.9693,-2.902 -53.981,-2.7825 z"
       id="path4430-0-7"
       inkscape:connector-curvature="0"
       sodipodi:nodetypes="cccc" />
    <path
       style="display:inline;fill:#ffffff;fill-rule:evenodd;stroke:none;stroke-width:0.86137px;stroke-linecap:butt;stroke-linejoin:miter;stroke-opacity:1"
       d="m 1116.8095,2916.3146 c -34.0952,0.9636 -54.0673,-1.3897 -82.9856,10.1862 -21.7537,9.4035 -35.72294,32.9546 -33.6061,48.2804 0.8408,15.3882 1.6421,35.2221 23.9326,43.4111 21.1217,7.9046 46.0823,7.0401 70.802,9.1765 36.3652,2.9038 73.8215,4.0834 110.2931,-0.4998 22.3704,-2.9276 45.6243,-1.6727 63.7182,-10.3644 11.422,-5.426 19.4,-18.8161 23.4787,-27.09 6.2269,-40.6156 -9.6107,-59.4913 -48.3433,-65.0216 -28.2925,-4.8886 -57.9757,-6.3975 -87.3792,-7.8752 -13.2698,-0.4478 -26.5939,-0.526 -39.9104,-0.2032 z"
       id="path4430-0-7-3"
       inkscape:connector-curvature="0"
       sodipodi:nodetypes="ccccccccccc" />
    <path
       style="color:#000000;display:inline;overflow:visible;visibility:visible;fill:#ffffff;fill-opacity:1;fill-rule:nonzero;stroke:none;stroke-width:0.933879px;marker:none;enable-background:accumulate"
       d="m 1510.6073,2424.7097 c 95.8683,30.7313 27.8183,159.8015 -2.9543,189.2123 50.4373,-43.5579 100.0481,-123.5802 33.0541,-217.2104 -31.2156,-43.6267 -19.8493,18.5629 -19.8493,18.5629 z"
       id="path4035-4"
       inkscape:connector-curvature="0"
       sodipodi:nodetypes="ccscc" />
    <path
       style="color:#000000;display:inline;overflow:visible;visibility:visible;fill:#ffffff;fill-opacity:1;fill-rule:nonzero;stroke:none;stroke-width:1.2864px;marker:none;enable-background:accumulate"
       d="m 1058.4277,2117.7603 c -55.628,1.2298 -111.39096,1.6857 -166.58411,6.125 -32.598,3.1016 -72.78464,2.9461 -100.6995,23.2045 -19.74465,14.8535 -29.70958,38.7989 -36.1741,70.5386 -4.01312,20.3559 -1.40177,44.3398 7.02385,64.8835 9.93956,25.2484 27.77688,45.392 46.93948,51.7584 25.09963,10.547 50.44158,12.8456 75.64816,19.0375 80.0355,14.8552 158.77352,10.5855 236.87832,5.5904 30.3615,-2.1915 61.0421,-4.8618 89.1795,-17.3291 19.4839,-9.2436 25.6722,-28.7832 34.5928,-55.3833 15.5422,-80.4169 7.5637,-121.4564 -55.0891,-151.1709 -35.4563,-15.0214 -96.7989,-17.5398 -131.7153,-17.2546 z"
       id="path4546-6-5-5"
       inkscape:connector-curvature="0"
       sodipodi:nodetypes="cssssccccccc" />
    <path
       style="color:#000000;display:inline;overflow:visible;visibility:visible;fill:#ffffff;fill-opacity:1;fill-rule:nonzero;stroke:none;stroke-width:0.511885px;marker:none;enable-background:accumulate"
       d="m 1198.7358,2292.3553 c -58.4517,90.8359 85.6046,288.3485 132.7428,310.3129 -51.7175,-3.6213 -215.024,-222.6528 -167.3541,-289.5926 16.3894,-23.014 93.063,-111.5562 34.6113,-20.7203 z"
       id="path4480-6"
       inkscape:connector-curvature="0"
       sodipodi:nodetypes="zcsz" />
    <path
       style="fill:#ffffff;stroke:none;stroke-width:1.22863"
       d="m 1132.3337,2836.1319 c 6.9881,13.1882 16.9513,18.3851 13.6567,35.0595 -18.6808,32.3624 -3.398,71.476 20.2436,84.4218 3.4934,10.3144 -10.2432,41.0229 -10.2432,41.0229 -31.6711,-50.3948 -47.4892,-83.1315 -25.5958,-126.3842 3.8504,-6.927 -8.3872,-14.7062 -12.2361,-26.3855 -3.8491,-11.6793 -4.7084,-20.1125 -0.097,-40.9935 3.9527,-17.898 39.9891,-41.3608 39.9891,-41.3608 -27.433,31.2471 -35.5926,52.7621 -25.7173,74.6198 z"
       id="path3023-4"
       inkscape:connector-curvature="0"
       sodipodi:nodetypes="cccccsscc" />
    <path
       style="color:#000000;display:inline;overflow:visible;visibility:visible;fill:#ffffff;fill-opacity:1;fill-rule:nonzero;stroke:none;stroke-width:1.24837px;marker:none;enable-background:accumulate"
       d="m 1380.3027,1450.8419 c 65.8497,-28.0462 78.4621,-86.1375 90.2102,-126.6975 16.6063,-57.3342 1.8435,-63.2522 1.8435,-63.2522 l 29.8886,-4.9473 c 11.5377,-2.8141 4.798,161.6465 -121.9423,194.897 z"
       id="path3072-1-3"
       inkscape:connector-curvature="0"
       sodipodi:nodetypes="csccc" />
  </g>
  <g
     inkscape:groupmode="layer"
     id="layer1"
     inkscape:label="txt"
     style="display:inline">
    <text
       id="text4246-4-2-7"
       y="1168.6454"
       x="326.61557"
       style="font-style:normal;font-variant:normal;font-weight:normal;font-stretch:normal;line-height:0%;font-family:Lavi;-inkscape-font-specification:Lavi;text-align:center;letter-spacing:0px;word-spacing:0px;text-anchor:middle;fill:#000000;fill-opacity:1;stroke:none"
       xml:space="preserve"><tspan
         y="1168.6454"
         x="326.61557"
         style="font-size:45px;line-height:1.25"
         sodipodi:role="line"
         id="tspan6345">Men kva er det</tspan><tspan
         y="1224.8954"
         x="326.61557"
         style="font-size:45px;line-height:1.25"
         sodipodi:role="line"
         id="tspan1757">som skjer?</tspan></text>
    <text
       id="text4246-4-2-7-3"
       y="1309.8754"
       x="333.44788"
       style="font-style:normal;font-variant:normal;font-weight:normal;font-stretch:normal;line-height:0%;font-family:Lavi;-inkscape-font-specification:Lavi;text-align:center;letter-spacing:0px;word-spacing:0px;text-anchor:middle;fill:#000000;fill-opacity:1;stroke:none"
       xml:space="preserve"><tspan
         y="1309.8754"
         x="333.44788"
         style="font-size:45px;line-height:1.25"
         sodipodi:role="line"
         id="tspan48107">Nokre av dei</tspan><tspan
         y="1366.1254"
         x="333.44788"
         style="font-size:45px;line-height:1.25"
         sodipodi:role="line"
         id="tspan13938"><tspan
   style="font-weight:bold"
   id="tspan24716">kyssar</tspan> kvarandre?!</tspan></text>
    <text
       id="text4246-4-2-7-3-6"
       y="1172.2026"
       x="1130.5609"
       style="font-style:normal;font-variant:normal;font-weight:normal;font-stretch:normal;line-height:0%;font-family:Lavi;-inkscape-font-specification:Lavi;text-align:center;letter-spacing:0px;word-spacing:0px;text-anchor:middle;fill:#000000;fill-opacity:1;stroke:none"
       xml:space="preserve"><tspan
         y="1172.2026"
         x="1130.5609"
         style="font-size:45px;line-height:1.25"
         sodipodi:role="line"
         id="tspan31052">Oi ... Her var</tspan><tspan
         y="1228.4526"
         x="1130.5609"
         style="font-size:45px;line-height:1.25"
         sodipodi:role="line"
         id="tspan6121">det mange nye par!</tspan></text>
    <text
       id="text4246-4-2-7-3-6-3"
       y="1207.1298"
       x="1578.4797"
       style="font-style:normal;font-variant:normal;font-weight:normal;font-stretch:normal;line-height:0%;font-family:Lavi;-inkscape-font-specification:Lavi;text-align:center;letter-spacing:0px;word-spacing:0px;text-anchor:middle;fill:#000000;fill-opacity:1;stroke:none"
       xml:space="preserve"><tspan
         y="1207.1298"
         x="1578.4797"
         style="font-size:45px;line-height:1.25"
         sodipodi:role="line"
         id="tspan44730">Hadde du rekna med</tspan><tspan
         y="1263.3798"
         x="1578.4797"
         style="font-size:45px;line-height:1.25"
         sodipodi:role="line"
         id="tspan10567">dette, Pepar?</tspan></text>
    <text
       id="text4246-4-2-7-3-6-3-6"
       y="1156.1522"
       x="2150.3743"
       style="font-style:normal;font-variant:normal;font-weight:normal;font-stretch:normal;line-height:0%;font-family:Lavi;-inkscape-font-specification:Lavi;text-align:center;letter-spacing:0px;word-spacing:0px;text-anchor:middle;fill:#000000;fill-opacity:1;stroke:none"
       xml:space="preserve"><tspan
         y="1156.1522"
         x="2150.3743"
         style="font-size:45px;line-height:1.25"
         sodipodi:role="line"
         id="tspan61898">Æh, eigentleg</tspan><tspan
         y="1212.4022"
         x="2150.3743"
         style="font-size:45px;line-height:1.25"
         sodipodi:role="line"
         id="tspan97452">ikkje ... Det må ha</tspan><tspan
         y="1268.6522"
         x="2150.3743"
         style="font-size:45px;line-height:1.25"
         sodipodi:role="line"
         id="tspan17452">vore drake-rea-en</tspan><tspan
         y="1324.9022"
         x="2150.3743"
         style="font-size:45px;line-height:1.25"
         sodipodi:role="line"
         id="tspan17454">som førte til ein</tspan><tspan
         y="1381.1522"
         x="2150.3743"
         style="font-size:45px;line-height:1.25"
         sodipodi:role="line"
         id="tspan17456">overdose kjærleik</tspan><tspan
         y="1437.4022"
         x="2150.3743"
         style="font-size:45px;line-height:1.25"
         sodipodi:role="line"
         id="tspan44044">i formelen.</tspan></text>
    <text
       id="text4246-4-2-7-3-6-3-6-1"
       y="2198.0623"
       x="1006.8715"
       style="font-style:normal;font-variant:normal;font-weight:normal;font-stretch:normal;line-height:0%;font-family:Lavi;-inkscape-font-specification:Lavi;text-align:center;letter-spacing:0px;word-spacing:0px;text-anchor:middle;fill:#000000;fill-opacity:1;stroke:none"
       xml:space="preserve"><tspan
         y="2198.0623"
         x="1006.8715"
         style="font-size:45px;line-height:1.25"
         sodipodi:role="line"
         id="tspan109377">Ha-ha! Dette slaget</tspan><tspan
         y="2254.3123"
         x="1006.8715"
         style="font-size:45px;line-height:1.25"
         sodipodi:role="line"
         id="tspan26199">går nok rett inn</tspan><tspan
         y="2310.5623"
         x="1006.8715"
         style="font-size:45px;line-height:1.25"
         sodipodi:role="line"
         id="tspan26201">i historiebøkene!</tspan></text>
    <text
       id="text4246-4-2-7-3-6-3-6-1-3"
       y="2349.1392"
       x="1460.3197"
       style="font-style:normal;font-variant:normal;font-weight:normal;font-stretch:normal;line-height:0%;font-family:Lavi;-inkscape-font-specification:Lavi;text-align:center;letter-spacing:0px;word-spacing:0px;text-anchor:middle;fill:#000000;fill-opacity:1;stroke:none"
       xml:space="preserve"><tspan
         y="2349.1392"
         x="1460.3197"
         style="font-size:45px;line-height:1.25"
         sodipodi:role="line"
         id="tspan83228-9">Tji-hi.</tspan><tspan
         y="2405.3892"
         x="1460.3197"
         style="font-size:45px;line-height:1.25"
         sodipodi:role="line"
         id="tspan48948">Utan tvil!</tspan></text>
    <text
       id="text4246-4-2-7-3-6-3-6-1-3-2-8"
       y="2990.4048"
       x="1145.6461"
       style="font-style:normal;font-variant:normal;font-weight:normal;font-stretch:normal;font-size:42px;line-height:0%;font-family:Lavi;-inkscape-font-specification:Lavi;text-align:center;letter-spacing:0px;word-spacing:0px;text-anchor:middle;fill:#000000;fill-opacity:1;stroke:none"
       xml:space="preserve"><tspan
         y="2990.4048"
         x="1145.6461"
         style="font-size:42px;line-height:1.25"
         sodipodi:role="line"
         id="tspan130424">Å, så flautt!</tspan></text>
    <text
       transform="matrix(0.85852879,0,-0.29243083,1.1647833,0,0)"
       id="text4213-7"
       y="2982.4719"
       x="2454.0139"
       style="font-style:normal;font-variant:normal;font-weight:normal;font-stretch:normal;font-size:10.7631px;line-height:0%;font-family:Lavi;-inkscape-font-specification:Lavi;text-align:center;letter-spacing:0px;word-spacing:0px;text-anchor:middle;display:inline;fill:#d97041;fill-opacity:1;stroke:#000000;stroke-width:0;stroke-miterlimit:4;stroke-dasharray:none;stroke-opacity:1"
       xml:space="preserve"><tspan
         style="font-style:normal;font-variant:normal;font-weight:bold;font-stretch:normal;font-size:64.7408px;line-height:1.25;font-family:Lavi;-inkscape-font-specification:'Lavi Bold';fill:#d97041;fill-opacity:1;stroke:none;stroke-width:0;stroke-miterlimit:4;stroke-dasharray:none"
         y="2982.4719"
         x="2454.0139"
         id="tspan3562-5"
         sodipodi:role="line">– SLUTT –</tspan></text>
  </g>
</svg>
