<?xml version="1.0" encoding="UTF-8" standalone="no"?>
<!-- Created with Inkscape (http://www.inkscape.org/) -->

<svg
   id="svg2"
   version="1.1"
   inkscape:version="1.1 (c68e22c387, 2021-05-23)"
   width="2481"
   height="3503"
   sodipodi:docname="E36P10.svg"
   xmlns:inkscape="http://www.inkscape.org/namespaces/inkscape"
   xmlns:sodipodi="http://sodipodi.sourceforge.net/DTD/sodipodi-0.dtd"
   xmlns:xlink="http://www.w3.org/1999/xlink"
   xmlns="http://www.w3.org/2000/svg"
   xmlns:svg="http://www.w3.org/2000/svg"
   xmlns:rdf="http://www.w3.org/1999/02/22-rdf-syntax-ns#"
   xmlns:cc="http://creativecommons.org/ns#"
   xmlns:dc="http://purl.org/dc/elements/1.1/">
  <metadata
     id="metadata8">
    <rdf:RDF>
      <cc:Work
         rdf:about="">
        <dc:format>image/svg+xml</dc:format>
        <dc:type
           rdf:resource="http://purl.org/dc/dcmitype/StillImage" />
        <dc:title />
      </cc:Work>
    </rdf:RDF>
  </metadata>
  <defs
     id="defs6">
    <filter
       style="color-interpolation-filters:sRGB"
       id="filter4375-4-1-1-1-9-6-9-2-1-5-4"
       inkscape:label="deevad outline effect"
       x="-0.0052566731"
       y="-0.012321186"
       width="1.0105133"
       height="1.0246424">
      <feFlood
         id="feFlood4377-7-9-0-8-1-0-2-2-06-5-3"
         flood-opacity="1"
         flood-color="rgb(0,0,0)"
         result="flood" />
      <feComposite
         id="feComposite4379-3-8-8-2-77-6-0-8-3-8-64"
         in2="SourceGraphic"
         in="flood"
         operator="in"
         result="composite1" />
      <feMorphology
         id="feMorphology4393-1-0-49-8-9-2-2-9-2-7-3"
         operator="dilate"
         radius="4"
         result="result3" />
      <feComposite
         id="feComposite4385-9-5-7-0-8-6-3-7-0-1-1"
         in2="result3"
         in="SourceGraphic"
         operator="over"
         result="composite2" />
    </filter>
  </defs>
  <sodipodi:namedview
     pagecolor="#1e1e1e"
     bordercolor="#111111"
     borderopacity="1"
     objecttolerance="10"
     gridtolerance="10"
     guidetolerance="10"
     inkscape:pageopacity="0"
     inkscape:pageshadow="2"
     inkscape:window-width="1366"
     inkscape:window-height="745"
     id="namedview4"
     showgrid="false"
     inkscape:zoom="0.46000002"
     inkscape:cx="789.1304"
     inkscape:cy="3059.7825"
     inkscape:window-x="-8"
     inkscape:window-y="-8"
     inkscape:window-maximized="1"
     inkscape:current-layer="layer1"
     inkscape:pagecheckerboard="0"
     inkscape:snap-global="false" />
  <g
     inkscape:groupmode="layer"
     id="layer2"
     inkscape:label="artwork"
     sodipodi:insensitive="true">
    <image
       xlink:href="../gfx_Pepper-and-Carrot_by-David-Revoy_E36P10.png"
       y="0"
       x="0"
       id="image10"
       height="3503"
       width="2481" />
  </g>
  <g
     inkscape:groupmode="layer"
     id="layer4"
     inkscape:label="speechbubbles-thoughts"
     style="display:inline;opacity:0.620856;mix-blend-mode:multiply">
    <rect
       style="color:#000000;clip-rule:nonzero;display:inline;overflow:visible;visibility:visible;isolation:auto;mix-blend-mode:normal;color-interpolation:sRGB;color-interpolation-filters:linearRGB;solid-color:#000000;solid-opacity:1;fill:#2c0000;fill-opacity:1;fill-rule:nonzero;stroke:none;stroke-width:1.66048;stroke-linecap:butt;stroke-linejoin:miter;stroke-miterlimit:4;stroke-dasharray:none;stroke-dashoffset:0;stroke-opacity:1;marker:none;color-rendering:auto;image-rendering:auto;shape-rendering:auto;text-rendering:auto;enable-background:accumulate"
       id="rect4632-8-6-1-3-6-7-1-2"
       width="371.37607"
       height="130.10451"
       x="123.89362"
       y="2570.2031"
       ry="40"
       rx="49.219711" />
    <rect
       style="color:#000000;clip-rule:nonzero;display:inline;overflow:visible;visibility:visible;opacity:1;isolation:auto;mix-blend-mode:normal;color-interpolation:sRGB;color-interpolation-filters:linearRGB;solid-color:#000000;solid-opacity:1;fill:#2c0000;fill-opacity:1;fill-rule:nonzero;stroke:none;stroke-width:2.30598;stroke-linecap:butt;stroke-linejoin:miter;stroke-miterlimit:4;stroke-dasharray:none;stroke-dashoffset:0;stroke-opacity:1;marker:none;color-rendering:auto;image-rendering:auto;shape-rendering:auto;text-rendering:auto;enable-background:accumulate"
       id="rect4632-8-6-1-3-6-7-1-2-2"
       width="602.30438"
       height="154.72061"
       x="233.8174"
       y="2684.3567"
       ry="39.999996"
       rx="40" />
    <rect
       style="color:#000000;clip-rule:nonzero;display:inline;overflow:visible;visibility:visible;opacity:1;isolation:auto;mix-blend-mode:normal;color-interpolation:sRGB;color-interpolation-filters:linearRGB;solid-color:#000000;solid-opacity:1;fill:#2c0000;fill-opacity:1;fill-rule:nonzero;stroke:none;stroke-width:2.38365;stroke-linecap:butt;stroke-linejoin:miter;stroke-miterlimit:4;stroke-dasharray:none;stroke-dashoffset:0;stroke-opacity:1;marker:none;color-rendering:auto;image-rendering:auto;shape-rendering:auto;text-rendering:auto;enable-background:accumulate"
       id="rect4632-8-6-1-3-6-7-1-2-2-8"
       width="577.07648"
       height="172.5426"
       x="436.73071"
       y="2962.7522"
       ry="39.999996"
       rx="40" />
    <rect
       style="color:#000000;clip-rule:nonzero;display:inline;overflow:visible;visibility:visible;opacity:1;isolation:auto;mix-blend-mode:normal;color-interpolation:sRGB;color-interpolation-filters:linearRGB;solid-color:#000000;solid-opacity:1;fill:#2c0000;fill-opacity:1;fill-rule:nonzero;stroke:none;stroke-width:2.42426;stroke-linecap:butt;stroke-linejoin:miter;stroke-miterlimit:4;stroke-dasharray:none;stroke-dashoffset:0;stroke-opacity:1;marker:none;color-rendering:auto;image-rendering:auto;shape-rendering:auto;text-rendering:auto;enable-background:accumulate"
       id="rect4632-8-6-1-3-6-7-1-2-2-8-9"
       width="638.93018"
       height="161.19519"
       x="770.34918"
       y="3211.5845"
       ry="39.999996"
       rx="58.808662" />
    <rect
       style="color:#000000;clip-rule:nonzero;display:inline;overflow:visible;visibility:visible;isolation:auto;mix-blend-mode:normal;color-interpolation:sRGB;color-interpolation-filters:linearRGB;solid-color:#000000;solid-opacity:1;fill:#2c0000;fill-opacity:1;fill-rule:nonzero;stroke:none;stroke-width:2.13396;stroke-linecap:butt;stroke-linejoin:miter;stroke-miterlimit:4;stroke-dasharray:none;stroke-dashoffset:0;stroke-opacity:1;marker:none;color-rendering:auto;image-rendering:auto;shape-rendering:auto;text-rendering:auto;enable-background:accumulate"
       id="rect4632-8-6-1-3-6-7-1-2-2-8-9-9"
       width="495.06342"
       height="161.19519"
       x="336.09909"
       y="3120.8335"
       ry="39.999996"
       rx="40" />
    <rect
       style="color:#000000;clip-rule:nonzero;display:inline;overflow:visible;visibility:visible;opacity:1;isolation:auto;mix-blend-mode:normal;color-interpolation:sRGB;color-interpolation-filters:linearRGB;solid-color:#000000;solid-opacity:1;fill:#2c0000;fill-opacity:1;fill-rule:nonzero;stroke:none;stroke-width:1.35263;stroke-linecap:butt;stroke-linejoin:miter;stroke-miterlimit:4;stroke-dasharray:none;stroke-dashoffset:0;stroke-opacity:1;marker:none;color-rendering:auto;image-rendering:auto;shape-rendering:auto;text-rendering:auto;enable-background:accumulate"
       id="rect4632-8-6-1-3-6-7-1-2-2-8-9-7"
       width="266.16364"
       height="120.46292"
       x="2032.3776"
       y="2554.6343"
       ry="39.999996"
       rx="40" />
    <rect
       style="color:#000000;clip-rule:nonzero;display:inline;overflow:visible;visibility:visible;isolation:auto;mix-blend-mode:normal;color-interpolation:sRGB;color-interpolation-filters:linearRGB;solid-color:#000000;solid-opacity:1;fill:#2c0000;fill-opacity:1;fill-rule:nonzero;stroke:none;stroke-width:2.94458;stroke-linecap:butt;stroke-linejoin:miter;stroke-miterlimit:4;stroke-dasharray:none;stroke-dashoffset:0;stroke-opacity:1;marker:none;color-rendering:auto;image-rendering:auto;shape-rendering:auto;text-rendering:auto;enable-background:accumulate"
       id="rect4632-8-6-1-3-6-7-1-2-2-5"
       width="936.20331"
       height="162.30347"
       x="125.98061"
       y="2823.7839"
       ry="39.999996"
       rx="48.571743" />
  </g>
  <g
     inkscape:groupmode="layer"
     id="layer3"
     inkscape:label="speechbubbles"
     style="display:inline">
    <path
       style="display:inline;fill:#ffffff;stroke:none;stroke-width:1.19108"
       d="m 622.06641,320.35547 c -40.0958,0.83337 -80.1346,10.7696 -115.54644,29.68951 -19.86845,12.81188 -31.68851,35.65603 -34.23319,58.80152 -2.39639,18.82234 -4.34582,38.17134 -0.3762,56.92005 3.76341,17.42417 13.00364,33.56729 26.1445,45.61759 17.55634,16.65816 40.83032,26.2062 64.51191,29.99046 30.49471,5.4911 61.58948,5.55257 92.34737,8.68332 43.22158,3.42995 87.0455,4.63812 129.91462,-2.9741 27.3628,-4.31725 55.30567,-9.67472 79.63782,-23.57991 19.9842,-11.71252 35.23809,-31.94076 39.17707,-54.95982 3.08374,-17.70783 3.73115,-35.87422 1.80574,-53.74977 -0.89053,-8.08642 -2.26615,-16.26603 -6.10258,-23.5429 -6.42743,-13.21707 -17.47646,-23.77449 -30.22727,-30.88089 -24.46001,-15.10333 -52.31977,-23.90123 -80.45608,-29.05568 -38.18417,-6.35013 -77.10479,-3.88987 -115.47472,-8.35609 -16.99263,-1.57211 -34.04383,-2.88814 -51.12255,-2.60329 z"
       id="path3280-8-3"
       inkscape:connector-curvature="0"
       sodipodi:nodetypes="csssc" />
    <path
       style="display:inline;fill:#ffffff;fill-rule:evenodd;stroke:none;stroke-width:0.849084px;stroke-linecap:butt;stroke-linejoin:miter;stroke-opacity:1"
       d="m 533.14448,239.2656 c 23.09507,16.65285 21.78859,25.91315 -4.96235,27.46563 24.66928,9.2378 18.14836,13.63064 4.35256,16.89258 32.78146,18.71989 27.07979,23.26373 1.61512,26.24037 43.71975,10.54786 31.97316,38.52399 19.4384,52.30628 22.60873,-18.53919 13.84656,-9.08092 10.64028,22.06462 15.21865,-35.63303 39.30419,-1.21793 37.27461,26.67671 12.20207,-22.32392 23.8994,-30.29717 35.01618,-21.77594 27.96786,-19.38852 31.13577,10.72065 42.3193,24.83148 10.57557,-23.53224 21.57311,-23.32949 32.70464,-15.55841 8.09485,-9.64617 15.75338,-24.03098 26.86216,-0.93025 7.90402,-19.49934 12.82859,-4.80312 18.66895,-0.61536 -5.6443,-11.91082 9.05531,-13.89679 47.15618,-4.4685 -13.97385,-7.16207 -11.10084,-14.8075 11.65579,-23.02339 -28.56095,-22.92527 -15.55864,-55.42326 9.5561,-54.34861 -43.76563,-8.63761 -12.16586,-23.94864 13.70832,-38.9944 -39.77716,6.33293 -49.7708,4.85278 -48.22965,-24.50192 -45.33063,19.19361 -31.86011,5.69974 -30.33461,-3.12486 -33.63735,19.70176 -46.10236,0.49845 -44.61751,-14.78882 -35.77681,32.1157 -50.26507,0.68221 -60.3733,-18.87098 -14.34469,38.73602 -25.45614,22.48226 -36.55442,6.00173 -6.82443,33.16555 -13.446,22.84752 -20.07192,13.43902 -4.27666,14.20432 -13.71486,17.70549 -30.11198,6.77524 10.61143,12.74385 2.00005,14.12635 -35.71285,-1.69222 z"
       id="path4289-9"
       inkscape:connector-curvature="0"
       sodipodi:nodetypes="cccccccccccccccccccccccc" />
    <path
       style="color:#000000;display:inline;overflow:visible;visibility:visible;fill:#ffffff;fill-opacity:1;fill-rule:nonzero;stroke:none;stroke-width:1px;marker:none;enable-background:accumulate"
       d="m 444.5515,553.88809 c 49.22188,-23.08946 94.45166,-50.05947 99.80873,-89.83498 7.57243,-56.22565 0.63966,-31.22207 0.63966,-31.22207 l 27.96352,47.69077 c 4.62884,0.12169 -9.29495,48.77421 -128.41191,73.36628 z"
       id="path3072-12"
       inkscape:connector-curvature="0"
       sodipodi:nodetypes="csccc" />
    <path
       style="color:#000000;display:inline;overflow:visible;visibility:visible;fill:#ffffff;fill-opacity:1;fill-rule:nonzero;stroke:none;stroke-width:1.26431px;marker:none;enable-background:accumulate"
       d="m 1314.0578,2074.3069 c 32.5065,-15.9133 264.3658,-31.1535 330.1778,9.7582 54.9324,34.1483 51.4077,101.0469 1.0975,126.1906 -51.255,25.6145 -246.5803,16.5675 -322.0743,4.301 -71.0914,-11.5509 -69.8051,-39.4713 -67.8661,-88.1384 0.7916,-19.862 26.1588,-36.1992 58.6651,-52.1114 z"
       id="path4040-4-5-3-6"
       inkscape:connector-curvature="0"
       sodipodi:nodetypes="zssssz" />
    <path
       style="color:#000000;display:inline;overflow:visible;visibility:visible;fill:#ffffff;fill-opacity:1;fill-rule:nonzero;stroke:none;stroke-width:1.676px;marker:none;enable-background:accumulate"
       d="m 199.5852,1957.8006 c 42.15911,-21.5615 342.86824,-42.2109 428.22302,13.2218 71.24438,46.2686 66.67316,136.9119 1.42338,170.9799 -66.47506,34.7061 -319.80161,22.448 -417.71327,5.8276 -92.20187,-15.6506 -90.53353,-53.481 -88.01873,-119.4218 1.02649,-26.9117 33.92652,-49.0475 76.0856,-70.6075 z"
       id="path4040-4-5-3-6-3"
       inkscape:connector-curvature="0"
       sodipodi:nodetypes="zssssz" />
    <path
       style="color:#000000;display:inline;overflow:visible;visibility:visible;fill:#ffffff;fill-opacity:1;fill-rule:nonzero;stroke:none;stroke-width:1.07939px;marker:none;enable-background:accumulate"
       d="m 332.75799,2120.3875 c 29.43281,-12.8099 239.36882,-25.078 298.9581,7.8553 49.73832,27.4888 46.54694,81.3412 0.99371,101.5814 -46.40865,20.6194 -223.26516,13.3367 -291.62086,3.4623 -64.36949,-9.2983 -63.20476,-31.7738 -61.44909,-70.9501 0.71664,-15.9886 23.68535,-29.1398 53.11814,-41.9489 z"
       id="path4040-4-5-3-6-3-6"
       inkscape:connector-curvature="0"
       sodipodi:nodetypes="zssssz" />
    <path
       style="color:#000000;display:inline;overflow:visible;visibility:visible;fill:#ffffff;fill-opacity:1;fill-rule:nonzero;stroke:none;stroke-width:0.922522px;marker:none;enable-background:accumulate"
       d="m 572.00329,2202.0745 c -32.75507,0.8502 -66.00138,1.3809 -97.77119,9.8543 -16.34197,4.4539 -30.51097,13.7633 -44.37013,22.7845 -6.60883,4.8776 -11.10632,12.4008 -11.4719,20.3992 -1.91966,12.5873 -0.135,26.3662 8.2124,36.7075 8.63391,11.0769 22.08732,17.6321 35.55929,21.9559 19.78535,6.0713 40.73815,7.1771 61.36592,8.0595 22.26797,0.7145 44.54821,1.0564 66.81525,1.7895 34.51968,0.4193 69.367,-0.3957 103.22748,-7.3574 14.57336,-3.718 28.4977,-12.329 35.26279,-25.475 9.97194,-18.2114 6.59992,-42.0835 -8.10665,-57.1466 -11.95476,-13.4318 -29.71085,-21.1585 -47.7424,-24.009 -33.10474,-6.9703 -67.21672,-7.6152 -100.98086,-7.5624 z"
       id="path4040-4-5-3-6-3-6-1"
       inkscape:connector-curvature="0"
       sodipodi:nodetypes="zssssz" />
    <path
       style="fill:#ffffff;fill-rule:evenodd;stroke:none;stroke-width:1.34859px;stroke-linecap:butt;stroke-linejoin:miter;stroke-opacity:1"
       d="m 656.76806,2234.513 c 34.11827,11.889 72.58957,13.9378 105.788,-2.5666 7.655,-4.1018 15.48881,-8.5488 21.63429,-15.1383 10.57644,-14.2244 9.19139,-34.605 3.99627,-51.0044 -2.73889,-10.5837 -9.11471,-19.1741 -15.97638,-26.852 -6.12417,-6.8247 -10.52718,-15.7074 -10.68522,-25.5094 -2.79296,-29.6061 18.0883,-56.3308 40.77716,-70.7847 16.44911,-10.0675 31.50821,-13.6599 50.12207,-14.5724 21.59629,-0.8735 42.50941,0.4191 63.44315,6.0528 -32.94366,-3.5481 -67.79702,-2.6885 -98.12715,13.6777 -16.94107,9.2423 -32.86151,23.8274 -38.9949,44.3145 -3.00365,9.9351 -3.44688,22.1294 2.37423,30.8793 10.68947,13.1182 22.99492,26.4009 26.36466,44.4109 8.27203,28.4165 -1.66375,63.2752 -25.58034,78.2767 -29.23039,20.5696 -63.85945,28.2868 -97.64193,33.545 -20.21033,2.5172 -40.65928,2.7639 -60.90257,0.5566 -2.18546,-11.0159 -8.96934,-21.1319 -7.81103,-32.7854 1.84141,-8.4338 10.81646,-6.5025 16.57658,-7.7613 8.21437,-1.5797 16.42875,-3.1592 24.64311,-4.739 z"
       id="path895"
       inkscape:connector-curvature="0"
       sodipodi:nodetypes="csscccccccccccccccc" />
    <path
       style="fill:#ffffff;fill-rule:evenodd;stroke:none;stroke-width:1px;stroke-linecap:butt;stroke-linejoin:miter;stroke-opacity:1"
       d="m 1355.1074,2023.6623 c 57.2014,6.1035 72.5186,15.7188 59.4739,86.4698 -12.28,66.6033 42.1191,12.5346 42.1191,12.5346 0,0 10.9032,-118.6048 -101.593,-99.0044 z"
       id="path914"
       inkscape:connector-curvature="0"
       sodipodi:nodetypes="cscc" />
  </g>
  <g
     inkscape:groupmode="layer"
     id="layer1"
     inkscape:label="txt">
    <text
       id="text4246-4-2-7"
       y="314.90601"
       x="677.927"
       style="font-style:normal;font-variant:normal;font-weight:normal;font-stretch:normal;line-height:0%;font-family:Lavi;-inkscape-font-specification:Lavi;text-align:center;letter-spacing:0px;word-spacing:0px;text-anchor:middle;fill:#000000;fill-opacity:1;stroke:none"
       xml:space="preserve"><tspan
         y="314.90601"
         x="677.927"
         style="font-style:normal;font-variant:normal;font-weight:bold;font-stretch:normal;font-size:45px;line-height:1.25;font-family:Lavi;-inkscape-font-specification:'Lavi Bold';fill:#000000"
         sodipodi:role="line"
         id="tspan6753">Shichimi!</tspan></text>
    <text
       id="text4246-4-2-7-3"
       y="393.95761"
       x="684.74243"
       style="font-style:normal;font-variant:normal;font-weight:normal;font-stretch:normal;line-height:0%;font-family:Lavi;-inkscape-font-specification:Lavi;text-align:center;letter-spacing:0px;word-spacing:0px;text-anchor:middle;fill:#000000;fill-opacity:1;stroke:none"
       xml:space="preserve"><tspan
         y="393.95761"
         x="684.74243"
         style="font-size:45px;line-height:1.25;fill:#000000"
         sodipodi:role="line"
         id="tspan14614">Den Geistern sei </tspan><tspan
         y="450.20761"
         x="684.74243"
         style="font-size:45px;line-height:1.25;fill:#000000"
         sodipodi:role="line"
         id="tspan912">Dank, du bist heil </tspan><tspan
         y="506.45761"
         x="684.74243"
         style="font-size:45px;line-height:1.25;fill:#000000"
         sodipodi:role="line"
         id="tspan914">und unversehrt.</tspan></text>
    <text
       xml:space="preserve"
       style="font-style:normal;font-variant:normal;font-weight:normal;font-stretch:normal;line-height:0%;font-family:Lavi;-inkscape-font-specification:Lavi;letter-spacing:0px;word-spacing:0px;display:inline;opacity:0.806184;fill:#ffffff;fill-opacity:1;stroke:#ffffff;stroke-width:1.6559;stroke-miterlimit:4;stroke-dasharray:none;stroke-opacity:1;filter:url(#filter4375-4-1-1-1-9-6-9-2-1-5-4)"
       x="787.65729"
       y="1584.5073"
       id="text4580-1-7-3-6-91"
       transform="matrix(0.51191251,-0.23315541,-0.09450659,0.8056594,2005.4699,-10.015837)"><tspan
         sodipodi:role="line"
         id="tspan4582-8-5-6-1-0"
         x="787.65729"
         y="1584.5073"
         style="font-size:70px;line-height:1.25;letter-spacing:2.96623px;fill:#ffffff;stroke:#ffffff;stroke-width:1.6559;stroke-miterlimit:4;stroke-dasharray:none;stroke-opacity:1">greif</tspan></text>
    <text
       id="text4246-4-2-7-3-7"
       y="2004.4142"
       x="394.54034"
       style="font-style:normal;font-variant:normal;font-weight:normal;font-stretch:normal;font-size:42px;line-height:0%;font-family:Lavi;-inkscape-font-specification:Lavi;text-align:center;letter-spacing:0px;word-spacing:0px;text-anchor:middle;fill:#000000;fill-opacity:1;stroke:none"
       xml:space="preserve"><tspan
         y="2004.4142"
         x="394.54034"
         style="font-size:42px;line-height:1.25;fill:#000000"
         sodipodi:role="line"
         id="tspan1465">Ich war so besorgt, </tspan><tspan
         y="2056.9141"
         x="394.54034"
         style="font-size:42px;line-height:1.25;fill:#000000"
         sodipodi:role="line"
         id="tspan1469">als ich gehört habe, dass</tspan><tspan
         y="2109.4141"
         x="394.54034"
         style="font-size:42px;line-height:1.25;fill:#000000"
         sodipodi:role="line"
         id="tspan1471">sie dich eingesperrt haben</tspan></text>
    <text
       id="text4246-4-2-7-3-7-2"
       y="2190.9016"
       x="472.84186"
       style="font-style:normal;font-variant:normal;font-weight:normal;font-stretch:normal;font-size:42px;line-height:0%;font-family:Lavi;-inkscape-font-specification:Lavi;text-align:center;letter-spacing:0px;word-spacing:0px;text-anchor:middle;fill:#000000;fill-opacity:1;stroke:none"
       xml:space="preserve"><tspan
         y="2190.9016"
         x="472.84186"
         style="font-size:42px;line-height:1.25;fill:#000000"
         sodipodi:role="line"
         id="tspan33034">Und diese Schlacht!</tspan></text>
    <text
       id="text4246-4-2-7-3-7-2-7"
       y="2280.3767"
       x="576.47015"
       style="font-style:normal;font-variant:normal;font-weight:normal;font-stretch:normal;font-size:42px;line-height:0%;font-family:Lavi;-inkscape-font-specification:Lavi;text-align:center;letter-spacing:0px;word-spacing:0px;text-anchor:middle;fill:#000000;fill-opacity:1;stroke:none"
       xml:space="preserve"><tspan
         y="2280.3767"
         x="576.47015"
         style="font-size:42px;line-height:1.25;fill:#000000"
         sodipodi:role="line"
         id="tspan33034-0">So ein Chaos!</tspan></text>
    <text
       id="text4246-4-2-7-3-7-2-7-9"
       y="2130.3782"
       x="1469.9933"
       style="font-style:normal;font-variant:normal;font-weight:normal;font-stretch:normal;font-size:42px;line-height:0%;font-family:Lavi;-inkscape-font-specification:Lavi;text-align:center;letter-spacing:0px;word-spacing:0px;text-anchor:middle;fill:#000000;fill-opacity:1;stroke:none"
       xml:space="preserve"><tspan
         y="2130.3782"
         x="1469.9933"
         style="font-size:42px;line-height:1.25;fill:#000000"
         sodipodi:role="line"
         id="tspan1519">Torreya, es ist so </tspan><tspan
         y="2182.8782"
         x="1469.9933"
         style="font-size:42px;line-height:1.25;fill:#000000"
         sodipodi:role="line"
         id="tspan1523">schön, dich zu sehen.</tspan></text>
    <text
       id="text4246-4-2-7-3-7-2-7-9-6"
       y="2647.8811"
       x="307.50742"
       style="font-style:normal;font-variant:normal;font-weight:normal;font-stretch:normal;font-size:45px;line-height:0%;font-family:Lavi;-inkscape-font-specification:Lavi;text-align:center;letter-spacing:0px;word-spacing:0px;text-anchor:middle;fill:#ffffff;fill-opacity:1;stroke:none"
       xml:space="preserve"><tspan
         y="2647.8811"
         x="307.50742"
         style="font-size:45px;line-height:1.25;fill:#ffffff"
         sodipodi:role="line"
         id="tspan44806-6">Ach, du meine...</tspan></text>
    <text
       id="text4246-4-2-7-3-7-2-7-9-6-2"
       y="2751.5154"
       x="543.70966"
       style="font-style:normal;font-variant:normal;font-weight:normal;font-stretch:normal;font-size:45px;line-height:0%;font-family:Lavi;-inkscape-font-specification:Lavi;text-align:center;letter-spacing:0px;word-spacing:0px;text-anchor:middle;fill:#ffffff;fill-opacity:1;stroke:none"
       xml:space="preserve"><tspan
         y="2751.5154"
         x="543.70966"
         style="font-size:45px;line-height:1.25;fill:#ffffff"
         sodipodi:role="line"
         id="tspan59597">Diese Drachenpilotin ist </tspan><tspan
         y="2807.7654"
         x="543.70966"
         style="font-size:45px;line-height:1.25;fill:#ffffff"
         sodipodi:role="line"
         id="tspan3315">also Shichimis Geliebte...</tspan></text>
    <text
       id="text4246-4-2-7-3-7-2-7-9-6-2-3"
       y="2888.5039"
       x="596.40289"
       style="font-style:normal;font-variant:normal;font-weight:normal;font-stretch:normal;font-size:45px;line-height:0%;font-family:Lavi;-inkscape-font-specification:Lavi;text-align:center;letter-spacing:0px;word-spacing:0px;text-anchor:middle;fill:#ffffff;fill-opacity:1;stroke:none"
       xml:space="preserve"><tspan
         y="2888.5039"
         x="596.40289"
         style="font-size:45px;line-height:1.25;fill:#ffffff"
         sodipodi:role="line"
         id="tspan4715">Ich kann mir nicht vorstellen, was passiert </tspan><tspan
         y="2944.7539"
         x="596.40289"
         style="font-size:45px;line-height:1.25;fill:#ffffff"
         sodipodi:role="line"
         id="tspan4719">wäre wenn ich sie losgeworden wäre.</tspan></text>
    <text
       id="text4246-4-2-7-3-7-2-7-9-6-2-1"
       y="3035.2397"
       x="726.07434"
       style="font-style:normal;font-variant:normal;font-weight:normal;font-stretch:normal;font-size:45px;line-height:0%;font-family:Lavi;-inkscape-font-specification:Lavi;text-align:center;letter-spacing:0px;word-spacing:0px;text-anchor:middle;fill:#ffffff;fill-opacity:1;stroke:none"
       xml:space="preserve"><tspan
         y="3035.2397"
         x="726.07434"
         style="font-size:45px;line-height:1.25;fill:#ffffff"
         sodipodi:role="line"
         id="tspan73328">Und diese Armeen müssen </tspan><tspan
         y="3091.4897"
         x="726.07434"
         style="font-size:45px;line-height:1.25;fill:#ffffff"
         sodipodi:role="line"
         id="tspan5073">mir wohl gefolgt sein.</tspan></text>
    <text
       id="text4246-4-2-7-3-7-2-7-9-6-2-1-3"
       y="3187.74"
       x="589.7038"
       style="font-style:normal;font-variant:normal;font-weight:normal;font-stretch:normal;font-size:45px;line-height:0%;font-family:Lavi;-inkscape-font-specification:Lavi;text-align:center;letter-spacing:0px;word-spacing:0px;text-anchor:middle;fill:#ffffff;fill-opacity:1;stroke:none"
       xml:space="preserve"><tspan
         y="3187.74"
         x="589.7038"
         style="font-size:45px;line-height:1.25;fill:#ffffff"
         sodipodi:role="line"
         id="tspan82218">Ohne sie wären </tspan><tspan
         y="3243.99"
         x="589.7038"
         style="font-size:45px;line-height:1.25;fill:#ffffff"
         sodipodi:role="line"
         id="tspan5121">wir nicht frei.</tspan></text>
    <text
       id="text4246-4-2-7-3-7-2-7-9-6-2-1-0"
       y="3278.6682"
       x="1087.7645"
       style="font-style:normal;font-variant:normal;font-weight:normal;font-stretch:normal;font-size:45px;line-height:0%;font-family:Lavi;-inkscape-font-specification:Lavi;text-align:center;letter-spacing:0px;word-spacing:0px;text-anchor:middle;fill:#ffffff;fill-opacity:1;stroke:none"
       xml:space="preserve"><tspan
         y="3278.6682"
         x="1087.7645"
         style="font-size:45px;line-height:1.25;fill:#ffffff"
         sodipodi:role="line"
         id="tspan5129">Fast so, als ob alles </tspan><tspan
         y="3334.9182"
         x="1087.7645"
         style="font-size:45px;line-height:1.25;fill:#ffffff"
         sodipodi:role="line"
         id="tspan1054">miteinander verknüpft wäre</tspan></text>
    <text
       id="text4246-4-2-7-3-7-2-7-9-6-2-1-0-5"
       y="2484.1968"
       x="2723.7483"
       style="font-style:normal;font-variant:normal;font-weight:normal;font-stretch:normal;font-size:59.7016px;line-height:0%;font-family:Lavi;-inkscape-font-specification:Lavi;text-align:center;letter-spacing:0px;word-spacing:0px;text-anchor:middle;fill:#ffffff;fill-opacity:1;stroke:none;stroke-width:1.3267"
       xml:space="preserve"
       transform="matrix(0.94173851,0,-0.16320243,1.0618659,0,0)"
       inkscape:transform-center-x="-14.71405"
       inkscape:transform-center-y="32.044829"><tspan
         y="2484.1968"
         x="2723.7483"
         style="font-style:normal;font-variant:normal;font-weight:bold;font-stretch:normal;font-size:59.7016px;line-height:1.25;font-family:Lavi;-inkscape-font-specification:'Lavi Bold';fill:#ffffff;stroke-width:1.3267"
         sodipodi:role="line"
         id="tspan62935-2">...OH!</tspan></text>
  </g>
</svg>
