<?xml version="1.0" encoding="UTF-8" standalone="no"?>
<svg
   id="svg2"
   version="1.1"
   inkscape:version="1.1 (c4e8f9ed74, 2021-05-24)"
   width="2481"
   height="3503"
   sodipodi:docname="E35P07.svg"
   xmlns:inkscape="http://www.inkscape.org/namespaces/inkscape"
   xmlns:sodipodi="http://sodipodi.sourceforge.net/DTD/sodipodi-0.dtd"
   xmlns:xlink="http://www.w3.org/1999/xlink"
   xmlns="http://www.w3.org/2000/svg"
   xmlns:svg="http://www.w3.org/2000/svg"
   xmlns:rdf="http://www.w3.org/1999/02/22-rdf-syntax-ns#"
   xmlns:cc="http://creativecommons.org/ns#"
   xmlns:dc="http://purl.org/dc/elements/1.1/">
  <metadata
     id="metadata8">
    <rdf:RDF>
      <cc:Work
         rdf:about="">
        <dc:format>image/svg+xml</dc:format>
        <dc:type
           rdf:resource="http://purl.org/dc/dcmitype/StillImage" />
        <dc:title />
      </cc:Work>
    </rdf:RDF>
  </metadata>
  <defs
     id="defs6">
    <filter
       style="color-interpolation-filters:sRGB"
       id="filter4375-4-1-1-1-9-5-8-8-5-5-3-8"
       inkscape:label="soundFX1"
       x="-0.044353127"
       y="-0.0023842071"
       width="1.0467294"
       height="1.0447156">
      <feFlood
         id="feFlood4377-7-9-0-8-1-7-3-1-2-7-6-7"
         flood-opacity="1"
         flood-color="rgb(255,255,255)"
         result="flood" />
      <feComposite
         id="feComposite4379-3-8-8-2-77-4-1-0-6-4-7-9"
         in2="SourceGraphic"
         in="flood"
         operator="in"
         result="composite1"
         baseFrequency="0.053999999999999999 0.053999999999999999" />
      <feMorphology
         id="feMorphology4393-1-0-49-8-9-3-0-1-9-9-5-2"
         operator="dilate"
         radius="2.9756367599225957"
         result="result3" />
      <feComposite
         id="feComposite4385-9-5-7-0-8-8-7-5-4-9-3-0"
         in2="result3"
         in="SourceGraphic"
         operator="over"
         result="fbSourceGraphic" />
      <feColorMatrix
         result="fbSourceGraphicAlpha"
         in="fbSourceGraphic"
         values="0 0 0 -1 0 0 0 0 -1 0 0 0 0 -1 0 0 0 0 1 0"
         id="feColorMatrix4544-9-4-4-5-2" />
      <feTurbulence
         id="feTurbulence4546-3-6-5-6-3"
         type="fractalNoise"
         numOctaves="5"
         seed="174"
         baseFrequency="0.053999999999999999 0.054054054054054057"
         result="turbulence" />
      <feDisplacementMap
         id="feDisplacementMap4548-8-0-9-2-7"
         in2="turbulence"
         in="fbSourceGraphic"
         scale="6.6"
         yChannelSelector="G"
         xChannelSelector="R"
         result="fbSourceGraphic" />
      <feColorMatrix
         result="fbSourceGraphicAlpha"
         in="fbSourceGraphic"
         values="0 0 0 -1 0 0 0 0 -1 0 0 0 0 -1 0 0 0 0 1 0"
         id="feColorMatrix4670-7-7-3-9-5" />
      <feFlood
         id="feFlood4672-4-4-5-1-9"
         flood-opacity="1"
         flood-color="rgb(255,255,255)"
         result="flood"
         in="fbSourceGraphic" />
      <feComposite
         id="feComposite4674-8-3-7-2-22"
         in2="fbSourceGraphic"
         in="flood"
         operator="in"
         result="composite1" />
      <feGaussianBlur
         id="feGaussianBlur4676-3-7-08-7-8"
         in="composite1"
         stdDeviation="0"
         result="blur" />
      <feOffset
         id="feOffset4678-6-9-1-0-9"
         dx="-6.3258232761971414"
         dy="6"
         result="offset" />
      <feComposite
         id="feComposite4680-4-0-9-9-7"
         in2="offset"
         in="fbSourceGraphic"
         operator="over"
         result="composite2" />
    </filter>
  </defs>
  <sodipodi:namedview
     pagecolor="#ffffff"
     bordercolor="#666666"
     borderopacity="1"
     objecttolerance="10"
     gridtolerance="10"
     guidetolerance="10"
     inkscape:pageopacity="0"
     inkscape:pageshadow="2"
     inkscape:window-width="1920"
     inkscape:window-height="1011"
     id="namedview4"
     showgrid="false"
     inkscape:zoom="0.46261216"
     inkscape:cx="1367.236"
     inkscape:cy="2972.2522"
     inkscape:window-x="0"
     inkscape:window-y="0"
     inkscape:window-maximized="1"
     inkscape:current-layer="layer3"
     inkscape:document-rotation="0"
     inkscape:snap-global="false"
     inkscape:pagecheckerboard="0" />
  <g
     inkscape:groupmode="layer"
     id="layer2"
     inkscape:label="artwork"
     sodipodi:insensitive="true">
    <image
       xlink:href="../gfx_Pepper-and-Carrot_by-David-Revoy_E35P07.png"
       width="2481"
       height="3503"
       id="image10"
       x="0"
       y="0" />
  </g>
  <g
     inkscape:groupmode="layer"
     id="layer3"
     inkscape:label="speechbubbles">
    <path
       style="fill:#ffffff;stroke:none;stroke-width:0.992992"
       d="m 1989.0959,260.05061 c -29.4014,0.60785 -59.2019,10.8036 -80.8862,31.14067 -20.8353,19.80583 -33.726,46.70175 -40.4999,74.39623 -4.5855,18.30533 -7.0531,37.94129 -1.6311,56.35362 6.526,21.40837 22.7038,38.75659 41.6714,49.95152 28.0896,16.91728 61.4817,23.16699 93.9416,22.12202 34.0041,-0.82493 68.2904,-3.72195 101.0842,-13.25205 16.8677,-5.50435 33.2244,-15.33511 42.6614,-30.831 8.8326,-14.40701 11.0381,-31.8664 9.8993,-48.4768 -0.9885,-27.97028 -9.3377,-55.56326 -23.7461,-79.50954 -10.3919,-17.65093 -23.3191,-34.6322 -41.1035,-45.30403 -15.3337,-9.4025 -33.4255,-12.39798 -51.0124,-14.27364 -16.7164,-1.92585 -33.565,-2.36532 -50.3787,-2.317 z"
       id="path3280-8"
       inkscape:connector-curvature="0"
       sodipodi:nodetypes="csssc" />
    <path
       style="fill:#ffffff;fill-rule:evenodd;stroke:none;stroke-width:0.934796px;stroke-linecap:butt;stroke-linejoin:miter;stroke-opacity:1"
       d="m 1937.2471,432.07438 c -6.2176,11.12141 -85.6078,33.31577 -108.1931,83.17757 30.1276,-36.25015 118.0705,-48.01797 132.9745,-62.07815 51.3058,-16.19189 -3.5494,-23.72277 -24.7814,-21.09942 z"
       id="path4186"
       inkscape:connector-curvature="0"
       sodipodi:nodetypes="cccc" />
    <path
       style="fill:#ffffff;fill-rule:evenodd;stroke:none;stroke-width:1px;stroke-linecap:butt;stroke-linejoin:miter;stroke-opacity:1"
       d="m 1557.7613,1692.8906 134.1326,-31.6108 -24.0947,-23.8017 91.2177,-24.1969 -16.3502,-24.7111 -106.501,38.013 26.5589,28.0558 z"
       id="path4667"
       inkscape:connector-curvature="0" />
    <path
       style="color:#000000;display:inline;overflow:visible;visibility:visible;fill:#ffffff;fill-opacity:1;fill-rule:nonzero;stroke:none;stroke-width:1.16335px;marker:none;enable-background:accumulate"
       d="m 391.5769,3157.3573 c -7.23811,19.8349 -52.05781,10.9659 -67.0863,6.4502 30.29393,23.3151 29.23779,37.2183 -11.89282,38.1744 66.66118,35.6034 16.76424,36.2081 -4.37526,30.815 34.17899,18.8686 36.20827,36.1034 1.44476,44.788 62.25111,2.419 47.18102,16.2035 23.61283,35.9845 27.56221,-12.5949 70.07971,-20.9857 71.58827,14.1022 39.93547,-29.442 60.54023,-28.2412 74.98161,6.7997 12.06307,-29.4968 53.13847,-34.0366 68.84482,-1.3833 13.53004,-43.1715 61.80672,-35.6214 90.54409,-13.6633 -16.13182,-15.3751 -5.1314,-39.5903 49.86772,-33.0146 -4.42692,-13.7904 2.53485,-30.8278 30.3088,-27.7364 -31.99215,-9.1895 -37.88812,-17.8745 21.51402,-25.2914 -45.20156,-2.211 -87.35236,-5.2631 -34.32109,-34.9439 -16.63734,-1.244 -58.67096,32.6403 -40.26671,-43.0967 -48.72724,21.0623 -97.37037,22.0804 -94.85121,-25.0905 -18.11546,25.0231 -49.53633,36.7464 -63.20604,4.4264 -11.28433,29.4859 -45.55915,15.9949 -63.36432,-4.8786 -11.76476,19.8511 -19.50089,56.1087 -53.34317,27.5583 z"
       id="path3549-3-7-8"
       inkscape:connector-curvature="0"
       sodipodi:nodetypes="ccccccccccccccccccc" />
    <path
       style="color:#000000;display:inline;overflow:visible;visibility:visible;fill:#ffffff;fill-opacity:1;fill-rule:nonzero;stroke:none;stroke-width:1.32527px;marker:none;enable-background:accumulate"
       d="m 358.71581,2973.0461 c 61.46448,51.4518 -61.88837,33.5561 -85.54884,26.4623 61.84087,18.1083 47.97576,48.2821 -16.12628,57.7475 110.67341,49.5549 23.87359,66.0574 2.02295,66.7821 73.43854,20.8797 57.3579,36.8824 44.28326,62.7503 143.59479,-29.5904 43.43392,50.9094 43.56792,85.3612 7.15596,-15.4965 117.0792,-161.4163 43.19747,-10.1449 55.83252,-50.1166 123.08136,-82.4894 128.42113,5.2148 22.49586,-44.1218 44.92419,-62.769 43.19744,-10.1451 55.73769,-68.4442 136.58007,-50.4154 186.96495,-31.0705 -65.41907,-51.9714 -25.55094,-48.1002 47.12832,-33.6398 -84.56077,-35.6383 -77.38079,-51.9105 20.80326,-47.6191 -43.38024,-12.3688 -51.37511,-25.1273 29.17231,-38.8571 -61.90068,-2.2385 -129.88634,-21.1586 -46.53825,-50.8717 -31.39116,2.6068 -148.74774,-3.6111 -51.12948,-76.4021 -76.61496,27.3925 -155.48468,38.4669 -132.08593,-19.8695 -65.31051,35.4285 -72.15925,56.909 -85.70517,9.4141 -23.09976,41.2189 -53.10244,15.6885 -85.91984,-4.5266 23.88019,32.2276 -29.46071,51.2294 -85.70522,9.4141 z"
       id="path3549-3-7"
       inkscape:connector-curvature="0"
       sodipodi:nodetypes="ccccccccccccccccccc" />
    <path
       style="fill:#ffffff;fill-rule:evenodd;stroke:none;stroke-width:1.61403px;stroke-linecap:butt;stroke-linejoin:miter;stroke-opacity:1"
       d="m 559.65143,2966.4499 c 7.81388,-49.8207 8.23157,-62.9667 6.02019,-75.0728 -2.2114,-12.106 -16.03862,-8.1385 -26.02653,-3.643 -6.53887,2.9161 -28.34548,24.9309 -13.34891,-11.2886 14.99673,-36.2194 33.04009,-86.6247 37.65555,-102.5126 -15.5946,27.8024 -42.45502,71.0937 -50.25242,84.9947 -7.79723,13.9012 -19.54665,39.459 -22.39666,47.151 -3.46707,9.3577 -1.1372,19.0591 14.63013,17.8664 24.66487,-3.6362 41.86312,-37.8298 13.23772,21.5203 -28.62567,59.3501 4.95095,150.5651 4.95095,150.5651 z"
       id="path1089"
       inkscape:connector-curvature="0"
       sodipodi:nodetypes="csccccscccc" />
    <path
       style="color:#000000;display:inline;overflow:visible;visibility:visible;fill:#ffffff;fill-opacity:1;fill-rule:nonzero;stroke:none;stroke-width:1.31957px;marker:none;enable-background:accumulate"
       d="m 1769.2138,1475.4618 c -3.4392,39.3562 -68.601,13.8841 -99.5445,3.8653 36.8812,22.1753 64.8778,51.777 -16.3976,49.9172 91.2686,39.3017 30.2532,37.3789 15.5422,47.3439 71.6627,13.5445 51.0674,30.8892 5.0692,40.3253 82.3691,0.5764 62.4287,14.4096 31.2438,34.3158 36.4699,-13.0326 92.7279,-22.4042 94.724,11.6703 52.8418,-29.767 80.1055,-29.1872 99.214,4.4729 15.9617,-29.0252 70.3117,-34.6113 91.094,-3.3088 17.9027,-42.3636 81.7813,-36.3993 119.8059,-15.8681 -21.3453,-14.49 -6.7897,-38.3493 65.9841,-33.5242 -5.8577,-13.2829 3.3539,-30.0478 40.1038,-27.834 -42.3314,-8.0229 -50.1326,-16.2995 28.4668,-25.2057 -59.8096,-0.8606 -115.5827,-2.626 -45.4129,-32.9988 -22.014,-0.7349 -74.2453,24.609 -49.893,-49.5587 -64.475,21.8696 -132.2253,33.0497 -128.8921,-12.8888 -23.9699,24.8479 -65.5453,37.1432 -83.6327,6.1069 -14.9313,28.9924 -60.283,16.8521 -83.8424,-2.9362 -15.5667,19.6377 -38.8532,32.9013 -83.6326,6.1057 z"
       id="path3549-3-7-8-6"
       inkscape:connector-curvature="0"
       sodipodi:nodetypes="ccccccccccccccccccc" />
  </g>
  <g
     inkscape:groupmode="layer"
     id="layer1"
     inkscape:label="txt">
    <text
       xml:space="preserve"
       style="font-style:normal;font-variant:normal;font-weight:normal;font-stretch:normal;font-size:45px;line-height:1.25;font-family:Lavi;-inkscape-font-specification:Lavi;text-align:center;letter-spacing:0px;word-spacing:0px;text-anchor:middle;fill:#000000;fill-opacity:1;stroke:none"
       x="2008.8104"
       y="341.31287"
       id="text4246-3-2-2"><tspan
         style="font-size:45px"
         sodipodi:role="line"
         x="2008.8104"
         y="341.31287"
         id="tspan886">Perfekt!</tspan><tspan
         style="font-size:45px"
         sodipodi:role="line"
         x="2008.8104"
         y="397.56287"
         id="tspan1814">Sie folgen</tspan><tspan
         style="font-size:45px"
         sodipodi:role="line"
         x="2008.8104"
         y="453.81287"
         id="tspan3488">uns!</tspan></text>
    <text
       xml:space="preserve"
       style="font-style:normal;font-variant:normal;font-weight:normal;font-stretch:normal;font-size:45px;line-height:1.25;font-family:Lavi;-inkscape-font-specification:Lavi;text-align:center;letter-spacing:0px;word-spacing:0px;text-anchor:middle;fill:#000000;fill-opacity:1;stroke:none"
       x="1926.4447"
       y="1548.0668"
       id="text4246-3-2-2-3"><tspan
         style="font-size:45px"
         sodipodi:role="line"
         x="1926.4447"
         y="1548.0668"
         id="tspan922">Bald haben wir</tspan><tspan
         style="font-size:45px"
         sodipodi:role="line"
         x="1926.4447"
         y="1604.3168"
         id="tspan8118">uns ihnen entledigt.</tspan></text>
    <text
       xml:space="preserve"
       style="font-style:normal;font-variant:normal;font-weight:normal;font-stretch:normal;font-size:50.2786px;line-height:1.25;font-family:Lavi;-inkscape-font-specification:Lavi;text-align:center;letter-spacing:0px;word-spacing:0px;text-anchor:middle;fill:#000000;fill-opacity:1;stroke:none;stroke-width:1.1173"
       x="532.22876"
       y="3075.4722"
       id="text4246-3-2-2-3-3"><tspan
         style="font-style:normal;font-variant:normal;font-weight:bold;font-stretch:normal;font-size:50.2786px;font-family:Lavi;-inkscape-font-specification:'Lavi Bold';stroke-width:1.1173"
         sodipodi:role="line"
         x="532.22876"
         y="3075.4722"
         id="tspan894">Ich kann es</tspan><tspan
         style="font-style:normal;font-variant:normal;font-weight:bold;font-stretch:normal;font-size:50.2786px;font-family:Lavi;-inkscape-font-specification:'Lavi Bold';stroke-width:1.1173"
         sodipodi:role="line"
         x="532.22876"
         y="3138.3203"
         id="tspan896">kaum erwarten!</tspan></text>
    <text
       xml:space="preserve"
       style="font-style:normal;font-variant:normal;font-weight:normal;font-stretch:normal;font-size:57.3248px;line-height:1.25;font-family:Lavi;-inkscape-font-specification:Lavi;text-align:center;letter-spacing:0px;word-spacing:0px;text-anchor:middle;fill:#000000;fill-opacity:1;stroke:none;stroke-width:1.27388"
       x="517.26379"
       y="3258.7009"
       id="text4246-3-2-2-3-3-3"><tspan
         style="font-style:normal;font-variant:normal;font-weight:bold;font-stretch:normal;font-size:57.3248px;font-family:Lavi;-inkscape-font-specification:'Lavi Bold';stroke-width:1.27388"
         sodipodi:role="line"
         x="517.26379"
         y="3258.7009"
         id="tspan1015">Muhahaha!</tspan></text>
    <text
       xml:space="preserve"
       style="font-style:normal;font-variant:normal;font-weight:normal;font-stretch:normal;font-size:105.817px;line-height:1.25;font-family:Lavi;-inkscape-font-specification:Lavi;letter-spacing:0px;word-spacing:0px;fill:#000000;fill-opacity:1;stroke:#030303;stroke-width:0.716208;stroke-miterlimit:4;stroke-dasharray:none;stroke-opacity:1;filter:url(#filter4375-4-1-1-1-9-5-8-8-5-5-3-8)"
       x="787.65729"
       y="1584.5073"
       id="text4580-6-0-0-0-9-3-36"
       transform="matrix(1.0545214,-0.26714456,-0.41513081,1.2309466,1890.7199,857.1408)"><tspan
         style="font-size:195.17px;fill:#000000;fill-opacity:1;stroke:#030303;stroke-width:0.716208;stroke-miterlimit:4;stroke-dasharray:none;stroke-opacity:1"
         sodipodi:role="line"
         id="tspan876-6-1"
         x="787.65729"
         y="1584.5073">!<tspan
   style="font-size:173.821px;fill:#000000;stroke:#030303;stroke-opacity:1"
   id="tspan1317">!</tspan><tspan
   id="tspan1322"
   style="font-size:152.472px;fill:#000000;stroke:#030303;stroke-opacity:1">!</tspan></tspan></text>
  </g>
</svg>
