<?xml version="1.0" encoding="UTF-8" standalone="no"?>
<!-- Created with Inkscape (http://www.inkscape.org/) -->

<svg
   xmlns:dc="http://purl.org/dc/elements/1.1/"
   xmlns:cc="http://creativecommons.org/ns#"
   xmlns:rdf="http://www.w3.org/1999/02/22-rdf-syntax-ns#"
   xmlns:svg="http://www.w3.org/2000/svg"
   xmlns="http://www.w3.org/2000/svg"
   xmlns:xlink="http://www.w3.org/1999/xlink"
   xmlns:sodipodi="http://sodipodi.sourceforge.net/DTD/sodipodi-0.dtd"
   xmlns:inkscape="http://www.inkscape.org/namespaces/inkscape"
   id="svg2"
   version="1.1"
   inkscape:version="0.92.3 (2405546, 2018-03-11)"
   width="2481"
   height="3503"
   sodipodi:docname="E31P05.svg">
  <metadata
     id="metadata8">
    <rdf:RDF>
      <cc:Work
         rdf:about="">
        <dc:format>image/svg+xml</dc:format>
        <dc:type
           rdf:resource="http://purl.org/dc/dcmitype/StillImage" />
        <dc:title />
      </cc:Work>
    </rdf:RDF>
  </metadata>
  <defs
     id="defs6">
    <filter
       style="color-interpolation-filters:sRGB"
       id="filter4375-4-1-1-1-9-5-8-86"
       inkscape:label="Drop Shadow">
      <feFlood
         id="feFlood4377-7-9-0-8-1-7-3-2"
         flood-opacity="1"
         flood-color="rgb(162,101,216)"
         result="flood" />
      <feComposite
         id="feComposite4379-3-8-8-2-77-4-1-84"
         in2="SourceGraphic"
         in="flood"
         operator="in"
         result="composite1" />
      <feMorphology
         id="feMorphology4393-1-0-49-8-9-3-0-7"
         operator="dilate"
         radius="6.2000000000000002"
         result="result3" />
      <feComposite
         id="feComposite4385-9-5-7-0-8-8-7-24"
         in2="result3"
         in="SourceGraphic"
         operator="over"
         result="fbSourceGraphic" />
      <feColorMatrix
         result="fbSourceGraphicAlpha"
         in="fbSourceGraphic"
         values="0 0 0 -1 0 0 0 0 -1 0 0 0 0 -1 0 0 0 0 1 0"
         id="feColorMatrix4544-0" />
      <feTurbulence
         id="feTurbulence4546-62"
         type="fractalNoise"
         numOctaves="3"
         seed="37"
         baseFrequency="0.129 0.0050000000000000001"
         result="turbulence" />
      <feDisplacementMap
         id="feDisplacementMap4548-9"
         in2="turbulence"
         in="fbSourceGraphic"
         scale="6.6"
         yChannelSelector="G"
         xChannelSelector="R"
         result="fbSourceGraphic" />
      <feColorMatrix
         result="fbSourceGraphicAlpha"
         in="fbSourceGraphic"
         values="0 0 0 -1 0 0 0 0 -1 0 0 0 0 -1 0 0 0 0 1 0"
         id="feColorMatrix4670-90" />
      <feFlood
         id="feFlood4672-81"
         flood-opacity="1"
         flood-color="rgb(37,37,37)"
         result="flood"
         in="fbSourceGraphic" />
      <feComposite
         id="feComposite4674-3"
         in2="fbSourceGraphic"
         in="flood"
         operator="in"
         result="composite1" />
      <feGaussianBlur
         id="feGaussianBlur4676-1"
         in="composite1"
         stdDeviation="0"
         result="blur" />
      <feOffset
         id="feOffset4678-1"
         dx="6"
         dy="6"
         result="offset" />
      <feComposite
         id="feComposite4680-0"
         in2="offset"
         in="fbSourceGraphic"
         operator="over"
         result="composite2" />
    </filter>
    <filter
       style="color-interpolation-filters:sRGB"
       id="filter3018-9-9"
       inkscape:label="Lapping"
       inkscape:menu="Distort"
       inkscape:menu-tooltip="Something like a water noise"
       height="1.3"
       y="-0.15000001"
       width="1.3"
       x="-0.15000001">
      <feTurbulence
         id="feTurbulence3020-3-0"
         numOctaves="5"
         seed="0"
         type="fractalNoise"
         baseFrequency="0.045999999999999999"
         result="result1" />
      <feGaussianBlur
         id="feGaussianBlur3022-77-9"
         stdDeviation="2"
         result="result2" />
      <feDisplacementMap
         id="feDisplacementMap3024-6-9"
         in2="result2"
         scale="50"
         yChannelSelector="B"
         xChannelSelector="R"
         in="SourceGraphic" />
    </filter>
    <filter
       style="color-interpolation-filters:sRGB"
       id="filter3018-9-9-8"
       inkscape:label="Lapping"
       inkscape:menu="Distort"
       inkscape:menu-tooltip="Something like a water noise"
       height="1.3"
       y="-0.15000001"
       width="1.3"
       x="-0.15000001">
      <feTurbulence
         id="feTurbulence3020-3-0-7"
         numOctaves="5"
         seed="0"
         type="fractalNoise"
         baseFrequency="0.045999999999999999"
         result="result1" />
      <feGaussianBlur
         id="feGaussianBlur3022-77-9-9"
         stdDeviation="2"
         result="result2" />
      <feDisplacementMap
         id="feDisplacementMap3024-6-9-2"
         in2="result2"
         scale="50"
         yChannelSelector="B"
         xChannelSelector="R"
         in="SourceGraphic" />
    </filter>
    <filter
       style="color-interpolation-filters:sRGB"
       id="filter4375-4-1-1-15-1-3-0"
       inkscape:label="deevad outline effect">
      <feFlood
         id="feFlood4377-7-9-0-4-4-4-0"
         flood-opacity="1"
         flood-color="rgb(0,0,0)"
         result="flood" />
      <feComposite
         id="feComposite4379-3-8-8-6-0-7-3"
         in2="SourceGraphic"
         in="flood"
         operator="in"
         result="composite1" />
      <feMorphology
         id="feMorphology4393-1-0-49-8-2-7-4"
         operator="dilate"
         radius="0.90000000000000002"
         result="result3" />
      <feComposite
         id="feComposite4385-9-5-7-2-1-2-6-7"
         in2="result3"
         in="SourceGraphic"
         operator="over"
         result="composite2" />
    </filter>
    <filter
       style="color-interpolation-filters:sRGB"
       id="filter4375-4-1-1-1-9-5-8-3-8"
       inkscape:label="Drop Shadow">
      <feFlood
         id="feFlood4377-7-9-0-8-1-7-3-8-3"
         flood-opacity="1"
         flood-color="rgb(32,32,32)"
         result="flood" />
      <feComposite
         id="feComposite4379-3-8-8-2-77-4-1-8-7"
         in2="SourceGraphic"
         in="flood"
         operator="in"
         result="composite1" />
      <feMorphology
         id="feMorphology4393-1-0-49-8-9-3-0-31-8"
         operator="dilate"
         radius="6.2000000000000002"
         result="result3" />
      <feComposite
         id="feComposite4385-9-5-7-0-8-8-7-8-2"
         in2="result3"
         in="SourceGraphic"
         operator="over"
         result="fbSourceGraphic" />
      <feColorMatrix
         result="fbSourceGraphicAlpha"
         in="fbSourceGraphic"
         values="0 0 0 -1 0 0 0 0 -1 0 0 0 0 -1 0 0 0 0 1 0"
         id="feColorMatrix4544-96-1" />
      <feTurbulence
         id="feTurbulence4546-4-0"
         type="fractalNoise"
         numOctaves="3"
         seed="37"
         baseFrequency="0.129 0.0050000000000000001"
         result="turbulence" />
      <feDisplacementMap
         id="feDisplacementMap4548-3-5"
         in2="turbulence"
         in="fbSourceGraphic"
         scale="6.6"
         yChannelSelector="G"
         xChannelSelector="R"
         result="fbSourceGraphic" />
      <feColorMatrix
         result="fbSourceGraphicAlpha"
         in="fbSourceGraphic"
         values="0 0 0 -1 0 0 0 0 -1 0 0 0 0 -1 0 0 0 0 1 0"
         id="feColorMatrix4670-33-8" />
      <feFlood
         id="feFlood4672-8-5"
         flood-opacity="0.40999999999999998"
         flood-color="rgb(41,41,41)"
         result="flood"
         in="fbSourceGraphic" />
      <feComposite
         id="feComposite4674-6-5"
         in2="fbSourceGraphic"
         in="flood"
         operator="in"
         result="composite1" />
      <feGaussianBlur
         id="feGaussianBlur4676-0-0"
         in="composite1"
         stdDeviation="0"
         result="blur" />
      <feOffset
         id="feOffset4678-4-7"
         dx="6"
         dy="6"
         result="offset" />
      <feComposite
         id="feComposite4680-8-3"
         in2="offset"
         in="fbSourceGraphic"
         operator="over"
         result="composite2" />
    </filter>
  </defs>
  <sodipodi:namedview
     pagecolor="#ffffff"
     bordercolor="#666666"
     borderopacity="1"
     objecttolerance="10"
     gridtolerance="10"
     guidetolerance="10"
     inkscape:pageopacity="0"
     inkscape:pageshadow="2"
     inkscape:window-width="1680"
     inkscape:window-height="987"
     id="namedview4"
     showgrid="false"
     inkscape:zoom="0.6604777"
     inkscape:cx="783.48957"
     inkscape:cy="964.19106"
     inkscape:window-x="-8"
     inkscape:window-y="24"
     inkscape:window-maximized="1"
     inkscape:current-layer="layer1"
     inkscape:snap-global="false" />
  <g
     inkscape:groupmode="layer"
     id="layer2"
     inkscape:label="artwork"
     sodipodi:insensitive="true">
    <image
       sodipodi:absref="C:\Users\ato\OneDrive - Høgskulen i Volda\Vevsida\Teikneseriesida\Pepar &amp; Gulrot\ep31_The-Fight_lang-pack\lang\nn\../gfx_Pepper-and-Carrot_by-David-Revoy_E31P05.png"
       xlink:href="../gfx_Pepper-and-Carrot_by-David-Revoy_E31P05.png"
       y="0"
       x="0"
       id="image10"
       height="3503"
       width="2481" />
  </g>
  <g
     inkscape:groupmode="layer"
     id="layer3"
     inkscape:label="speechbubbles">
    <path
       style="display:inline;fill:#ffffff;stroke:none;stroke-width:0.87235391"
       d="m 377.15594,1186.8558 c -1.59955,-16.8588 9.60374,-65.0434 71.66793,-65.7504 62.06419,-0.7071 82.41772,16.6689 85.81689,46.601 5.37752,47.3529 -26.5159,62.1015 -73.08833,68.5608 -48.01116,6.6595 -78.84573,-6.9167 -84.39649,-49.4114 z"
       id="path3280-9"
       inkscape:connector-curvature="0"
       sodipodi:nodetypes="csssc" />
    <path
       style="display:inline;fill:#ffffff;stroke:none;stroke-width:0.99999994"
       d="m 838.74219,1343.1008 c 5.14046,-12.1801 -5.32637,-23.7674 -18.08678,-28.0133 -12.76108,-4.2447 -17.11873,-5.8511 -32.46479,-5.5922 -15.34651,0.2588 -33.87645,-18.63 -39.83871,-26.5569 -5.96336,-7.9256 -57.72306,-32.5688 -57.72306,-32.5688 0,0 2.85238,31.2418 7.85563,42.0344 5.00412,10.7938 5.65455,6.0882 9.89238,10.0535 4.23783,3.964 26.45958,14.3405 40.45236,18.6892 10.98819,3.4161 24.49176,7.9704 43.02369,5.8983 12.31041,-1.3778 27.85053,9.2829 21.92175,18.3747 -6.57944,10.0897 0.64735,15.6711 22.40302,23.6778 20.17992,7.4261 56.16383,14.0502 56.16383,14.0502 -66.35709,-27.7338 -59.36137,-26.3947 -53.59932,-40.0469 z"
       id="path3023-0"
       inkscape:connector-curvature="0"
       sodipodi:nodetypes="sssscsssssscs" />
    <path
       style="color:#000000;display:inline;overflow:visible;visibility:visible;fill:#ffffff;fill-opacity:1;fill-rule:nonzero;stroke:none;stroke-width:1px;marker:none;enable-background:accumulate"
       d="m 944.57883,1605.1703 c -30.33271,27.8223 -40.63193,41.7036 -32.65289,89.1503 7.9795,47.4457 -10.38684,49.099 -10.38684,49.099 l -22.6221,-25.0848 c 0,0 -10.78332,-87.9521 65.66183,-113.1645 z"
       id="path3072-56"
       inkscape:connector-curvature="0"
       sodipodi:nodetypes="ccccc" />
    <path
       style="fill:#ffffff;fill-rule:evenodd;stroke:none;stroke-width:1px;stroke-linecap:butt;stroke-linejoin:miter;stroke-opacity:1"
       d="m 2368.0031,3354.1412 -62.4863,-105.9956 -20.7592,1.1293 0.9846,29.7863 c -198.2559,-209.0923 -141.9506,-96.6792 1.661,30.8425 l 12.9698,3.243 3.2425,-25.94 z"
       id="path1111"
       inkscape:connector-curvature="0"
       sodipodi:nodetypes="cccccccc" />
    <path
       style="color:#000000;display:inline;overflow:visible;visibility:visible;fill:#ffffff;fill-opacity:1;fill-rule:nonzero;stroke:none;stroke-width:1.11683285px;marker:none;enable-background:accumulate"
       d="m 1940.8696,3078.5459 c -7.8655,21.4197 -56.2133,24.5002 -74.1792,20.674 36.7236,22.7344 35.9696,37.4962 -12.7243,41.0969 83.2358,40.5142 16.179,35.8511 3.3623,47.0381 64.7185,12.9925 36.6057,32.0882 25.7893,50.6354 73.8363,-1.3625 50.6694,28.5243 54.5685,51.7251 5.8881,-11.0943 34.4912,-45.16 37.5332,-8.1699 -0.1024,-7.0055 46.4821,-66.3465 120.5774,-11.8474 -2.7274,-29.0175 21.7675,-35.6593 46.5775,3.8628 -9.3079,-43.2537 74.302,-32.9172 118.8239,-20.4648 -23.1551,-25.7315 11.6705,-37.2913 49.2871,-33.0555 -5.7378,-14.2965 6.5672,-24.5609 34.9153,-31.2237 -38.2301,-7.6984 -45.5259,-16.5056 24.5838,-28.0848 -53.6303,0.5088 -103.6762,-0.063 -41.9107,-34.7721 -19.7549,-0.2663 -65.6295,28.5423 -46.5345,-52.6653 -33.0501,26.7242 -68.7614,41.9434 -115.9804,-10.8963 -20.567,27.5871 -57.3723,41.9569 -74.7229,8.6575 -5.3393,14.5386 -29.3132,20.5991 -49.7984,21.8071 -8.1237,-5.4987 -16.5655,-13.0381 -25.4448,-22.9744 -13.228,21.723 -33.6083,36.7018 -74.7231,8.6573 z"
       id="path3549-3-7-9"
       inkscape:connector-curvature="0"
       sodipodi:nodetypes="cccccccccccccccccccc" />
    <path
       style="color:#000000;display:inline;overflow:visible;visibility:visible;opacity:1;vector-effect:none;fill:#000000;fill-opacity:1;fill-rule:nonzero;stroke:none;stroke-width:0.89139485px;stroke-linecap:butt;stroke-linejoin:miter;stroke-miterlimit:4;stroke-dasharray:none;stroke-dashoffset:0;stroke-opacity:1;marker:none;filter:url(#filter3018-9-9);enable-background:accumulate"
       d="m 567.86205,2229.1688 c 20.63812,-57.803 115.43033,-79.477 229.30025,-121.7002 82.30503,-30.5188 111.60975,-30.8726 153.98534,-13.5324 20.01567,8.1908 61.36416,58.7781 52.77756,118.1339 -10.16251,70.2496 -65.62331,112.7026 -195.62364,135.1554 -130.00027,22.4519 -142.65746,51.7938 -163.23141,44.0486 -78.64614,-29.6069 -97.84622,-104.3023 -77.2081,-162.1053 z"
       id="path4530-1"
       inkscape:connector-curvature="0"
       sodipodi:nodetypes="zsssssz"
       transform="matrix(1.1166522,-0.10874592,0.09629405,0.93917904,-297.05103,223.44816)" />
    <path
       style="color:#000000;display:inline;overflow:visible;visibility:visible;fill:#ffffff;fill-opacity:1;fill-rule:nonzero;stroke:none;stroke-width:1.16043746px;marker:none;enable-background:accumulate"
       d="m 747.56342,1704.8446 c 12.49632,-29.7704 32.64154,-38.1183 112.83577,-34.9272 43.08036,1.7139 96.33879,0.9817 94.77282,79.7305 -1.29136,64.9383 -51.56187,75.7703 -99.82418,77.3504 -32.34912,1.0594 -82.97807,-4.1744 -98.00787,-31.0594 -18.10866,-32.3925 -18.31947,-64.4419 -9.77654,-91.0943 z"
       id="path4546-6-5-5"
       inkscape:connector-curvature="0"
       sodipodi:nodetypes="cssssc" />
    <path
       style="color:#000000;display:inline;overflow:visible;visibility:visible;fill:#ffffff;fill-opacity:1;fill-rule:nonzero;stroke:none;stroke-width:0.92472911px;marker:none;enable-background:accumulate"
       d="m 401.6675,1277.0228 c 2.82974,-19.8648 4.34785,-45.2143 37.43135,-56.4263 33.08355,-11.2127 103.07996,-13.275 175.79226,-9.3377 38.94884,2.1085 103.36765,-0.075 133.21943,11.3336 19.50385,7.4537 40.73615,21.5672 37.04346,50.6682 -3.69286,29.1018 -32.59177,47.5454 -68.62379,54.5209 -36.0321,6.9755 -72.14972,6.739 -103.60281,6.4151 -30.36904,-0.3126 -53.92172,-0.6528 -94.31693,-4.5946 -40.39518,-3.9425 -85.77182,-5.5429 -97.46831,-15.4775 -7.3217,-6.219 -12.38259,-12.4178 -15.51693,-18.6001 -3.13442,-6.1824 -4.34218,-12.3484 -3.95773,-18.5016 z"
       id="path4546-6-8"
       inkscape:connector-curvature="0"
       sodipodi:nodetypes="csssssssssc" />
    <path
       style="fill:#ffffff;stroke:none;stroke-width:0.90628368"
       d="m 2084.772,892.13907 c -3.0017,49.02125 -59.3995,63.68466 -99.714,64.74626 -68.4867,5.37658 -138.0839,0.98528 -205.2744,-13.04186 -43.4566,-12.47334 -65.7021,-74.8966 -30.506,-107.51026 36.2557,-25.61637 83.4999,-24.66797 125.8122,-30.47416 59.9293,-3.99428 122.1454,-0.97757 178.7663,20.51076 25.2691,11.82935 34.4902,39.30223 30.9159,65.76926 z"
       id="path3100-2-3"
       inkscape:connector-curvature="0" />
    <path
       style="fill:#ffffff;stroke:none;stroke-width:1.02756321"
       d="m 1976.3459,738.43645 c -3.5626,62.43974 -70.5028,81.11694 -118.3526,82.46913 -81.2885,6.84831 -163.8949,1.25499 -243.6447,-16.61179 -51.5797,-15.88763 -77.9833,-95.39789 -36.2084,-136.93883 43.0328,-32.62831 99.1079,-31.42029 149.3293,-38.81581 71.1313,-5.08762 144.977,-1.24514 212.1815,26.12514 29.9925,15.06738 40.9373,50.06036 36.6949,83.77216 z"
       id="path3100-2"
       inkscape:connector-curvature="0" />
    <path
       style="color:#000000;display:inline;overflow:visible;visibility:visible;fill:#ffffff;fill-opacity:1;fill-rule:nonzero;stroke:none;stroke-width:1px;marker:none;enable-background:accumulate"
       d="m 366.93185,765.16568 c -14.52106,25.38401 -14.12226,29.37216 -3.84683,39.71783 10.27644,10.34571 28.24694,21.81722 28.294,48.35038 0.048,26.53331 -11.40014,37.63007 -18.43834,45.4423 17.99392,4.59778 43.67647,28.43441 55.52347,21.32581 11.84699,-7.10861 -12.77868,22.26186 -12.77868,22.26186 0,0 -48.39781,1.76058 -63.31887,-17.12444 -14.92107,-18.88493 12.55046,-52.19852 15.22453,-70.47392 2.67404,-18.2753 -21.32605,-35.54142 -22.10024,-50.39147 -0.77516,-14.85029 12.05701,-28.6919 21.44096,-39.10835 z"
       id="path4538-7"
       inkscape:connector-curvature="0"
       sodipodi:nodetypes="ccscccsscc" />
    <path
       style="fill:#ffffff;fill-rule:evenodd;stroke:none;stroke-width:1px;stroke-linecap:butt;stroke-linejoin:miter;stroke-opacity:1"
       d="m 280.26826,949.8856 c 1.30092,-19.455 16.91203,-55.122 40.32881,-61.607 23.41667,-6.485 88.46306,-6.485 101.47236,-3.242 13.0093,3.242 33.82416,27.02 39.0279,36.748 5.20375,9.727 19.51394,44.313 -3.90272,58.364 -23.41679,14.05101 -46.83346,24.859 -71.55115,23.778 -24.7177,-1.081 -74.15297,-8.64699 -85.86124,-21.616 -11.7084,-12.97 -19.51396,-32.425 -19.51396,-32.425 z"
       id="path1355"
       inkscape:connector-curvature="0" />
    <path
       style="color:#000000;display:inline;overflow:visible;visibility:visible;fill:#ffffff;fill-opacity:1;fill-rule:nonzero;stroke:none;stroke-width:0.86172825px;marker:none;enable-background:accumulate"
       d="m 1970.8269,562.44869 c -37.9175,4.25331 -75.7593,39.09104 -74.742,73.98841 -9.2637,38.72473 -17.7448,26.50086 -17.7448,26.50086 l -22.7264,-25.55892 c 0,0 34.1381,-81.95988 115.2132,-74.93035 z"
       id="path3072-5-5"
       inkscape:connector-curvature="0"
       sodipodi:nodetypes="ccccc" />
    <path
       style="display:inline;fill:#ffffff;fill-opacity:1;fill-rule:evenodd;stroke:none;stroke-width:1px;stroke-linecap:butt;stroke-linejoin:miter;stroke-opacity:1"
       d="m 94.626144,1930.8268 2.131968,119.7971 c 16.626358,9.4264 52.381138,32.2807 27.394228,59.1906 44.7032,-30.512 69.18377,-28.1575 42.62207,5.4721 31.58553,-28.9239 71.87987,-49.9947 57.12277,-16.7662 11.33998,-20.8712 73.0613,-39.2613 64.2175,-13.7209 35.60728,-29.9149 61.56903,-2.5326 68.23493,21.9544 25.35251,-39.2139 49.07895,-32.9302 74.43136,-33.1676 4.3067,3.798 13.02238,7.2039 24.262,14.8024 0.88518,-7.436 18.46268,-13.6692 30.90205,-7.43 l 1.42131,-151.5532 z"
       id="path4508-2"
       inkscape:connector-curvature="0"
       sodipodi:nodetypes="cccccccccccc" />
    <path
       style="color:#000000;display:inline;overflow:visible;visibility:visible;fill:#ffffff;fill-opacity:1;fill-rule:nonzero;stroke:none;stroke-width:0.99999988px;marker:none;enable-background:accumulate"
       d="m 418.73536,2055.1489 c 3.84838,34.7867 6.74214,80.4189 3.34466,87.8991 6.54891,-5.4068 13.08002,-8.3131 18.13766,-10.723 3.59478,16.93 1.37715,72.9444 0.69916,104.7157 14.25523,-47.1378 17.38386,-114.509 14.12659,-141.5765 -5.74943,7.8798 -11.53154,12.3511 -15.31572,12.9092 -5.65161,-11.5208 -1.74846,-60.5538 -1.24906,-60.9055 z"
       id="path5066-6"
       inkscape:connector-curvature="0"
       sodipodi:nodetypes="cccccccc" />
    <path
       style="color:#000000;display:inline;overflow:visible;visibility:visible;fill:#000000;fill-opacity:1;fill-rule:nonzero;stroke:none;stroke-width:1.25845337px;marker:none;filter:url(#filter3018-9-9);enable-background:accumulate"
       d="m 242.72907,238.4265 c 0,-43.16665 41.77313,-75.34884 127.54615,-85.0916 88.07104,-10.00379 249.70116,-15.35559 288.45226,4.24531 38.751,19.601 30.81374,42.98675 32.80104,82.18855 1.9872,39.2018 -70.66992,79.95433 -157.5944,97.0713 -119.00792,23.43477 -209.10789,37.33253 -256.80149,23.33183 -47.6936,-14.0007 -30.42906,-74.14319 -34.40356,-121.74539 z"
       id="path3986-45"
       inkscape:connector-curvature="0"
       sodipodi:nodetypes="csssssc"
       transform="matrix(0.80532797,0.07400672,-0.07107065,0.61442135,-65.305583,2571.9951)" />
    <path
       style="color:#000000;display:inline;overflow:visible;visibility:visible;fill:#000000;fill-opacity:1;fill-rule:nonzero;stroke:none;stroke-width:1px;marker:none;enable-background:accumulate"
       d="m 320.34575,2699.3541 c -2.27872,-20.874 -3.1096,-48.2508 0.63297,-52.729 -6.80567,3.2268 -13.4802,4.9539 -18.65609,6.3868 -2.83396,-10.1632 1.92623,-43.7544 4.0453,-62.8087 -16.41704,28.2374 -22.60454,68.6381 -20.56814,84.8808 6.11684,-4.712 12.11193,-7.3796 15.92818,-7.7049 5.13961,6.9238 -0.99272,36.3236 -1.50894,36.5333 z"
       id="path5066-6-2"
       inkscape:connector-curvature="0"
       sodipodi:nodetypes="cccccccc" />
    <path
       style="display:inline;opacity:1;vector-effect:none;fill:#000000;fill-opacity:1;stroke:none;stroke-width:0.99999994;stroke-linecap:butt;stroke-linejoin:miter;stroke-miterlimit:4;stroke-dasharray:none;stroke-dashoffset:0;stroke-opacity:1"
       d="m 738.50838,2535.2565 c -48.6175,-23.276 -83.2149,-109.492 -49.7683,-157.706 19.7334,-28.446 29.6777,-45.463 29.6777,-45.463 l -35.9455,-11.844 c -83.024,107.754 -0.6527,193.212 56.0361,215.013 z"
       id="path3063-1-0"
       inkscape:connector-curvature="0"
       sodipodi:nodetypes="csccc" />
    <path
       style="fill:none;fill-rule:evenodd;stroke:none;stroke-width:1px;stroke-linecap:butt;stroke-linejoin:miter;stroke-opacity:1"
       d="m 1229.6739,2517.2391 c 52.5,-95 140.1801,-194.321 260.0423,-201.3276 69.5344,-4.0647 215.7486,1.3167 289.9577,158.8276 57.9405,122.9803 48.8135,180.5223 25.1694,276.5394"
       id="path1304"
       inkscape:connector-curvature="0"
       sodipodi:nodetypes="cssc" />
  </g>
  <g
     inkscape:groupmode="layer"
     id="layer1"
     inkscape:label="txt">
    <text
       xml:space="preserve"
       style="font-style:normal;font-variant:normal;font-weight:normal;font-stretch:normal;line-height:0%;font-family:Lavi;-inkscape-font-specification:Lavi;text-align:center;letter-spacing:0px;word-spacing:0px;text-anchor:middle;fill:#000000;fill-opacity:1;stroke:none"
       x="378.7392"
       y="960.86554"
       id="text4246-3-7-7-6-7-2-9-6-1-4"><tspan
         sodipodi:role="line"
         style="font-size:45px;line-height:1.20000005"
         x="378.7392"
         y="960.86554"
         id="tspan1183-0">Pfff...</tspan></text>
    <text
       xml:space="preserve"
       style="font-style:normal;font-variant:normal;font-weight:normal;font-stretch:normal;line-height:0%;font-family:Lavi;-inkscape-font-specification:Lavi;text-align:center;letter-spacing:0px;word-spacing:0px;text-anchor:middle;fill:#000000;fill-opacity:1;stroke:none"
       x="1765.6489"
       y="693.81439"
       id="text4246-3-7-7-6-7-2-9-6-1"><tspan
         sodipodi:role="line"
         style="font-size:40px;line-height:1.20000005"
         x="1771.8989"
         y="693.81439"
         id="tspan860">Flyktar du til </tspan><tspan
         sodipodi:role="line"
         style="font-size:40px;line-height:1.20000005"
         x="1771.8989"
         y="741.81439"
         id="tspan5398">ein <tspan
   style="font-style:normal;font-variant:normal;font-weight:bold;font-stretch:normal;font-family:Lavi;-inkscape-font-specification:'Lavi Bold'"
   id="tspan5406">mikrodimensjon</tspan> </tspan><tspan
         sodipodi:role="line"
         style="font-size:40px;line-height:1.20000005"
         x="1765.6489"
         y="789.81439"
         id="tspan5404">– i din alder?</tspan></text>
    <text
       xml:space="preserve"
       style="font-style:normal;font-variant:normal;font-weight:normal;font-stretch:normal;line-height:0%;font-family:Lavi;-inkscape-font-specification:Lavi;text-align:center;letter-spacing:0px;word-spacing:0px;text-anchor:middle;fill:#000000;fill-opacity:1;stroke:none"
       x="1908.8818"
       y="874.92896"
       id="text4246-3-7-7-6-7-2-9-6-1-3"><tspan
         sodipodi:role="line"
         style="font-size:40px;line-height:1.20000005"
         x="1915.1318"
         y="874.92896"
         id="tspan891">For eit patetisk </tspan><tspan
         sodipodi:role="line"
         style="font-size:40px;line-height:1.20000005"
         x="1908.8818"
         y="922.92896"
         id="tspan5410">nederlag ...</tspan></text>
    <text
       xml:space="preserve"
       style="font-style:normal;font-variant:normal;font-weight:normal;font-stretch:normal;line-height:0%;font-family:Lavi;-inkscape-font-specification:Lavi;text-align:center;letter-spacing:0px;word-spacing:0px;text-anchor:middle;fill:#000000;fill-opacity:1;stroke:#000000;stroke-width:0.1;stroke-miterlimit:4;stroke-dasharray:none;stroke-opacity:1"
       x="455.74817"
       y="1192.9952"
       id="text4246-3-2-9"><tspan
         sodipodi:role="line"
         style="font-style:italic;font-variant:normal;font-weight:normal;font-stretch:normal;font-size:45px;line-height:1.25;font-family:Lavi;-inkscape-font-specification:'Lavi Italic';stroke:#000000;stroke-width:0.1;stroke-miterlimit:4;stroke-dasharray:none;stroke-opacity:1"
         x="455.74817"
         y="1192.9952"
         id="tspan4259-0">Feil!</tspan></text>
    <text
       xml:space="preserve"
       style="font-style:normal;font-variant:normal;font-weight:normal;font-stretch:normal;font-size:13.70881462px;line-height:0%;font-family:Lavi;-inkscape-font-specification:Lavi;text-align:center;letter-spacing:0px;word-spacing:0px;text-anchor:middle;fill:#000000;fill-opacity:1;stroke:none;stroke-width:1"
       x="685.37982"
       y="1289.2474"
       id="text4246-8-34"
       transform="skewX(-4.4463202)"><tspan
         sodipodi:role="line"
         style="font-style:normal;font-variant:normal;font-weight:bold;font-stretch:normal;font-size:51.40805435px;line-height:1.20000005;font-family:Lavi;-inkscape-font-specification:'Lavi Bold';stroke-width:0.87534922"
         x="685.37982"
         y="1289.2474"
         id="tspan4252-0-4">Eit ormehòl!</tspan></text>
    <text
       xml:space="preserve"
       style="font-style:normal;font-variant:normal;font-weight:normal;font-stretch:normal;line-height:0%;font-family:Lavi;-inkscape-font-specification:Lavi;letter-spacing:0px;word-spacing:0px;display:inline;fill:#ffffff;fill-opacity:1;stroke:none;stroke-width:1.92738175;stroke-miterlimit:4;stroke-dasharray:none;stroke-opacity:1;filter:url(#filter4375-4-1-1-1-9-5-8-86)"
       x="787.65729"
       y="1584.5073"
       id="text4580-6-0-34"
       transform="matrix(0.35442438,-0.18307708,-0.04197362,0.52947523,476.28326,769.51742)"><tspan
         sodipodi:role="line"
         id="tspan4582-1-1-03"
         x="787.65729"
         y="1584.5073"
         style="font-size:70px;line-height:1.25;fill:#ffffff;fill-opacity:1;stroke:none;stroke-width:1.92738175;stroke-opacity:1"><tspan
           style="font-size:93.14950562px;fill:#ffffff;fill-opacity:1;stroke:none;stroke-width:1.92738175;stroke-opacity:1"
           id="tspan4315-8-91">Bzz!</tspan><tspan
           style="font-size:114.73223114px;fill:#ffffff;fill-opacity:1;stroke:none;stroke-width:1.92738175;stroke-opacity:1"
           id="tspan4313-2-96" /></tspan></text>
    <text
       xml:space="preserve"
       style="font-style:normal;font-variant:normal;font-weight:normal;font-stretch:normal;font-size:9.76105022px;line-height:0%;font-family:Lavi;-inkscape-font-specification:Lavi;text-align:center;letter-spacing:0px;word-spacing:0px;text-anchor:middle;fill:#000000;fill-opacity:1;stroke:none;stroke-width:1"
       x="847.91339"
       y="1721.9706"
       id="text4246-3-7-7-6-7-2-9-6-1-3-1"><tspan
         sodipodi:role="line"
         style="font-size:32.53683472px;line-height:1.20000005;stroke-width:1"
         x="852.99725"
         y="1721.9706"
         id="tspan139">Takk for </tspan><tspan
         sodipodi:role="line"
         style="font-size:32.53683472px;line-height:1.20000005;stroke-width:1"
         x="852.99725"
         y="1761.0148"
         id="tspan5417">utgangen, </tspan><tspan
         sodipodi:role="line"
         style="font-size:32.53683472px;line-height:1.20000005;stroke-width:1"
         x="847.91339"
         y="1800.059"
         id="tspan5419">Gulrot!</tspan></text>
    <text
       xml:space="preserve"
       style="font-style:normal;font-variant:normal;font-weight:normal;font-stretch:normal;font-size:11.28606033px;line-height:0%;font-family:Lavi;-inkscape-font-specification:Lavi;text-align:center;letter-spacing:0px;word-spacing:0px;text-anchor:middle;fill:#000000;fill-opacity:1;stroke:none;stroke-width:1"
       x="607.36902"
       y="1993.876"
       id="text4246-8-34-3"
       transform="skewX(-8.884909)"><tspan
         sodipodi:role="line"
         style="font-style:normal;font-variant:normal;font-weight:bold;font-stretch:normal;font-size:42.3227272px;line-height:1.20000005;font-family:Lavi;-inkscape-font-specification:'Lavi Bold';fill:#000000;stroke-width:0.87534922"
         x="613.98193"
         y="1993.876"
         id="tspan1119">Sjakkmatt, </tspan><tspan
         sodipodi:role="line"
         style="font-style:normal;font-variant:normal;font-weight:bold;font-stretch:normal;font-size:42.3227272px;line-height:1.20000005;font-family:Lavi;-inkscape-font-specification:'Lavi Bold';fill:#000000;stroke-width:0.87534922"
         x="607.36902"
         y="2044.6632"
         id="tspan5423">meister Kajenne!</tspan></text>
    <text
       xml:space="preserve"
       style="font-style:normal;font-variant:normal;font-weight:normal;font-stretch:normal;font-size:16.7240696px;line-height:0%;font-family:Lavi;-inkscape-font-specification:Lavi;text-align:center;letter-spacing:0px;word-spacing:0px;text-anchor:middle;opacity:1;fill:#ffffff;fill-opacity:1;stroke:none;stroke-width:1"
       x="847.67328"
       y="2774.3435"
       id="text4180"
       transform="matrix(0.998301,0,-0.20061783,1.0017019,0,0)"><tspan
         sodipodi:role="line"
         id="tspan4182"
         x="847.67328"
         y="2774.3435"
         style="font-style:normal;font-variant:normal;font-weight:normal;font-stretch:normal;font-size:64px;line-height:1.25;font-family:Drukah;-inkscape-font-specification:Drukah;stroke-width:1">GURGES ...</tspan></text>
    <text
       xml:space="preserve"
       style="font-style:normal;font-variant:normal;font-weight:normal;font-stretch:normal;font-size:24.98176384px;line-height:0%;font-family:Lavi;-inkscape-font-specification:Lavi;text-align:center;letter-spacing:0px;word-spacing:0px;text-anchor:middle;opacity:1;fill:#ffffff;fill-opacity:1;stroke:none;stroke-width:1"
       x="844.85455"
       y="2446.9358"
       id="text4180-6"
       transform="matrix(0.96407587,-0.32145084,-0.00953047,1.0404405,0,0)"
       inkscape:transform-center-x="-0.033241186"
       inkscape:transform-center-y="-6.3784822"><tspan
         sodipodi:role="line"
         id="tspan4182-1"
         x="844.85455"
         y="2446.9358"
         style="font-style:normal;font-variant:normal;font-weight:normal;font-stretch:normal;font-size:105.02070618px;line-height:1.25;font-family:Drukah;-inkscape-font-specification:Drukah;stroke-width:1">... ATER!</tspan><tspan
         sodipodi:role="line"
         x="844.85455"
         y="2492.2742"
         style="font-style:normal;font-variant:normal;font-weight:normal;font-stretch:normal;font-size:105.02070618px;line-height:1.25;font-family:Drukah;-inkscape-font-specification:Drukah;stroke-width:1"
         id="tspan1187" /></text>
    <text
       xml:space="preserve"
       style="color:#000000;font-style:normal;font-variant:normal;font-weight:normal;font-stretch:normal;font-size:59.04512405px;line-height:0.01%;font-family:Lavi;-inkscape-font-specification:'Lavi, Normal';font-variant-ligatures:normal;font-variant-caps:normal;font-variant-numeric:normal;font-feature-settings:normal;text-align:start;letter-spacing:0.01008532px;word-spacing:0px;writing-mode:lr-tb;text-anchor:start;display:inline;overflow:visible;visibility:visible;opacity:0.6;fill:#ffffff;fill-opacity:1;fill-rule:nonzero;stroke:#ffffff;stroke-width:2.65056729;stroke-linecap:butt;stroke-linejoin:miter;stroke-miterlimit:4;stroke-dasharray:none;stroke-dashoffset:0;stroke-opacity:1;marker:none;filter:url(#filter4375-4-1-1-15-1-3-0);enable-background:accumulate"
       id="text1702-6"
       x="-15"
       y="-10"
       transform="matrix(0.98154839,0,-0.00560868,1,25.472084,-13.109641)"><textPath
         xlink:href="#path1304"
         id="textPath1306"
         style="font-style:italic;font-variant:normal;font-weight:normal;font-stretch:normal;font-size:66.66666412px;font-family:Lavi;-inkscape-font-specification:'Lavi Italic';letter-spacing:8px;stroke:#ffffff;stroke-width:2.65056729;stroke-miterlimit:4;stroke-dasharray:none;stroke-opacity:1">Ssssssviiiiiiiipppp!!!</textPath></text>
    <text
       xml:space="preserve"
       style="font-style:normal;font-variant:normal;font-weight:normal;font-stretch:normal;line-height:0%;font-family:Lavi;-inkscape-font-specification:Lavi;letter-spacing:0px;word-spacing:0px;display:inline;fill:#637cab;fill-opacity:1;stroke:#000000;stroke-width:0.52220279;stroke-miterlimit:4;stroke-dasharray:none;stroke-opacity:1;filter:url(#filter4375-4-1-1-1-9-5-8-3-8)"
       x="787.65729"
       y="1584.5073"
       id="text4580-6-0-8-8"
       transform="matrix(0.90992457,1.0129518,-0.51490843,2.121195,1764.206,-2002.3113)"><tspan
         sodipodi:role="line"
         id="tspan4582-1-1-8-2"
         x="787.65729"
         y="1584.5073"
         style="font-style:normal;font-variant:normal;font-weight:bold;font-stretch:normal;font-size:70px;line-height:1.25;font-family:'Noto Sans';-inkscape-font-specification:'Noto Sans Bold';letter-spacing:5.87610865px;fill:#637cab;fill-opacity:1;stroke:#000000;stroke-width:0.52220279;stroke-opacity:1"><tspan
           style="font-style:normal;font-variant:normal;font-weight:bold;font-stretch:normal;font-size:93.14950562px;font-family:'Noto Sans';-inkscape-font-specification:'Noto Sans Bold';letter-spacing:5.87610865px;fill:#637cab;fill-opacity:1;stroke:#000000;stroke-width:0.52220279;stroke-opacity:1"
           id="tspan4315-8-97-3"
           dy="0 0 0"><tspan
   style="font-style:normal;font-variant:normal;font-weight:bold;font-stretch:normal;font-size:105.35726166px;font-family:'Noto Sans';-inkscape-font-specification:'Noto Sans Bold';fill:#637cab;fill-opacity:1;stroke-width:0.52220279"
   id="tspan1359">V</tspan><tspan
   style="font-style:normal;font-variant:normal;font-weight:bold;font-stretch:normal;font-size:96.63743591px;font-family:'Noto Sans';-inkscape-font-specification:'Noto Sans Bold';fill:#637cab;fill-opacity:1;stroke-width:0.52220279"
   id="tspan1361">R</tspan><tspan
   style="font-style:normal;font-variant:normal;font-weight:bold;font-stretch:normal;font-size:87.91761017px;font-family:'Noto Sans';-inkscape-font-specification:'Noto Sans Bold';fill:#637cab;fill-opacity:1;stroke-width:0.52220279"
   id="tspan1363">O</tspan><tspan
   id="tspan1369"
   style="font-style:normal;font-variant:normal;font-weight:bold;font-stretch:normal;font-size:79.19777679px;font-family:'Noto Sans';-inkscape-font-specification:'Noto Sans Bold';fill:#637cab;fill-opacity:1;stroke-width:0.52220279">OOM</tspan>!</tspan><tspan
           style="font-style:normal;font-variant:normal;font-weight:bold;font-stretch:normal;font-size:114.73223114px;font-family:'Noto Sans';-inkscape-font-specification:'Noto Sans Bold';letter-spacing:5.87610865px;fill:#637cab;fill-opacity:1;stroke:#000000;stroke-width:0.52220279;stroke-opacity:1"
           id="tspan4313-2-76-0">!!</tspan></tspan></text>
    <text
       xml:space="preserve"
       style="font-style:normal;font-variant:normal;font-weight:normal;font-stretch:normal;font-size:16.27687073px;line-height:0%;font-family:Lavi;-inkscape-font-specification:Lavi;text-align:center;letter-spacing:0px;word-spacing:0px;text-anchor:middle;fill:#000000;fill-opacity:1;stroke:none;stroke-width:1.92824221"
       x="2813.0964"
       y="3099.3796"
       id="text4246-1-44"
       transform="matrix(0.96784555,0,-0.20410544,1.0332227,0,0)"><tspan
         sodipodi:role="line"
         style="font-style:normal;font-variant:normal;font-weight:bold;font-stretch:normal;font-size:61.03826904px;line-height:1.25;font-family:Lavi;-inkscape-font-specification:'Lavi Bold';stroke-width:1.92824221"
         x="2813.0964"
         y="3099.3796"
         id="tspan1013-76"><tspan
           style="font-size:80.57958221px;stroke-width:1.92824221"
           id="tspan867-1"
           dx="2 -2 0 -1 2 -1">STOPP!!!</tspan><tspan
           id="tspan885-1"
           style="font-size:118.74884033px;stroke-width:1.92824221"><tspan
             style="font-size:125.31429291px;stroke-width:1.92824221"
             id="tspan48-8" /></tspan></tspan></text>
  </g>
</svg>
