<?xml version="1.0" encoding="UTF-8" standalone="no"?>
<!-- Created with Inkscape (http://www.inkscape.org/) -->

<svg
   xmlns:dc="http://purl.org/dc/elements/1.1/"
   xmlns:cc="http://creativecommons.org/ns#"
   xmlns:rdf="http://www.w3.org/1999/02/22-rdf-syntax-ns#"
   xmlns:svg="http://www.w3.org/2000/svg"
   xmlns="http://www.w3.org/2000/svg"
   xmlns:xlink="http://www.w3.org/1999/xlink"
   xmlns:sodipodi="http://sodipodi.sourceforge.net/DTD/sodipodi-0.dtd"
   xmlns:inkscape="http://www.inkscape.org/namespaces/inkscape"
   id="svg2"
   version="1.1"
   inkscape:version="0.92.5 (2060ec1f9f, 2020-04-08)"
   width="2481"
   height="3503"
   sodipodi:docname="E36P15.svg">
  <metadata
     id="metadata8">
    <rdf:RDF>
      <cc:Work
         rdf:about="">
        <dc:format>image/svg+xml</dc:format>
        <dc:type
           rdf:resource="http://purl.org/dc/dcmitype/StillImage" />
      </cc:Work>
    </rdf:RDF>
  </metadata>
  <defs
     id="defs6" />
  <sodipodi:namedview
     pagecolor="#1e1e1e"
     bordercolor="#111111"
     borderopacity="1"
     objecttolerance="10"
     gridtolerance="10"
     guidetolerance="10"
     inkscape:pageopacity="0"
     inkscape:pageshadow="2"
     inkscape:window-width="1366"
     inkscape:window-height="704"
     id="namedview4"
     showgrid="false"
     inkscape:zoom="0.40227147"
     inkscape:cx="1185.7333"
     inkscape:cy="459.23098"
     inkscape:window-x="0"
     inkscape:window-y="27"
     inkscape:window-maximized="1"
     inkscape:current-layer="layer1"
     inkscape:pagecheckerboard="0"
     inkscape:snap-global="false" />
  <g
     inkscape:groupmode="layer"
     id="layer2"
     inkscape:label="artwork"
     sodipodi:insensitive="true">
    <image
       sodipodi:absref="/home/juanjo/Comics/lang-ep36/es/../gfx_Pepper-and-Carrot_by-David-Revoy_E36P15.png"
       xlink:href="../gfx_Pepper-and-Carrot_by-David-Revoy_E36P15.png"
       width="2481"
       height="3503"
       id="image10"
       x="0"
       y="0" />
  </g>
  <g
     inkscape:groupmode="layer"
     id="layer3"
     inkscape:label="speechbubbles"
     style="display:inline">
    <path
       sodipodi:nodetypes="zssssz"
       inkscape:connector-curvature="0"
       id="path4040-4-9-3"
       d="m 295.64632,1091.017 c -38.17581,0.5109 -76.72313,7.6647 -110.69934,23.963 -17.12499,9.0367 -32.04085,22.6391 -39.1515,39.7454 -6.57146,19.7822 -7.24007,41.6485 0.71824,61.1838 9.0964,20.7458 29.80242,36.5747 53.43601,41.9227 21.74061,5.3334 44.41844,2.8878 66.58527,2.2132 18.20242,-0.7436 36.46399,-1.0411 54.64288,0.2888 36.96838,1.2418 73.98838,-0.7278 110.75145,-4.2561 16.70083,-2.0466 33.66336,-6.971 46.38248,-17.4664 14.63695,-12.0013 21.97929,-30.0001 23.02143,-47.6704 1.25942,-16.0105 -1.49423,-32.9087 -11.38949,-46.4805 -9.00547,-12.1531 -22.846,-20.1476 -36.01759,-28.0653 -19.39153,-11.3179 -41.32113,-19.5273 -64.34872,-21.5935 -29.62308,-3.4697 -59.54595,-3.5535 -89.36117,-3.7908 -1.52331,0 -3.04663,0 -4.56995,0.01 z"
       style="color:#000000;display:inline;overflow:visible;visibility:visible;fill:#ffffff;fill-opacity:1;fill-rule:nonzero;stroke:none;stroke-width:0.995692px;marker:none;enable-background:accumulate" />
    <path
       sodipodi:nodetypes="zssssz"
       inkscape:connector-curvature="0"
       id="path4040-4-9-3-0"
       d="m 1028.1574,1103.4746 c -62.17998,0.6452 -125.52065,5.7225 -184.04745,27.2362 -19.3759,7.1074 -37.57586,21.0634 -43.39786,40.8274 -7.08332,23.5475 3.8639,49.2855 22.62839,64.9858 16.6516,14.2208 38.51452,20.8677 59.70814,26.1281 38.772,8.7248 78.78914,10.0899 118.42668,11.6213 85.2676,2.5795 170.5214,-2.5414 255.5139,-8.6252 35.4249,-2.8393 72.0157,-9.1366 102.1927,-28.2133 27.1927,-19.2428 36.9343,-59.0686 18.7101,-86.9357 -12.4151,-19.0725 -34.5722,-30.425 -57.1826,-34.4716 -36.1402,-7.0561 -73.1783,-7.8082 -109.9093,-9.3 -44.3056,-1.5299 -88.6409,-2.1286 -132.9654,-2.9692 -16.5578,-0.2288 -33.1176,-0.3939 -49.6773,-0.2838 z"
       style="color:#000000;display:inline;overflow:visible;visibility:visible;fill:#ffffff;fill-opacity:1;fill-rule:nonzero;stroke:none;stroke-width:1.32007px;marker:none;enable-background:accumulate" />
    <path
       sodipodi:nodetypes="zssssz"
       inkscape:connector-curvature="0"
       id="path4040-4-9-3-0-9"
       d="m 1513.7228,1126.0021 c -45.7442,0.9673 -92.3704,8.1228 -132.3357,26.7677 -23.7,11.8288 -36.5241,34.5975 -36.415,56.6266 -1.1781,26.7122 11.4213,54.5933 37.3382,71.9384 23.1768,15.1155 52.8319,21.5442 81.7361,25.4096 39.4853,4.9897 79.5417,6.1085 119.4497,6.4063 51.6833,-0.043 103.5704,-2.8389 154.3014,-11.064 29.4985,-5.9919 58.3091,-18.2385 76.4727,-38.3925 19.7439,-22.3844 25.5767,-53.3168 11.1091,-78.5981 -12.4446,-22.3956 -39.3686,-38.7752 -69.2068,-43.2574 -43.5178,-9.0923 -88.6819,-10.0017 -133.2859,-12.5227 -36.327,-2.0371 -72.7394,-3.4768 -109.1638,-3.3139 z"
       style="color:#000000;display:inline;overflow:visible;visibility:visible;fill:#ffffff;fill-opacity:1;fill-rule:nonzero;stroke:none;stroke-width:1.25681px;marker:none;enable-background:accumulate" />
    <path
       style="fill:#ffffff;fill-rule:evenodd;stroke:none;stroke-width:0.971056px;stroke-linecap:butt;stroke-linejoin:miter;stroke-opacity:1"
       d="m 313.59776,1240.1318 c -38.93966,0.8784 -78.0976,-0.2682 -116.78697,4.2836 -12.32194,1.6342 -24.16937,5.7546 -34.14667,12.1291 -19.4775,12.0615 -32.42202,31.2571 -35.13922,51.5708 -3.04931,17.1735 -2.75342,34.9901 2.74667,51.7912 5.18072,13.996 16.7603,26.3832 32.27796,33.0376 17.33957,7.9949 36.96962,11.1675 56.1757,14.1763 37.09329,5.3329 74.86874,5.8753 112.39439,5.1205 26.73753,-0.7154 53.33789,-3.3031 80.04251,-4.5014 24.59075,-1.3479 49.46058,-3.6042 72.73751,-10.8702 11.20607,-3.2988 23.04768,-7.1546 30.71447,-15.2347 8.65308,-9.4543 11.06219,-21.7177 12.2035,-33.3419 1.74953,-20.0022 -0.531,-40.3548 -7.53325,-59.5404 -2.90848,-7.5667 -6.46735,-15.1191 -12.06439,-21.5589 -7.77237,-7.8136 -19.34627,-11.842 -30.721,-14.389 -27.87612,-7.8205 -57.49648,-8.5722 -86.55882,-9.7567 -25.43568,-1.1469 -50.84631,-3.1814 -76.34239,-2.9159 z"
       id="path4430-0"
       inkscape:connector-curvature="0"
       sodipodi:nodetypes="cccc" />
    <path
       style="fill:#ffffff;fill-rule:evenodd;stroke:none;stroke-width:0.914223px;stroke-linecap:butt;stroke-linejoin:miter;stroke-opacity:1"
       d="m 486.57288,1577.4452 c 28.81918,-66.6247 20.74358,-99.1008 19.77331,-112.4088 -16.52174,10.815 -24.86604,14.1576 -24.65914,13.2895 3.00972,-12.6265 -35.44872,-115.6984 -44.45394,-112.059 l 18.96701,-39.5995 c 16.57291,47.9099 30.322,74.2909 38.66556,123.6461 0,0 15.80065,-9.8432 23.58886,-12.9706 2.56416,11.9254 27.41455,66.0411 -31.88166,140.1023 z"
       id="path891"
       inkscape:connector-curvature="0"
       sodipodi:nodetypes="ccsccccc" />
    <path
       id="path889"
       style="fill:#ffffff;fill-rule:evenodd;stroke:none;stroke-width:1.16912px;stroke-linecap:butt;stroke-linejoin:miter;stroke-opacity:1"
       d="m 2296.3652,1086.6998 c -54.9342,0.2436 -109.8719,0.2796 -164.8075,0.4355 -47.4814,0.099 -94.9629,0.1967 -142.4444,0.2949 -8.1673,6.4832 -14.0865,15.6019 -20.1539,24.2565 -19.3139,29.8495 -29.8342,65.2908 -36.201,100.8492 -6.7034,38.6817 -8.1257,78.9054 -0.6155,117.5785 4.2281,20.312 12.697,40.3044 27.3238,54.1825 12.9632,12.7094 29.5968,20.2592 46.6373,23.5551 23.7839,5.7946 48.066,8.5965 72.2721,11.3306 39.4868,3.3678 79.1109,3.9155 118.6758,5.483 31.168,-0.1088 61.7861,-7.6681 91.8311,-16.0366 16.8167,-5.0681 33.5734,-11.4542 48.2962,-21.8456 15.7018,-13.0346 24.8256,-33.5403 28.3635,-54.356 9.3224,-43.4712 11.5811,-89.0024 4.4067,-133.0641 -3.9654,-25.6965 -10.4425,-51.2518 -21.8893,-74.2534 -7.6505,-14.6178 -18.3501,-28.4279 -33.0349,-34.7676 -5.9286,-2.5071 -12.3015,-3.7541 -18.66,-3.6425 z" />
    <path
       style="display:inline;fill:#ffffff;stroke:none;stroke-width:0.912419"
       d="m 2008.3294,1540.6989 c -33.153,-32.8759 -38.8858,-123.5948 0.3904,-163.0573 23.1728,-23.2827 35.5381,-37.608 35.5381,-37.608 l -25.8875,-19.1211 c -94.4367,86.4289 -50.0669,186.6132 -10.041,219.7864 z"
       id="path3063-1-0"
       inkscape:connector-curvature="0"
       sodipodi:nodetypes="csccc" />
    <path
       style="fill:#ffffff;fill-rule:evenodd;stroke:none;stroke-width:0.977644px;stroke-linecap:butt;stroke-linejoin:miter;stroke-opacity:1"
       d="m 1439.929,2276.9601 c -38.9193,0.7189 -78.3589,4.9237 -115.1275,19.2016 -17.4912,7.0026 -34.2212,18.2947 -44.494,35.2212 -9.9119,22.3335 -9.1726,50.1377 3.3978,71.1445 6.9237,11.676 17.3506,20.5751 28.8468,26.8215 15.7182,8.7041 33.0311,13.5999 50.3462,17.2406 28.8422,5.6266 58.2698,6.7838 87.5361,6.7412 38.4017,-0.3839 76.816,-3.7738 114.6546,-10.7747 24.1155,-5.4291 48.564,-12.7069 68.9994,-27.8654 10.1573,-10.7788 14.3225,-25.993 16.8826,-40.5739 4.1974,-23.7678 -4.4844,-50.1666 -23.1733,-64.5346 -13.2248,-9.7286 -29.0751,-14.0961 -44.4599,-18.3155 -25.5159,-6.27 -51.6641,-8.7652 -77.6641,-11.6362 -21.86,-1.9777 -43.8079,-2.785 -65.7447,-2.6703 z"
       id="path4430-0-7"
       inkscape:connector-curvature="0"
       sodipodi:nodetypes="cccc" />
    <path
       style="display:inline;fill:#ffffff;fill-rule:evenodd;stroke:none;stroke-width:0.86137px;stroke-linecap:butt;stroke-linejoin:miter;stroke-opacity:1"
       d="m 1113.5821,2911.097 c -37.7543,1.3946 -76.5598,8.1038 -108.5817,24.8569 -24.08833,13.6091 -35.80909,37.5782 -33.46507,59.7582 0.93105,22.2704 14.76069,44.5358 39.44347,56.3873 23.3884,11.4398 51.0278,16.6276 78.4005,19.7193 40.2679,4.2026 81.744,5.9098 122.1298,-0.7233 24.7712,-4.2368 49.6527,-11.1201 69.6884,-23.6991 12.6478,-7.8526 22.35,-18.5318 26.8665,-30.5061 8.7761,-20.9579 8.6606,-44.391 -2.9493,-64.2618 -9.7127,-15.2862 -29.0646,-26.109 -50.5822,-29.84 -31.3289,-7.075 -64.1977,-9.2587 -96.7568,-11.3972 -14.694,-0.6482 -29.448,-0.7613 -44.1936,-0.2942 z"
       id="path4430-0-7-3"
       inkscape:connector-curvature="0"
       sodipodi:nodetypes="cccc" />
    <path
       style="color:#000000;display:inline;overflow:visible;visibility:visible;fill:#ffffff;fill-opacity:1;fill-rule:nonzero;stroke:none;stroke-width:0.933879px;marker:none;enable-background:accumulate"
       d="m 1510.6073,2424.7097 c 95.8683,30.7313 27.8183,159.8015 -2.9543,189.2123 50.4373,-43.5579 100.0481,-123.5802 33.0541,-217.2104 -31.2156,-43.6267 -19.8493,18.5629 -19.8493,18.5629 z"
       id="path4035-4"
       inkscape:connector-curvature="0"
       sodipodi:nodetypes="ccscc" />
    <path
       style="color:#000000;display:inline;overflow:visible;visibility:visible;fill:#ffffff;fill-opacity:1;fill-rule:nonzero;stroke:none;stroke-width:1.2864px;marker:none;enable-background:accumulate"
       d="m 1061.1341,2128.284 c -58.604,1.1522 -117.35006,1.5229 -175.49588,5.682 -34.34189,2.9059 -69.0228,8.6127 -98.43102,27.5924 -20.80093,13.916 -38.95456,35.5444 -45.76491,65.2808 -4.22781,19.071 -1.47676,41.5411 7.39961,60.7881 10.47129,23.6547 29.26286,42.5269 49.4506,48.4915 26.44238,9.8812 53.14005,12.0348 79.69511,17.8358 84.31716,13.9176 167.26739,9.9174 249.55059,5.2376 31.9858,-2.0532 64.3077,-4.555 93.9504,-16.2353 20.5262,-8.6602 39.9,-23.8341 49.2978,-48.7552 12.815,-35.521 2.2395,-86.84 -25.85,-115.5798 -21.3717,-21.7001 -47.43,-30.6961 -72.2566,-37.6358 -37.3531,-9.8339 -74.7614,-12.9693 -111.5457,-12.7021 z"
       id="path4546-6-5-5"
       inkscape:connector-curvature="0"
       sodipodi:nodetypes="cssssc" />
    <path
       style="color:#000000;display:inline;overflow:visible;visibility:visible;fill:#ffffff;fill-opacity:1;fill-rule:nonzero;stroke:none;stroke-width:0.511885px;marker:none;enable-background:accumulate"
       d="m 1198.7358,2292.3553 c -58.4517,90.8359 85.6046,288.3485 132.7428,310.3129 -51.7175,-3.6213 -215.024,-222.6528 -167.3541,-289.5926 16.3894,-23.014 93.063,-111.5562 34.6113,-20.7203 z"
       id="path4480-6"
       inkscape:connector-curvature="0"
       sodipodi:nodetypes="zcsz" />
    <path
       style="fill:#ffffff;stroke:none;stroke-width:1.22863"
       d="m 1132.3337,2836.1319 c 6.9881,13.1882 16.9513,18.3851 13.6567,35.0595 -18.6808,32.3624 -3.398,71.476 20.2436,84.4218 3.4934,10.3144 -10.2432,41.0229 -10.2432,41.0229 -31.6711,-50.3948 -47.4892,-83.1315 -25.5958,-126.3842 3.8504,-6.927 -8.3872,-14.7062 -12.2361,-26.3855 -3.8491,-11.6793 -4.7084,-20.1125 -0.097,-40.9935 3.9527,-17.898 39.9891,-41.3608 39.9891,-41.3608 -27.433,31.2471 -35.5926,52.7621 -25.7173,74.6198 z"
       id="path3023-4"
       inkscape:connector-curvature="0"
       sodipodi:nodetypes="cccccsscc" />
    <path
       style="color:#000000;display:inline;overflow:visible;visibility:visible;fill:#ffffff;fill-opacity:1;fill-rule:nonzero;stroke:none;stroke-width:1.24837px;marker:none;enable-background:accumulate"
       d="m 1380.3027,1450.8419 c 65.8497,-28.0462 78.4621,-86.1375 90.2102,-126.6975 16.6063,-57.3342 1.8435,-63.2522 1.8435,-63.2522 l 29.8886,-4.9473 c 11.5377,-2.8141 4.798,161.6465 -121.9423,194.897 z"
       id="path3072-1-3"
       inkscape:connector-curvature="0"
       sodipodi:nodetypes="csccc" />
  </g>
  <g
     inkscape:groupmode="layer"
     id="layer1"
     inkscape:label="txt"
     style="display:inline">
    <text
       id="text4246-4-2-7"
       y="1168.6454"
       x="326.61557"
       style="font-style:normal;font-variant:normal;font-weight:normal;font-stretch:normal;line-height:0%;font-family:Lavi;-inkscape-font-specification:Lavi;text-align:center;letter-spacing:0px;word-spacing:0px;text-anchor:middle;fill:#000000;fill-opacity:1;stroke:none"
       xml:space="preserve"><tspan
         y="1168.6454"
         x="326.61557"
         style="font-size:45px;line-height:1.25"
         sodipodi:role="line"
         id="tspan6345">Pero, ¿qué está</tspan><tspan
         y="1224.8954"
         x="326.61557"
         style="font-size:45px;line-height:1.25"
         sodipodi:role="line"
         id="tspan5995">pasando?</tspan></text>
    <text
       id="text4246-4-2-7-3"
       y="1317.0507"
       x="338.63736"
       style="font-style:normal;font-variant:normal;font-weight:normal;font-stretch:normal;line-height:0%;font-family:Lavi;-inkscape-font-specification:Lavi;text-align:center;letter-spacing:0px;word-spacing:0px;text-anchor:middle;fill:#000000;fill-opacity:1;stroke:none"
       xml:space="preserve"><tspan
         y="1317.0507"
         x="338.63736"
         style="font-size:45px;line-height:1.25"
         sodipodi:role="line"
         id="tspan13938">Algunos se están... <tspan
   style="font-style:normal;font-variant:normal;font-weight:bold;font-stretch:normal;font-family:Lavi;-inkscape-font-specification:'Lavi Bold'"
   id="tspan20829" /></tspan><tspan
         y="1373.3007"
         x="338.63736"
         style="font-size:45px;line-height:1.25"
         sodipodi:role="line"
         id="tspan33251"><tspan
           style="font-style:normal;font-variant:normal;font-weight:bold;font-stretch:normal;font-family:Lavi;-inkscape-font-specification:'Lavi Bold'"
           id="tspan33253">¡¿</tspan><tspan
           style="font-weight:bold"
           id="tspan24716">besando?!</tspan></tspan></text>
    <text
       id="text4246-4-2-7-3-6"
       y="1168.3812"
       x="1094.0612"
       style="font-style:normal;font-variant:normal;font-weight:normal;font-stretch:normal;line-height:0%;font-family:Lavi;-inkscape-font-specification:Lavi;text-align:center;letter-spacing:0px;word-spacing:0px;text-anchor:middle;fill:#000000;fill-opacity:1;stroke:none"
       xml:space="preserve"><tspan
         y="1168.3812"
         x="1094.0612"
         style="font-size:45px;line-height:1.25"
         sodipodi:role="line"
         id="tspan31052">Vaya... ¡Esas son un</tspan><tspan
         y="1224.6312"
         x="1094.0612"
         style="font-size:45px;line-height:1.25"
         sodipodi:role="line"
         id="tspan57736">montón de parejas nuevas!</tspan></text>
    <text
       id="text4246-4-2-7-3-6-3"
       y="1207.6427"
       x="1595.8838"
       style="font-style:normal;font-variant:normal;font-weight:normal;font-stretch:normal;line-height:0%;font-family:Lavi;-inkscape-font-specification:Lavi;text-align:center;letter-spacing:0px;word-spacing:0px;text-anchor:middle;fill:#000000;fill-opacity:1;stroke:none"
       xml:space="preserve"><tspan
         y="1207.6427"
         x="1595.8838"
         style="font-size:45px;line-height:1.25"
         sodipodi:role="line"
         id="tspan44730">¿Era eso lo que tenía</tspan><tspan
         y="1263.8927"
         x="1595.8838"
         style="font-size:45px;line-height:1.25"
         sodipodi:role="line"
         id="tspan74674">que pasar, Pepper?</tspan></text>
    <text
       id="text4246-4-2-7-3-6-3-6"
       y="1144.2382"
       x="2152.9924"
       style="font-style:normal;font-variant:normal;font-weight:normal;font-stretch:normal;line-height:0%;font-family:Lavi;-inkscape-font-specification:Lavi;text-align:center;letter-spacing:0px;word-spacing:0px;text-anchor:middle;fill:#000000;fill-opacity:1;stroke:none"
       xml:space="preserve"><tspan
         y="1144.2382"
         x="2152.9924"
         style="font-size:45px;line-height:1.25"
         sodipodi:role="line"
         id="tspan61898">¡Oh, no! </tspan><tspan
         y="1200.4882"
         x="2152.9924"
         style="font-size:45px;line-height:1.25"
         sodipodi:role="line"
         id="tspan87824">Creo que ha sido</tspan><tspan
         y="1256.7382"
         x="2152.9924"
         style="font-size:45px;line-height:1.25"
         sodipodi:role="line"
         id="tspan84608">la Rea de dragón,</tspan><tspan
         y="1312.9882"
         x="2152.9924"
         style="font-size:45px;line-height:1.25"
         sodipodi:role="line"
         id="tspan97452">que ha amplificado el </tspan><tspan
         y="1369.2382"
         x="2152.9924"
         style="font-size:45px;line-height:1.25"
         sodipodi:role="line"
         id="tspan99708">amor en mi hechizo.</tspan></text>
    <text
       id="text4246-4-2-7-3-6-3-6-1"
       y="2207.3054"
       x="1012.6952"
       style="font-style:normal;font-variant:normal;font-weight:normal;font-stretch:normal;line-height:0%;font-family:Lavi;-inkscape-font-specification:Lavi;text-align:center;letter-spacing:0px;word-spacing:0px;text-anchor:middle;fill:#000000;fill-opacity:1;stroke:none"
       xml:space="preserve"><tspan
         y="2207.3054"
         x="1019.7264"
         style="font-size:45px;line-height:1.25"
         sodipodi:role="line"
         id="tspan106191">Jaja, esta batalla va a </tspan><tspan
         y="2263.5554"
         x="1019.7264"
         style="font-size:45px;line-height:1.25"
         sodipodi:role="line"
         id="tspan108138">ir directa a los libros de </tspan><tspan
         y="2319.8054"
         x="1012.6952"
         style="font-size:45px;line-height:1.25"
         sodipodi:role="line"
         id="tspan109377">historia.</tspan></text>
    <text
       id="text4246-4-2-7-3-6-3-6-1-3"
       y="2346.5227"
       x="1457.3495"
       style="font-style:normal;font-variant:normal;font-weight:normal;font-stretch:normal;line-height:0%;font-family:Lavi;-inkscape-font-specification:Lavi;text-align:center;letter-spacing:0px;word-spacing:0px;text-anchor:middle;fill:#000000;fill-opacity:1;stroke:none"
       xml:space="preserve"><tspan
         y="2346.5227"
         x="1457.3495"
         style="font-size:45px;line-height:1.25"
         sodipodi:role="line"
         id="tspan83228-9">Jiji,</tspan></text>
    <text
       id="text4246-4-2-7-3-6-3-6-1-3-2"
       y="2401.8772"
       x="1463.7375"
       style="font-style:normal;font-variant:normal;font-weight:normal;font-stretch:normal;line-height:0%;font-family:Lavi;-inkscape-font-specification:Lavi;text-align:center;letter-spacing:0px;word-spacing:0px;text-anchor:middle;fill:#000000;fill-opacity:1;stroke:none"
       xml:space="preserve"><tspan
         y="2401.8772"
         x="1463.7375"
         style="font-size:45px;line-height:1.25"
         sodipodi:role="line"
         id="tspan83228-9-2">¡definitivamente!</tspan></text>
    <text
       id="text4246-4-2-7-3-6-3-6-1-3-2-8"
       y="2974.0247"
       x="1141.675"
       style="font-style:normal;font-variant:normal;font-weight:normal;font-stretch:normal;font-size:42px;line-height:0%;font-family:Lavi;-inkscape-font-specification:Lavi;text-align:center;letter-spacing:0px;word-spacing:0px;text-anchor:middle;fill:#000000;fill-opacity:1;stroke:none"
       xml:space="preserve"><tspan
         y="2974.0247"
         x="1141.675"
         style="font-size:42px;line-height:1.25"
         sodipodi:role="line"
         id="tspan123908">¡Ooohhh, qué</tspan><tspan
         y="3026.5247"
         x="1141.675"
         style="font-size:42px;line-height:1.25"
         sodipodi:role="line"
         id="tspan130424">vergüenza!</tspan></text>
    <text
       transform="matrix(0.85852879,0,-0.29243083,1.1647833,0,0)"
       id="text4213-7"
       y="2982.4719"
       x="2454.0139"
       style="font-style:normal;font-variant:normal;font-weight:normal;font-stretch:normal;font-size:10.7631px;line-height:0%;font-family:Lavi;-inkscape-font-specification:Lavi;text-align:center;letter-spacing:0px;word-spacing:0px;text-anchor:middle;display:inline;fill:#d97041;fill-opacity:1;stroke:#000000;stroke-width:0;stroke-miterlimit:4;stroke-dasharray:none;stroke-opacity:1"
       xml:space="preserve"><tspan
         style="font-style:normal;font-variant:normal;font-weight:bold;font-stretch:normal;font-size:64.7408px;line-height:1.25;font-family:Lavi;-inkscape-font-specification:'Lavi Bold';fill:#d97041;fill-opacity:1;stroke:none;stroke-width:0;stroke-miterlimit:4;stroke-dasharray:none"
         y="2982.4719"
         x="2454.0139"
         id="tspan3562-5"
         sodipodi:role="line">- FIN -</tspan></text>
  </g>
</svg>
