<?xml version="1.0" encoding="UTF-8" standalone="no"?>
<svg
   xmlns:dc="http://purl.org/dc/elements/1.1/"
   xmlns:cc="http://creativecommons.org/ns#"
   xmlns:rdf="http://www.w3.org/1999/02/22-rdf-syntax-ns#"
   xmlns:svg="http://www.w3.org/2000/svg"
   xmlns="http://www.w3.org/2000/svg"
   xmlns:xlink="http://www.w3.org/1999/xlink"
   xmlns:sodipodi="http://sodipodi.sourceforge.net/DTD/sodipodi-0.dtd"
   xmlns:inkscape="http://www.inkscape.org/namespaces/inkscape"
   id="svg2"
   version="1.1"
   inkscape:version="1.0.2 (e86c870879, 2021-01-15)"
   width="2481"
   height="3503"
   sodipodi:docname="E32P03.svg">
  <metadata
     id="metadata8">
    <rdf:RDF>
      <cc:Work
         rdf:about="">
        <dc:format>image/svg+xml</dc:format>
        <dc:type
           rdf:resource="http://purl.org/dc/dcmitype/StillImage" />
        <dc:title />
      </cc:Work>
    </rdf:RDF>
  </metadata>
  <defs
     id="defs6">
    <filter
       inkscape:collect="always"
       style="color-interpolation-filters:sRGB"
       id="filter4213-8-8"
       x="-0.0010298714"
       width="1.0020597"
       y="-0.0014578935"
       height="1.0029159">
      <feGaussianBlur
         inkscape:collect="always"
         stdDeviation="0.24308766"
         id="feGaussianBlur4215-7-9" />
    </filter>
    <filter
       inkscape:collect="always"
       style="color-interpolation-filters:sRGB"
       id="filter1266-5-1"
       x="-0.013221323"
       width="1.0264426"
       y="-0.024911748"
       height="1.0498235">
      <feGaussianBlur
         inkscape:collect="always"
         stdDeviation="0.78825367"
         id="feGaussianBlur1268-9-2" />
    </filter>
    <filter
       inkscape:collect="always"
       style="color-interpolation-filters:sRGB"
       id="filter1266"
       x="-0.013221323"
       width="1.0264426"
       y="-0.024911748"
       height="1.0498235">
      <feGaussianBlur
         inkscape:collect="always"
         stdDeviation="0.78825367"
         id="feGaussianBlur1268" />
    </filter>
    <filter
       inkscape:collect="always"
       style="color-interpolation-filters:sRGB"
       id="filter1266-5"
       x="-0.013221323"
       width="1.0264426"
       y="-0.024911748"
       height="1.0498235">
      <feGaussianBlur
         inkscape:collect="always"
         stdDeviation="0.78825367"
         id="feGaussianBlur1268-9" />
    </filter>
    <filter
       inkscape:collect="always"
       style="color-interpolation-filters:sRGB"
       id="filter4213-0"
       x="-0.0010298714"
       width="1.0020597"
       y="-0.0014578935"
       height="1.0029159">
      <feGaussianBlur
         inkscape:collect="always"
         stdDeviation="0.24308766"
         id="feGaussianBlur4215-2" />
    </filter>
    <filter
       inkscape:collect="always"
       style="color-interpolation-filters:sRGB"
       id="filter4213"
       x="-0.0010298714"
       width="1.0020597"
       y="-0.0014578935"
       height="1.0029159">
      <feGaussianBlur
         inkscape:collect="always"
         stdDeviation="0.24308766"
         id="feGaussianBlur4215" />
    </filter>
    <filter
       style="color-interpolation-filters:sRGB"
       id="filter5561-1"
       inkscape:label="deevad outline effect">
      <feFlood
         id="feFlood5563-9"
         flood-opacity="1"
         flood-color="rgb(0,0,0)"
         result="flood" />
      <feComposite
         id="feComposite5565-0"
         in2="SourceGraphic"
         in="flood"
         operator="in"
         result="composite1" />
      <feMorphology
         id="feMorphology5567-7"
         operator="dilate"
         radius="1.8999999999999999 6.0999999999999996"
         result="result3" />
      <feComposite
         id="feComposite5569-2"
         in2="result3"
         in="SourceGraphic"
         operator="over"
         result="composite2" />
    </filter>
  </defs>
  <sodipodi:namedview
     pagecolor="#ffffff"
     bordercolor="#666666"
     borderopacity="1"
     objecttolerance="10"
     gridtolerance="10"
     guidetolerance="10"
     inkscape:pageopacity="0"
     inkscape:pageshadow="2"
     inkscape:window-width="1280"
     inkscape:window-height="662"
     id="namedview4"
     showgrid="false"
     inkscape:zoom="0.28695652"
     inkscape:cx="1258.7408"
     inkscape:cy="3208.7982"
     inkscape:window-x="0"
     inkscape:window-y="28"
     inkscape:window-maximized="1"
     inkscape:current-layer="layer1"
     inkscape:snap-global="false"
     inkscape:document-rotation="0" />
  <g
     inkscape:groupmode="layer"
     id="layer2"
     inkscape:label="artwork"
     sodipodi:insensitive="true">
    <image
       sodipodi:absref="/home/cherry/Workspace/peppercarrot/webcomics/ep32_The-Battlefield/lang/gfx_Pepper-and-Carrot_by-David-Revoy_E32P03.png"
       xlink:href="../gfx_Pepper-and-Carrot_by-David-Revoy_E32P03.png"
       width="2481"
       height="3503"
       id="image10"
       x="0"
       y="0" />
  </g>
  <g
     inkscape:groupmode="layer"
     id="layer3"
     inkscape:label="speechbubbles">
    <path
       style="fill:#ffffff;stroke:none;stroke-width:0.949559"
       d="m 407.63076,211.2925 c -4.95805,51.69419 -75.06948,59.68933 -107.43537,61.21736 -32.36582,1.52748 -118.44673,8.19477 -147.61026,-35.04616 -29.16346,-43.24035 -16.35421,-63.07567 2.61194,-84.14687 16.17365,-17.96915 54.19787,-26.66186 87.4826,-30.91794 41.32961,-5.28392 109.94621,6.9987 138.60209,29.11345 15.28186,11.79308 31.30718,8.08598 26.349,59.78016 z"
       id="path3100-98"
       inkscape:connector-curvature="0"
       sodipodi:nodetypes="zsssssz" />
    <path
       style="color:#000000;display:inline;overflow:visible;visibility:visible;fill:#ffffff;fill-opacity:1;fill-rule:nonzero;stroke:none;stroke-width:0.956105px;marker:none;enable-background:accumulate"
       d="m 483.91175,227.29111 c 2.06595,-34.41149 2.36252,-67.63303 29.68897,-87.83138 27.3264,-20.19749 75.46819,-25.79007 135.93751,-20.77306 32.3906,2.68714 73.1944,6.30967 99.02337,20.27688 25.82897,13.96722 36.68318,38.2791 34.03263,88.67962 -2.65055,50.40052 -16.95413,72.42051 -46.79112,85.36602 -29.83692,12.94637 -75.20735,16.8183 -86.13248,18.25678 -10.92513,1.43849 -44.81004,0.19848 -78.42882,-5.62191 -33.61871,-5.8204 -56.61379,-9.89079 -66.4743,-26.77726 -15.45795,-21.38486 -21.7958,-46.52947 -20.85576,-71.57569 z"
       id="path4546-6-2-0"
       inkscape:connector-curvature="0"
       sodipodi:nodetypes="cssssssscc" />
    <path
       style="color:#000000;display:inline;overflow:visible;visibility:visible;fill:#ffffff;fill-opacity:1;fill-rule:nonzero;stroke:none;stroke-width:0.979171px;marker:none;enable-background:accumulate"
       d="m 992.61236,134.47461 c -30.55312,0.53823 -61.4286,5.82894 -89.75732,19.62298 -9.55483,5.27951 -16.01451,15.9051 -20.00655,26.99543 -7.42701,19.58471 -15.23948,39.48517 -17.36182,60.98254 -2.7171,23.96917 -1.169,49.13444 7.41038,71.38846 7.14816,18.29257 20.9513,32.21755 36.52852,40.34836 18.16657,9.74475 37.74646,15.02125 57.03804,20.77345 24.59816,6.73326 50.10169,9.02682 75.29439,6.75011 19.4311,-2.07624 38.6854,-7.39349 56.5998,-16.47084 9.5908,-4.96773 19.0632,-10.90531 26.4207,-19.79447 7.649,-8.90201 13.1002,-20.14332 16.2667,-32.14487 4.2374,-15.70522 5.262,-32.29209 5.4877,-48.66233 -0.036,-19.10583 -2.3037,-38.56345 -9.0776,-56.11051 -7.5465,-18.83635 -20.4976,-34.23574 -35.5285,-45.19986 -21.9658,-16.48399 -47.8524,-24.7521 -73.7376,-27.17663 -11.8283,-1.18578 -23.7112,-1.37631 -35.57684,-1.30182 z"
       id="path4040-41"
       inkscape:connector-curvature="0"
       sodipodi:nodetypes="zssssz" />
    <path
       style="opacity:1;fill:#ffffff;fill-rule:evenodd;stroke:none;stroke-width:1px;stroke-linecap:butt;stroke-linejoin:miter;stroke-opacity:1"
       d="m 1027.5093,510.74622 c 79.9896,-25.34188 116.4009,-40.38771 130.7924,-88.3665 12.0423,-40.14692 -33.9999,-116.14332 -96.0942,-157.07156 -74.30428,-48.97611 -720.91559,-69.58576 -737.53456,-86.65613 -24.24194,-24.90039 -28.29447,37.40472 -7.48472,36.66367 110.11684,-3.92132 657.67116,25.43523 724.93768,68.50333 62.3575,39.92512 107.1789,103.00167 91.9981,146.96092 -14.5457,42.11997 -106.6147,79.96627 -106.6147,79.96627 z"
       id="path4324-2"
       inkscape:connector-curvature="0"
       sodipodi:nodetypes="cssssssc" />
    <path
       style="color:#000000;display:inline;overflow:visible;visibility:visible;fill:#ffffff;fill-opacity:1;fill-rule:nonzero;stroke:none;stroke-width:0.870493px;marker:none;enable-background:accumulate"
       d="m 1475.4362,160.75586 c 3.8677,58.0424 -41.4189,45.56473 -61.9608,27.27436 -1.92,-1.6925 -3.7827,-3.49395 -5.6603,-5.26655 6.3327,32.63909 6.6166,63.94917 -23.8827,57.06055 14.7228,29.50108 -19.0152,34.82714 -27.0825,35.84961 42.1045,10.44428 14.2895,27.33762 -8.0273,34.65625 22.7244,5.47045 56.4492,-1.33603 27.7424,37.39648 42.3437,-15.87086 59.1866,0.39261 38.2075,49.15625 39.5551,-36.63239 62.6746,-61.70826 67.3118,4.9375 24.1283,-53.579 49.6994,-66.95947 81.9642,2.65777 2.668,-66.17428 43.9301,-33.5212 58.0069,-6.88267 -3.9233,-47.05832 41.4988,-39.35867 53.1105,-27.18325 -5.3843,-46.93794 31.0539,-20.43662 45.9809,-12.24614 -23.5824,-31.80398 -9.2328,-56.49275 11.4078,-53.41602 -42.6018,-27.61301 -43.7197,-45.70415 -5.9837,-57.75977 -21.9448,-6.35909 -50.3607,-19.18971 -37.7651,-55.71679 -31.2978,17.91152 -42.3,8.59899 -27.9349,-31.42383 -14.5447,22.94734 -51.5576,61.05751 -44.9005,3.58044 -32.2622,37.59194 -58.756,43.77553 -82.172,2.38831 -16.4169,31.9191 -25.6994,51.04462 -58.5907,-6.27184 z"
       id="path3549-3-7-1"
       inkscape:connector-curvature="0"
       sodipodi:nodetypes="ccccccccccccccccccccc" />
    <path
       style="color:#000000;display:inline;overflow:visible;visibility:visible;fill:#ffffff;fill-opacity:1;fill-rule:nonzero;stroke:none;stroke-width:1.0251px;marker:none;enable-background:accumulate"
       d="m 1898.5376,423.83603 c -33.1191,-40.32544 -53.6253,-61.90879 -80.3655,-108.99711 l 3.4236,50.97171 c -16.8853,-10.44733 -26.7008,-31.97446 -38.917,-49.73896 l -2.2351,38.51455 c -38.1457,-43.2467 -54.3479,-53.55742 -88.0535,-82.67547 l -31.0313,38.66317 c 51.8722,6.12619 97.2384,44.77214 128.8846,81.95014 l 4.834,-30.96826 c 12.4255,10.93146 24.507,22.49541 35.0519,36.88708 l 3.1958,-39.51242 z"
       id="path4032-8"
       inkscape:connector-curvature="0"
       sodipodi:nodetypes="cccccccccccc" />
    <path
       style="fill:#ffffff;fill-opacity:1;stroke:none;stroke-width:1.80592"
       d="m 411.70794,1219.3743 c -49.44833,1.5041 -99.25239,2.2264 -148.00102,14.633 -20.16619,5.4633 -39.10317,21.8972 -49.20623,46.15 -7.47257,18.9528 -8.20129,41.4051 -5.15745,62.1015 1.78492,15.0931 5.67081,30.8381 14.63992,41.0752 9.44645,10.7672 22.16987,14.1812 34.2478,15.1555 67.15938,7.9595 134.68179,9.3449 202.05489,6.926 28.98601,-1.5434 58.54872,-6.2496 85.19531,-22.4785 14.40397,-8.6659 28.48856,-20.6071 37.13966,-38.7197 11.65373,-24.428 13.53685,-57.4592 2.85036,-83.0462 -5.73269,-13.9525 -16.02447,-24.4666 -27.72947,-27.7646 -14.07473,-5.1091 -28.66802,-6.7121 -43.0735,-9.3389 -34.18686,-4.857 -68.62477,-4.7564 -102.96027,-4.6933 z"
       id="path3659-8-8"
       inkscape:connector-curvature="0"
       sodipodi:nodetypes="cssssc" />
    <path
       style="color:#000000;display:inline;overflow:visible;visibility:visible;fill:#ffffff;fill-opacity:1;fill-rule:nonzero;stroke:none;stroke-width:0.897251px;marker:none;enable-background:accumulate"
       d="m 742.68517,1262.3053 c 33.61996,-49.1309 220.04983,-41.6168 278.03713,-28.9623 63.2826,13.8097 82.7664,33.3771 85.5961,76.2637 0.8741,13.2467 -4.2446,73.317 -35.3729,85.1428 -31.1281,11.8249 -120.26771,17.7378 -151.39589,17.7378 -31.1281,0 -130.49598,-7.5264 -155.64093,-24.8336 -24.05352,-16.5549 -54.84356,-76.2182 -21.22351,-125.3484 z"
       id="path3330-0"
       inkscape:connector-curvature="0"
       sodipodi:nodetypes="zsssssz" />
    <path
       style="color:#000000;display:inline;overflow:visible;visibility:visible;fill:#ffffff;fill-opacity:1;fill-rule:nonzero;stroke:none;stroke-width:1.02246px;marker:none;enable-background:accumulate"
       d="m 1112.9597,1285.3086 c -36.7447,0.5355 -72.7586,8.4334 -108.3228,16.5941 -51.366,10.4082 -104.06133,15.0535 -156.54769,13.2789 -39.57155,-1.9717 -78.12188,-11.479 -117.30834,-16.3867 -28.36576,-3.8424 -56.97533,-6.065 -85.62616,-6.3675 -22.59143,-0.6613 -45.60553,-1.0004 -67.65557,4.4039 -7.00348,2.7732 -13.69669,9.0159 -13.28696,16.7567 1.43986,8.4316 12.97487,12.8953 20.36091,8.3506 27.01809,-7.867 55.65613,-6.7309 83.49543,-4.9925 55.91699,3.8282 110.33164,18.2757 166.16833,22.7198 37.71136,2.8003 75.6468,0.6801 113.09529,-4.0276 43.17511,-4.6938 85.42886,-14.6991 128.16856,-21.8806 52.4119,-7.4612 105.4749,-2.8218 158.1799,-2.4804 36.2442,-0.6202 72.0002,6.0171 107.5288,12.0288 13.6726,2.2637 26.9626,6.1725 40.3634,9.5091 21.2457,3.8121 43.1959,4.4766 63.7955,11.2177 2.1688,0.5694 5.2631,1.5554 6.8499,1.8758 -27.1714,-12.8186 -55.9634,-22.3555 -85.3959,-29.1316 -17.9401,-6.3995 -36.3387,-11.9827 -55.3576,-14.4761 -15.3701,-4.286 -30.3809,-11.6573 -46.7959,-10.8353 -50.6792,0.9882 -101.0475,-6.5623 -151.7091,-6.1571 z"
       id="path5050-5"
       inkscape:connector-curvature="0"
       sodipodi:nodetypes="csccscccccccccccc" />
  </g>
  <g
     inkscape:groupmode="layer"
     id="layer1"
     inkscape:label="txt">
    <flowRoot
       xml:space="preserve"
       id="flowRoot971"
       style="font-style:normal;font-variant:normal;font-weight:normal;font-stretch:normal;font-size:0.666667px;line-height:0%;font-family:Lavi;-inkscape-font-specification:Lavi;text-align:center;letter-spacing:22.66px;word-spacing:-79.64px;writing-mode:lr-tb;text-anchor:middle;fill:#000000;fill-opacity:1;stroke:none;stroke-width:1px;stroke-linecap:butt;stroke-linejoin:miter;stroke-opacity:1"><flowRegion
         id="flowRegion973"><rect
           id="rect975"
           width="33.872047"
           height="9.9623671"
           x="1695.5948"
           y="340.94467" /></flowRegion><flowPara
         id="flowPara977" /></flowRoot>
    <text
       xml:space="preserve"
       style="font-style:normal;font-variant:normal;font-weight:normal;font-stretch:normal;font-size:17.9967px;line-height:0%;font-family:'Nanum Pen Script OTF';-inkscape-font-specification:'Nanum Pen Script OTF';text-align:center;letter-spacing:0px;word-spacing:-6.28622px;text-anchor:middle;fill:#000000;fill-opacity:1;stroke:none;stroke-width:1.49972"
       x="272.71494"
       y="218.41902"
       id="text93"><tspan
         sodipodi:role="line"
         style="font-style:normal;font-variant:normal;font-weight:normal;font-stretch:normal;font-size:67.4876px;line-height:1.25;font-family:'Nanum Pen Script OTF';-inkscape-font-specification:'Nanum Pen Script OTF';stroke-width:1.49972"
         x="272.71494"
         y="218.41902"
         id="tspan91">저기요!</tspan></text>
    <text
       xml:space="preserve"
       style="font-style:normal;font-variant:normal;font-weight:normal;font-stretch:normal;font-size:16.6056px;line-height:0.8;font-family:'Nanum Pen Script OTF';-inkscape-font-specification:'Nanum Pen Script OTF';text-align:center;letter-spacing:0px;word-spacing:-5.80034px;text-anchor:middle;fill:#000000;fill-opacity:1;stroke:none;stroke-width:1.3838"
       x="636.32166"
       y="191.96133"
       id="text99"><tspan
         sodipodi:role="line"
         style="font-style:normal;font-variant:normal;font-weight:normal;font-stretch:normal;font-size:62.2713px;font-family:'Nanum Pen Script OTF';-inkscape-font-specification:'Nanum Pen Script OTF';stroke-width:1.3838"
         x="636.32166"
         y="191.96133"
         id="tspan97">저 진짜 </tspan><tspan
         sodipodi:role="line"
         style="font-style:normal;font-variant:normal;font-weight:normal;font-stretch:normal;font-size:62.2713px;font-family:'Nanum Pen Script OTF';-inkscape-font-specification:'Nanum Pen Script OTF';stroke-width:1.3838"
         x="636.32166"
         y="241.77838"
         id="tspan195">카오사 마녀</tspan><tspan
         sodipodi:role="line"
         style="font-style:normal;font-variant:normal;font-weight:normal;font-stretch:normal;font-size:62.2713px;font-family:'Nanum Pen Script OTF';-inkscape-font-specification:'Nanum Pen Script OTF';stroke-width:1.3838"
         x="636.32166"
         y="291.59543"
         id="tspan197">맞거든요.</tspan></text>
    <text
       xml:space="preserve"
       style="font-style:normal;font-variant:normal;font-weight:normal;font-stretch:normal;font-size:17.3556px;line-height:0.9;font-family:'Nanum Pen Script OTF';-inkscape-font-specification:'Nanum Pen Script OTF';text-align:center;letter-spacing:0px;word-spacing:-6.06228px;text-anchor:middle;fill:#000000;fill-opacity:1;stroke:none;stroke-width:1.4463"
       x="1004.8528"
       y="213.73697"
       id="text107"><tspan
         sodipodi:role="line"
         style="font-style:normal;font-variant:normal;font-weight:normal;font-stretch:normal;font-size:65.0834px;font-family:'Nanum Pen Script OTF';-inkscape-font-specification:'Nanum Pen Script OTF';stroke-width:1.4463"
         x="1004.8528"
         y="213.73697"
         id="tspan105">여기 보면</tspan><tspan
         sodipodi:role="line"
         style="font-style:normal;font-variant:normal;font-weight:normal;font-stretch:normal;font-size:65.0834px;font-family:'Nanum Pen Script OTF';-inkscape-font-specification:'Nanum Pen Script OTF';stroke-width:1.4463"
         x="1004.8528"
         y="272.31201"
         id="tspan204">학위증도</tspan><tspan
         sodipodi:role="line"
         style="font-style:normal;font-variant:normal;font-weight:normal;font-stretch:normal;font-size:65.0834px;font-family:'Nanum Pen Script OTF';-inkscape-font-specification:'Nanum Pen Script OTF';stroke-width:1.4463"
         x="1004.8528"
         y="330.88708"
         id="tspan206">있고...</tspan></text>
    <text
       xml:space="preserve"
       style="font-style:normal;font-variant:normal;font-weight:normal;font-stretch:normal;line-height:0%;font-family:'Nanum Pen Script OTF';-inkscape-font-specification:'Nanum Pen Script OTF';text-align:center;letter-spacing:0px;word-spacing:-3.12637px;text-anchor:middle;display:inline;opacity:0.6;fill:#000000;fill-opacity:1;stroke:none;stroke-width:0.61894;filter:url(#filter4213)"
       x="-447.29675"
       y="2872.5061"
       id="text111"
       transform="matrix(1.7974857,0.04034897,-0.31555709,1.703047,2697.7699,-4255.5716)"><tspan
         sodipodi:role="line"
         style="font-style:normal;font-variant:normal;font-weight:normal;font-stretch:normal;font-size:68.8156px;line-height:1.27;font-family:'Nanum Pen Script OTF';-inkscape-font-specification:'Nanum Pen Script OTF';stroke:#000000;stroke-width:0.709879;stroke-opacity:1"
         x="-447.29675"
         y="2872.5061"
         id="tspan109">카오사</tspan></text>
    <text
       xml:space="preserve"
       style="font-style:normal;font-variant:normal;font-weight:normal;font-stretch:normal;line-height:0%;font-family:'Nanum Pen Script OTF';-inkscape-font-specification:'Nanum Pen Script OTF';text-align:center;letter-spacing:0px;word-spacing:-3.85565px;text-anchor:middle;display:inline;opacity:0.6;fill:#000000;fill-opacity:1;stroke:none;stroke-width:0.763319;filter:url(#filter4213-0)"
       x="-447.29675"
       y="2872.5061"
       id="text119"
       transform="matrix(1.4507711,0.09896723,-0.25468969,1.367703,2356.5957,-3188.6841)"><tspan
         sodipodi:role="line"
         style="font-style:normal;font-variant:normal;font-weight:normal;font-stretch:normal;font-size:68.8156px;line-height:1.27;font-family:'Nanum Pen Script OTF';-inkscape-font-specification:'Nanum Pen Script OTF';stroke:#000000;stroke-width:0.875471;stroke-opacity:1"
         x="-447.29675"
         y="2872.5061"
         id="tspan117">학위증</tspan></text>
    <text
       xml:space="preserve"
       style="font-style:normal;font-variant:normal;font-weight:normal;font-stretch:normal;line-height:0%;font-family:'Nanum Pen Script OTF';-inkscape-font-specification:'Nanum Pen Script OTF';text-align:center;letter-spacing:0px;word-spacing:-3.49472px;text-anchor:middle;display:inline;opacity:0.699;fill:#202020;fill-opacity:1;stroke:#000000;stroke-width:0.341967;stroke-miterlimit:4;stroke-dasharray:none;stroke-opacity:1;filter:url(#filter1266)"
       x="903.31201"
       y="2924.6372"
       id="text123"
       transform="matrix(1.1356464,-0.57484442,0.3923645,1.4849879,-1306.7553,-2893.1521)"><tspan
         sodipodi:role="line"
         style="font-style:normal;font-variant:normal;font-weight:normal;font-stretch:normal;font-size:51.0087px;line-height:1.25;font-family:'Nanum Pen Script OTF';-inkscape-font-specification:'Nanum Pen Script OTF';fill:#202020;fill-opacity:1;stroke:#000000;stroke-width:0.341967;stroke-miterlimit:4;stroke-dasharray:none;stroke-opacity:1"
         x="903.31201"
         y="2924.6372"
         id="tspan121">카옌</tspan></text>
    <text
       xml:space="preserve"
       style="font-style:normal;font-variant:normal;font-weight:normal;font-stretch:normal;line-height:0%;font-family:'Nanum Pen Script OTF';-inkscape-font-specification:'Nanum Pen Script OTF';text-align:center;letter-spacing:0px;word-spacing:-3.37788px;text-anchor:middle;display:inline;opacity:0.699;fill:#202020;fill-opacity:1;stroke:#000000;stroke-width:0.330534;stroke-miterlimit:4;stroke-dasharray:none;stroke-opacity:1;filter:url(#filter1266-5)"
       x="903.31201"
       y="2924.6372"
       id="text127"
       transform="matrix(1.7785408,-0.2374123,-0.07650192,1.8354233,-354.10118,-4258.9256)"><tspan
         sodipodi:role="line"
         style="font-style:normal;font-variant:normal;font-weight:normal;font-stretch:normal;font-size:38.3128px;line-height:1.25;font-family:'Nanum Pen Script OTF';-inkscape-font-specification:'Nanum Pen Script OTF';fill:#202020;fill-opacity:1;stroke:#000000;stroke-width:0.330534;stroke-miterlimit:4;stroke-dasharray:none;stroke-opacity:1"
         x="903.31201"
         y="2924.6372"
         id="tspan125">커민</tspan></text>
    <text
       xml:space="preserve"
       style="font-style:normal;font-variant:normal;font-weight:normal;font-stretch:normal;line-height:0%;font-family:'Nanum Pen Script OTF';-inkscape-font-specification:'Nanum Pen Script OTF';text-align:center;letter-spacing:-0.0334897px;word-spacing:-3.20928px;text-anchor:middle;display:inline;opacity:0.699;fill:#202020;fill-opacity:1;stroke:#000000;stroke-width:0.314035;stroke-miterlimit:4;stroke-dasharray:none;stroke-opacity:1;filter:url(#filter1266-5-1)"
       x="903.31201"
       y="2924.6372"
       id="text135"
       transform="matrix(1.8195289,-0.02671486,-0.79686016,1.4757374,1660.9914,-3288.7019)"><tspan
         sodipodi:role="line"
         style="font-style:normal;font-variant:normal;font-weight:normal;font-stretch:normal;font-size:38.3128px;line-height:1.25;font-family:'Nanum Pen Script OTF';-inkscape-font-specification:'Nanum Pen Script OTF';letter-spacing:-0.0334897px;fill:#202020;fill-opacity:1;stroke:#000000;stroke-width:0.314035;stroke-miterlimit:4;stroke-dasharray:none;stroke-opacity:1"
         x="903.29529"
         y="2924.6372"
         id="tspan133">백리향</tspan></text>
    <text
       xml:space="preserve"
       style="font-style:normal;font-variant:normal;font-weight:normal;font-stretch:normal;line-height:0%;font-family:'Nanum Pen Script OTF';-inkscape-font-specification:'Nanum Pen Script OTF';text-align:center;letter-spacing:0px;word-spacing:-3.73159px;text-anchor:middle;display:inline;opacity:0.6;fill:#000000;fill-opacity:1;stroke:none;stroke-width:0.738759;filter:url(#filter4213-8-8)"
       x="-447.29675"
       y="2872.5061"
       id="text139"
       transform="matrix(1.3475021,-0.01681891,-0.03490746,1.3402004,1599.313,-2761.3547)"><tspan
         sodipodi:role="line"
         style="font-style:normal;font-variant:normal;font-weight:normal;font-stretch:normal;font-size:49.1939px;line-height:1.27;font-family:'Nanum Pen Script OTF';-inkscape-font-specification:'Nanum Pen Script OTF';stroke:#000000;stroke-width:0.847303;stroke-opacity:1"
         x="-447.29675"
         y="2872.5061"
         id="tspan137">~ 후추에게 수여함 ~</tspan></text>
    <text
       xml:space="preserve"
       style="font-style:normal;font-variant:normal;font-weight:normal;font-stretch:normal;font-size:24.6722px;line-height:0%;font-family:'Nanum Pen Script OTF';-inkscape-font-specification:'Nanum Pen Script OTF';text-align:center;letter-spacing:0px;word-spacing:-6.99738px;text-anchor:middle;fill:#000000;fill-opacity:1;stroke:#000000;stroke-width:2.17021;stroke-miterlimit:4;stroke-dasharray:none;stroke-opacity:1"
       x="1619.6149"
       y="321.77158"
       id="text143"
       transform="matrix(0.99650308,0,-0.23158448,1.0035092,0,0)"><tspan
         sodipodi:role="line"
         style="font-style:normal;font-variant:normal;font-weight:normal;font-stretch:normal;font-size:124.967px;line-height:1.25;font-family:'Nanum Pen Script OTF';-inkscape-font-specification:'Nanum Pen Script OTF';stroke:#000000;stroke-width:2.17021;stroke-miterlimit:4;stroke-dasharray:none;stroke-opacity:1"
         x="1619.6149"
         y="321.77158"
         id="tspan141">조용!</tspan></text>
    <text
       xml:space="preserve"
       style="font-style:normal;font-variant:normal;font-weight:normal;font-stretch:normal;font-size:15.3405px;line-height:0.9;font-family:'Nanum Pen Script OTF';-inkscape-font-specification:'Nanum Pen Script OTF';text-align:center;letter-spacing:0px;word-spacing:-5.35839px;text-anchor:middle;fill:#000000;fill-opacity:1;stroke:none;stroke-width:1.27837"
       x="401.50046"
       y="1307.2896"
       id="text153"><tspan
         sodipodi:role="line"
         style="font-style:normal;font-variant:normal;font-weight:normal;font-stretch:normal;font-size:57.5267px;font-family:'Nanum Pen Script OTF';-inkscape-font-specification:'Nanum Pen Script OTF';text-align:center;text-anchor:middle;stroke-width:1.27837"
         x="401.50046"
         y="1307.2896"
         id="tspan210">우리 군대에</tspan><tspan
         sodipodi:role="line"
         style="font-style:normal;font-variant:normal;font-weight:normal;font-stretch:normal;font-size:57.5267px;font-family:'Nanum Pen Script OTF';-inkscape-font-specification:'Nanum Pen Script OTF';text-align:center;text-anchor:middle;stroke-width:1.27837"
         x="401.50046"
         y="1359.0636"
         id="tspan214">애들은 필요 없다.</tspan></text>
    <text
       xml:space="preserve"
       style="font-style:normal;font-variant:normal;font-weight:normal;font-stretch:normal;font-size:15.4099px;line-height:0.9;font-family:'Nanum Pen Script OTF';-inkscape-font-specification:'Nanum Pen Script OTF';text-align:center;letter-spacing:0px;word-spacing:-5.38264px;text-anchor:middle;fill:#000000;fill-opacity:1;stroke:none;stroke-width:1.28416"
       x="921.55847"
       y="1305.0942"
       id="text159"><tspan
         sodipodi:role="line"
         style="font-style:normal;font-variant:normal;font-weight:normal;font-stretch:normal;font-size:57.787px;font-family:'Nanum Pen Script OTF';-inkscape-font-specification:'Nanum Pen Script OTF';text-align:center;text-anchor:middle;stroke-width:1.28416"
         x="921.55847"
         y="1305.0942"
         id="tspan157">집에 가서</tspan><tspan
         sodipodi:role="line"
         style="font-style:normal;font-variant:normal;font-weight:normal;font-stretch:normal;font-size:57.787px;font-family:'Nanum Pen Script OTF';-inkscape-font-specification:'Nanum Pen Script OTF';text-align:center;text-anchor:middle;stroke-width:1.28416"
         x="921.55847"
         y="1357.1025"
         id="tspan218">소꿉놀이나 해라.</tspan></text>
    <text
       xml:space="preserve"
       style="color:#000000;font-style:normal;font-variant:normal;font-weight:normal;font-stretch:normal;line-height:0%;font-family:'Nanum Pen Script OTF';-inkscape-font-specification:'Nanum Pen Script OTF';letter-spacing:0.0273496px;word-spacing:-3.61064px;clip-rule:nonzero;display:inline;overflow:visible;visibility:visible;opacity:1;isolation:auto;mix-blend-mode:normal;color-interpolation:sRGB;color-interpolation-filters:linearRGB;solid-color:#000000;solid-opacity:1;fill:#ffffff;fill-opacity:1;fill-rule:nonzero;stroke:#ffffff;stroke-width:0.968549;stroke-linecap:butt;stroke-linejoin:miter;stroke-miterlimit:4;stroke-dasharray:none;stroke-dashoffset:0;stroke-opacity:1;marker:none;filter:url(#filter5561-1);color-rendering:auto;image-rendering:auto;shape-rendering:auto;text-rendering:auto;enable-background:accumulate"
       id="text163"
       inkscape:transform-center-x="-341.90275"
       inkscape:transform-center-y="76.38089"
       y="1742.2045"
       x="1705.2566"
       transform="matrix(1.1608694,-0.85704996,0.09509745,1.7830505,-1394.1789,55.527284)"><tspan
         sodipodi:role="line"
         id="tspan161"
         x="1705.2566"
         y="1742.2045"
         style="font-style:normal;font-variant:normal;font-weight:normal;font-stretch:normal;font-size:45.5771px;line-height:1.25;font-family:'Nanum Pen Script OTF';-inkscape-font-specification:'Nanum Pen Script OTF';letter-spacing:6.3599px;stroke-width:0.968549">탁!</tspan></text>
    <flowRoot
       xml:space="preserve"
       id="flowRoot171"
       style="font-style:normal;font-variant:normal;font-weight:normal;font-stretch:normal;font-size:0.666667px;line-height:0%;font-family:'Nanum Pen Script OTF';-inkscape-font-specification:'Nanum Pen Script OTF';text-align:center;letter-spacing:22.66px;word-spacing:-4.19157887px;writing-mode:lr-tb;text-anchor:middle;fill:#000000;fill-opacity:1;stroke:none;stroke-width:1px;stroke-linecap:butt;stroke-linejoin:miter;stroke-opacity:1;"><flowRegion
         id="flowRegion167"
         style="-inkscape-font-specification:'Nanum Pen Script OTF';font-family:'Nanum Pen Script OTF';font-weight:normal;font-style:normal;font-stretch:normal;font-variant:normal;"><rect
           id="rect165"
           width="33.872047"
           height="9.9623671"
           x="1695.5948"
           y="340.94467"
           style="-inkscape-font-specification:'Nanum Pen Script OTF';font-family:'Nanum Pen Script OTF';font-weight:normal;font-style:normal;font-stretch:normal;font-variant:normal;" /></flowRegion><flowPara
         id="flowPara169" /></flowRoot>
    <text
       xml:space="preserve"
       style="font-style:normal;font-variant:normal;font-weight:normal;font-stretch:normal;font-size:14.8745px;line-height:0%;font-family:'Nanum Pen Script OTF';-inkscape-font-specification:'Nanum Pen Script OTF';text-align:center;letter-spacing:0px;word-spacing:-6.12729px;text-anchor:middle;fill:#000000;fill-opacity:1;stroke:#000000;stroke-width:5.43793;stroke-miterlimit:4;stroke-dasharray:none;stroke-opacity:1"
       x="2100.9529"
       y="2260.9602"
       id="text175"
       transform="matrix(0.88228376,0,-0.23605329,1.1334222,0,0)"><tspan
         sodipodi:role="line"
         style="font-style:normal;font-variant:normal;font-weight:normal;font-stretch:normal;font-size:52.4376px;line-height:1.25;font-family:'Nanum Pen Script OTF';-inkscape-font-specification:'Nanum Pen Script OTF';fill:#000000;fill-opacity:1;stroke:none;stroke-width:5.43793;stroke-miterlimit:4;stroke-dasharray:none;stroke-opacity:1"
         x="2100.9529"
         y="2260.9602"
         id="tspan173">하하하!</tspan></text>
    <text
       xml:space="preserve"
       style="font-style:normal;font-variant:normal;font-weight:normal;font-stretch:normal;font-size:14.8745px;line-height:0%;font-family:'Nanum Pen Script OTF';-inkscape-font-specification:'Nanum Pen Script OTF';text-align:center;letter-spacing:0px;word-spacing:-6.12729px;text-anchor:middle;fill:#000000;fill-opacity:1;stroke:#000000;stroke-width:5.43793;stroke-miterlimit:4;stroke-dasharray:none;stroke-opacity:1"
       x="2365.699"
       y="2232.6082"
       id="text175-3"
       transform="matrix(0.88228376,0,-0.23605329,1.1334222,0,0)"><tspan
         sodipodi:role="line"
         style="font-style:normal;font-variant:normal;font-weight:normal;font-stretch:normal;font-size:52.4376px;line-height:1.25;font-family:'Nanum Pen Script OTF';-inkscape-font-specification:'Nanum Pen Script OTF';fill:#000000;fill-opacity:1;stroke:none;stroke-width:5.43793;stroke-miterlimit:4;stroke-dasharray:none;stroke-opacity:1"
         x="2365.699"
         y="2232.6082"
         id="tspan173-6">하하하!</tspan></text>
    <text
       xml:space="preserve"
       style="font-style:normal;font-variant:normal;font-weight:normal;font-stretch:normal;font-size:14.8745px;line-height:0%;font-family:'Nanum Pen Script OTF';-inkscape-font-specification:'Nanum Pen Script OTF';text-align:center;letter-spacing:0px;word-spacing:-6.12729px;text-anchor:middle;fill:#000000;fill-opacity:1;stroke:#000000;stroke-width:5.43793;stroke-miterlimit:4;stroke-dasharray:none;stroke-opacity:1"
       x="2643.7803"
       y="2245.1758"
       id="text175-7"
       transform="matrix(0.88228376,0,-0.23605329,1.1334222,0,0)"><tspan
         sodipodi:role="line"
         style="font-style:normal;font-variant:normal;font-weight:normal;font-stretch:normal;font-size:52.4376px;line-height:1.25;font-family:'Nanum Pen Script OTF';-inkscape-font-specification:'Nanum Pen Script OTF';fill:#000000;fill-opacity:1;stroke:none;stroke-width:5.43793;stroke-miterlimit:4;stroke-dasharray:none;stroke-opacity:1"
         x="2643.7803"
         y="2245.1758"
         id="tspan173-5">하하하!</tspan></text>
    <text
       xml:space="preserve"
       style="font-style:normal;font-variant:normal;font-weight:normal;font-stretch:normal;font-size:14.8745px;line-height:0%;font-family:'Nanum Pen Script OTF';-inkscape-font-specification:'Nanum Pen Script OTF';text-align:center;letter-spacing:0px;word-spacing:-6.12729px;text-anchor:middle;fill:#000000;fill-opacity:1;stroke:#000000;stroke-width:5.43793;stroke-miterlimit:4;stroke-dasharray:none;stroke-opacity:1"
       x="3147.1633"
       y="2242.3042"
       id="text175-35"
       transform="matrix(0.88228376,0,-0.23605329,1.1334222,0,0)"><tspan
         sodipodi:role="line"
         style="font-style:normal;font-variant:normal;font-weight:normal;font-stretch:normal;font-size:52.4376px;line-height:1.25;font-family:'Nanum Pen Script OTF';-inkscape-font-specification:'Nanum Pen Script OTF';fill:#000000;fill-opacity:1;stroke:none;stroke-width:5.43793;stroke-miterlimit:4;stroke-dasharray:none;stroke-opacity:1"
         x="3147.1633"
         y="2242.3042"
         id="tspan173-62">아하하하!</tspan></text>
  </g>
</svg>
