<?xml version="1.0" encoding="UTF-8" standalone="no"?>
<!-- Created with Inkscape (http://www.inkscape.org/) -->

<svg
   xmlns:dc="http://purl.org/dc/elements/1.1/"
   xmlns:cc="http://creativecommons.org/ns#"
   xmlns:rdf="http://www.w3.org/1999/02/22-rdf-syntax-ns#"
   xmlns:svg="http://www.w3.org/2000/svg"
   xmlns="http://www.w3.org/2000/svg"
   xmlns:xlink="http://www.w3.org/1999/xlink"
   xmlns:sodipodi="http://sodipodi.sourceforge.net/DTD/sodipodi-0.dtd"
   xmlns:inkscape="http://www.inkscape.org/namespaces/inkscape"
   id="svg2"
   version="1.1"
   inkscape:version="0.92.4 (5da689c313, 2019-01-14)"
   width="2481"
   height="3503"
   sodipodi:docname="E32P02.svg">
  <metadata
     id="metadata8">
    <rdf:RDF>
      <cc:Work
         rdf:about="">
        <dc:format>image/svg+xml</dc:format>
        <dc:type
           rdf:resource="http://purl.org/dc/dcmitype/StillImage" />
        <dc:title />
      </cc:Work>
    </rdf:RDF>
  </metadata>
  <defs
     id="defs6" />
  <sodipodi:namedview
     pagecolor="#ffffff"
     bordercolor="#666666"
     borderopacity="1"
     objecttolerance="10"
     gridtolerance="10"
     guidetolerance="10"
     inkscape:pageopacity="0"
     inkscape:pageshadow="2"
     inkscape:window-width="1858"
     inkscape:window-height="1057"
     id="namedview4"
     showgrid="false"
     inkscape:zoom="0.32526913"
     inkscape:cx="1472.9909"
     inkscape:cy="714.01477"
     inkscape:window-x="54"
     inkscape:window-y="-8"
     inkscape:window-maximized="1"
     inkscape:current-layer="layer1"
     inkscape:snap-global="false" />
  <g
     inkscape:groupmode="layer"
     id="layer2"
     inkscape:label="artwork"
     sodipodi:insensitive="true">
    <image
       sodipodi:absref="D:\Documents\Others\webcomics\new-ep32_The-Battlefield\lang\id\../gfx_Pepper-and-Carrot_by-David-Revoy_E32P02.png"
       xlink:href="../gfx_Pepper-and-Carrot_by-David-Revoy_E32P02.png"
       y="0"
       x="0"
       id="image10"
       height="3503"
       width="2481" />
  </g>
  <g
     inkscape:groupmode="layer"
     id="layer3"
     inkscape:label="speechbubbles"
     style="display:inline">
    <path
       style="color:#000000;display:inline;overflow:visible;visibility:visible;fill:#ffffff;fill-opacity:1;fill-rule:nonzero;stroke:none;stroke-width:1.08133733px;marker:none;enable-background:accumulate"
       d="m 310.26424,231.7097 c 6.66181,-11.91191 34.75535,-10.35714 44.69786,-6.88777 -18.83228,-15.76338 -16.92328,-24.29557 11.42119,-23.01859 -43.78549,-29.32322 -5.71413,-21.96956 2.77022,-27.58853 -35.89528,-12.03499 -17.82966,-21.19366 -9.75931,-31.23081 -42.57022,-4.31913 -26.26816,-20.09598 -26.18959,-33.85861 -4.49298,6.04503 -24.33685,23.87538 -22.3873,2.15371 -31.03637,18.01788 -66.82977,28.19627 -64.5465,-8.16064 -13.86367,17.11068 -26.24693,23.73765 -22.38737,2.1537 -32.02908,25.56728 -55.92085,13.0793 -80.26296,2.75558 -7.85466,7.88519 -10.43507,20.87834 -31.62997,15.81142 1.86845,8.71095 -6.22955,13.82885 -23.187388,15.74111 21.201388,7.12336 24.513828,12.74994 -16.935852,14.63056 30.87222,3.41721 59.57656,7.21359 20.609927,23.12231 11.326493,1.52313 40.570913,-12.05491 21.478523,33.84865 21.66554,-13.25277 43.71053,-19.63185 65.56498,14.36509 14.57773,-14.61943 37.16644,-20.42829 43.80892,0.13771 4.5219,-8.08563 18.9056,-9.94983 30.79939,-9.23486 4.11889,3.76064 8.21669,8.7291 12.32636,15.12224 9.77377,-11.71675 22.98382,-19.01709 43.80887,0.13773 z"
       id="path3549-3-7-5"
       inkscape:connector-curvature="0"
       sodipodi:nodetypes="cccccccccccccccccccc" />
    <path
       style="color:#000000;display:inline;overflow:visible;visibility:visible;fill:#ffffff;fill-opacity:1;fill-rule:nonzero;stroke:none;stroke-width:1.05817807px;marker:none;enable-background:accumulate"
       d="m 470.95467,153.95258 c -52.73526,1.57564 -105.89024,10.8075 -153.70006,32.22845 -33.03516,15.88708 -55.22507,48.29393 -59.70673,82.44421 -5.35468,32.07129 -0.14627,66.32677 18.10775,94.2729 12.43295,15.72098 31.39795,24.9483 49.02219,34.66595 29.05884,16.25196 60.43106,30.2407 94.27731,34.70569 38.27805,5.9061 77.26081,4.56071 115.85107,2.94133 34.7467,-2.43136 69.91926,-10.25073 99.44755,-28.13688 32.19196,-19.0675 57.7254,-49.03315 66.90737,-83.89664 8.23467,-30.63067 5.03338,-64.62735 -12.45726,-92.02987 -14.08943,-21.75869 -37.72773,-36.64149 -62.69694,-45.76188 -42.52639,-16.14949 -87.20571,-28.89524 -133.30052,-31.19237 -7.2423,-0.36022 -14.50261,-0.48509 -21.75173,-0.24089 z"
       id="path3970-3"
       inkscape:connector-curvature="0"
       sodipodi:nodetypes="cccscsc" />
    <path
       style="color:#000000;display:inline;overflow:visible;visibility:visible;fill:#ffffff;fill-opacity:1;fill-rule:nonzero;stroke:none;stroke-width:1px;marker:none;enable-background:accumulate"
       d="m 577.63531,548.44585 c 24.15675,-46.43871 15.15598,-67.79787 10.19676,-83.83511 -5.04081,0.18752 -14.08073,-1.23448 -14.08073,-1.23448 0,0 -7.00281,-32.37916 -13.50272,-43.8635 -6.49993,-11.48435 -19.9552,-4.33851 -19.9552,-4.33851 0,0 12.13026,63.2638 10.96525,77.57434 13.78917,-1.09946 20.70461,0.20644 25.45323,-2.31613 5.66701,8.19382 8.96155,41.29633 0.92341,58.01339 z"
       id="path4456-8"
       inkscape:connector-curvature="0" />
    <path
       style="color:#000000;display:inline;overflow:visible;visibility:visible;opacity:1;fill:#ffffff;fill-opacity:1;fill-rule:nonzero;stroke:none;stroke-width:1.00441658px;marker:none;enable-background:accumulate"
       d="m 800.55565,625.23467 c 35.07233,-45.16756 246.94365,-59.34939 304.00085,13.30349 39.7631,50.6312 29.4865,130.36782 -9.6584,173.00242 -37.9314,41.31286 -198.62814,32.39541 -245.39497,19.52271 -42.05527,-11.57441 -86.19845,-36.48936 -88.52576,-102.80163 -0.94977,-27.064 4.50596,-57.85944 39.57828,-103.02699 z"
       id="path4040-5"
       inkscape:connector-curvature="0"
       sodipodi:nodetypes="zssssz" />
    <path
       style="color:#000000;display:inline;overflow:visible;visibility:visible;fill:#ffffff;fill-opacity:1;fill-rule:nonzero;stroke:none;stroke-width:1px;marker:none;enable-background:accumulate"
       d="m 1172.2087,638.16525 c -22.426,10.78245 -21.9205,17.27525 -23.5228,31.76828 -1.6032,14.49315 -6.5002,31.6111 -27.1248,48.30404 -30.1996,17.58679 -94.1328,69.98654 -71.7029,5.83439 5.3345,-23.46958 48.5109,-22.99772 64.4153,-32.38817 15.9045,-9.39055 14.6245,-34.55514 25.6984,-44.48017 11.0738,-9.92492 18.2375,-9.80409 32.2368,-9.03837 z"
       id="path4538-0"
       inkscape:connector-curvature="0"
       sodipodi:nodetypes="ccccccc" />
    <path
       style="fill:#ffffff;stroke:none;stroke-width:1"
       d="m 756.05473,530.38172 c -8.49811,-38.80164 14.62297,-88.11058 118.3853,-88.14796 108.97067,-0.0389 129.09427,25.32295 130.34437,89.39769 1.5946,81.72984 -59.84346,84.82282 -124.19822,86.44662 -98.87092,2.49471 -123.99904,-30.03767 -124.53145,-87.69635 z"
       id="path3280-10"
       inkscape:connector-curvature="0"
       sodipodi:nodetypes="csssc" />
    <path
       style="display:inline;fill:#ffffff;fill-rule:evenodd;stroke:none;stroke-width:1.0964632px;stroke-linecap:butt;stroke-linejoin:miter;stroke-opacity:1"
       d="m 1466.0614,2558.7383 c 1.3746,83.556 -44.2344,98.1743 -124.3042,62.2285 24.5168,50.8236 53.0853,105.7613 -9.7494,67.8848 40.6688,46.1464 23.4852,57.7631 -34.1226,45.2558 51.1031,42.4785 22.404,66.0928 -26.8107,84.8555 32.9904,0.6495 59.8138,3.6856 80.1738,9.2207 -34.1771,12.3695 -62.9244,11.9323 -62.9244,11.9323 0,0 32.8869,9.4949 47.7929,21.61 5.6766,8.6293 -1.4154,19.5993 -31.48,2.4279 0,0 8.5052,10.8395 12.0909,16.8816 -9.616,-1.392 -17.5846,-6.5084 -44.2067,-22.5706 30.4377,27.9782 45.5084,49.5137 1.9184,46.461 20.829,20.7761 5.9631,23.3642 -17.8974,21.3652 39.7,15.2284 18.283,17.3687 24.3147,22.7402 44.6834,45.6384 -11.139,28.0498 -30.3469,37.4766 98.0874,28.4818 63.859,40.1481 53.5673,54.8574 67.6339,-4.1188 -15.9326,49.8315 -37.7654,87.9182 51.4931,-34.7278 87.3274,-57.5369 66.2245,-10.0041 55.7569,-42.059 46.1713,-22.1564 30.6147,3.4082 32.0223,-22.9597 41.3869,-13.5217 13.6167,49.0117 41.5106,-50.0042 81.9012,-96.7046 90.785,-50.3144 46.5759,-23.0015 52.6978,-12.9656 56.9932,-1.4414 78.6331,-24.759 58.3044,-4.4182 63.3285,4.3711 16.9438,-1.1098 37.3164,-15.4504 44.0903,22.6914 26.1131,-28.2308 57.4516,-38.275 104.0354,4.7304 18.1359,-46.7456 34.6379,-37.1935 63.8662,21.3223 4.0837,-89.1587 49.2786,-102.7342 124.6235,-60.8731 -20.4885,-55.2759 -34.7605,-62.5172 23.7395,-19.3574 -36.4607,-51.0007 -19.0377,-62.6312 36.0364,-46.7539 -46.8209,-47.5497 -17.4502,-71.4639 31.5092,-89.3008 -25.3441,-1.7028 -46.8256,-4.8342 -64.3077,-9.4472 -1.0535,-2.69 7.4315,-10.5879 33.1681,-13.5832 -36.1035,0 -32.3115,-4.1096 -30.4114,-14.0612 2.8828,-9.9516 16.7124,-7.4757 60.6208,-0.9377 -25.6116,-14.4681 -74.604,-30.8829 -20.6738,-33.9063 -28.1766,-12.7672 -18.0651,-37.4375 47.1022,-5.5331 -33.0382,-24.8715 -49.8754,-44.3728 -4.8747,-43.3711 -22.7106,-18.5446 -7.5917,-21.5953 17.0613,-20.7402 -41.7628,-12.554 -19.88,-15.4673 -26.4162,-20.2344 -48.7863,-40.7819 9.6973,-26.7052 28.8535,-36.3379 -102.6126,-22.4665 -68.1561,-34.8334 -58.496,-49.0273 -69.269,6.7273 35.8981,-74.4218 75.5573,-122.5704 -79.2842,65.1359 -128.4023,96.2647 -109.68,50.9141 -54.6883,41.7047 -46.0795,22.6848 -31.6854,-1.8848 -31.4834,22.8335 -41.7002,14.4049 -17.0614,-45.2578 -39.5468,48.5294 -78.1498,93.9211 -90.1814,50.9141 -46.4419,23.4915 -53.3602,14.3665 -58.4962,3.7715 -79.2859,26.498 -59.6597,6.6097 -65.3736,-1.3965 -17.3488,1.7582 -37.3963,16.037 -46.7438,-19.3457 -25.0793,27.512 -56.6676,38.2388 -107.2428,0 -15.7218,44.4881 -42.2312,24.2932 -80.4322,-66 z"
       id="path4508-2"
       inkscape:connector-curvature="0"
       sodipodi:nodetypes="ccccccccccccccccccccccccccccccccccccccccccccccccccc" />
    <path
       style="color:#000000;display:inline;overflow:visible;visibility:visible;fill:#ffffff;fill-opacity:1;fill-rule:nonzero;stroke:none;stroke-width:0.99999988px;marker:none;enable-background:accumulate"
       d="m 1143.215,2912.3636 c 24.9289,15.9696 53.0046,32.3355 73.7186,51.7212 l -4.4671,-22.5612 c 12.3017,3.6243 20.5576,9.2984 29.8695,16.4802 l 0.282,-14.4184 c 28.8782,8.8394 47.895,25.3613 71.6781,38.17 l -1.1627,-32.9839 c -26.1704,-10.6456 -58.8089,-18.5611 -82.5747,-33.2158 l 0.2558,18.7223 c -9.1838,-4.1156 -21.518,-9.7867 -29.518,-15.5652 l 2.2339,19.9359 z"
       id="path4032-7"
       inkscape:connector-curvature="0"
       sodipodi:nodetypes="cccccccccccc" />
    <path
       style="fill:#ffffff;fill-rule:evenodd;stroke:none;stroke-width:1px;stroke-linecap:butt;stroke-linejoin:miter;stroke-opacity:1"
       d="m 1753.7087,204.34351 c 1.185,-20.50278 15.4056,-58.09068 36.7365,-64.92493 21.3308,-6.83426 80.5831,-6.83426 92.4336,-3.41661 11.8505,3.41661 30.8112,28.4752 35.5515,38.72712 4.7402,10.25086 17.7757,46.69954 -3.5551,61.50728 -21.3309,14.80774 -42.6617,26.19782 -65.1777,25.0586 -22.5159,-1.13922 -67.5477,-9.1127 -78.2131,-22.78016 -10.6654,-13.66852 -17.7757,-34.1713 -17.7757,-34.1713 z"
       id="path1355"
       inkscape:connector-curvature="0" />
    <path
       style="fill:#ffffff;stroke:none"
       d="m 1847.3696,354.09054 c -13.8328,-28.3217 -7.9502,-36.13851 -0.501,-44.49778 7.4497,-8.36018 15.1632,-15.13458 14.5125,-22.36198 -0.6506,-7.22728 -5.6372,-15.60621 -10.1839,-21.34253 -4.5468,-5.73632 4.0413,-9.66514 7.9076,-16.31667 3.8657,-6.6508 10.7042,-47.80659 10.7042,-47.80659 0,0 -26.0852,17.5715 -32.236,25.43439 -6.1509,7.86277 -8.4405,10.70667 -10.0173,14.51431 -1.5759,3.80696 -4.0646,13.75357 -0.9533,20.82655 3.1118,7.07218 9.494,12.21912 13.0595,17.0376 3.5649,4.81933 -1.3116,12.15392 -5.5827,19.6909 -4.2712,7.53691 -6.1414,13.7099 -2.3508,27.83912 3.2494,12.11102 15.6412,26.98268 15.6412,26.98268 z"
       id="path3023-4"
       inkscape:connector-curvature="0"
       sodipodi:nodetypes="csssscssssssc" />
    <path
       style="color:#000000;display:inline;overflow:visible;visibility:visible;fill:#ffffff;fill-opacity:1;fill-rule:nonzero;stroke:none;stroke-width:1px;marker:none;enable-background:accumulate"
       d="m 1776.3464,1315.529 c 3.2527,-11.321 20.627,-46.387 25.7118,-9.291 37.4381,-49.672 83.6395,-32.169 93.8806,-24.931 -4.7258,-14.705 4.8022,-41.137 32.0153,-34.638 -5.1706,-14.206 2.6362,-24.873 22.022,-32.381 -27.4731,-6.646 -33.2796,-15.291 15.0553,-28.938 -37.6389,2.046 -72.8702,2.901 -32.2408,-33.757 -13.9008,0.297 -43.8343,30.571 -36.8893,-51.608 -21.0909,27.809 -44.9596,44.128 -82.345,-7.637 -7.5628,22.215 -20.6761,37.852 -51.7969,10.837 -3.8196,21.757 -37.5549,26.216 -50.4824,22.884 27.6128,21.802 28.2717,36.657 -5.6527,41.671 61.708,38.345 14.2263,35.6 6.113,47.213 46.5049,11.207 28.2717,31.183 22.1502,50.136 51.7672,-3.483 37.8708,27.229 42.4589,50.44 z"
       id="path3549-3-8"
       inkscape:connector-curvature="0"
       sodipodi:nodetypes="ccccccccccccccc" />
    <path
       style="color:#000000;display:inline;overflow:visible;visibility:visible;fill:#ffffff;fill-opacity:1;fill-rule:nonzero;stroke:none;stroke-width:1px;marker:none;enable-background:accumulate"
       d="m 1862.3291,1246.0499 c 14.3861,24.2296 28.6134,53.9163 31.3484,61.3263 -9.104,1.8541 -16.3446,4.7584 -22.9617,5.3139 6.2417,13.3724 31.8119,68.3466 45.0873,79.3414 -33.7825,-25.8525 -61.563,-70.2493 -70.1237,-92.8544 8.499,-2.3387 14.007,-2.5569 18.4447,-3.9047 -3.7254,-11.4708 -23.6989,-46.1206 -23.6989,-46.1206 z"
       id="path5066-8"
       inkscape:connector-curvature="0"
       sodipodi:nodetypes="cccccccc" />
    <path
       style="fill:#ffffff;stroke:none;stroke-width:0.99999988"
       d="m 585.04713,1483.669 c -1.37338,-27.1718 23.25103,-95.1953 143.36788,-90.0791 120.11691,5.1162 157.71158,35.0056 161.23156,83.3044 5.56834,76.4076 -57.625,96.826 -148.365,102.4861 -93.54306,5.8339 -157.68622,-46.6144 -156.23444,-95.7114 z"
       id="path3280-7"
       inkscape:connector-curvature="0"
       sodipodi:nodetypes="csssc" />
    <path
       style="color:#000000;display:inline;overflow:visible;visibility:visible;fill:#ffffff;fill-opacity:1;fill-rule:nonzero;stroke:none;stroke-width:1px;marker:none;enable-background:accumulate"
       d="m 869.08895,1636.9955 c -67.24677,1.2844 -93.00504,-48.0053 -100.0269,-87.4546 -9.92573,-55.7646 -2.09042,-31.0329 -2.09042,-31.0329 l -33.99104,26.0816 c -4.43616,0.2077 36.58553,127.7062 136.10836,92.4059 z"
       id="path3072-12"
       inkscape:connector-curvature="0"
       sodipodi:nodetypes="csccc" />
    <path
       style="fill:#ffffff;fill-rule:evenodd;stroke:none;stroke-width:1px;stroke-linecap:butt;stroke-linejoin:miter;stroke-opacity:1"
       d="m 542.83913,1378.9971 c 1.0808,-19.455 14.0506,-55.122 33.5054,-61.607 19.4547,-6.485 73.4956,-6.485 84.3038,-3.242 10.8082,3.242 28.1013,27.02 32.4246,36.748 4.3233,9.727 16.2123,44.313 -3.2424,58.364 -19.4548,14.051 -38.9095,24.859 -59.4451,23.778 -20.5356,-1.081 -61.6067,-8.647 -71.334,-21.616 -9.7274,-12.97 -16.2123,-32.425 -16.2123,-32.425 z"
       id="path1355-3"
       inkscape:connector-curvature="0" />
  </g>
  <g
     inkscape:groupmode="layer"
     id="layer1"
     inkscape:label="txt">
    <text
       xml:space="preserve"
       style="font-style:normal;font-variant:normal;font-weight:normal;font-stretch:normal;line-height:0%;font-family:Lavi;-inkscape-font-specification:Lavi;text-align:center;letter-spacing:0px;word-spacing:0px;text-anchor:middle;fill:#000000;fill-opacity:1;stroke:none"
       x="219.87317"
       y="182.54718"
       id="text4246-3-3"><tspan
         sodipodi:role="line"
         style="font-style:normal;font-variant:normal;font-weight:bold;font-stretch:normal;font-size:45px;line-height:1.25;font-family:Lavi;-inkscape-font-specification:'Lavi Bold'"
         x="219.87317"
         y="182.54718"
         id="tspan67">	Perwira!</tspan><tspan
         sodipodi:role="line"
         style="font-style:normal;font-variant:normal;font-weight:bold;font-stretch:normal;font-size:45px;line-height:1.25;font-family:Lavi;-inkscape-font-specification:'Lavi Bold'"
         x="219.87317"
         y="202.09991"
         id="tspan852" /></text>
    <text
       xml:space="preserve"
       style="font-style:normal;font-variant:normal;font-weight:normal;font-stretch:normal;line-height:0%;font-family:Lavi;-inkscape-font-specification:Lavi;text-align:center;letter-spacing:0px;word-spacing:0px;text-anchor:middle;fill:#000000;fill-opacity:1;stroke:none"
       x="476.97559"
       y="240.57845"
       id="text4246-3-5-9"><tspan
         sodipodi:role="line"
         style="font-size:45px;line-height:1.25"
         x="476.97559"
         y="240.57845"
         id="tspan868">Apa kamu sudah</tspan><tspan
         sodipodi:role="line"
         style="font-size:45px;line-height:1.25"
         x="476.97559"
         y="296.82843"
         id="tspan62">merekrut penyihir</tspan><tspan
         sodipodi:role="line"
         style="font-size:45px;line-height:1.25"
         x="476.97559"
         y="353.07843"
         id="tspan64">seperti yang aku</tspan><tspan
         sodipodi:role="line"
         style="font-size:45px;line-height:1.25"
         x="476.97559"
         y="409.32843"
         id="tspan66">minta?</tspan></text>
    <text
       xml:space="preserve"
       style="font-style:normal;font-variant:normal;font-weight:normal;font-stretch:normal;line-height:0%;font-family:Lavi;-inkscape-font-specification:Lavi;text-align:center;letter-spacing:0px;word-spacing:0px;text-anchor:middle;fill:#000000;fill-opacity:1;stroke:none"
       x="883.4093"
       y="509.67288"
       id="text4246-1-6"><tspan
         sodipodi:role="line"
         style="font-style:normal;font-variant:normal;font-weight:normal;font-stretch:normal;font-size:45px;line-height:1.25;font-family:Lavi;-inkscape-font-specification:Lavi"
         x="890.57239"
         y="509.67288"
         id="tspan71">Sudah, </tspan><tspan
         sodipodi:role="line"
         style="font-style:normal;font-variant:normal;font-weight:normal;font-stretch:normal;font-size:45px;line-height:1.25;font-family:Lavi;-inkscape-font-specification:Lavi"
         x="883.4093"
         y="565.92285"
         id="tspan915">tuan!</tspan></text>
    <text
       xml:space="preserve"
       style="font-style:normal;font-variant:normal;font-weight:normal;font-stretch:normal;line-height:0%;font-family:Lavi;-inkscape-font-specification:Lavi;text-align:center;letter-spacing:0px;word-spacing:0px;text-anchor:middle;display:inline;fill:#000000;fill-opacity:1;stroke:none"
       x="945.81696"
       y="664.9931"
       id="text4246-7-6-1-7-6-3-5"><tspan
         sodipodi:role="line"
         style="font-size:45px;line-height:1.25"
         x="945.81696"
         y="664.9931"
         id="tspan931">Dia sedang</tspan><tspan
         sodipodi:role="line"
         style="font-size:45px;line-height:1.25"
         x="945.81696"
         y="721.2431"
         id="tspan73">berdiri di</tspan><tspan
         sodipodi:role="line"
         style="font-size:45px;line-height:1.25"
         x="945.81696"
         y="777.4931"
         id="tspan75">sebelah tuan.</tspan></text>
    <text
       xml:space="preserve"
       style="font-style:normal;font-variant:normal;font-weight:normal;font-stretch:normal;font-size:15.90748692px;line-height:0%;font-family:Lavi;-inkscape-font-specification:Lavi;text-align:center;letter-spacing:0px;word-spacing:0px;text-anchor:middle;fill:#000000;fill-opacity:1;stroke:none;stroke-width:0.99999988"
       x="1859.6963"
       y="214.15907"
       id="text4246-86-3-3"
       transform="scale(0.98795945,1.0121873)"><tspan
         sodipodi:role="line"
         style="font-size:59.65306854px;line-height:1.20000005;stroke-width:0.99999988"
         x="1859.6963"
         y="214.15907"
         id="tspan1044-3"><tspan
           style="font-style:normal;font-variant:normal;font-weight:bold;font-stretch:normal;font-family:Lavi;-inkscape-font-specification:'Lavi Bold';stroke-width:0.99999988"
           id="tspan1046-9">...?</tspan></tspan></text>
    <text
       xml:space="preserve"
       style="font-style:normal;font-variant:normal;font-weight:normal;font-stretch:normal;line-height:0%;font-family:Lavi;-inkscape-font-specification:Lavi;text-align:center;letter-spacing:0px;word-spacing:0px;text-anchor:middle;fill:#000000;fill-opacity:1;stroke:none"
       x="622.40643"
       y="1389.9771"
       id="text4246-3-7-7-6-7-2-9-6-1-4"><tspan
         sodipodi:role="line"
         style="font-size:45px;line-height:1.20000005"
         x="622.40643"
         y="1389.9771"
         id="tspan1183-0">Hai!</tspan></text>
    <text
       xml:space="preserve"
       style="font-style:normal;font-variant:normal;font-weight:normal;font-stretch:normal;line-height:0%;font-family:Lavi;-inkscape-font-specification:Lavi;text-align:center;letter-spacing:0px;word-spacing:0px;text-anchor:middle;fill:#000000;fill-opacity:1;stroke:none"
       x="736.13556"
       y="1470.2469"
       id="text4246-7-5"><tspan
         sodipodi:role="line"
         style="font-size:45px;line-height:1.25"
         x="736.13556"
         y="1470.2469"
         id="tspan4169-1">Namaku</tspan><tspan
         sodipodi:role="line"
         style="font-size:45px;line-height:1.25"
         x="736.13556"
         y="1526.4969"
         id="tspan1089">Pepp...</tspan></text>
    <text
       xml:space="preserve"
       style="font-style:normal;font-variant:normal;font-weight:normal;font-stretch:normal;line-height:0%;font-family:Lavi;-inkscape-font-specification:Lavi;text-align:center;letter-spacing:0px;word-spacing:0px;text-anchor:middle;display:inline;fill:#000000;fill-opacity:1;stroke:none"
       x="2271.7188"
       y="1112.7358"
       id="text4246-2-3-1-3-9-9-7"
       transform="matrix(0.89365154,0,-0.19329856,1.1190044,0,0)"><tspan
         sodipodi:role="line"
         style="font-size:104.29582214px;line-height:1.25;letter-spacing:-5px"
         x="2269.2188"
         y="1112.7358"
         id="tspan4161-6">?!!</tspan></text>
    <text
       xml:space="preserve"
       style="font-style:normal;font-variant:normal;font-weight:normal;font-stretch:normal;font-size:28.73172379px;line-height:0%;font-family:Lavi;-inkscape-font-specification:Lavi;text-align:center;letter-spacing:29.10897446px;word-spacing:0px;text-anchor:middle;fill:#000000;fill-opacity:1;stroke:none;stroke-width:1"
       x="2364.8103"
       y="2623.665"
       id="text4246-6-6-3-6"
       transform="matrix(0.94427779,0,-0.21829887,1.0590104,0,0)"><tspan
         sodipodi:role="line"
         style="font-style:normal;font-variant:normal;font-weight:bold;font-stretch:normal;font-size:107.74396515px;line-height:1.20000005;font-family:Lavi;-inkscape-font-specification:'Lavi Bold';letter-spacing:4px;stroke-width:1"
         x="2366.8103"
         y="2623.665"
         id="tspan4252-00-4-7-3">BODOH!!!</tspan></text>
    <text
       xml:space="preserve"
       style="font-style:normal;font-variant:normal;font-weight:normal;font-stretch:normal;font-size:14.11471462px;line-height:0%;font-family:Lavi;-inkscape-font-specification:Lavi;text-align:center;letter-spacing:14.30004215px;word-spacing:0px;text-anchor:middle;fill:#000000;fill-opacity:1;stroke:none;stroke-width:1"
       x="1725.2961"
       y="2714.4756"
       id="text4246-6-3"
       transform="scale(0.94973823,1.0529217)"><tspan
         sodipodi:role="line"
         style="font-style:normal;font-variant:normal;font-weight:bold;font-stretch:normal;font-size:52.9301796px;line-height:1.20000005;font-family:Lavi;-inkscape-font-specification:'Lavi Bold';letter-spacing:0.90000004px;stroke-width:1"
         x="1725.7461"
         y="2714.4756"
         id="tspan1117">Kenapa kamu</tspan><tspan
         sodipodi:role="line"
         style="font-style:normal;font-variant:normal;font-weight:bold;font-stretch:normal;font-size:52.9301796px;line-height:1.20000005;font-family:Lavi;-inkscape-font-specification:'Lavi Bold';letter-spacing:0.90000004px;stroke-width:1"
         x="1725.7461"
         y="2777.9917"
         id="tspan79">merekrut anak kecil?!</tspan></text>
    <text
       xml:space="preserve"
       style="font-style:normal;font-variant:normal;font-weight:normal;font-stretch:normal;font-size:14.11471462px;line-height:0%;font-family:Lavi;-inkscape-font-specification:Lavi;text-align:center;letter-spacing:14.30004215px;word-spacing:0px;text-anchor:middle;fill:#000000;fill-opacity:1;stroke:none;stroke-width:1"
       x="1705.0861"
       y="2842.5552"
       id="text4246-6-3-4"
       transform="scale(0.94973823,1.0529217)"><tspan
         sodipodi:role="line"
         style="font-style:normal;font-variant:normal;font-weight:bold;font-stretch:normal;font-size:52.9301796px;line-height:1.20000005;font-family:Lavi;-inkscape-font-specification:'Lavi Bold';letter-spacing:0.90000004px;stroke-width:1"
         x="1705.536"
         y="2842.5552"
         id="tspan1142">Aku perlu penyihir</tspan><tspan
         sodipodi:role="line"
         style="font-style:normal;font-variant:normal;font-weight:bold;font-stretch:normal;font-size:52.9301796px;line-height:1.20000005;font-family:Lavi;-inkscape-font-specification:'Lavi Bold';letter-spacing:0.90000004px;stroke-width:1"
         x="1705.536"
         y="2906.0713"
         id="tspan83">perang sungguhan!</tspan></text>
  </g>
</svg>
