<?xml version="1.0" encoding="UTF-8" standalone="no"?>
<!-- Created with Inkscape (http://www.inkscape.org/) -->

<svg
   id="svg2"
   version="1.1"
   inkscape:version="1.1 (c68e22c387, 2021-05-23)"
   width="2481"
   height="3503"
   sodipodi:docname="E36P02.svg"
   xmlns:inkscape="http://www.inkscape.org/namespaces/inkscape"
   xmlns:sodipodi="http://sodipodi.sourceforge.net/DTD/sodipodi-0.dtd"
   xmlns:xlink="http://www.w3.org/1999/xlink"
   xmlns="http://www.w3.org/2000/svg"
   xmlns:svg="http://www.w3.org/2000/svg"
   xmlns:rdf="http://www.w3.org/1999/02/22-rdf-syntax-ns#"
   xmlns:cc="http://creativecommons.org/ns#"
   xmlns:dc="http://purl.org/dc/elements/1.1/">
  <metadata
     id="metadata8">
    <rdf:RDF>
      <cc:Work
         rdf:about="">
        <dc:format>image/svg+xml</dc:format>
        <dc:type
           rdf:resource="http://purl.org/dc/dcmitype/StillImage" />
      </cc:Work>
    </rdf:RDF>
  </metadata>
  <defs
     id="defs6">
    <filter
       x="-0.032294048"
       width="1.0625661"
       height="1.3663621"
       inkscape:label="magic-Fx-red_background"
       id="filter4375-4-1-1-1-9-5-8-8-3-3-3-6-1-3"
       style="color-interpolation-filters:sRGB"
       y="-0.13001217">
      <feFlood
         radius="5.0999999999999996"
         result="flood"
         flood-color="rgb(136,138,133)"
         flood-opacity="1"
         id="feFlood4377-7-9-0-8-1-7-3-1-6-61-6-2-0-1" />
      <feComposite
         baseFrequency="0.053999999999999999 0.053999999999999999"
         result="composite1"
         operator="in"
         in="flood"
         in2="SourceGraphic"
         id="feComposite4379-3-8-8-2-77-4-1-0-7-2-7-6-6-4" />
      <feMorphology
         result="result3"
         radius="0.96959439099754563"
         operator="dilate"
         id="feMorphology4393-1-0-49-8-9-3-0-1-5-9-5-1-3-9" />
      <feComposite
         numOctaves="4"
         result="fbSourceGraphic"
         operator="over"
         in="SourceGraphic"
         in2="result3"
         id="feComposite4385-9-5-7-0-8-8-7-5-3-3-3-8-2-2" />
      <feColorMatrix
         id="feColorMatrix4544-9-5-1-5-7-0-0"
         values="0 0 0 -1 0 0 0 0 -1 0 0 0 0 -1 0 0 0 0 1 0"
         in="fbSourceGraphic"
         result="fbSourceGraphicAlpha" />
      <feTurbulence
         result="turbulence"
         baseFrequency="0.062 0.054054054054054057"
         seed="172"
         numOctaves="4.4123222748815163"
         type="fractalNoise"
         id="feTurbulence4546-3-6-9-6-9-6-6" />
      <feDisplacementMap
         result="fbSourceGraphic"
         xChannelSelector="R"
         yChannelSelector="G"
         scale="11.642079"
         in="fbSourceGraphic"
         in2="turbulence"
         id="feDisplacementMap4548-8-2-4-2-2-1-8" />
      <feColorMatrix
         scale="10.800000000000001"
         id="feColorMatrix4670-7-9-7-9-0-5-9"
         values="0 0 0 -1 0 0 0 0 -1 0 0 0 0 -1 0 0 0 0 1 0"
         in="fbSourceGraphic"
         result="fbSourceGraphicAlpha" />
      <feComposite
         result="composite1"
         operator="in"
         in="flood"
         in2="fbSourceGraphic"
         id="feComposite4674-8-2-4-1-2-5-2" />
      <feGaussianBlur
         result="blur"
         stdDeviation="1.5865199271065846"
         in="composite1"
         id="feGaussianBlur4676-3-7-50-2-3-4-6" />
      <feOffset
         result="offset"
         dy="5.2374444725016502"
         dx="-0.42771311737301687"
         id="feOffset4678-6-0-3-7-7-7-6" />
      <feComposite
         result="composite2"
         operator="over"
         in="fbSourceGraphic"
         in2="offset"
         id="feComposite4680-4-9-6-0-5-6-4" />
      <feGaussianBlur
         stdDeviation="0.76414472307477677"
         id="feGaussianBlur58-9-9-5-9" />
      <feOffset
         dx="0"
         dy="0"
         id="feOffset60-3-2-6-5" />
    </filter>
    <filter
       style="color-interpolation-filters:sRGB"
       id="filter4375-4-1-1-1-9-5-8-3-4"
       inkscape:label="Drop Shadow"
       x="-0.0007699657"
       y="-0.0039836934"
       width="1.015765"
       height="1.0815659">
      <feFlood
         id="feFlood4377-7-9-0-8-1-7-3-6"
         flood-opacity="1"
         flood-color="rgb(39,39,39)"
         result="flood" />
      <feComposite
         id="feComposite4379-3-8-8-2-77-4-1-7"
         in2="SourceGraphic"
         in="flood"
         operator="in"
         result="composite1" />
      <feMorphology
         id="feMorphology4393-1-0-49-8-9-3-0-5"
         operator="dilate"
         radius="6.2000000000000002"
         result="result3" />
      <feComposite
         id="feComposite4385-9-5-7-0-8-8-7-3"
         in2="result3"
         in="SourceGraphic"
         operator="over"
         result="fbSourceGraphic" />
      <feColorMatrix
         result="fbSourceGraphicAlpha"
         in="fbSourceGraphic"
         values="0 0 0 -1 0 0 0 0 -1 0 0 0 0 -1 0 0 0 0 1 0"
         id="feColorMatrix4544-5" />
      <feTurbulence
         id="feTurbulence4546-6"
         type="fractalNoise"
         numOctaves="3"
         seed="37"
         baseFrequency="0.129 0.0050000000000000001"
         result="turbulence" />
      <feDisplacementMap
         id="feDisplacementMap4548-2"
         in2="turbulence"
         in="fbSourceGraphic"
         scale="6.6"
         yChannelSelector="G"
         xChannelSelector="R"
         result="fbSourceGraphic" />
      <feColorMatrix
         result="fbSourceGraphicAlpha"
         in="fbSourceGraphic"
         values="0 0 0 -1 0 0 0 0 -1 0 0 0 0 -1 0 0 0 0 1 0"
         id="feColorMatrix4670-9-3" />
      <feFlood
         id="feFlood4672-1-0"
         flood-opacity="0.40999999999999998"
         flood-color="rgb(34,52,102)"
         result="flood"
         in="fbSourceGraphic" />
      <feComposite
         id="feComposite4674-2-3"
         in2="fbSourceGraphic"
         in="flood"
         operator="in"
         result="composite1" />
      <feGaussianBlur
         id="feGaussianBlur4676-7"
         in="composite1"
         stdDeviation="0"
         result="blur" />
      <feOffset
         id="feOffset4678-0-0"
         dx="6"
         dy="6"
         result="offset" />
      <feComposite
         id="feComposite4680-9"
         in2="offset"
         in="fbSourceGraphic"
         operator="over"
         result="composite2" />
    </filter>
  </defs>
  <sodipodi:namedview
     pagecolor="#1e1e1e"
     bordercolor="#111111"
     borderopacity="1"
     objecttolerance="10"
     gridtolerance="10"
     guidetolerance="10"
     inkscape:pageopacity="0"
     inkscape:pageshadow="2"
     inkscape:window-width="1920"
     inkscape:window-height="1017"
     id="namedview4"
     showgrid="false"
     inkscape:zoom="0.46000002"
     inkscape:cx="970.65213"
     inkscape:cy="3079.3477"
     inkscape:window-x="-8"
     inkscape:window-y="-8"
     inkscape:window-maximized="1"
     inkscape:current-layer="layer1"
     inkscape:pagecheckerboard="0"
     inkscape:snap-global="false" />
  <g
     inkscape:groupmode="layer"
     id="layer2"
     inkscape:label="artwork"
     sodipodi:insensitive="true"
     style="display:inline">
    <image
       xlink:href="../gfx_Pepper-and-Carrot_by-David-Revoy_E36P02.png"
       y="0"
       x="0"
       id="image10"
       height="3503"
       width="2481" />
  </g>
  <g
     inkscape:groupmode="layer"
     id="layer3"
     inkscape:label="speechbubbles"
     style="display:inline">
    <path
       style="fill:#ffffff;fill-rule:evenodd;stroke:none;stroke-width:1.21073px;stroke-linecap:butt;stroke-linejoin:miter;stroke-opacity:1"
       d="m 1649.727,3206.4764 c -25.9631,0.045 -76.336,12.9419 -32.0819,49.2533 -57.0016,-18.0303 -67.1045,-3.184 -72.9005,14.6812 -18.9678,-15.904 -39.0842,-30.0771 -78.8991,-14.5716 -7.9797,-24.9118 -36.8811,-32.9308 -81.57,-28.2031 37.8962,-21.4739 60.2321,-41.6992 -15.7244,-54.0373 61.6119,-3.1342 77.3455,-31.1057 15.433,-50.5371 49.8398,6.0465 64.0325,-1.0415 51.6217,-17.9317 30.0521,11.6215 54.4485,10.9419 72.8757,-2.7208 29.0963,28.3175 50.0031,26.3594 64.4158,0.3947 1.4897,43.6817 43.9259,41.1468 74.7104,45.4166 -51.8649,17.0103 -10.6146,62.535 2.1193,58.2558 z"
       id="path1087"
       inkscape:connector-curvature="0"
       sodipodi:nodetypes="cccccccccccc" />
    <path
       style="color:#000000;display:inline;overflow:visible;visibility:visible;fill:#ffffff;fill-opacity:1;fill-rule:nonzero;stroke:none;stroke-width:1.24961px;marker:none;enable-background:accumulate"
       d="m 1658.3507,3199.4034 c -36.3447,0.2134 -73.388,1.716 -107.946,12.3382 -21.9976,6.2824 -43.8669,15.1089 -60.1792,29.628 -14.2807,15.6535 -15.6184,36.8975 -13.4475,55.9435 1.9616,15.3804 10.7517,29.7556 24.1139,40.0518 24.3005,20.5623 57.242,32.4518 90.902,35.4762 23.8241,2.5041 47.7704,4.1917 71.7179,5.4999 45.9881,1.7182 92.1506,-0.815 137.6661,-6.578 27.8378,-3.9179 54.9628,-16.3324 70.6338,-37.0154 17.0515,-21.6246 19.2756,-49.7437 12.4886,-74.6498 -3.8909,-13.8112 -13.9943,-26.1491 -28.2122,-33.4668 -32.9576,-17.4716 -72.0868,-23.5961 -110.2303,-25.3219 -29.1487,-1.0266 -58.327,-2.0485 -87.5071,-1.9057 z"
       id="path3525-1"
       inkscape:connector-curvature="0"
       sodipodi:nodetypes="ccccc" />
    <path
       style="display:inline;fill:#ffffff;fill-rule:evenodd;stroke:none;stroke-width:1.15535px;stroke-linecap:butt;stroke-linejoin:miter;stroke-opacity:1"
       d="m 1689.5967,3128.6539 c 0,0 -32.5032,0.5122 -35.8686,17.9644 -3.3663,17.4516 24.539,59.2603 24.539,59.2603 0,0 -45.1119,0.7369 -45.1178,48.4326 -0.01,47.6953 47.113,85.7891 43.4135,52.8962 -3.6991,-32.8931 -34.8285,-95.2011 56.3216,-84.9196 -32.3662,-27.7763 -52.1364,-60.1065 -52.668,-63.6644 -1.9951,-13.3523 30.9323,-20.3265 45.1813,-19.8929 -64.6236,-55.3255 -17.6069,-82.8485 -7.229,-135.1096 -26.5229,47.7737 -71.2674,83.4938 -28.572,125.033 z"
       id="path4394-0"
       inkscape:connector-curvature="0"
       sodipodi:nodetypes="cscsscsccc" />
    <path
       style="display:inline;fill:#ffffff;fill-rule:evenodd;stroke:none;stroke-width:1.14529px;stroke-linecap:butt;stroke-linejoin:miter;stroke-opacity:1"
       d="m 2104.1716,2198.5782 c -5.2046,9.3652 -9.3958,20.2228 -18.5016,26.2598 -7.4157,4.6087 -17.173,1.3641 -22.7172,-4.9372 -4.2441,-4.3684 -8.2,-9.0289 -12.3546,-13.4886 1.623,8.2123 2.5773,17.1629 -0.7744,25.0586 -5.9522,5.2699 -15.3455,3.1589 -20.3474,-2.5176 -1.809,-1.3789 -3.6179,-2.7578 -5.427,-4.1367 2.1356,10.4861 -0.1413,22.5651 -7.9406,29.9766 -7.6698,3.8263 -17.0895,-0.6367 -21.2881,-7.8872 -1.7175,-1.9146 -3.435,-3.8291 -5.1525,-5.7437 4.3397,4.7151 3.08,14.3631 -3.282,16.3761 -8.2812,1.3432 -15.7634,-3.7639 -22.3271,-8.3516 -7.2693,-5.1353 -13.974,-11.0707 -20.7477,-16.8839 9.348,11.2585 18.9872,23.1749 22.6988,37.9121 0.3605,6.1843 -8.4156,9.6193 -12.1602,4.9278 -2.2845,-1.1485 -4.5369,-2.3646 -6.7968,-3.5645 6.1926,6.3869 12.6699,13.3899 14.6796,22.5508 -2.9616,6.3366 -11.0742,7.7735 -16.8647,5.219 -2.3098,-0.4708 -4.6196,-0.9416 -6.9295,-1.4124 11.3695,13.2081 18.5444,31.4213 15.9182,49.3465 -3.0674,15.2174 -13.2048,27.1681 -21.918,39.2189 -0.8987,0.8102 -1.3959,2.7141 0.4223,1.8858 14.2349,-2.5934 29.3254,-4.716 43.3064,0.3406 8.7273,3.7684 12.521,16.4082 7.2767,24.6672 4.1857,-3.889 10.2313,-7.3641 15.8684,-4.8867 7.0747,3.2897 9.7791,12.183 9.1683,19.7432 -0.1981,5.8807 -1.8929,11.5424 -3.4577,17.1474 6.7795,-10.3551 13.9228,-21.41 25.0241,-27.0918 7.0422,-2.2408 14.1619,6.071 12.1136,13.2207 0.116,2.0088 2.8701,0.9918 2.9617,-0.5194 7.6993,-9.672 18.5843,-17.6764 30.9342,-18.2785 4.1527,0.5295 7.049,5.3928 6.0374,9.5616 6.4315,-5.4657 14.3106,-10.4435 22.9333,-9.4575 11.9416,0.6157 22.1589,8.1002 31.2647,15.5392 2.4269,1.9825 4.796,4.0411 7.1855,6.0726 2.5143,-8.9364 5.1035,-18.8743 12.6064,-24.7014 8.3135,-4.6708 18.9016,-1.0511 24.9152,5.9933 5.1283,4.6637 9.5009,10.131 14.0083,15.4269 1.9559,-9.7726 13.7445,-14.5942 22.0214,-10.4305 8.7456,3.7713 15.683,10.8988 21.8665,18.1876 1.5922,2.02 3.1205,4.0937 4.6318,6.1804 -1.8059,-7.4534 -4.5329,-15.1807 -2.8254,-22.9473 3.9281,-3.6425 10.0092,-1.401 13.06,2.3765 6.4368,4.9325 12.0836,10.9285 17.0252,17.4672 -2.9648,-9.9466 2.8317,-22.239 12.8304,-24.5459 11.5472,-3.7154 23.7678,-0.4554 34.8637,3.4086 7.3084,2.7277 14.232,6.4531 20.964,10.4635 -9.4277,-7.5463 -16.2099,-20.0775 -14.3421,-32.7604 1.6591,-8.9338 9.5977,-14.9362 17.5202,-17.3786 0.6124,-0.2129 2.3353,-0.3432 1.0096,-1.1227 -5.0518,-3.8955 -11.9658,-6.4461 -14.2767,-13.1184 -2.6463,-7.8087 1.5765,-16.2274 7.2691,-21.2393 4.5413,-4.1718 9.3678,-7.983 14.2076,-11.7634 -8.9472,-3.4558 -19.1756,-5.4723 -25.8177,-13.2452 -4.4763,-6.2561 -1.6846,-15.57 4.0383,-19.8693 10.7688,-11.0196 23.7678,-19.1474 35.9457,-28.282 -20.1239,5.3957 -40.4172,12.3507 -61.4581,11.2735 -8.8386,-1.5136 -13.2788,-13.7163 -8.5211,-21.3692 2.4655,-8.4403 6.6383,-16.1581 10.3014,-24.0625 -15.9868,5.2297 -31.7724,12.3822 -48.7325,13.1172 -3.8798,-2.5234 -2.7763,-8.9796 0.7652,-11.2773 0.6421,-1.2561 2.2174,-2.2696 1.8438,-3.8848 -9.4387,6.3476 -19.7392,12.5914 -31.2553,12.957 -8.1108,-2.0389 -13.0426,-12.2569 -10.0907,-20.3535 -1.9123,-2.3696 -4.7669,0.016 -6.6073,1.2506 -19.8688,10.1855 -43.935,12.9586 -64.7256,4.1279 -16.7756,-7.1928 -30.6991,-20.3543 -41.211,-35.6226 -0.1858,-0.1246 -0.4195,-0.1831 -0.6364,-0.1231 z"
       id="path4289-9-3"
       inkscape:connector-curvature="0"
       sodipodi:nodetypes="cccccccccccccccccccccccc" />
    <path
       style="color:#000000;display:inline;overflow:visible;visibility:visible;fill:#ffffff;fill-opacity:1;fill-rule:nonzero;stroke:none;stroke-width:0.634675px;marker:none;enable-background:accumulate"
       d="m 2065.5689,2358.3715 c -1.019,14.0823 -77.982,87.5377 3.591,185.0685 -57.766,-96.8638 17.7385,-154.6405 29.7695,-166.83 -23.5374,-29.6642 -17.4947,-9.4644 -33.3605,-18.2385 z"
       id="path4024-3"
       inkscape:connector-curvature="0"
       sodipodi:nodetypes="cccc" />
  </g>
  <g
     inkscape:groupmode="layer"
     id="layer1"
     inkscape:label="txt"
     style="display:inline">
    <text
       transform="matrix(1.0109872,-0.19833599,-0.21684929,1.1745089,102.88627,624.18095)"
       id="text4580-6-0-0-3-3-6-2-9-8-0"
       y="1584.5073"
       x="787.65729"
       style="font-style:normal;font-variant:normal;font-weight:normal;font-stretch:normal;line-height:0;font-family:Lavi;-inkscape-font-specification:Lavi;letter-spacing:3.03024px;word-spacing:0px;opacity:0.75027;fill:#ffffff;fill-opacity:1;stroke:#837567;stroke-width:1.52377;stroke-miterlimit:4;stroke-dasharray:none;stroke-opacity:1;paint-order:stroke fill markers;filter:url(#filter4375-4-1-1-1-9-5-8-8-3-3-3-6-1-3)"
       xml:space="preserve"
       inkscape:label="FXB-3"><tspan
         style="font-style:normal;font-variant:normal;font-weight:bold;font-stretch:normal;font-size:70px;line-height:1.25;font-family:Drukah;-inkscape-font-specification:'Drukah Bold';fill:#ffffff;fill-opacity:1;stroke:#837567;stroke-width:1.52377;stroke-miterlimit:4;stroke-dasharray:none;stroke-opacity:1;paint-order:stroke fill markers"
         y="1584.5073"
         x="787.65729"
         id="tspan4582-1-1-0-6-9-0-8-3-4-4"
         sodipodi:role="line"><tspan
   style="letter-spacing:-3.73913px"
   id="tspan19018">Fs</tspan>ch<tspan
   style="font-size:59.826px"
   id="tspan39837">h...</tspan></tspan></text>
    <text
       id="text4246-5-8"
       y="3199.8108"
       x="1515.5361"
       style="font-style:normal;font-variant:normal;font-weight:normal;font-stretch:normal;font-size:53.7995px;line-height:0%;font-family:Lavi;-inkscape-font-specification:Lavi;text-align:center;letter-spacing:0px;word-spacing:0px;text-anchor:middle;fill:#000000;fill-opacity:1;stroke:none;stroke-width:1.05513"
       xml:space="preserve"
       inkscape:label="kingB"><tspan
         y="3199.8108"
         x="1515.5361"
         style="font-style:normal;font-variant:normal;font-weight:bold;font-stretch:normal;font-size:53.7995px;line-height:1.25;font-family:Lavi;-inkscape-font-specification:'Lavi Bold';stroke-width:1.05513"
         sodipodi:role="line"
         id="tspan858">¡Rayos!</tspan></text>
    <text
       id="text4246-5-8-3"
       y="3270.23"
       x="1686.7274"
       style="font-style:normal;font-variant:normal;font-weight:normal;font-stretch:normal;font-size:45px;line-height:0%;font-family:Lavi;-inkscape-font-specification:Lavi;text-align:center;letter-spacing:0px;word-spacing:0px;text-anchor:middle;fill:#000000;fill-opacity:1;stroke:none;stroke-width:0.88255"
       xml:space="preserve"
       inkscape:label="kingB"><tspan
         y="3270.23"
         x="1686.7274"
         style="font-style:normal;font-variant:normal;font-weight:bold;font-stretch:normal;font-size:45px;line-height:1.25;font-family:Lavi;-inkscape-font-specification:'Lavi Bold';stroke-width:0.88255"
         sodipodi:role="line"
         id="tspan39734">¡No puedo hacer</tspan><tspan
         y="3326.48"
         x="1686.7274"
         style="font-style:normal;font-variant:normal;font-weight:bold;font-stretch:normal;font-size:45px;line-height:1.25;font-family:Lavi;-inkscape-font-specification:'Lavi Bold';stroke-width:0.88255"
         sodipodi:role="line"
         id="tspan4674">nada aquí dentro!</tspan></text>
    <text
       xml:space="preserve"
       style="font-style:normal;font-variant:normal;font-weight:normal;font-stretch:normal;line-height:0%;font-family:Lavi;-inkscape-font-specification:Lavi;text-align:center;letter-spacing:0px;word-spacing:0px;text-anchor:middle;fill:#000000;fill-opacity:1;stroke:none"
       x="2138.511"
       y="2317.1406"
       id="text4246-7-6-4-6-4-5-6"
       inkscape:label="kingB"><tspan
         sodipodi:role="line"
         style="font-style:normal;font-variant:normal;font-weight:bold;font-stretch:normal;font-size:45px;line-height:1.25;font-family:Lavi;-inkscape-font-specification:'Lavi Bold'"
         x="2138.511"
         y="2317.1406"
         id="tspan50694">¡Tonta prisión</tspan><tspan
         sodipodi:role="line"
         style="font-style:normal;font-variant:normal;font-weight:bold;font-stretch:normal;font-size:45px;line-height:1.25;font-family:Lavi;-inkscape-font-specification:'Lavi Bold'"
         x="2138.511"
         y="2373.3906"
         id="tspan1324">mágica! ¡Grrrr!</tspan></text>
    <text
       xml:space="preserve"
       style="font-style:normal;font-variant:normal;font-weight:normal;font-stretch:normal;line-height:0%;font-family:Lavi;-inkscape-font-specification:Lavi;letter-spacing:0px;word-spacing:0px;display:inline;fill:#ffffff;fill-opacity:1;stroke:#000000;stroke-width:0.649528;stroke-miterlimit:4;stroke-dasharray:none;stroke-opacity:1;filter:url(#filter4375-4-1-1-1-9-5-8-3-4)"
       x="787.65729"
       y="1584.5073"
       id="text4580-6-0-3"
       transform="matrix(0.56396936,0.29200899,-0.49083985,0.74440634,2292.4537,1543.4282)"
       inkscape:transform-center-x="-5.9254429"
       inkscape:transform-center-y="0.58615246"><tspan
         sodipodi:role="line"
         id="tspan4582-1-1-6"
         x="787.65729"
         y="1584.5073"
         style="font-style:normal;font-variant:normal;font-weight:normal;font-stretch:normal;font-size:70px;line-height:1.25;font-family:Combah;-inkscape-font-specification:Combah;fill:#ffffff;fill-opacity:1;stroke:#000000;stroke-width:0.649528;stroke-opacity:1"><tspan
           style="font-style:normal;font-variant:normal;font-weight:normal;font-stretch:normal;font-size:93.1495px;font-family:Combah;-inkscape-font-specification:Combah;fill:#ffffff;fill-opacity:1;stroke:#000000;stroke-width:0.649528;stroke-opacity:1"
           id="tspan4315-8-0">¡CLANG</tspan><tspan
           style="font-style:normal;font-variant:normal;font-weight:normal;font-stretch:normal;font-size:114.732px;font-family:Combah;-inkscape-font-specification:Combah;fill:#ffffff;fill-opacity:1;stroke:#000000;stroke-width:0.649528;stroke-opacity:1"
           id="tspan4313-2-6">!</tspan></tspan></text>
  </g>
</svg>
