<?xml version="1.0" encoding="UTF-8" standalone="no"?>
<!-- Created with Inkscape (http://www.inkscape.org/) -->

<svg
   xmlns:dc="http://purl.org/dc/elements/1.1/"
   xmlns:cc="http://creativecommons.org/ns#"
   xmlns:rdf="http://www.w3.org/1999/02/22-rdf-syntax-ns#"
   xmlns:svg="http://www.w3.org/2000/svg"
   xmlns="http://www.w3.org/2000/svg"
   xmlns:xlink="http://www.w3.org/1999/xlink"
   xmlns:sodipodi="http://sodipodi.sourceforge.net/DTD/sodipodi-0.dtd"
   xmlns:inkscape="http://www.inkscape.org/namespaces/inkscape"
   id="svg2"
   version="1.1"
   inkscape:version="0.92.4 5da689c313, 2019-01-14"
   width="2481"
   height="3503"
   sodipodi:docname="E28P08.svg">
  <metadata
     id="metadata8">
    <rdf:RDF>
      <cc:Work
         rdf:about="">
        <dc:format>image/svg+xml</dc:format>
        <dc:type
           rdf:resource="http://purl.org/dc/dcmitype/StillImage" />
        <dc:title></dc:title>
      </cc:Work>
    </rdf:RDF>
  </metadata>
  <defs
     id="defs6" />
  <sodipodi:namedview
     pagecolor="#ffffff"
     bordercolor="#666666"
     borderopacity="1"
     objecttolerance="10"
     gridtolerance="10"
     guidetolerance="10"
     inkscape:pageopacity="0"
     inkscape:pageshadow="2"
     inkscape:window-width="1842"
     inkscape:window-height="1051"
     id="namedview4"
     showgrid="false"
     inkscape:zoom="0.51498715"
     inkscape:cx="806.159"
     inkscape:cy="1258.7771"
     inkscape:window-x="69"
     inkscape:window-y="-9"
     inkscape:window-maximized="1"
     inkscape:current-layer="layer1" />
  <g
     inkscape:groupmode="layer"
     id="layer2"
     inkscape:label="artwork"
     sodipodi:insensitive="true">
    <image
       sodipodi:absref="/home/midgard/git/peppercarrot/comics/ep28_The-Festivities/lang/id/../gfx_Pepper-and-Carrot_by-David-Revoy_E28P08.png"
       xlink:href="../gfx_Pepper-and-Carrot_by-David-Revoy_E28P08.png"
       width="2481"
       height="3503"
       id="image10"
       x="0"
       y="0" />
  </g>
  <g
     inkscape:groupmode="layer"
     id="layer3"
     inkscape:label="speechbubbles">
    <path
       style="fill:#ffffff;fill-rule:evenodd;stroke:none;stroke-width:1.06798041px;stroke-linecap:butt;stroke-linejoin:miter;stroke-opacity:1"
       d="m 139.77253,1286.1722 c 16.01716,-46.1087 48.99364,-65.3904 59.35767,-70.4204 10.36403,-5.03 59.35766,-14.2517 74.43263,-14.2517 15.07497,0 251.51995,-4.1918 277.43783,1.6767 25.91784,5.8683 74.05101,23.4734 88.86121,47.7851 14.8102,24.3117 33.32298,69.582 25.91787,98.0854 -7.40512,28.5037 -11.10767,67.0671 -51.83573,91.3788 -40.72805,24.3117 -284.79227,31.0186 -322.47967,29.3419 -37.6874,-1.6766 -86.68103,-4.1916 -117.77314,-24.3118 -31.09211,-20.1201 -50.878,-64.552 -49.93582,-93.0555 0.94219,-28.5034 16.01715,-66.2285 16.01715,-66.2285 z"
       id="path1079"
       inkscape:connector-curvature="0"
       sodipodi:nodetypes="csscscsccsc" />
    <path
       style="fill:#ffffff;fill-rule:evenodd;stroke:none;stroke-width:1px;stroke-linecap:butt;stroke-linejoin:miter;stroke-opacity:1"
       d="m 227.53576,1416.2623 c -20.60902,44.7713 -22.74099,55.4311 -24.1623,72.4869 -1.42132,17.0557 14.92377,43.35 35.5328,50.4565 20.60902,7.1066 33.40083,29.8476 24.1623,45.482 -9.23853,15.6345 -46.19264,77.4615 23.45165,96.6493 -66.80167,-29.1369 -24.16231,-76.7509 -17.05575,-87.4107 7.10656,-10.6599 19.89837,-34.8222 -8.52787,-60.4058 -28.42624,-25.5836 -38.37542,-39.7967 0,-89.5427 38.37542,-49.7459 -33.40083,-27.7155 -33.40083,-27.7155 z"
       id="path1081"
       inkscape:connector-curvature="0"
       sodipodi:nodetypes="ccccccssc" />
    <path
       style="fill:#ffffff;fill-rule:evenodd;stroke:none;stroke-width:0.9931187px;stroke-linecap:butt;stroke-linejoin:miter;stroke-opacity:1"
       d="m 339.10571,2082.0402 c 19.26078,-32.1305 54.44609,-34.4506 84.85784,-33.6267 30.41176,0.8239 102.38624,7.4147 119.61958,7.4147 17.23332,0 94.27643,-4.1193 129.75681,-2.4716 35.48038,1.6477 58.79605,13.1818 68.93331,28.0113 10.13725,14.8294 17.23332,32.9544 13.17842,56.8463 -4.0549,23.8919 -28.3843,53.5509 -64.8784,60.9655 -36.49411,7.4148 -137.86662,7.4148 -190.58033,8.2387 -52.71371,0.8238 -117.59211,-11.534 -140.90779,-28.8351 -23.31568,-17.301 -44.30884,-52.8786 -19.97944,-96.5431 z"
       id="path1083"
       inkscape:connector-curvature="0"
       sodipodi:nodetypes="cssscscscc" />
    <path
       style="fill:#ffffff;fill-rule:evenodd;stroke:none;stroke-width:1px;stroke-linecap:butt;stroke-linejoin:miter;stroke-opacity:1"
       d="m 521.52769,2076.2416 c -21.62867,-11.7413 -40.78548,-28.4263 -40.78548,-37.6957 0,-9.2694 14.83108,-37.0777 -11.74127,-37.6957 -26.57236,-0.6179 -37.69567,6.1796 -37.07771,-3.7077 0.61796,-9.8874 8.03351,-25.9544 21.62866,-30.2802 -31.51605,12.3593 -34.60585,34.6059 -27.19031,40.7855 7.41554,6.1796 10.67283,9.5522 36.18391,8.6549 20.28805,2.4824 -29.05118,18.071 7.69137,66.7364 32.13401,21.6287 51.29083,-6.7975 51.29083,-6.7975 z"
       id="path1085"
       inkscape:connector-curvature="0"
       sodipodi:nodetypes="cscscsccc" />
    <path
       style="fill:#ffffff;fill-rule:evenodd;stroke:none;stroke-width:0.99999994px;stroke-linecap:butt;stroke-linejoin:miter;stroke-opacity:1"
       d="m 1196.7567,1374.4067 c -2.0612,-17.5917 -18.7863,-50.2645 -51.4246,-16.1368 13.4861,-40.6864 -2.0483,-45.8436 -20.2475,-47.7381 14.3275,-14.6662 26.8461,-29.914 8.3492,-55.134 24.1301,-8.2443 29.8524,-28.7456 21.6847,-58.496 24.2775,23.2401 46.106,36.0759 52.4648,-16.8093 7.8988,41.4017 36.9104,48.8809 51.4071,4.7067 -2.1364,34.4681 6.0078,43.2805 21.8243,32.946 -9.212,21.6913 -6.6421,38.149 8.3629,49.0828 -25.8737,22.9443 -22.3046,36.8913 4.6106,43.7038 -43.282,5.9825 -37.4678,34.4558 -39.319,55.8065 -20.9277,-33.2159 -62.9528,-0.075 -57.7125,8.0684 z"
       id="path1087"
       inkscape:connector-curvature="0"
       sodipodi:nodetypes="cccccccccccc" />
    <path
       style="fill:#ffffff;fill-rule:evenodd;stroke:none;stroke-width:1px;stroke-linecap:butt;stroke-linejoin:miter;stroke-opacity:1"
       d="m 1191.0392,1352.1713 c -8.4109,39.2505 -9.8127,49.5304 -9.8127,58.8758 0,9.3453 7.2361,5.602 12.611,1.6262 3.5164,-2.5819 16.3596,-20.7842 5.6125,8.1864 -10.7472,28.9706 -24.2979,69.1557 -28.0361,81.7719 10.2799,-22.4289 27.5688,-57.474 32.7088,-68.6884 5.1399,-11.2144 13.3039,-31.7117 15.4198,-37.8487 2.574,-7.4657 2.2967,-14.9288 -5.6521,-13.2604 -12.5951,3.9915 -24.253,31.4839 -4.6278,-16.1775 19.6253,-47.6613 11.2144,-117.2842 11.2144,-117.2842 z"
       id="path1089"
       inkscape:connector-curvature="0"
       sodipodi:nodetypes="csccccscccc" />
    <path
       style="fill:#ffffff;fill-rule:evenodd;stroke:none;stroke-width:1.08870542px;stroke-linecap:butt;stroke-linejoin:miter;stroke-opacity:1"
       d="m 1333.8656,1209.4111 c 1.2616,-40.6859 -10.0929,-41.9188 11.3545,-43.1517 21.4472,-1.2329 249.7988,-1.2329 291.432,-1.2329 41.6332,0 74.4351,23.4252 89.5744,56.7137 15.1394,33.2884 39.8268,97.2011 -10.6377,134.1882 -50.4644,36.9873 -198.7897,21.1581 -255.5622,18.6924 -56.7724,-2.466 -118.5914,-9.8769 -133.7307,-44.3984 -15.1393,-34.5213 7.5697,-120.8113 7.5697,-120.8113 z"
       id="path1109"
       inkscape:connector-curvature="0"
       sodipodi:nodetypes="ccsccccc" />
    <path
       style="fill:#ffffff;fill-rule:evenodd;stroke:none;stroke-width:1px;stroke-linecap:butt;stroke-linejoin:miter;stroke-opacity:1"
       d="m 1639.998,1307.0864 c 41.353,7.5187 60.1499,15.9773 68.6085,23.4961 8.4586,7.5187 44.1726,33.8343 14.0976,68.6085 46.9921,-37.5937 7.5188,-93.0445 -46.0522,-115.6007 -15.0375,-3.7593 -36.6539,23.4961 -36.6539,23.4961 z"
       id="path1111"
       inkscape:connector-curvature="0"
       sodipodi:nodetypes="ccccc" />
    <path
       style="fill:#ffffff;fill-rule:evenodd;stroke:none;stroke-width:1.18113971px;stroke-linecap:butt;stroke-linejoin:miter;stroke-opacity:1"
       d="m 1867.6354,2042.7032 c -5.1873,-20.1468 2.797,-42.5811 23.9928,-57.4186 29.593,-21.0221 72.4587,-28.8723 112.3684,-29.0844 18.9773,-0.1153 37.7648,2.1663 55.679,6.145 59.5114,6.7996 121.3379,-6.2258 180.2255,4.1217 24.7601,4.4896 48.3111,15.0653 60.7729,31.2332 21.8478,36.3015 20.5009,77.2462 18.2593,116.4866 -0.9872,11.1272 -0.6443,22.3206 -2.2679,33.4044 -6.2299,26.9746 -31.6058,51.0645 -65.1943,64.1098 -33.6145,13.45 -73.0126,18.0033 -110.3913,15.0891 -59.0967,2.4829 -120.2206,5.3956 -176.6561,-8.0348 -36.2542,-8.8446 -70.5458,-25.9909 -86.3425,-51.6645 -19.3174,-30.0572 -16.4589,-64.5561 -13.0754,-97.1934 0.9434,-9.0628 1.9658,-18.1243 2.6296,-27.1941 z"
       id="path1113"
       inkscape:connector-curvature="0" />
    <path
       style="fill:#ffffff;fill-rule:evenodd;stroke:none;stroke-width:1px;stroke-linecap:butt;stroke-linejoin:miter;stroke-opacity:1"
       d="m 1778.6765,2156.0399 c 42.1519,38.9095 103.7586,57.2834 162.1228,3.2424 58.3643,-54.0409 82.1423,-58.3642 82.1423,-58.3642 0,0 -3.2425,50.7985 -58.3642,83.2231 -55.1218,32.4245 -125.375,41.0711 -185.9009,-28.1013 z"
       id="path1128"
       inkscape:connector-curvature="0" />
  </g>
  <g
     inkscape:groupmode="layer"
     id="layer1"
     inkscape:label="txt">
    <text
       xml:space="preserve"
       style="font-style:normal;font-variant:normal;font-weight:normal;font-stretch:normal;line-height:0%;font-family:Lavi;-inkscape-font-specification:Lavi;text-align:center;letter-spacing:0px;word-spacing:0px;text-anchor:middle;fill:#000000;fill-opacity:1;stroke:none"
       x="398.36487"
       y="1266.7924"
       id="text4246"><tspan
         sodipodi:role="line"
         style="font-size:45px;line-height:1.20000005"
         x="398.36487"
         y="1266.7924"
         id="tspan823">Ngomong-ngomong,</tspan><tspan
         sodipodi:role="line"
         style="font-size:45px;line-height:1.20000005"
         x="398.36487"
         y="1320.7924"
         id="tspan827">Pepper, aku akhirnya</tspan><tspan
         sodipodi:role="line"
         style="font-size:45px;line-height:1.20000005"
         x="398.36487"
         y="1374.7924"
         id="tspan103">bertemu dengan</tspan><tspan
         sodipodi:role="line"
         style="font-size:45px;line-height:1.20000005"
         x="398.36487"
         y="1428.7924"
         id="tspan105">para pengasuhmu.</tspan></text>
    <text
       xml:space="preserve"
       style="font-style:normal;font-variant:normal;font-weight:normal;font-stretch:normal;line-height:0%;font-family:Lavi;-inkscape-font-specification:Lavi;text-align:center;letter-spacing:0px;word-spacing:0px;text-anchor:middle;fill:#000000;fill-opacity:1;stroke:none"
       x="541.04156"
       y="2121.6895"
       id="text4246-3"><tspan
         sodipodi:role="line"
         style="font-size:45px;line-height:1.20000005"
         x="541.04156"
         y="2121.6895"
         id="tspan827-3">Mereka betul-betul</tspan><tspan
         sodipodi:role="line"
         style="font-size:45px;line-height:1.20000005"
         x="541.04156"
         y="2175.6895"
         id="tspan872">“spesial”.</tspan></text>
    <text
       xml:space="preserve"
       style="font-style:normal;font-variant:normal;font-weight:normal;font-stretch:normal;font-size:24.34302139px;line-height:0%;font-family:Lavi;-inkscape-font-specification:Lavi;text-align:center;letter-spacing:0px;word-spacing:0px;text-anchor:middle;fill:#000000;fill-opacity:1;stroke:none;stroke-width:0.99999994"
       x="1522.0032"
       y="1199.5613"
       id="text4246-3-5"
       transform="matrix(0.91106211,0,-0.15422983,1.09762,0,0)"><tspan
         sodipodi:role="line"
         style="font-size:91.28633118px;line-height:1.20000005;stroke-width:0.99999994"
         x="1522.0032"
         y="1199.5613"
         id="tspan872-2">!!!</tspan></text>
    <text
       xml:space="preserve"
       style="font-style:normal;font-variant:normal;font-weight:normal;font-stretch:normal;line-height:0%;font-family:Lavi;-inkscape-font-specification:Lavi;text-align:center;letter-spacing:0px;word-spacing:0px;text-anchor:middle;fill:#000000;fill-opacity:1;stroke:none"
       x="1536.0366"
       y="1231.6084"
       id="text4246-3-9"><tspan
         sodipodi:role="line"
         style="font-size:45px;line-height:1.20000005"
         x="1536.0366"
         y="1231.6084"
         id="tspan920">Maksudku,</tspan><tspan
         sodipodi:role="line"
         style="font-size:45px;line-height:1.20000005"
         x="1536.0366"
         y="1285.6084"
         id="tspan157">kamu benar-benar</tspan><tspan
         sodipodi:role="line"
         style="font-size:45px;line-height:1.20000005"
         x="1536.0366"
         y="1339.6084"
         id="tspan159">beruntung.</tspan></text>
    <text
       xml:space="preserve"
       style="font-style:normal;font-variant:normal;font-weight:normal;font-stretch:normal;line-height:0%;font-family:Lavi;-inkscape-font-specification:Lavi;text-align:center;letter-spacing:0px;word-spacing:0px;text-anchor:middle;fill:#000000;fill-opacity:1;stroke:none"
       x="2092.8928"
       y="2023.6633"
       id="text4246-3-9-0"><tspan
         sodipodi:role="line"
         style="font-size:45px;line-height:1.20000005"
         x="2092.8928"
         y="2023.6633"
         id="tspan170">Aku yakin mereka</tspan><tspan
         sodipodi:role="line"
         style="font-size:45px;line-height:1.20000005"
         x="2092.8928"
         y="2077.6633"
         id="tspan64">mengijinkanmu</tspan><tspan
         sodipodi:role="line"
         style="font-size:45px;line-height:1.20000005"
         x="2092.8928"
         y="2131.6633"
         id="tspan172">melakukan apapun</tspan><tspan
         sodipodi:role="line"
         style="font-size:45px;line-height:1.20000005"
         x="2092.8928"
         y="2185.6633"
         id="tspan174">yang kamu mau.</tspan></text>
    <text
       xml:space="preserve"
       style="font-style:normal;font-variant:normal;font-weight:normal;font-stretch:normal;line-height:0%;font-family:Lavi;-inkscape-font-specification:Lavi;text-align:center;letter-spacing:0px;word-spacing:0px;text-anchor:middle;fill:#000000;fill-opacity:1;stroke:none"
       x="604.55011"
       y="2374.322"
       id="text4246-3-9-0-6"><tspan
         sodipodi:role="line"
         style="font-size:45px;line-height:1.20000005"
         x="604.55011"
         y="2374.322"
         id="tspan289">Seperti, menolak tata</tspan><tspan
         sodipodi:role="line"
         style="font-size:45px;line-height:1.20000005"
         x="604.55011"
         y="2428.322"
         id="tspan291">krama tidak berguna</tspan><tspan
         sodipodi:role="line"
         style="font-size:45px;line-height:1.20000005"
         x="604.55011"
         y="2482.322"
         id="tspan295">ini dan mengobrol</tspan><tspan
         sodipodi:role="line"
         style="font-size:45px;line-height:1.20000005"
         x="604.55011"
         y="2536.322"
         id="tspan297">tanpa perlu</tspan><tspan
         sodipodi:role="line"
         style="font-size:45px;line-height:1.20000005"
         x="604.55011"
         y="2590.322"
         id="tspan80">mengkuatirkan</tspan><tspan
         sodipodi:role="line"
         style="font-size:45px;line-height:1.20000005"
         x="604.55011"
         y="2644.322"
         id="tspan299">diplomasi.</tspan></text>
    <text
       xml:space="preserve"
       style="font-style:normal;font-variant:normal;font-weight:normal;font-stretch:normal;font-size:11.65941334px;line-height:0%;font-family:Lavi;-inkscape-font-specification:Lavi;text-align:center;letter-spacing:0px;word-spacing:0px;text-anchor:middle;fill:#000000;fill-opacity:1;stroke:none;stroke-width:0.99999994"
       x="1422.9331"
       y="2290.8694"
       id="text4246-3-9-0-6-1"
       transform="scale(0.97161775,1.0292113)"><tspan
         sodipodi:role="line"
         style="font-size:43.72279739px;line-height:1.20000005;stroke-width:0.99999994"
         x="1422.9331"
         y="2290.8694"
         id="tspan869">Atau menari dan</tspan><tspan
         sodipodi:role="line"
         style="font-size:43.72279739px;line-height:1.20000005;stroke-width:0.99999994"
         x="1422.9331"
         y="2343.3367"
         id="tspan315">bersenang-senang</tspan><tspan
         sodipodi:role="line"
         style="font-size:43.72279739px;line-height:1.20000005;stroke-width:0.99999994"
         x="1422.9331"
         y="2395.8042"
         id="tspan317">tanpa perlu memikirkan</tspan><tspan
         sodipodi:role="line"
         style="font-size:43.72279739px;line-height:1.20000005;stroke-width:0.99999994"
         x="1422.9331"
         y="2448.2715"
         id="tspan321">apa yang orang pikirkan</tspan><tspan
         sodipodi:role="line"
         style="font-size:43.72279739px;line-height:1.20000005;stroke-width:0.99999994"
         x="1422.9331"
         y="2500.7388"
         id="tspan116">tentang kamu.</tspan></text>
    <text
       xml:space="preserve"
       style="font-style:normal;font-variant:normal;font-weight:normal;font-stretch:normal;line-height:0%;font-family:Lavi;-inkscape-font-specification:Lavi;text-align:center;letter-spacing:0px;word-spacing:0px;text-anchor:middle;fill:#000000;fill-opacity:1;stroke:none"
       x="1864.9318"
       y="2361.875"
       id="text4246-3-9-0-6-1-0"><tspan
         sodipodi:role="line"
         style="font-size:45px;line-height:1.20000005"
         x="1864.9318"
         y="2361.875"
         id="tspan881">Atau merasakan</tspan><tspan
         sodipodi:role="line"
         style="font-size:45px;line-height:1.20000005"
         x="1864.9318"
         y="2415.875"
         id="tspan337">semua makanan di</tspan><tspan
         sodipodi:role="line"
         style="font-size:45px;line-height:1.20000005"
         x="1864.9318"
         y="2469.875"
         id="tspan339">buffet tanpa takut</tspan><tspan
         sodipodi:role="line"
         style="font-size:45px;line-height:1.20000005"
         x="1864.9318"
         y="2523.875"
         id="tspan341">seseorang akan</tspan><tspan
         sodipodi:role="line"
         style="font-size:45px;line-height:1.20000005"
         x="1864.9318"
         y="2577.875"
         id="tspan355">melihatmu!</tspan></text>
    <flowRoot
       xml:space="preserve"
       id="flowRoot363"
       style="fill:black;fill-opacity:1;stroke:none;font-family:sans-serif;font-style:normal;font-weight:normal;font-size:40px;line-height:1.25;letter-spacing:0px;word-spacing:0px"><flowRegion
         id="flowRegion365"><rect
           id="rect367"
           width="508.75055"
           height="2099.0815"
           x="-590.30597"
           y="1318.4795" /></flowRegion><flowPara
         id="flowPara369" /></flowRoot>  </g>
</svg>
