<?xml version="1.0" encoding="UTF-8" standalone="no"?>
<!-- Created with Inkscape (http://www.inkscape.org/) -->

<svg
   xmlns:dc="http://purl.org/dc/elements/1.1/"
   xmlns:cc="http://creativecommons.org/ns#"
   xmlns:rdf="http://www.w3.org/1999/02/22-rdf-syntax-ns#"
   xmlns:svg="http://www.w3.org/2000/svg"
   xmlns="http://www.w3.org/2000/svg"
   xmlns:xlink="http://www.w3.org/1999/xlink"
   xmlns:sodipodi="http://sodipodi.sourceforge.net/DTD/sodipodi-0.dtd"
   xmlns:inkscape="http://www.inkscape.org/namespaces/inkscape"
   id="svg2"
   version="1.1"
   inkscape:version="0.92.4 5da689c313, 2019-01-14"
   width="2481"
   height="3503"
   sodipodi:docname="E24P03.svg">
  <metadata
     id="metadata8">
    <rdf:RDF>
      <cc:Work
         rdf:about="">
        <dc:format>image/svg+xml</dc:format>
        <dc:type
           rdf:resource="http://purl.org/dc/dcmitype/StillImage" />
        <dc:title />
      </cc:Work>
    </rdf:RDF>
  </metadata>
  <defs
     id="defs6">
    <filter
       style="color-interpolation-filters:sRGB"
       id="filter4375-4-1-1-1-9-5-8"
       inkscape:label="Drop Shadow">
      <feFlood
         id="feFlood4377-7-9-0-8-1-7-3"
         flood-opacity="1"
         flood-color="rgb(200,55,55)"
         result="flood" />
      <feComposite
         id="feComposite4379-3-8-8-2-77-4-1"
         in2="SourceGraphic"
         in="flood"
         operator="in"
         result="composite1" />
      <feMorphology
         id="feMorphology4393-1-0-49-8-9-3-0"
         operator="dilate"
         radius="6.2000000000000002"
         result="result3" />
      <feComposite
         id="feComposite4385-9-5-7-0-8-8-7"
         in2="result3"
         in="SourceGraphic"
         operator="over"
         result="fbSourceGraphic" />
      <feColorMatrix
         result="fbSourceGraphicAlpha"
         in="fbSourceGraphic"
         values="0 0 0 -1 0 0 0 0 -1 0 0 0 0 -1 0 0 0 0 1 0"
         id="feColorMatrix4544" />
      <feTurbulence
         id="feTurbulence4546"
         type="fractalNoise"
         numOctaves="3"
         seed="37"
         baseFrequency="0.129 0.0050000000000000001"
         result="turbulence" />
      <feDisplacementMap
         id="feDisplacementMap4548"
         in2="turbulence"
         in="fbSourceGraphic"
         scale="6.6"
         yChannelSelector="G"
         xChannelSelector="R"
         result="fbSourceGraphic" />
      <feColorMatrix
         result="fbSourceGraphicAlpha"
         in="fbSourceGraphic"
         values="0 0 0 -1 0 0 0 0 -1 0 0 0 0 -1 0 0 0 0 1 0"
         id="feColorMatrix4670" />
      <feFlood
         id="feFlood4672"
         flood-opacity="1"
         flood-color="rgb(80,22,22)"
         result="flood"
         in="fbSourceGraphic" />
      <feComposite
         id="feComposite4674"
         in2="fbSourceGraphic"
         in="flood"
         operator="in"
         result="composite1" />
      <feGaussianBlur
         id="feGaussianBlur4676"
         in="composite1"
         stdDeviation="0"
         result="blur" />
      <feOffset
         id="feOffset4678"
         dx="6"
         dy="6"
         result="offset" />
      <feComposite
         id="feComposite4680"
         in2="offset"
         in="fbSourceGraphic"
         operator="over"
         result="composite2" />
    </filter>
    <filter
       inkscape:collect="always"
       style="color-interpolation-filters:sRGB"
       id="filter4210"
       x="-0.0015578248"
       width="1.0031157"
       y="-0.0045528179"
       height="1.0091056">
      <feGaussianBlur
         inkscape:collect="always"
         stdDeviation="0.2079876"
         id="feGaussianBlur4212" />
    </filter>
  </defs>
  <sodipodi:namedview
     pagecolor="#ffffff"
     bordercolor="#666666"
     borderopacity="1"
     objecttolerance="10"
     gridtolerance="10"
     guidetolerance="10"
     inkscape:pageopacity="0"
     inkscape:pageshadow="2"
     inkscape:window-width="1280"
     inkscape:window-height="756"
     id="namedview4"
     showgrid="false"
     inkscape:zoom="1.083096"
     inkscape:cx="1789.517"
     inkscape:cy="921.79334"
     inkscape:window-x="0"
     inkscape:window-y="0"
     inkscape:window-maximized="1"
     inkscape:current-layer="layer1"
     inkscape:snap-global="false" />
  <g
     inkscape:groupmode="layer"
     id="layer2"
     inkscape:label="artwork"
     sodipodi:insensitive="true">
    <image
       sodipodi:absref="/home/wolfy/tmp/pepper/lang/cs/../gfx_Pepper-and-Carrot_by-David-Revoy_E24P03.png"
       xlink:href="../gfx_Pepper-and-Carrot_by-David-Revoy_E24P03.png"
       y="0"
       x="0"
       id="image10"
       height="3503"
       width="2481" />
  </g>
  <g
     inkscape:groupmode="layer"
     id="layer3"
     inkscape:label="speechbubbles"
     style="display:inline">
    <path
       style="color:#000000;display:inline;overflow:visible;visibility:visible;fill:#ffffff;fill-opacity:1;fill-rule:nonzero;stroke:none;stroke-width:0.99999994px;marker:none;enable-background:accumulate"
       d="m 496.34824,1317.3928 c 0.30278,22.9688 -19.81751,42.5512 -115.01798,44.6155 -95.20044,2.0644 -114.88706,-28.9299 -115.49969,-42.2829 10.26566,-43.9619 70.31524,-56.2296 106.76278,-56.0964 23.51678,0.5158 89.88224,4.9457 105.07449,15.6148 15.19219,10.669 19.71245,19.6265 18.6804,38.149 z"
       id="path3365-0"
       inkscape:connector-curvature="0"
       sodipodi:nodetypes="cccccc" />
    <path
       style="color:#000000;display:inline;overflow:visible;visibility:visible;fill:#ffffff;fill-opacity:1;fill-rule:nonzero;stroke:none;stroke-width:1.15259111px;marker:none;enable-background:accumulate"
       d="m 294.34115,1383.9315 c -1.96428,-10.1237 33.39278,-63.4419 153.21406,-56.6927 119.82129,6.7491 143.39272,45.2192 142.41051,58.7175 -0.98216,13.4982 -30.4463,34.4205 -48.12494,37.7952 -17.67849,3.3744 -63.83917,11.4734 -93.30348,8.7738 -29.46415,-2.6998 -119.82121,-16.198 -137.49981,-28.3465 -17.67852,-12.1484 -14.73208,-17.5477 -16.69634,-20.2473 z"
       id="path3365"
       inkscape:connector-curvature="0" />
    <path
       style="fill:#ffffff;fill-opacity:1;fill-rule:evenodd;stroke:#fff6d5;stroke-width:1px;stroke-linecap:butt;stroke-linejoin:miter;stroke-opacity:1"
       d="m 1768.7976,858.98151 83.464,-57.29006 159.1639,-2.66465 106.7563,5.32931 170.81,10.65861 64.0538,29.3112 19.4102,65.28401 -31.0563,69.28094 -91.2282,39.96983 -147.5177,2.6646 -182.0128,2.0131 -129.9972,-26.02408 -59.728,-56.10599 1.0026,-58.44493 z"
       id="path5098"
       inkscape:connector-curvature="0"
       sodipodi:nodetypes="ccccccccccccccc" />
    <path
       style="color:#000000;display:inline;overflow:visible;visibility:visible;fill:#ffffff;fill-opacity:1;fill-rule:nonzero;stroke:none;stroke-width:1px;marker:none;enable-background:accumulate"
       d="m 165.39445,204.57055 c -25.1607,-12.39782 -33.96692,-23.91004 -31.45075,-30.99455 2.51605,-7.08441 25.16058,-43.39235 52.8372,-47.82016 27.67674,-4.4278 99.38445,-9.74112 115.73893,-5.31331 16.35448,4.42772 62.90162,33.65124 62.90162,48.70567 0,15.05452 -8.80622,44.27795 -33.96691,53.13348 -25.16058,8.8556 -135.86743,14.169 -166.06009,-17.71113 z"
       id="path3349"
       inkscape:connector-curvature="0" />
    <path
       style="fill:#ffffff;fill-rule:evenodd;stroke:none;stroke-width:1.11408746px;stroke-linecap:butt;stroke-linejoin:miter;stroke-opacity:1"
       d="m 106.8062,293.0717 c 9.49585,-35.23392 35.06719,-61.96689 62.89765,-79.81282 13.24434,-8.61579 28.38289,-14.92963 43.8741,-13.26886 15.38964,0.99235 30.42151,6.91698 45.98138,4.85913 18.92036,-0.67971 38.17289,-3.64513 56.876,0.5922 16.62638,4.62353 33.75632,7.01811 50.91361,7.15696 12.10393,-2.93475 23.17981,4.88728 33.98934,9.56572 9.70422,5.05358 19.61624,10.35558 27.76721,18.17265 7.50949,10.97346 16.50111,20.52016 24.09829,31.39596 4.97104,5.94571 4.49341,14.15832 4.2644,21.75894 -0.64562,15.56451 -1.73895,31.37463 -5.797,46.36966 -2.42843,9.51981 -11.40436,12.67034 -18.3013,17.04488 -16.31921,9.23464 -33.64809,16.23753 -49.22275,27.10479 -15.43001,5.56446 -31.82783,2.96172 -47.65202,2.12079 -13.25961,-1.65639 -26.59806,-3.96621 -39.97161,-2.03997 -17.02137,1.4096 -33.99105,5.05948 -51.07329,4.59196 -21.39938,-3.20806 -41.89417,-11.10712 -62.63198,-17.44357 -18.60555,-5.58499 -35.563,-16.08703 -51.8341,-27.32158 -8.6914,-6.37969 -17.8923,-13.7951 -20.95963,-25.55207 -2.51447,-8.0957 -3.10694,-16.7642 -3.2183,-25.29477 z"
       id="path4365"
       inkscape:connector-curvature="0" />
    <path
       style="fill:#ffffff;stroke:none;stroke-width:1"
       d="m 255.74611,486.59733 c -23.27266,-23.83534 -20.48879,-35.75842 -16.41183,-49.14873 4.07679,-13.39047 8.97204,-25.16536 5.766,-32.83447 -3.20588,-7.66895 -10.93987,-14.22751 -17.30992,-18.09351 -6.37002,-3.86612 0.37438,-12.96194 1.66184,-22.47971 1.28739,-9.51792 -6.96124,-58.99857 -6.96124,-58.99857 0,0 -18.46628,33.89095 -21.4884,46.01372 -3.02229,12.1226 -4.17691,16.54274 -4.30975,21.64038 -0.13267,5.09782 1.0675,17.51673 6.55388,23.65787 5.48637,6.14113 13.38767,8.34016 18.4974,11.72826 5.10986,3.388 3.10789,14.22244 1.75318,24.94735 -1.3548,10.72489 -0.91888,18.61083 7.73931,32.21546 7.42161,11.66179 24.50953,21.35195 24.50953,21.35195 z"
       id="path3023-2"
       inkscape:connector-curvature="0"
       sodipodi:nodetypes="csssscssssssc" />
    <text
       xml:space="preserve"
       style="font-style:normal;font-variant:normal;font-weight:normal;font-stretch:normal;font-size:10.6579771px;line-height:0.01%;font-family:Arial;-inkscape-font-specification:Arial;letter-spacing:0px;word-spacing:0px;fill:#b8764f;fill-opacity:1;stroke:none;stroke-width:0.99999994"
       x="146.31161"
       y="792.88184"
       id="text969"
       transform="matrix(0.93043638,-0.40475701,0,1.0747645,0,0)"><tspan
         sodipodi:role="line"
         x="146.31161"
         y="792.88184"
         id="tspan967"
         style="fill:#b8764f;fill-opacity:1;stroke-width:0.99999994"><tspan
           x="146.31161"
           y="792.88184"
           style="font-style:normal;font-variant:normal;font-weight:normal;font-stretch:normal;font-size:42.63190842px;line-height:1.25;font-family:Lavi;-inkscape-font-specification:Lavi;fill:#b8764f;fill-opacity:1;stroke-width:0.99999994"
           id="tspan965">Škrt</tspan></tspan></text>
    <path
       style="fill:#ffffff;fill-rule:evenodd;stroke:none;stroke-width:1px;stroke-linecap:butt;stroke-linejoin:miter;stroke-opacity:1"
       d="m 370.97128,1548.8957 c 34.54669,1.1959 83.59442,-18.7033 52.12277,-69.4699 56.47337,33.678 100.13838,24.2103 183.52271,-40.2063 -1.47311,82.0628 37.11457,71.8179 71.27691,53.7914 -31.90286,29.7205 29.98768,41.3762 62.7871,40.7264 -64.92897,64.01 -27.27335,80.4581 1.56546,100.994 -69.13686,-11.9888 -50.31605,20.4329 -57.08491,39.934 -61.35447,-39.0429 -103.02682,-26.0066 -133.68078,16.1838 -19.06347,-20.5486 -27.75576,-65.0776 -87.42715,8.2687 19.50997,-61.1734 -11.17322,-52.8327 -59.48106,-20.0832 6.45489,-20.8238 51.20296,-54.8312 -27.6371,-46.2897 48.01675,-22.6039 56.51496,-49.4327 -5.96395,-83.8492 z"
       id="path4584"
       inkscape:connector-curvature="0"
       sodipodi:nodetypes="cccccccccccc" />
    <path
       style="color:#000000;display:inline;overflow:visible;visibility:visible;fill:#ffffff;fill-opacity:1;fill-rule:nonzero;stroke:none;stroke-width:1px;marker:none;enable-background:accumulate"
       d="m 811.85574,1691.333 c -13.81416,11.4352 -28.07371,23.5268 -45.37048,28.6126 -4.94334,1.3415 -10.13724,2.383 -15.17734,1.997 -5.10914,-1.5938 -7.95117,-6.8567 -8.29553,-12.0924 -1.01963,-7.5052 0.9934,-15.9414 -3.08945,-22.6298 -3.09088,-4.7908 -9.22063,-4.9463 -14.32973,-5.5392 -13.06169,-1.2494 -26.43419,-0.6991 -39.15272,-4.0712 -14.5982,-2.8393 -29.71536,-6.9131 -40.9249,-17.0755 -4.36621,-4.0993 -8.34623,-9.031 -9.60144,-15.1479 -3.92579,-15.5158 0.93662,-33.8932 13.48534,-44.6997 8.61929,-6.1452 22.04985,-4.5663 27.3382,4.6491 2.86475,4.8194 1.99218,10.9537 -0.28824,15.9992 -2.51679,10.0054 0.79504,20.6754 7.64932,27.7427 5.55929,5.9304 12.9599,9.9511 20.86509,11.8157 9.98256,5.4504 21.83723,2.9201 32.79926,2.915 5.00527,0.073 10.31159,0.497 14.65191,3.0035 5.29618,5.1051 4.90278,13.2996 3.78431,20.2236 -0.97364,7.164 -2.89521,15.3934 1.47098,21.6216 2.44167,4.7598 8.43508,2.4997 12.74015,2.4695 13.91862,-1.9388 27.23033,-8.2543 38.53704,-16.9232 1.01948,-0.9054 1.96415,-1.8854 2.90823,-2.8706 z"
       id="path4496"
       inkscape:connector-curvature="0"
       inkscape:transform-center-x="15.738959"
       inkscape:transform-center-y="-33.216744" />
    <text
       xml:space="preserve"
       style="font-style:normal;font-variant:normal;font-weight:normal;font-stretch:normal;font-size:66.33062744px;line-height:0.01%;font-family:Arial;-inkscape-font-specification:Arial;letter-spacing:0.01132977px;word-spacing:0px;display:inline;fill:#ffffff;fill-opacity:1;stroke:#fc5959;stroke-width:3.02600002;stroke-miterlimit:4;stroke-dasharray:none;stroke-opacity:1"
       x="2100.5652"
       y="1099.4115"
       id="text1105"
       transform="matrix(1.0092628,0.17044443,-0.63347357,0.88384115,0,0)"><tspan
         sodipodi:role="line"
         x="2127.418"
         y="1099.4115"
         id="tspan1103"
         style="font-style:normal;font-variant:normal;font-weight:normal;font-stretch:normal;font-family:Lavi;-inkscape-font-specification:Lavi;fill:#ffffff;fill-opacity:1;stroke:#fc5959;stroke-width:3.02600002;stroke-miterlimit:4;stroke-dasharray:none;stroke-opacity:1"><tspan
           x="2127.418"
           y="1099.4115"
           style="font-style:normal;font-variant:normal;font-weight:normal;font-stretch:normal;font-size:54.77391434px;font-family:Lavi;-inkscape-font-specification:Lavi;fill:#ffffff;fill-opacity:1;stroke:#fc5959;stroke-width:3.02600002;stroke-miterlimit:4;stroke-dasharray:none;stroke-opacity:1"
           id="tspan1095">BzinK</tspan></tspan></text>
    <path
       style="color:#000000;display:inline;overflow:visible;visibility:visible;fill:#ffffff;fill-opacity:1;fill-rule:nonzero;stroke:none;stroke-width:1px;marker:none;enable-background:accumulate"
       d="m 840.39099,2415.3952 c -69.73645,-6.1112 -169.34955,-17.0892 -190.02994,-62.9999 -20.68034,-45.9109 12.19681,-120.7647 52.25191,-147.1359 40.05497,-26.3711 106.78152,-34.6866 167.26051,-27.4365 60.47903,7.2501 142.00623,3.8059 161.46763,46.905 19.4617,43.0989 47.4562,119.3664 -8.2671,157.6266 -63.50017,43.6 -182.55349,33.2659 -182.68301,33.0407 z"
       id="path3970-1"
       inkscape:connector-curvature="0"
       sodipodi:nodetypes="ccccssc" />
    <path
       style="opacity:1;fill:#ffffff;fill-rule:evenodd;stroke:none;stroke-width:1px;stroke-linecap:butt;stroke-linejoin:miter;stroke-opacity:1"
       d="m 740.99257,2678.9224 c 81.33155,-3.7713 135.73985,-70.9891 126.35903,-170.042 -0.7356,-13.0761 -2.22429,-73.8821 -3.69549,-94.3134 -1.4712,-20.4314 -28.77037,-38.6153 -26.56347,-14.9149 2.2069,23.7004 2.37118,102.019 6.25838,120.7638 11.59073,90.9486 -48.83803,137.4097 -102.35845,158.5065 z"
       id="path4272"
       inkscape:connector-curvature="0"
       sodipodi:nodetypes="ccsscc" />
    <path
       style="fill:#ffffff;fill-opacity:1;stroke:none;stroke-width:0.99999982"
       d="m 1593.4233,2377.398 c 25.098,-90.6375 30.9041,-125.5153 312.3599,-121.5449 246.2087,3.4731 304.5049,48.3761 320.7901,108.3246 16.719,41.2377 52.9928,124.4889 -95.3931,168.667 -148.3863,44.1782 -444.9775,21.0512 -492.2134,-18.5534 -51.731,-45.7684 -44.1765,-106.3673 -45.5435,-136.8933 z"
       id="path3238"
       inkscape:connector-curvature="0"
       sodipodi:nodetypes="cscccc" />
    <path
       style="fill:#ffffff;stroke:none;stroke-width:1"
       d="m 1667.7291,2850.623 c -28.0273,-50.6036 -13.2215,-93.7285 1.8965,-108.2057 15.1178,-14.4771 50.6778,-42.8284 50.9445,-56.9806 0.2668,-14.1522 -15.4826,-50.9134 -21.5889,-63.5846 -7.7887,-16.1627 79.2563,-67.9419 87.5629,-79.9355 8.3067,-11.9938 19.7346,-62.3727 19.7346,-62.3727 0,0 -50.6027,28.0238 -63.2766,41.8377 -12.6739,13.8139 -6.0044,5.2923 -9.6101,12.305 -3.6058,7.0127 -71.1709,62.8269 -66.9634,77.2471 4.2073,14.4202 23.4056,61.9081 28.8814,72.067 5.4761,10.1588 -29.6375,37.3716 -38.8524,50.9878 -9.2149,13.6163 -19.5808,32.142 -19.0015,56.4166 0.5543,23.2298 30.273,60.2179 30.273,60.2179 z"
       id="path3023"
       inkscape:connector-curvature="0"
       sodipodi:nodetypes="csssscssssssc" />
    <path
       style="fill:#ffffff;fill-rule:evenodd;stroke:none;stroke-width:1px;stroke-linecap:butt;stroke-linejoin:miter;stroke-opacity:1"
       d="m 1627.9933,177.23146 -52.4846,76.91879 11.7799,111.37678 149.0449,30.77218 303.4128,-15.38609 79.8456,-82.05914 21.2921,-97.44521 -55.8919,-94.88087 -379.463,6.23269 z"
       id="path5054"
       inkscape:connector-curvature="0"
       sodipodi:nodetypes="cccccccccc" />
    <path
       style="color:#000000;display:inline;overflow:visible;visibility:visible;fill:#ffffff;fill-opacity:1;fill-rule:nonzero;stroke:none;stroke-width:1.23743427px;marker:none;enable-background:accumulate"
       d="m 2194.9249,390.7352 c -72.7552,-1.15715 -103.4818,-14.80085 -121.4255,-35.17732 -17.9436,-20.37652 -3.0399,-53.27342 28.485,-64.92189 31.5249,-11.64849 74.177,-12.829 123.5478,-11.28681 89.2103,2.78663 151.0004,11.56823 157.9856,43.16595 6.9357,31.37276 1.3684,48.0176 -64.2081,62.95799 -61.7324,8.59876 -124.3848,5.26208 -124.3848,5.26208 z"
       id="path3970"
       inkscape:connector-curvature="0"
       sodipodi:nodetypes="cccsscc" />
    <path
       style="fill:#ffffff;fill-opacity:1;fill-rule:evenodd;stroke:#fff6d5;stroke-width:1.09895539px;stroke-linecap:butt;stroke-linejoin:miter;stroke-opacity:1"
       d="m 1859.617,434.12703 -33.6668,88.19151 50.8354,79.14365 247.0329,-4.38029 183.5541,-1.97375 96.5276,-33.93788 -2.6379,-136.04635 -78.5608,-43.66109 -186.3108,-9.38738 -173.4963,9.8687 z"
       id="path5075"
       inkscape:connector-curvature="0"
       sodipodi:nodetypes="ccccccccccc" />
    <path
       style="color:#000000;display:inline;overflow:visible;visibility:visible;fill:#ffffff;fill-opacity:1;fill-rule:nonzero;stroke:none;stroke-width:1.54035234px;marker:none;enable-background:accumulate"
       d="m 2051.6717,725.14275 c -130.2143,-1.42561 -185.2073,-18.2346 -217.3223,-43.33833 -32.1146,-25.10381 -5.4406,-65.63267 50.9812,-79.98355 56.4221,-14.35089 132.7589,-15.80527 221.1206,-13.90531 159.6648,3.43313 270.2542,14.25203 282.756,53.18031 12.4132,38.65111 2.449,59.15751 -114.917,77.56401 -110.486,10.59365 -222.6185,6.48287 -222.6185,6.48287 z"
       id="path3970-36"
       inkscape:connector-curvature="0"
       sodipodi:nodetypes="cccsscc" />
    <path
       style="fill:#ffffff;fill-rule:evenodd;stroke:none;stroke-width:1px;stroke-linecap:butt;stroke-linejoin:miter;stroke-opacity:1"
       d="m 1968.3057,729.12617 c 29.3,2.37711 72.2049,-8.86576 48.5171,-44.65472 45.9784,25.3572 83.676,20.93055 158.4669,-18.88537 -6.2152,55.47661 27.2126,50.29343 57.3483,39.64259 -28.9219,18.66829 22.9941,29.36578 50.9203,30.41443 -59.0751,40.37812 -28.0541,53.21963 -4.7766,68.4278 -58.0567,-11.25186 -44.0155,11.54652 -50.9499,24.43851 -49.804,-29.21 -86.0232,-22.27747 -114.6373,4.88772 -14.9656,-14.7732 -19.6631,-45.30676 -74.8327,1.62921 20.2873,-40.51926 -6.3047,-36.26621 -49.3578,-16.29228 6.7475,-13.8014 46.8499,-34.78842 -20.6983,-32.58474 42.1919,-13.12034 51.0396,-30.8935 0,-57.02315 z"
       id="path4584-1"
       inkscape:connector-curvature="0"
       sodipodi:nodetypes="cccccccccccc" />
    <path
       style="fill:#ffffff;fill-opacity:1;fill-rule:evenodd;stroke:none;stroke-width:1.02277541px;stroke-linecap:butt;stroke-linejoin:miter;stroke-opacity:1"
       d="m 2210.6402,975.56231 107.9073,24.0207 17.9846,79.56829 -56.5822,46.5596 -184.2033,7.6239 -240.0246,0.02 -64.2602,-31.6838 1.3834,-64.5554 74.7051,-49.54259 175.6952,-24.0205 z"
       id="path5161"
       inkscape:connector-curvature="0"
       sodipodi:nodetypes="ccccccccccc" />
    <path
       style="color:#000000;display:inline;overflow:visible;visibility:visible;fill:#ffffff;fill-opacity:1;fill-rule:nonzero;stroke:none;stroke-width:1.23743439px;marker:none;enable-background:accumulate"
       d="m 468.12602,1531.336 c -91.4605,-1.394 -130.08678,-17.8307 -152.64382,-42.3783 -22.55683,-24.5477 -3.82143,-64.1787 35.80842,-78.2117 39.62996,-14.033 93.2478,-15.4551 155.3117,-13.5974 112.14612,3.3572 189.82238,13.9364 198.60345,52.0024 8.71882,37.7949 1.72015,57.847 -80.71593,75.8458 -77.60367,10.3589 -156.36382,6.3392 -156.36382,6.3392 z"
       id="path3970-36-4"
       inkscape:connector-curvature="0"
       sodipodi:nodetypes="cccsscc" />
    <path
       style="color:#000000;display:inline;overflow:visible;visibility:visible;fill:#ffffff;fill-opacity:1;fill-rule:nonzero;stroke:none;stroke-width:1.19685698px;marker:none;enable-background:accumulate"
       d="m 1617.9733,2259.5976 c -5.0373,-25.3235 12.8787,-44.1378 23.0571,-53.122 10.1786,-8.9843 79.3503,-32.6555 105.6274,-34.6185 26.277,-1.9629 137.6167,8.2236 159.843,25.0671 42.4963,41.0213 26.4635,80.0335 -61.5897,103.2882 -16.6699,4.3293 -65.4849,10.0318 -81.6354,10.2104 -16.1505,0.1784 -142.3423,-8.8986 -145.3024,-50.8252 z"
       id="path3357"
       inkscape:connector-curvature="0"
       sodipodi:nodetypes="ccccccc" />
    <text
       xml:space="preserve"
       style="font-style:normal;font-variant:normal;font-weight:normal;font-stretch:normal;line-height:0%;font-family:Lavi;-inkscape-font-specification:Lavi;text-align:center;letter-spacing:0px;word-spacing:0px;text-anchor:middle;display:inline;opacity:0.35800003;fill:#000000;fill-opacity:1;stroke:none;stroke-width:1.45996165;filter:url(#filter4210)"
       x="1174.0292"
       y="1085.962"
       id="text4246-5"
       transform="matrix(0.59859266,-0.06157078,0.00633293,0.63548918,541.82445,2358.5786)"><tspan
         sodipodi:role="line"
         style="font-style:normal;font-variant:normal;font-weight:normal;font-stretch:normal;font-size:45.00812149px;line-height:1.25;font-family:Fondamento;-inkscape-font-specification:Fondamento;stroke:#000000;stroke-width:4.95442009;stroke-miterlimit:4;stroke-dasharray:none;stroke-opacity:1"
         x="1174.0292"
         y="1085.962"
         id="tspan4217">The KOMONAN</tspan><tspan
         sodipodi:role="line"
         style="font-style:normal;font-variant:normal;font-weight:normal;font-stretch:normal;font-size:45.00812149px;line-height:1.25;font-family:Fondamento;-inkscape-font-specification:Fondamento;stroke:#000000;stroke-width:4.95442009;stroke-miterlimit:4;stroke-dasharray:none;stroke-opacity:1"
         x="1179.5233"
         y="1142.2222"
         id="tspan4207"> </tspan><tspan
         sodipodi:role="line"
         style="font-style:normal;font-variant:normal;font-weight:normal;font-stretch:normal;font-size:45.00812149px;line-height:1.25;font-family:Fondamento;-inkscape-font-specification:Fondamento;stroke:#000000;stroke-width:4.95442009;stroke-miterlimit:4;stroke-dasharray:none;stroke-opacity:1"
         x="1179.5233"
         y="1198.4823"
         id="tspan4209"> </tspan></text>
    <path
       style="color:#000000;display:inline;overflow:visible;visibility:visible;fill:#ffffff;fill-opacity:1;fill-rule:nonzero;stroke:none;stroke-width:1px;marker:none;enable-background:accumulate"
       d="m 1589.7943,157.61754 c -8.8614,-24.36709 -33.8637,-38.6263 -43.4322,-37.17458 -9.5684,1.45169 37.9222,-18.88289 66.1459,18.41098 28.2236,37.29379 -9.2438,35.86676 -9.2438,35.86676 z"
       id="path4035-5"
       inkscape:connector-curvature="0" />
    <path
       style="color:#000000;display:inline;overflow:visible;visibility:visible;fill:#ffffff;fill-opacity:1;fill-rule:nonzero;stroke:none;stroke-width:1px;marker:none;enable-background:accumulate"
       d="m 1316.9724,411.08671 c 59.7698,37.7282 26.9131,115.63535 -8.523,127.33445 38.815,-5.69719 107.6543,-77.73022 42.1661,-140.88089 -140.721,-135.6979 -91.9073,-21.1982 -91.9073,-21.1982 z"
       id="path4035"
       inkscape:connector-curvature="0"
       sodipodi:nodetypes="ccscc" />
    <path
       style="color:#000000;display:inline;overflow:visible;visibility:visible;fill:#ffffff;fill-opacity:1;fill-rule:nonzero;stroke:none;stroke-width:0.99999982px;marker:none;enable-background:accumulate"
       d="m 1112.6921,89.58375 c 83.3367,4.792092 338.767,-8.461992 325.2971,159.67372 -15.2624,190.51029 -49.4678,180.14179 -349.7095,182.83157 C 969.43963,433.1537 730.71584,429.72671 722.98019,330.93521 665.94776,20.507733 995.21183,93.312657 1112.6921,89.58375 Z"
       id="path4546-6"
       inkscape:connector-curvature="0"
       sodipodi:nodetypes="csscc" />
    <path
       style="color:#000000;display:inline;overflow:visible;visibility:visible;fill:#ffffff;fill-opacity:1;fill-rule:nonzero;stroke:none;stroke-width:1.23743439px;marker:none;enable-background:accumulate"
       d="m 1603.1577,218.81569 c -72.2705,4.52699 -82.9245,-16.41582 -77.0834,-44.57794 7.3914,-35.63688 40.8892,-42.89308 85.1879,-41.5388 49.1997,0.26824 73.5251,7.0858 79.0271,22.20114 8.6871,23.86573 9.3102,47.69261 -16.5628,58.46055 -32.9494,8.01405 -70.5688,5.45505 -70.5688,5.45505 z"
       id="path3970-6"
       inkscape:connector-curvature="0"
       sodipodi:nodetypes="cscscc" />
  </g>
  <g
     inkscape:groupmode="layer"
     id="layer1"
     inkscape:label="txt"
     style="display:inline">
    <text
       xml:space="preserve"
       style="font-style:normal;font-variant:normal;font-weight:normal;font-stretch:normal;line-height:0%;font-family:Lavi;-inkscape-font-specification:Lavi;text-align:center;letter-spacing:0px;word-spacing:0px;text-anchor:middle;fill:#000000;fill-opacity:1;stroke:none"
       x="258.49622"
       y="188.50803"
       id="text4246"><tspan
         sodipodi:role="line"
         style="font-size:45px;line-height:1.25"
         x="258.49622"
         y="188.50803"
         id="tspan4252">Jedině...</tspan></text>
    <text
       xml:space="preserve"
       style="font-style:normal;font-variant:normal;font-weight:normal;font-stretch:normal;line-height:0%;font-family:Lavi;-inkscape-font-specification:Lavi;text-align:center;letter-spacing:0px;word-spacing:0px;text-anchor:middle;fill:#000000;fill-opacity:1;stroke:none"
       x="290.8338"
       y="279.57104"
       id="text4246-3"><tspan
         sodipodi:role="line"
         style="font-size:45px;line-height:1.25"
         x="297.9859"
         y="279.57104"
         id="tspan1451">Na něco jsem </tspan><tspan
         sodipodi:role="line"
         style="font-size:45px;line-height:1.25"
         x="290.8338"
         y="335.82104"
         id="tspan1455">si vzpomněla...</tspan></text>
    <text
       xml:space="preserve"
       style="font-style:normal;font-variant:normal;font-weight:normal;font-stretch:normal;line-height:0%;font-family:Lavi;-inkscape-font-specification:Lavi;text-align:center;letter-spacing:0px;word-spacing:0px;text-anchor:middle;fill:#000000;fill-opacity:1;stroke:none"
       x="1072.6111"
       y="158.58156"
       id="text4246-3-7"><tspan
         sodipodi:role="line"
         style="font-size:45px;line-height:1.25"
         x="1079.7632"
         y="158.58156"
         id="tspan872">Ano! V kapitole </tspan><tspan
         sodipodi:role="line"
         style="font-size:45px;line-height:1.25"
         x="1072.6111"
         y="214.83156"
         id="tspan874">“Zaklínadla destrukce”,</tspan><tspan
         sodipodi:role="line"
         style="font-size:45px;line-height:1.25"
         x="1072.6111"
         y="271.08154"
         id="tspan887">Tymiána doporučuje trénovat</tspan><tspan
         sodipodi:role="line"
         style="font-size:45px;line-height:1.25"
         x="1072.6111"
         y="290.63428"
         id="tspan1205" /><tspan
         sodipodi:role="line"
         style="font-size:45px;line-height:1.25"
         x="1072.6111"
         y="327.33154"
         id="tspan782">v mikro-dimenzi. Ale je tu</tspan><tspan
         sodipodi:role="line"
         style="font-size:45px;line-height:1.25"
         x="1072.6111"
         y="383.58154"
         id="tspan1459">i celkem dost varování:</tspan></text>
    <text
       xml:space="preserve"
       style="font-style:normal;font-variant:normal;font-weight:normal;font-stretch:normal;line-height:0%;font-family:Lavi;-inkscape-font-specification:Lavi;text-align:center;letter-spacing:0px;word-spacing:0px;text-anchor:middle;fill:#000000;fill-opacity:1;stroke:none"
       x="559.37494"
       y="1574.9316"
       id="text4246-3-7-6"><tspan
         sodipodi:role="line"
         style="font-size:45px;line-height:1.25"
         x="566.52704"
         y="1574.9316"
         id="tspan4386">Tak teda </tspan><tspan
         sodipodi:role="line"
         style="font-size:45px;line-height:1.25"
         x="559.37494"
         y="1631.1816"
         id="tspan1519">začneme!</tspan></text>
    <text
       xml:space="preserve"
       style="font-style:normal;font-variant:normal;font-weight:normal;font-stretch:normal;line-height:0%;font-family:Lavi;-inkscape-font-specification:Lavi;text-align:center;letter-spacing:0px;word-spacing:0px;text-anchor:middle;fill:#000000;fill-opacity:1;stroke:none"
       x="852.55774"
       y="2246.0481"
       id="text4246-3-7-6-1"><tspan
         sodipodi:role="line"
         style="font-size:45px;line-height:1.25"
         x="852.55774"
         y="2246.0481"
         id="tspan4390">Vytvořila tam</tspan><tspan
         sodipodi:role="line"
         style="font-size:45px;line-height:1.25"
         x="859.70984"
         y="2302.2981"
         id="tspan1530">právě Feferonka </tspan><tspan
         sodipodi:role="line"
         style="font-size:45px;line-height:1.25"
         x="852.55774"
         y="2358.5481"
         id="tspan1528">mikrodimenzi?</tspan></text>
    <text
       xml:space="preserve"
       style="font-style:normal;font-variant:normal;font-weight:normal;font-stretch:normal;line-height:0%;font-family:Lavi;-inkscape-font-specification:Lavi;letter-spacing:0px;word-spacing:0px;fill:#ffffff;fill-opacity:1;stroke:#c83737;stroke-width:0.99236238;stroke-miterlimit:4;stroke-dasharray:none;stroke-opacity:1;filter:url(#filter4375-4-1-1-1-9-5-8)"
       x="787.65729"
       y="1584.5073"
       id="text4580-6-0"
       transform="matrix(0.83434398,-0.14790328,-0.40858731,0.88612324,1099.912,885.91633)"><tspan
         sodipodi:role="line"
         id="tspan4582-1-1"
         x="787.65729"
         y="1584.5073"
         style="font-size:70px;line-height:1.25;fill:#ffffff;fill-opacity:1;stroke:#c83737;stroke-opacity:1"><tspan
           style="font-size:93.14950562px;fill:#ffffff;fill-opacity:1;stroke:#c83737;stroke-opacity:1"
           id="tspan4315-8">SCHwoomp!</tspan><tspan
           style="font-size:114.73223114px;fill:#ffffff;fill-opacity:1;stroke:#c83737;stroke-opacity:1"
           id="tspan4313-2">!</tspan></tspan></text>
    <text
       xml:space="preserve"
       style="font-style:normal;font-variant:normal;font-weight:normal;font-stretch:normal;line-height:0%;font-family:Lavi;-inkscape-font-specification:Lavi;text-align:center;letter-spacing:0px;word-spacing:0px;text-anchor:middle;fill:#000000;fill-opacity:1;stroke:none"
       x="1775.6528"
       y="2253.0674"
       id="text4246-3-7-6-1-7"
       inkscape:transform-center-x="15.695746"
       inkscape:transform-center-y="-3.6931168"><tspan
         sodipodi:role="line"
         style="font-size:45px;line-height:1.25"
         x="1775.6528"
         y="2253.0674"
         id="tspan1274">To je dobře!</tspan></text>
    <text
       xml:space="preserve"
       style="font-style:normal;font-variant:normal;font-weight:normal;font-stretch:normal;line-height:0%;font-family:Lavi;-inkscape-font-specification:Lavi;text-align:center;letter-spacing:0px;word-spacing:0px;text-anchor:middle;fill:#483200;fill-opacity:1;stroke:none;stroke-width:1.79999995;stroke-miterlimit:4;stroke-dasharray:none"
       x="2296.2903"
       y="381.42343"
       id="text4246-3-7-3"
       transform="skewX(-20)"><tspan
         sodipodi:role="line"
         style="font-size:45px;line-height:1.25;fill:#483200;fill-opacity:1;stroke-width:1.79999995;stroke-miterlimit:4;stroke-dasharray:none"
         x="2296.2903"
         y="384.54062"
         id="tspan875-6" /><tspan
         sodipodi:role="line"
         style="font-size:45px;line-height:1.25;fill:#080600;fill-opacity:1;stroke-width:1.79999995;stroke-miterlimit:4;stroke-dasharray:none"
         x="2296.2903"
         y="384.54062"
         id="tspan895-2" /><tspan
         sodipodi:role="line"
         style="font-size:45px;line-height:1.25;fill:#080600;fill-opacity:1;stroke-width:1.79999995;stroke-miterlimit:4;stroke-dasharray:none"
         x="2296.2903"
         y="384.54062"
         id="tspan4769" /><tspan
         sodipodi:role="line"
         style="font-size:45px;line-height:1.25;fill:#080600;fill-opacity:1;stroke-width:1.79999995;stroke-miterlimit:4;stroke-dasharray:none"
         x="2296.2903"
         y="421.23788"
         id="tspan885-2">“<tspan
   style="fill:#080600;fill-opacity:1;stroke:#000000;stroke-width:1.79999995;stroke-miterlimit:4;stroke-dasharray:none;stroke-opacity:1"
   id="tspan1025">NEVYNÁŠEJTE</tspan></tspan><tspan
         sodipodi:role="line"
         style="font-size:45px;line-height:1.25;fill:#080600;fill-opacity:1;stroke-width:1.79999995;stroke-miterlimit:4;stroke-dasharray:none"
         x="2296.2903"
         y="477.48788"
         id="tspan1496">výtvory zpět do reality.</tspan><tspan
         sodipodi:role="line"
         style="font-size:45px;line-height:1.25;fill:#080600;fill-opacity:1;stroke-width:1.79999995;stroke-miterlimit:4;stroke-dasharray:none"
         x="2296.2903"
         y="533.73792"
         id="tspan887-7">(z bezpečnostních</tspan><tspan
         sodipodi:role="line"
         style="font-size:45px;line-height:1.25;fill:#080600;fill-opacity:1;stroke-width:1.79999995;stroke-miterlimit:4;stroke-dasharray:none"
         x="2296.2903"
         y="589.98792"
         id="tspan1484"> důvodů).”</tspan></text>
    <text
       xml:space="preserve"
       style="font-style:normal;font-variant:normal;font-weight:normal;font-stretch:normal;line-height:0%;font-family:Lavi;-inkscape-font-specification:Lavi;text-align:center;letter-spacing:0px;word-spacing:0px;text-anchor:middle;fill:#000000;fill-opacity:1;stroke:none;stroke-width:1.79999995;stroke-miterlimit:4;stroke-dasharray:none"
       x="1956.1534"
       y="134.14406"
       id="text4246-3-7-3-2"
       transform="skewX(-20)"><tspan
         sodipodi:role="line"
         style="font-size:45px;line-height:1.25;fill:#000000;fill-opacity:1;stroke-width:1.79999995;stroke-miterlimit:4;stroke-dasharray:none"
         x="1956.1534"
         y="137.26125"
         id="tspan875-6-6" /><tspan
         sodipodi:role="line"
         style="font-size:45px;line-height:1.25;fill:#000000;fill-opacity:1;stroke-width:1.79999995;stroke-miterlimit:4;stroke-dasharray:none"
         x="1956.1534"
         y="137.26125"
         id="tspan895-2-1" /><tspan
         sodipodi:role="line"
         style="font-size:45px;line-height:1.25;fill:#000000;fill-opacity:1;stroke-width:1.79999995;stroke-miterlimit:4;stroke-dasharray:none"
         x="1956.1534"
         y="137.26125"
         id="tspan4769-8" /><tspan
         sodipodi:role="line"
         style="font-size:45px;line-height:1.25;fill:#000000;fill-opacity:1;stroke-width:1.79999995;stroke-miterlimit:4;stroke-dasharray:none"
         x="1956.1534"
         y="173.95851"
         id="tspan887-7-2">“Při vytváření</tspan><tspan
         sodipodi:role="line"
         style="font-size:45px;line-height:1.25;fill:#000000;fill-opacity:1;stroke-width:1.79999995;stroke-miterlimit:4;stroke-dasharray:none"
         x="1956.1534"
         y="230.20851"
         id="tspan1465">mikrodimenzí</tspan><tspan
         sodipodi:role="line"
         style="font-size:45px;line-height:1.25;fill:#000000;fill-opacity:1;stroke-width:1.79999995;stroke-miterlimit:4;stroke-dasharray:none"
         x="1963.3055"
         y="286.4585"
         id="tspan4842"><tspan
   style="fill:#000000;fill-opacity:1;stroke:#000000;stroke-width:1.79999995;stroke-miterlimit:4;stroke-dasharray:none;stroke-opacity:1"
   id="tspan1463">NEPOUŽIJTE</tspan> všechnu </tspan><tspan
         sodipodi:role="line"
         style="font-size:45px;line-height:1.25;fill:#000000;fill-opacity:1;stroke-width:1.79999995;stroke-miterlimit:4;stroke-dasharray:none"
         x="1956.1534"
         y="342.7085"
         id="tspan1482">svoji Rea.”</tspan></text>
    <text
       xml:space="preserve"
       style="font-style:normal;font-variant:normal;font-weight:normal;font-stretch:normal;line-height:0%;font-family:Lavi;-inkscape-font-specification:Lavi;text-align:center;letter-spacing:0px;word-spacing:0px;text-anchor:middle;fill:#483200;fill-opacity:1;stroke:none;stroke-width:1.29999995;stroke-miterlimit:4;stroke-dasharray:none"
       x="2381.2266"
       y="828.96283"
       id="text4246-3-7-3-7"
       transform="skewX(-20)"><tspan
         sodipodi:role="line"
         style="font-size:45px;line-height:1.25;fill:#483200;fill-opacity:1;stroke-width:1.29999995;stroke-miterlimit:4;stroke-dasharray:none"
         x="2381.2266"
         y="832.08002"
         id="tspan875-6-5" /><tspan
         sodipodi:role="line"
         style="font-size:45px;line-height:1.25;fill:#483200;fill-opacity:1;stroke-width:1.29999995;stroke-miterlimit:4;stroke-dasharray:none"
         x="2381.2266"
         y="832.08002"
         id="tspan895-2-9" /><tspan
         sodipodi:role="line"
         style="font-size:45px;line-height:1.25;fill:#483200;fill-opacity:1;stroke-width:1.29999995;stroke-miterlimit:4;stroke-dasharray:none"
         x="2381.2266"
         y="832.08002"
         id="tspan4769-2" /><tspan
         sodipodi:role="line"
         style="font-size:45px;line-height:1.25;fill:#000000;fill-opacity:1;stroke-width:1.29999995;stroke-miterlimit:4;stroke-dasharray:none"
         x="2388.3787"
         y="868.77728"
         id="tspan801">“<tspan
   style="fill:#000000;fill-opacity:1;stroke:#000000;stroke-width:1.29999995;stroke-miterlimit:4;stroke-dasharray:none;stroke-opacity:1"
   id="tspan1025-8">NEOČEKÁVEJTE </tspan>žádnou </tspan><tspan
         sodipodi:role="line"
         style="font-size:45px;line-height:1.25;fill:#000000;fill-opacity:1;stroke-width:1.29999995;stroke-miterlimit:4;stroke-dasharray:none"
         x="2388.3787"
         y="925.02728"
         id="tspan1515">pomoc z venčí </tspan><tspan
         sodipodi:role="line"
         style="font-size:45px;line-height:1.25;fill:#000000;fill-opacity:1;stroke-width:1.29999995;stroke-miterlimit:4;stroke-dasharray:none"
         x="2381.2266"
         y="981.27728"
         id="tspan1513">mikrodimenze...</tspan></text>
    <text
       xml:space="preserve"
       style="font-style:normal;font-variant:normal;font-weight:normal;font-stretch:normal;line-height:0%;font-family:Lavi;-inkscape-font-specification:Lavi;text-align:center;letter-spacing:0px;word-spacing:0px;text-anchor:middle;fill:#000000;fill-opacity:1;stroke:none"
       x="2228.116"
       y="354.75421"
       id="text4246-3-7-61"><tspan
         sodipodi:role="line"
         style="font-size:45px;line-height:1.25"
         x="2228.116"
         y="354.75421"
         id="tspan887-1">Přirozeně.</tspan></text>
    <text
       xml:space="preserve"
       style="font-style:normal;font-variant:normal;font-weight:normal;font-stretch:normal;line-height:0%;font-family:Lavi;-inkscape-font-specification:Lavi;text-align:center;letter-spacing:0px;word-spacing:0px;text-anchor:middle;fill:#000000;fill-opacity:1;stroke:#000000;stroke-width:0.60000002;stroke-miterlimit:4;stroke-dasharray:none;stroke-opacity:1"
       x="2135.0286"
       y="772.58179"
       id="text4246-3-7-61-9"><tspan
         sodipodi:role="line"
         style="font-size:45px;line-height:1.25;stroke:#000000;stroke-width:0.60000002;stroke-miterlimit:4;stroke-dasharray:none;stroke-opacity:1"
         x="2135.0286"
         y="772.58179"
         id="tspan887-1-4">Tady to je!</tspan></text>
    <text
       xml:space="preserve"
       style="font-style:normal;font-variant:normal;font-weight:normal;font-stretch:normal;line-height:0%;font-family:Lavi;-inkscape-font-specification:Lavi;text-align:center;letter-spacing:0px;word-spacing:0px;text-anchor:middle;fill:#000000;fill-opacity:1;stroke:none"
       x="2104.9907"
       y="667.78656"
       id="text4246-3-7-61-7"><tspan
         sodipodi:role="line"
         style="font-weight:bold;font-size:45px;line-height:1.25"
         x="2104.9907"
         y="667.78656"
         id="tspan887-1-8">Pche... Pochopitelně!</tspan></text>
    <text
       xml:space="preserve"
       style="font-style:normal;font-variant:normal;font-weight:normal;font-stretch:normal;line-height:0%;font-family:Lavi;-inkscape-font-specification:Lavi;text-align:center;letter-spacing:0px;word-spacing:0px;text-anchor:middle;fill:#000000;fill-opacity:1;stroke:none"
       x="1611.2759"
       y="186.1888"
       id="text4246-3-7-61-4"><tspan
         sodipodi:role="line"
         style="font-size:45px;line-height:1.25"
         x="1611.2759"
         y="186.1888"
         id="tspan887-1-5">Hm...</tspan></text>
    <text
       xml:space="preserve"
       style="font-style:normal;font-variant:normal;font-weight:normal;font-stretch:normal;line-height:0%;font-family:Lavi;-inkscape-font-specification:Lavi;text-align:center;letter-spacing:0px;word-spacing:0px;text-anchor:middle;fill:#483200;fill-opacity:1;stroke:#483200;stroke-width:1.29999995;stroke-miterlimit:4;stroke-dasharray:none;stroke-opacity:1"
       x="2437.4565"
       y="1011.22"
       id="text4246-3-7-3-7-0"
       transform="skewX(-20)"><tspan
         sodipodi:role="line"
         style="font-size:45px;line-height:1.25;fill:#483200;fill-opacity:1;stroke:#483200;stroke-width:1.29999995;stroke-miterlimit:4;stroke-dasharray:none;stroke-opacity:1"
         x="2437.4565"
         y="1014.3372"
         id="tspan875-6-5-6" /><tspan
         sodipodi:role="line"
         style="font-size:45px;line-height:1.25;fill:#483200;fill-opacity:1;stroke:#483200;stroke-width:1.29999995;stroke-miterlimit:4;stroke-dasharray:none;stroke-opacity:1"
         x="2437.4565"
         y="1014.3372"
         id="tspan895-2-9-3" /><tspan
         sodipodi:role="line"
         style="font-size:45px;line-height:1.25;fill:#483200;fill-opacity:1;stroke:#483200;stroke-width:1.29999995;stroke-miterlimit:4;stroke-dasharray:none;stroke-opacity:1"
         x="2437.4565"
         y="1014.3372"
         id="tspan4769-2-2" /><tspan
         sodipodi:role="line"
         style="font-size:45px;line-height:1.25;fill:#000000;fill-opacity:1;stroke:#000000;stroke-width:1.29999995;stroke-miterlimit:4;stroke-dasharray:none;stroke-opacity:1"
         x="2444.6086"
         y="1051.0345"
         id="tspan5159">...nikdo nemůže vidět </tspan><tspan
         sodipodi:role="line"
         style="font-size:45px;line-height:1.25;fill:#000000;fill-opacity:1;stroke:#000000;stroke-width:1.29999995;stroke-miterlimit:4;stroke-dasharray:none;stroke-opacity:1"
         x="2437.4565"
         y="1107.2845"
         id="tspan1502">co v ní děláte<tspan
   style="letter-spacing:0.75999999px"
   id="tspan135">!</tspan>”</tspan></text>
    <text
       xml:space="preserve"
       style="font-style:normal;font-variant:normal;font-weight:normal;font-stretch:normal;line-height:0%;font-family:Lavi;-inkscape-font-specification:Lavi;text-align:center;letter-spacing:0px;word-spacing:0px;text-anchor:middle;fill:#000000;fill-opacity:1;stroke:none"
       x="1907.6078"
       y="2334.0767"
       id="text4246-3-7-6-1-7-6"><tspan
         sodipodi:role="line"
         style="font-size:45px;line-height:1.25"
         x="1907.6078"
         y="2334.0767"
         id="tspan1240-3">Doufám, že porozuměla</tspan><tspan
         sodipodi:role="line"
         style="font-size:45px;line-height:1.25"
         x="1907.6078"
         y="2390.3267"
         id="tspan1532">včem varováním, které</tspan><tspan
         sodipodi:role="line"
         style="font-size:45px;line-height:1.25"
         x="1907.6078"
         y="2446.5767"
         id="tspan1534">jsem napsala v kapitole</tspan><tspan
         sodipodi:role="line"
         style="font-size:45px;line-height:1.25"
         x="1907.6078"
         y="2502.8267"
         id="tspan1274-5">“Zaklínadla Destrukce”.</tspan></text>
    <text
       xml:space="preserve"
       style="font-style:normal;font-variant:normal;font-weight:normal;font-stretch:normal;line-height:0%;font-family:Lavi;-inkscape-font-specification:Lavi;text-align:center;letter-spacing:0px;word-spacing:0px;text-anchor:middle;fill:#000000;fill-opacity:1;stroke:none"
       x="506.91153"
       y="1432.7169"
       id="text4246-3-7-61-7-7"><tspan
         sodipodi:role="line"
         style="font-size:45px;line-height:1.25"
         x="506.91153"
         y="1435.8341"
         id="tspan887-1-8-6" /><tspan
         sodipodi:role="line"
         style="font-size:45px;line-height:1.25"
         x="506.91153"
         y="1472.5314"
         id="tspan5199">To je perfektní!</tspan></text>
    <text
       xml:space="preserve"
       style="font-style:normal;font-variant:normal;font-weight:normal;font-stretch:normal;line-height:0%;font-family:Lavi;-inkscape-font-specification:Lavi;text-align:center;letter-spacing:0px;word-spacing:0px;text-anchor:middle;fill:#000000;fill-opacity:1;stroke:#000000;stroke-width:0.89999998;stroke-miterlimit:4;stroke-dasharray:none;stroke-opacity:1"
       x="378.70123"
       y="1327.1586"
       id="text4246-3-7-61-7-7-2"><tspan
         sodipodi:role="line"
         style="font-size:45px;line-height:1.25;stroke:#000000;stroke-width:0.89999998;stroke-miterlimit:4;stroke-dasharray:none;stroke-opacity:1"
         x="378.70123"
         y="1327.1586"
         id="tspan5199-4">Nikdo?</tspan></text>
    <text
       xml:space="preserve"
       style="font-style:normal;font-variant:normal;font-weight:normal;font-stretch:normal;line-height:0%;font-family:Lavi;-inkscape-font-specification:Lavi;text-align:center;letter-spacing:0px;word-spacing:0px;text-anchor:middle;fill:#000000;fill-opacity:1;stroke:none"
       x="447.58618"
       y="1393.7435"
       id="text4246-3-7-61-7-7-7"><tspan
         sodipodi:role="line"
         style="font-size:45px;line-height:1.25"
         x="447.58618"
         y="1393.7435"
         id="tspan5199-43">Skutečně!?</tspan></text>
  </g>
</svg>
