<?xml version="1.0" encoding="UTF-8" standalone="no"?>
<svg
   xmlns:dc="http://purl.org/dc/elements/1.1/"
   xmlns:cc="http://creativecommons.org/ns#"
   xmlns:rdf="http://www.w3.org/1999/02/22-rdf-syntax-ns#"
   xmlns:svg="http://www.w3.org/2000/svg"
   xmlns="http://www.w3.org/2000/svg"
   xmlns:xlink="http://www.w3.org/1999/xlink"
   xmlns:sodipodi="http://sodipodi.sourceforge.net/DTD/sodipodi-0.dtd"
   xmlns:inkscape="http://www.inkscape.org/namespaces/inkscape"
   id="svg2"
   version="1.1"
   inkscape:version="1.0 (4035a4fb49, 2020-05-01)"
   width="2481"
   height="3503"
   sodipodi:docname="E35P02.svg">
  <metadata
     id="metadata8">
    <rdf:RDF>
      <cc:Work
         rdf:about="">
        <dc:format>image/svg+xml</dc:format>
        <dc:type
           rdf:resource="http://purl.org/dc/dcmitype/StillImage" />
        <dc:title />
      </cc:Work>
    </rdf:RDF>
  </metadata>
  <defs
     id="defs6" />
  <sodipodi:namedview
     pagecolor="#ffffff"
     bordercolor="#666666"
     borderopacity="1"
     objecttolerance="10"
     gridtolerance="10"
     guidetolerance="10"
     inkscape:pageopacity="0"
     inkscape:pageshadow="2"
     inkscape:window-width="1366"
     inkscape:window-height="715"
     id="namedview4"
     showgrid="false"
     inkscape:window-x="-8"
     inkscape:window-y="-8"
     inkscape:window-maximized="1"
     inkscape:document-rotation="0"
     inkscape:snap-global="false"
     inkscape:pagecheckerboard="0"
     inkscape:zoom="0.42"
     inkscape:cx="1284.3985"
     inkscape:cy="2843.1539"
     inkscape:current-layer="layer1" />
  <g
     inkscape:groupmode="layer"
     id="layer2"
     inkscape:label="artwork"
     sodipodi:insensitive="true">
    <image
       sodipodi:absref="D:\Pepper&amp;Carrot translation\ep35_The-Reflection_lang-pack\lang\gfx_Pepper-and-Carrot_by-David-Revoy_E35P02.png"
       xlink:href="../gfx_Pepper-and-Carrot_by-David-Revoy_E35P02.png"
       y="0"
       x="0"
       id="image10"
       height="3503"
       width="2481" />
  </g>
  <g
     inkscape:groupmode="layer"
     id="layer3"
     inkscape:label="speechbubbles">
    <path
       style="fill:#ffffff;stroke:none;stroke-width:1.11392"
       d="m 414.07887,2014.1011 c 38.18311,-0.7828 222.70742,-4.491 219.83741,70.9823 -3.59602,94.5705 -5.40781,137.786 -203.0071,136.3333 -212.23262,-1.5604 -169.51747,-58.598 -171.17923,-130.0691 -1.47125,-63.2744 51.88912,-74.9594 154.34892,-77.2465 z"
       id="path3280-8-6"
       inkscape:connector-curvature="0"
       sodipodi:nodetypes="csssc" />
    <path
       style="color:#000000;display:inline;overflow:visible;visibility:visible;fill:#ffffff;fill-opacity:1;fill-rule:nonzero;stroke:none;stroke-width:1px;marker:none;enable-background:accumulate"
       d="m 668.76726,2252.6837 c -54.36956,-1.3158 -66.37353,-18.0831 -76.5499,-29.227 3.41593,-3.9672 8.07344,-11.8668 8.07344,-11.8668 0,0 -22.49109,-20.0802 -27.87182,-30.4304 -5.38071,-10.3501 9.28192,-17.9731 9.28192,-17.9731 0,0 44.94813,37.9871 57.64264,43.4391 -9.83295,10.5902 -13.21387,16.7305 -18.38931,19.4211 3.1733,8.211 28.66645,25.6349 47.81303,26.6371 z"
       id="path4456-3"
       inkscape:connector-curvature="0" />
    <path
       style="color:#000000;display:inline;overflow:visible;visibility:visible;fill:#ffffff;fill-opacity:1;fill-rule:nonzero;stroke:none;stroke-width:0.553887px;marker:none;enable-background:accumulate"
       d="m 1983.7552,2103.149 c -5.0482,-23.0168 6.9088,-51.0613 167.3093,-44.41 152.931,6.3416 143.3793,15.0588 144.9987,44.2817 1.7062,30.7889 -60.7116,45.6982 -170.2886,42.7464 -64.2142,-1.7297 -128.2025,-3.3668 -142.0194,-42.6181 z"
       id="path5026-4"
       inkscape:connector-curvature="0"
       sodipodi:nodetypes="csssc" />
    <path
       style="color:#000000;display:inline;overflow:visible;visibility:visible;fill:#ffffff;fill-opacity:1;fill-rule:nonzero;stroke:none;stroke-width:1.63768px;marker:none;enable-background:accumulate"
       d="m 2046.0384,2132.2696 c -4.2272,-2.5286 -41.7209,44.7549 -41.7209,44.7549 l -35.4466,3.459 1.2502,26.926 -53.4012,-4.5662 35.1739,-8.2914 -1.9242,-26.5703 33.0101,-11.5413 29.8178,-33.9388 z"
       id="path4448"
       inkscape:connector-curvature="0"
       sodipodi:nodetypes="cccccccccc" />
    <path
       style="color:#000000;display:inline;overflow:visible;visibility:visible;fill:#ffffff;fill-opacity:1;fill-rule:nonzero;stroke:none;stroke-width:0.771393px;marker:none;enable-background:accumulate"
       d="m 144.19531,2629.9581 c -8.24202,-18.6457 -1.13067,-68.8051 111.1839,-67.1345 112.31445,1.6706 133.96905,24.7303 137.74089,31.7075 3.77191,6.9773 33.31933,46.3371 -52.29277,58.7919 -85.6122,12.4546 -165.37218,3.0151 -196.63202,-23.3649 z"
       id="path3525"
       inkscape:connector-curvature="0" />
    <path
       style="color:#000000;display:inline;overflow:visible;visibility:visible;fill:#ffffff;fill-opacity:1;fill-rule:nonzero;stroke:none;stroke-width:0.916909px;marker:none;enable-background:accumulate"
       d="m 1168.8131,2492.4237 c -22.2003,0.8182 -44.7556,1.788 -66.015,6.9827 -28.4006,7.5173 -50.8937,26.7389 -55.689,48.8922 -2.3308,13.8942 7.0569,28.0441 22.0705,36.2747 17.2262,9.8699 38.2307,15.2118 59.158,19.0219 31.448,5.4774 64.0672,5.2221 96.1177,3.7345 25.5006,-1.3088 51.1647,-4.9224 74.2876,-13.2573 10.278,-3.5602 20.4986,-8.4478 25.9041,-16.0968 7.1703,-9.7255 7.6857,-21.3487 5.186,-32.0561 -3.0941,-13.2028 -12.4291,-25.8753 -27.2787,-33.7852 -16.3943,-9.089 -36.6382,-13.2462 -56.5765,-15.6624 -18.6126,-2.2129 -37.4346,-3.2505 -56.2241,-4.2311 -6.9855,-0.2852 -13.963,-0.132 -20.9406,0.1829 z"
       id="path3525-3"
       inkscape:connector-curvature="0" />
    <path
       style="color:#000000;display:inline;overflow:visible;visibility:visible;fill:#ffffff;fill-opacity:1;fill-rule:nonzero;stroke:none;stroke-width:0.850812px;marker:none;enable-background:accumulate"
       d="m 397.36158,2755.2353 c -21.81603,-6.0365 -24.7236,-21.3438 -23.81085,-34.7307 0.91307,-13.3879 3.43731,-21.6544 -10.14803,-38.2382 -13.58559,-16.5829 -43.44749,-17.8668 -26.36893,-33.9071 2.07754,-10.3968 3.18888,-19.4098 8.63924,-29.73 6.0118,-11.3839 -30.60834,-11.6128 -30.60834,-11.6128 0,0 -9.2601,36.4069 -8.60393,58.2554 0.65624,21.8486 37.98578,15.4181 49.29264,29.8458 10.55851,13.4728 3.54145,36.8172 10.69223,46.6028 7.15061,9.7866 19.89022,13.3481 30.91597,13.5148 z"
       id="path4538-8"
       inkscape:connector-curvature="0"
       sodipodi:nodetypes="csscscsssc" />
    <path
       style="fill:#ffffff;fill-rule:evenodd;stroke:none;stroke-width:1.00018px;stroke-linecap:butt;stroke-linejoin:miter;stroke-opacity:1"
       d="m 683.3565,2839.4097 c 22.47948,-7.6888 8.18259,-27.2917 13.56572,-36.5201 5.55722,-9.5269 47.07364,3.0903 52.88651,-5.37 5.81286,-8.4604 -12.6074,-31.2018 -3.16551,-44.2198 9.44226,-13.0187 37.29048,-1.0958 25.77916,13.6924 -11.51166,14.7889 6.85876,28.7751 -4.63767,39.1332 -19.17293,17.274 -46.18634,1.6002 -58.07288,2.8253 -7.86988,0.8115 -1.86593,15.6117 -9.63373,23.71 -7.76824,8.099 -16.7216,6.749 -16.7216,6.749 z"
       id="path4272-2"
       inkscape:connector-curvature="0"
       sodipodi:nodetypes="csssssssc" />
    <path
       style="fill:#ffffff;stroke:none;stroke-width:1.03619"
       d="m 1718.7292,2720.6255 c -1.4335,-29.5191 24.2701,-103.4168 149.6505,-97.8588 125.3806,5.5581 164.6225,38.0284 168.2969,90.4983 5.8125,83.0068 -60.1502,105.1896 -154.8664,111.3374 -97.6423,6.3383 -164.5964,-50.6399 -163.081,-103.9769 z"
       id="path3280-8-90"
       inkscape:connector-curvature="0"
       sodipodi:nodetypes="csssc" />
    <path
       style="color:#000000;display:inline;overflow:visible;visibility:visible;fill:#ffffff;fill-opacity:1;fill-rule:nonzero;stroke:none;stroke-width:1px;marker:none;enable-background:accumulate"
       d="m 1981.8954,2716.5742 c 21.7602,57.3157 81.8906,99.8161 102.9782,111.0989 -62.8332,-18.8149 -116.4083,-51.6111 -129.2847,-90.9766 -12.8765,-39.3656 26.3065,-20.1223 26.3065,-20.1223 z"
       id="path4480"
       inkscape:connector-curvature="0" />
    <path
       style="fill:#ffffff;fill-rule:evenodd;stroke:none;stroke-width:0.667531px;stroke-linecap:butt;stroke-linejoin:miter;stroke-opacity:1"
       d="m 1142.7461,1178.8735 c -26.7361,0.1103 -53.5793,1.4769 -79.5812,5.1451 -9.7626,1.4294 -19.4644,3.094 -28.7196,5.3865 -12.1154,3.2618 -21.2853,9.2194 -28.1464,15.6502 -7.79046,7.3786 -12.73978,15.6635 -15.18047,24.1475 -1.95151,6.6295 -2.91349,13.3454 -3.41983,20.0571 -0.50494,9.2474 1.30421,18.6056 6.64198,27.3746 6.26862,10.8987 16.72952,21.2598 32.12932,28.7749 14.7779,6.9188 32.9966,10.8572 51.2214,13.746 30.0315,4.5569 61.3217,5.2482 92.2386,5.2397 23.2877,-0.1409 46.4076,-2.3234 68.9315,-5.6105 17.3369,-2.3743 34.6299,-5.0837 51.0251,-9.1289 12.2284,-3.2305 23.5186,-8.1494 30.2552,-14.9224 8.9823,-8.4958 12.9126,-18.3072 16.1916,-27.9427 3.5558,-11.0482 5.329,-22.5365 1.1198,-33.6121 -4.0738,-10.4963 -14.0175,-19.8748 -25.2013,-28.3863 -14.3367,-10.2139 -34.839,-17.1693 -56.5869,-20.9849 -23.423,-4.1283 -48.1475,-4.7408 -72.4906,-4.9114 -13.4756,-0.053 -26.9524,-0.049 -40.4282,-0.023 z"
       id="path1353"
       inkscape:connector-curvature="0"
       sodipodi:nodetypes="cssscscssccc" />
    <path
       style="color:#000000;display:inline;overflow:visible;visibility:visible;fill:#ffffff;fill-opacity:1;fill-rule:nonzero;stroke:none;stroke-width:1.32704px;marker:none;enable-background:accumulate"
       d="m 1567.2167,1263.2749 c -23.3951,-13.5874 -47.4345,-27.8488 -80.2438,-37.3029 -9.419,-2.6108 -19.456,-5.052 -29.7275,-6.2777 -10.8699,-0.2589 -18.5833,3.1803 -21.2691,7.3616 -4.9062,5.8321 -4.0751,13.3543 -14.8239,17.5815 -8.0334,2.9766 -20.4058,1.2285 -30.8948,0.151 -55.5613,-5.5966 -116.4529,-16.3815 -168.9125,-7.1839 -10.3316,2.0201 -20.2049,4.8402 -25.0559,9.4641 -13.7945,11.5007 -11.0257,28.0336 10.0671,40.719 14.9737,7.6682 42.5542,10.484 56.687,4.5569 7.5899,-3.0688 8.1735,-8.3583 5.5139,-13.1861 -1.2458,-8.9607 7.6217,0.022 24.0822,-3.6677 37.2334,-5.6014 77.5291,-14.6477 110.5037,-9.7254 10.0809,1.4739 25.6582,0.1256 35.3315,-0.599 12.5832,-2.5592 14.9137,-9.3886 15.3033,-15.3984 0.7726,-6.1637 0.047,-13.4883 11.1891,-17.2514 6.7172,-3.1499 17.8965,0.5337 26.5328,1.8753 27.2211,5.8451 51.5565,15.088 70.9679,25.6439 1.7031,1.0526 3.2274,2.1441 4.749,3.2392 z"
       id="path4496-9"
       inkscape:connector-curvature="0"
       inkscape:transform-center-x="43.812193"
       inkscape:transform-center-y="17.777857"
       sodipodi:nodetypes="ccccccccccccccccccc" />
    <path
       style="fill:#ffffff;stroke:none;stroke-width:0.705129"
       d="m 886.71076,388.34084 c 3.72258,-56.98267 21.7656,-78.11119 240.62714,-80.28426 302.9041,-3.00794 324.0969,45.44614 318.3424,112.28843 -6.2085,72.11854 -184.8561,72.32086 -330.8903,70.09299 C 862.7833,486.59368 888.9829,446.81416 886.71076,388.34084 Z"
       id="path3280-8-0"
       inkscape:connector-curvature="0"
       sodipodi:nodetypes="csssc" />
    <path
       style="display:inline;fill:#ffffff;stroke:none;stroke-width:0.720579"
       d="m 836.03187,272.54512 c 3.25894,-43.59668 21.89049,-100.52594 193.93863,-101.42022 172.048,-0.89494 229.9409,26.66421 239.5235,74.28954 18.3557,91.22838 -69.0477,84.08499 -197.9482,94.16798 -132.88252,10.39409 -240.54982,-3.13736 -235.51393,-67.0373 z"
       id="path3280-8-2"
       inkscape:connector-curvature="0"
       sodipodi:nodetypes="csssc" />
    <path
       style="color:#000000;display:inline;overflow:visible;visibility:visible;fill:#ffffff;fill-opacity:1;fill-rule:nonzero;stroke:none;stroke-width:1.15758px;marker:none;enable-background:accumulate"
       d="m 1373.9411,426.28377 c -48.4446,2.50191 -96.9522,3.37462 -145.4485,4.03507 -51.9685,1.88256 -104.5183,5.43859 -154.6077,20.56357 -14.9358,6.0333 -24.6477,20.40013 -30.3048,35.05912 -13.8119,31.19459 -17.933,66.73771 -11.6111,100.3086 5.7472,23.47369 22.3481,43.47074 43.335,54.71749 25.4909,14.84195 54.5584,21.50837 83.1905,26.94879 54.9966,9.39633 111.0076,6.96137 166.4942,5.23101 49.5474,-2.17423 99.3788,-6.41032 147.4973,-19.14674 20.7568,-7.23801 36.9631,-24.46233 46.0514,-44.35423 19.221,-37.93924 19.3659,-86.1035 -2.7528,-122.85341 -15.1915,-24.96464 -40.8578,-41.86102 -68.1527,-50.49008 -23.73,-7.78018 -48.8503,-10.18454 -73.6908,-10.01919 z"
       id="path4040-5"
       inkscape:connector-curvature="0"
       sodipodi:nodetypes="zssssz" />
    <path
       style="color:#000000;display:inline;overflow:visible;visibility:visible;fill:#ffffff;fill-opacity:1;fill-rule:nonzero;stroke:none;stroke-width:1px;marker:none;enable-background:accumulate"
       d="m 870.0925,327.52019 c -13.93862,-43.79995 -75.39205,-33.32608 -131.42892,10.54697 35.43843,-36.41055 76.35778,-76.93843 143.98747,-47.05147 49.32789,21.79901 14.57754,15.53221 14.57754,15.53221 z"
       id="path4035-4"
       inkscape:connector-curvature="0"
       sodipodi:nodetypes="ccscc" />
    <path
       style="display:inline;fill:#ffffff;fill-rule:evenodd;stroke:none;stroke-width:1.13928px;stroke-linecap:butt;stroke-linejoin:miter;stroke-opacity:1"
       d="m 1548.4515,67.224829 c 26.66,4.166802 26.0415,13.636275 13.5538,12.68657 8.0049,16.504801 32.5201,53.963541 11.2267,58.592301 0.3432,46.01345 14.3142,69.75942 -1.6726,95.93154 58.9153,-11.6679 61.2091,8.15953 56.7799,26.87151 21.7336,-24.915 38.3525,-8.68534 31.8361,14.23025 22.3331,-25.05592 48.2152,-36.4602 44.0678,-9.60719 25.2369,-19.40384 26.5279,-28.37739 47.7273,-19.98054 38.5373,-23.27944 54.6104,9.22028 77.944,23.69145 8.7009,-26.42338 24.8783,-21.28805 53.2053,-7.82236 9.6918,-11.12589 -12.8597,-30.86417 13.6104,-6.60938 -10.6587,-27.81489 43.4115,-14.39923 54.444,-10.30214 -13.5122,-12.51237 9.7162,-15.82431 75.2055,-8.55541 -25.3611,-6.69475 -36.2463,-28.80042 14.6358,-44.46599 -66.7278,6.35556 -41.8616,-6.80122 -21.3802,-21.18503 -43.6398,-22.09047 -0.2281,-42.68385 21.4623,-63.65049 -44.0732,9.71275 -60.1157,-32.007517 -68.2435,-41.956098 -66.895,7.583091 -56.9724,3.363963 -50.5523,-0.317107 -41.4454,9.223916 -39.1227,1.040354 -49.8336,-1.959549 -113.8907,11.231903 -109.8576,-0.495194 -133.412,-6.851104 -9.3314,13.427488 -33.3243,8.21 -57.3779,2.915602 0.9016,11.363768 -13.6254,8.041169 -27.8298,5.025736 -1.8197,4.899855 -15.9271,6.311579 -46.6019,3.020037 21.9063,4.044621 8.378,4.720879 -58.7951,0.297392 z"
       id="path4289-9-2"
       inkscape:connector-curvature="0"
       sodipodi:nodetypes="cccccccccccccccccccccccc" />
    <path
       style="fill:#ffffff;fill-opacity:1;fill-rule:evenodd;stroke:none;stroke-width:0.787323px;stroke-linecap:butt;stroke-linejoin:miter;stroke-opacity:1"
       d="m 2392.6467,902.23506 c -1.1026,4.53502 -50.9614,39.81144 -19.8262,8.77447 l -29.1314,8.6703 c -56.4665,-18.81914 -241.2048,-7.32637 -302.9988,3.05581 l -16.9514,-18.66492 3.3811,15.66864 -19.6535,-23.20671 11.0143,31.25137 -10.3741,-10.60944 4.3571,11.71462 -10.0768,-5.69634 1.7045,10.02709 c -23.4287,9.31082 -36.7497,27.66936 -42.0271,46.61024 l -18.9203,-1.71593 17.5759,7.40619 c -0.2237,1.14981 -0.4252,2.29963 -0.5915,3.44607 -0.01,0.0785 -0.023,0.15894 -0.032,0.2374 l -19.8869,-2.70545 19.0959,10.0866 c -0.042,0.53907 -0.083,1.07677 -0.1192,1.62057 l -38.0493,-6.31724 37.7276,17.1668 c -0.01,19.2817 2.7293,39.0687 4.1468,47.7181 0.9828,5.9966 2.0391,17.1168 7.7809,19.5005 l -35.4381,7.2003 46.9601,-3.9283 c 0.9974,0.088 2.0157,0.1751 3.0383,0.2628 l -12.1318,2.4486 21.1202,-1.7054 c 2.1612,0.1724 4.3696,0.3439 6.6206,0.5145 l -21.8717,5.4855 32.6239,-4.7042 c 78.5256,5.4751 246.3928,10.925 363.4989,-2.321 l 17.3082,2.8554 -6.6507,-4.1204 c 2.2864,-0.2846 5.2212,-0.5756 5.3425,-0.8742 l 0.4108,0.1203 -0.2721,-0.9137 c 0.025,-0.151 0.052,-0.3024 0.078,-0.455 l 1.3995,2.0094 -1.0518,-10.7204 c 0.6629,-12.4498 0.8334,-26.5763 0.7514,-40.8827 l 1.2692,-8.6081 c -2.1938,4.4539 -1.4102,-5.346 -0.031,-10.3862 l -1.2393,0.6973 c 0.12,-11.58206 -0.3234,-32.82461 -0.9043,-43.91156 l 0.058,-8.40652 c -1.0169,0.80555 -0.362,-6.42749 -0.013,-12.72579 -1.1165,5.66725 -0.9795,3.28645 -0.5403,-7.73151 -1.8802,3.13968 1.0067,-25.95139 1.5177,-33.23786 z"
       id="path4212-3"
       inkscape:connector-curvature="0"
       sodipodi:nodetypes="ccccccccccccccccccccccsccccccccccccccccccccccccccc" />
    <path
       style="display:inline;fill:#ffffff;fill-rule:evenodd;stroke:none;stroke-width:1.44912px;stroke-linecap:butt;stroke-linejoin:miter;stroke-opacity:1"
       d="m 2131.1863,818.10473 c 0.6806,41.31231 13.5699,99.33289 8.1415,118.1885 4.1542,65.56527 102.9122,-3.97588 46.8489,-17.72263 -23.7511,-36.29813 -38.7836,-65.39219 -54.9904,-100.46587 z"
       id="path4667-2"
       inkscape:connector-curvature="0"
       sodipodi:nodetypes="cccc" />
    <path
       style="color:#000000;display:inline;overflow:visible;visibility:visible;fill:#ffffff;fill-opacity:1;fill-rule:nonzero;stroke:none;stroke-width:0.891997px;marker:none;enable-background:accumulate"
       d="m 733.40911,2654.7496 c -27.56406,-0.098 -56.09893,5.1296 -78.89518,19.5074 -15.71474,9.8584 -27.22154,26.2721 -26.5013,43.7335 0.5462,14.2429 10.67174,27.0138 23.82523,34.6216 14.99922,8.6903 32.87844,12.1176 50.28903,14.7287 30.09288,4.0973 60.63079,3.3432 90.94509,4.9003 19.15466,0.6389 38.82433,0.9884 57.32549,-4.1125 16.58778,-6.0439 26.85665,-21.5133 28.51318,-36.9608 1.71378,-15.5734 -0.66261,-32.4583 -11.62804,-45.2137 -10.31828,-11.5412 -26.31477,-17.3952 -41.83511,-21.357 -29.86665,-7.3926 -61.09068,-10.2257 -92.03839,-9.8475 z"
       id="path3525-3-5"
       inkscape:connector-curvature="0" />
    <path
       style="fill:#ffffff;fill-rule:evenodd;stroke:none;stroke-width:1.00018px;stroke-linecap:butt;stroke-linejoin:miter;stroke-opacity:1"
       d="m 1223.463,2688.0374 c 17.4992,-16.0693 -3.4666,-28.2803 -2.2428,-38.8936 1.2634,-10.9567 44.3518,-16.0746 46.2777,-26.1572 1.9258,-10.0826 -24.0767,-23.5119 -20.6577,-39.2259 3.4191,-15.7147 33.7111,-15.9794 29.1078,2.1868 -4.6033,18.167 17.8374,23.5982 11.4686,37.7013 -10.6216,23.5196 -41.6554,20.0139 -52.0494,25.9095 -6.8814,3.9037 4.5609,15.0468 0.6993,25.5829 -3.8618,10.5369 -12.6035,12.8962 -12.6035,12.8962 z"
       id="path4272-2-3"
       inkscape:connector-curvature="0"
       sodipodi:nodetypes="csssssssc" />
    <path
       style="color:#000000;display:inline;overflow:visible;visibility:visible;fill:#ffffff;fill-opacity:1;fill-rule:nonzero;stroke:none;stroke-width:0.899927px;marker:none;enable-background:accumulate"
       d="m 1576.3295,2522.3224 c -5.7684,19.7338 -39.7035,21.9845 -52.2549,18.2182 25.4795,21.5056 24.7762,35.1623 -9.4079,37.8903 57.881,38.545 10.9197,33.3934 1.801,43.5918 45.2233,12.8342 25.2862,30.1632 17.4829,47.2005 51.786,-0.3425 35.1891,27.0397 37.6484,48.5677 4.2597,-10.1977 24.7176,-41.3812 26.4129,-7.0964 0.011,-6.488 33.3756,-60.8477 84.6822,-9.4692 -1.5689,-26.8993 15.684,-32.7435 32.6119,4.1555 -6.0146,-40.161 52.4858,-29.5513 83.5547,-17.4684 -15.9307,-24.1109 8.624,-34.3802 34.9484,-29.9904 -3.8539,-13.3079 4.8952,-22.6579 24.8501,-28.4736 -26.7138,-7.6032 -31.7249,-15.8481 17.5691,-25.6962 -37.6086,-0.1964 -72.6912,-1.3483 -28.9741,-32.7151 -13.8479,-0.492 -46.3534,25.6094 -32.0043,-49.338 -23.4891,24.3307 -48.7079,37.9775 -81.1901,-11.5311 -14.7467,25.285 -40.7226,38.132 -52.494,7.0859 -3.9155,13.3936 -20.7963,18.707 -35.1738,19.5706 -5.6308,-5.1921 -11.4603,-12.2772 -17.5686,-21.587 -9.5316,19.9474 -23.9984,33.5613 -52.4939,7.0849 z"
       id="path3549-3-7-9-6"
       inkscape:connector-curvature="0"
       sodipodi:nodetypes="cccccccccccccccccccc" />
    <path
       style="color:#000000;display:inline;overflow:visible;visibility:visible;fill:#ffffff;fill-opacity:1;fill-rule:nonzero;stroke:none;stroke-width:1.22149px;marker:none;enable-background:accumulate"
       d="m 1891.8371,224.14395 c 13.3969,25.86728 33.5213,54.90113 39.2123,61.39746 7.9957,-8.63868 17.0744,-15.33555 24.0331,-20.64544 9.0197,12.83333 45.9509,74.58787 45.5696,92.05922 3.355,-43.2627 -19.8328,-91.86712 -36.9856,-111.86967 -10.7606,5.90497 -16.2791,10.46235 -22.0396,13.47435 -9.2965,-9.62452 -29.0289,-46.10687 -29.0289,-46.10687 z"
       id="path5066-8"
       inkscape:connector-curvature="0" />
  </g>
  <g
     inkscape:groupmode="layer"
     id="layer1"
     inkscape:label="txt">
    <text
       xml:space="preserve"
       style="font-style:normal;font-variant:normal;font-weight:normal;font-stretch:normal;font-size:45px;line-height:1.25;font-family:'Xiaolai SC';-inkscape-font-specification:'Xiaolai SC';text-align:center;letter-spacing:0px;word-spacing:0px;text-anchor:middle;fill:#000000;fill-opacity:1;stroke:none"
       x="1054.3256"
       y="245.06081"
       id="text4246-3-2-2"><tspan
         style="font-style:normal;font-variant:normal;font-weight:normal;font-stretch:normal;font-size:45px;font-family:'Xiaolai SC';-inkscape-font-specification:'Xiaolai SC'"
         sodipodi:role="line"
         x="1054.3256"
         y="245.06081"
         id="tspan918">我就快不能</tspan><tspan
         id="tspan86"
         style="font-style:normal;font-variant:normal;font-weight:normal;font-stretch:normal;font-size:45px;font-family:'Xiaolai SC';-inkscape-font-specification:'Xiaolai SC'"
         sodipodi:role="line"
         x="1054.3256"
         y="301.31079">超速度飞行了</tspan></text>
    <text
       xml:space="preserve"
       style="font-style:normal;font-variant:normal;font-weight:normal;font-stretch:normal;font-size:45px;line-height:1.25;font-family:'Xiaolai SC';-inkscape-font-specification:'Xiaolai SC';text-align:center;letter-spacing:0px;word-spacing:0px;text-anchor:middle;fill:#000000;fill-opacity:1;stroke:none"
       x="1153.7726"
       y="391.51691"
       id="text4246-3-2-2-3"><tspan
         style="font-style:normal;font-variant:normal;font-weight:normal;font-stretch:normal;font-size:45px;font-family:'Xiaolai SC';-inkscape-font-specification:'Xiaolai SC'"
         sodipodi:role="line"
         x="1153.7726"
         y="391.51691"
         id="tspan927">可是这条龙和它的驾驭者</tspan><tspan
         id="tspan92"
         style="font-style:normal;font-variant:normal;font-weight:normal;font-stretch:normal;font-size:45px;font-family:'Xiaolai SC';-inkscape-font-specification:'Xiaolai SC'"
         sodipodi:role="line"
         x="1153.7726"
         y="447.76691">一刻不停地跟着我们。</tspan></text>
    <text
       xml:space="preserve"
       style="font-style:normal;font-variant:normal;font-weight:normal;font-stretch:normal;font-size:45px;line-height:1.25;font-family:'Xiaolai SC';-inkscape-font-specification:'Xiaolai SC';text-align:center;letter-spacing:0px;word-spacing:0px;text-anchor:middle;fill:#000000;fill-opacity:1;stroke:none"
       x="1276.9071"
       y="524.13739"
       id="text4246-3-2-2-3-6"><tspan
         style="font-style:normal;font-variant:normal;font-weight:normal;font-stretch:normal;font-size:45px;font-family:'Xiaolai SC';-inkscape-font-specification:'Xiaolai SC'"
         sodipodi:role="line"
         x="1276.9071"
         y="524.13739"
         id="tspan949">一旦我们减速</tspan><tspan
         id="tspan98"
         style="font-style:normal;font-variant:normal;font-weight:normal;font-stretch:normal;font-size:45px;font-family:'Xiaolai SC';-inkscape-font-specification:'Xiaolai SC'"
         sodipodi:role="line"
         x="1276.9071"
         y="580.38739">他们就会毫不犹豫地</tspan><tspan
         id="tspan100"
         style="font-style:normal;font-variant:normal;font-weight:normal;font-stretch:normal;font-size:45px;font-family:'Xiaolai SC';-inkscape-font-specification:'Xiaolai SC'"
         sodipodi:role="line"
         x="1276.9071"
         y="636.63739">追上来。</tspan></text>
    <text
       xml:space="preserve"
       style="font-style:normal;font-variant:normal;font-weight:normal;font-stretch:normal;font-size:59.5686px;line-height:1.25;font-family:'Xiaolai SC';-inkscape-font-specification:'Xiaolai SC';text-align:center;letter-spacing:0px;word-spacing:0px;text-anchor:middle;fill:#000000;fill-opacity:1;stroke:none;stroke-width:1.32375"
       x="1790.1418"
       y="189.64172"
       id="text4246-3-2-2-3-6-3"><tspan
         style="font-style:normal;font-variant:normal;font-weight:normal;font-stretch:normal;font-size:59.5686px;font-family:'Xiaolai SC';-inkscape-font-specification:'Xiaolai SC';stroke-width:1.32375"
         sodipodi:role="line"
         x="1790.1418"
         y="189.64172"
         id="tspan953">我真是个笨蛋！</tspan></text>
    <text
       xml:space="preserve"
       style="font-style:normal;font-variant:normal;font-weight:normal;font-stretch:normal;font-size:45px;line-height:1.25;font-family:'Xiaolai SC';-inkscape-font-specification:'Xiaolai SC';text-align:center;letter-spacing:0px;word-spacing:0px;text-anchor:middle;fill:#000000;fill-opacity:1;stroke:none"
       x="2184.5444"
       y="986.4505"
       id="text4246-3-2-2-3-6-2"><tspan
         style="font-style:normal;font-variant:normal;font-weight:normal;font-stretch:normal;font-size:45px;font-family:'Xiaolai SC';-inkscape-font-specification:'Xiaolai SC'"
         sodipodi:role="line"
         x="2184.5444"
         y="986.4505"
         id="tspan962">我以为他们早就会</tspan><tspan
         id="tspan108"
         style="font-style:normal;font-variant:normal;font-weight:normal;font-stretch:normal;font-size:45px;font-family:'Xiaolai SC';-inkscape-font-specification:'Xiaolai SC'"
         sodipodi:role="line"
         x="2184.5444"
         y="1042.7006">停下来呢！</tspan></text>
    <text
       xml:space="preserve"
       style="font-style:normal;font-variant:normal;font-weight:normal;font-stretch:normal;font-size:45px;line-height:1.25;font-family:'Xiaolai SC';-inkscape-font-specification:'Xiaolai SC';text-align:center;letter-spacing:0px;word-spacing:0px;text-anchor:middle;fill:#000000;fill-opacity:1;stroke:none"
       x="1166.7565"
       y="1236.7683"
       id="text4246-3-2-2-3-6-2-7"><tspan
         style="font-style:normal;font-variant:normal;font-weight:normal;font-stretch:normal;font-size:45px;font-family:'Xiaolai SC';-inkscape-font-specification:'Xiaolai SC'"
         sodipodi:role="line"
         x="1166.7565"
         y="1236.7683"
         id="tspan976">要是能甩掉</tspan><tspan
         id="tspan114"
         style="font-style:normal;font-variant:normal;font-weight:normal;font-stretch:normal;font-size:45px;font-family:'Xiaolai SC';-inkscape-font-specification:'Xiaolai SC'"
         sodipodi:role="line"
         x="1166.7565"
         y="1293.0183">他们就好了。</tspan></text>
    <text
       xml:space="preserve"
       style="font-style:normal;font-variant:normal;font-weight:normal;font-stretch:normal;font-size:45px;line-height:1.25;font-family:'Xiaolai SC';-inkscape-font-specification:'Xiaolai SC';text-align:center;letter-spacing:0px;word-spacing:0px;text-anchor:middle;fill:#000000;fill-opacity:1;stroke:none"
       x="446.07318"
       y="2068.2793"
       id="text4246-3-2-2-3-6-2-7-2"><tspan
         style="font-style:normal;font-variant:normal;font-weight:normal;font-stretch:normal;font-size:45px;font-family:'Xiaolai SC';-inkscape-font-specification:'Xiaolai SC'"
         sodipodi:role="line"
         x="446.07318"
         y="2068.2793"
         id="tspan996">对！</tspan><tspan
         id="tspan124"
         style="font-style:normal;font-variant:normal;font-weight:normal;font-stretch:normal;font-size:45px;font-family:'Xiaolai SC';-inkscape-font-specification:'Xiaolai SC'"
         sodipodi:role="line"
         x="446.07318"
         y="2124.5293">我必须得在被</tspan><tspan
         id="tspan133"
         style="font-style:normal;font-variant:normal;font-weight:normal;font-stretch:normal;font-size:45px;font-family:'Xiaolai SC';-inkscape-font-specification:'Xiaolai SC'"
         sodipodi:role="line"
         x="446.07318"
         y="2180.7793">他们追上之前…</tspan></text>
    <text
       xml:space="preserve"
       style="font-style:normal;font-variant:normal;font-weight:normal;font-stretch:normal;font-size:45px;line-height:1.25;font-family:'Xiaolai SC';-inkscape-font-specification:'Xiaolai SC';text-align:center;letter-spacing:0px;word-spacing:0px;text-anchor:middle;fill:#000000;fill-opacity:1;stroke:none"
       x="2145.5425"
       y="2119.1331"
       id="text4246-3-2-2-3-6-2-7-2-2"><tspan
         style="font-style:normal;font-variant:normal;font-weight:normal;font-stretch:normal;font-size:45px;font-family:'Xiaolai SC';-inkscape-font-specification:'Xiaolai SC'"
         sodipodi:role="line"
         x="2145.5425"
         y="2119.1331"
         id="tspan1009"> …甩掉他们！</tspan></text>
    <text
       xml:space="preserve"
       style="font-style:normal;font-variant:normal;font-weight:normal;font-stretch:normal;font-size:45px;line-height:1.25;font-family:'Xiaolai SC';-inkscape-font-specification:'Xiaolai SC';text-align:center;letter-spacing:0px;word-spacing:0px;text-anchor:middle;fill:#000000;fill-opacity:1;stroke:none"
       x="273.79352"
       y="2629.6626"
       id="text4246-3-2-2-3-6-2-7-2-3"><tspan
         style="font-style:normal;font-variant:normal;font-weight:normal;font-stretch:normal;font-size:45px;font-family:'Xiaolai SC';-inkscape-font-specification:'Xiaolai SC'"
         sodipodi:role="line"
         x="273.79352"
         y="2629.6626"
         id="tspan1013">可是我…</tspan></text>
    <text
       xml:space="preserve"
       style="font-style:normal;font-variant:normal;font-weight:normal;font-stretch:normal;font-size:45px;line-height:1.25;font-family:'Xiaolai SC';-inkscape-font-specification:'Xiaolai SC';text-align:center;letter-spacing:0px;word-spacing:0px;text-anchor:middle;fill:#000000;fill-opacity:1;stroke:none"
       x="758.94037"
       y="2728.3162"
       id="text4246-3-2-2-3-6-2-7-2-3-3-3"><tspan
         style="font-style:normal;font-variant:normal;font-weight:normal;font-stretch:normal;font-size:45px;font-family:'Xiaolai SC';-inkscape-font-specification:'Xiaolai SC'"
         x="758.94037"
         y="2728.3162"
         id="tspan1318-9-6"
         sodipodi:role="line">…太…</tspan><tspan
         style="font-style:normal;font-variant:normal;font-weight:normal;font-stretch:normal;font-size:45px;font-family:'Xiaolai SC';-inkscape-font-specification:'Xiaolai SC'"
         x="758.94037"
         y="2784.5662"
         id="tspan1356-7"
         sodipodi:role="line" /></text>
    <text
       xml:space="preserve"
       style="font-style:normal;font-variant:normal;font-weight:normal;font-stretch:normal;font-size:45px;line-height:1.25;font-family:'Xiaolai SC';-inkscape-font-specification:'Xiaolai SC';text-align:center;letter-spacing:0px;word-spacing:0px;text-anchor:middle;fill:#000000;fill-opacity:1;stroke:none"
       x="1190.2052"
       y="2561.9868"
       id="text4246-3-2-2-3-6-2-7-2-3-3"><tspan
         style="font-style:normal;font-variant:normal;font-weight:normal;font-stretch:normal;font-size:45px;font-family:'Xiaolai SC';-inkscape-font-specification:'Xiaolai SC'"
         sodipodi:role="line"
         x="1196.9728"
         y="2561.9868"
         id="tspan1356">…累了… </tspan></text>
    <text
       xml:space="preserve"
       style="font-style:normal;font-variant:normal;font-weight:normal;font-stretch:normal;font-size:64.434px;line-height:1.25;font-family:'Xiaolai SC';-inkscape-font-specification:'Xiaolai SC';text-align:center;letter-spacing:0px;word-spacing:0px;text-anchor:middle;fill:#000000;fill-opacity:1;stroke:none;stroke-width:1.43187"
       x="1690.2407"
       y="2628.5286"
       id="text4246-3-2-2-3-6-2-7-2-3-3-4"><tspan
         style="font-style:normal;font-variant:normal;font-weight:normal;font-stretch:normal;font-size:64.434px;font-family:'Xiaolai SC';-inkscape-font-specification:'Xiaolai SC';stroke-width:1.43187"
         sodipodi:role="line"
         x="1690.2407"
         y="2628.5286"
         id="tspan1356-4">哎呀！</tspan></text>
    <text
       xml:space="preserve"
       style="font-style:normal;font-variant:normal;font-weight:normal;font-stretch:normal;font-size:45px;line-height:1.25;font-family:'Xiaolai SC';-inkscape-font-specification:'Xiaolai SC';text-align:center;letter-spacing:0px;word-spacing:0px;text-anchor:middle;fill:#000000;fill-opacity:1;stroke:none"
       x="1895.2314"
       y="2717.1885"
       id="text4246-3-2-2-3-6-2-7-2-3-5"><tspan
         style="font-style:normal;font-variant:normal;font-weight:normal;font-stretch:normal;font-size:45px;font-family:'Xiaolai SC';-inkscape-font-specification:'Xiaolai SC'"
         sodipodi:role="line"
         x="1895.2314"
         y="2717.1885"
         id="tspan1024">快醒醒，</tspan><tspan
         id="tspan141"
         style="font-style:normal;font-variant:normal;font-weight:normal;font-stretch:normal;font-size:45px;font-family:'Xiaolai SC';-inkscape-font-specification:'Xiaolai SC'"
         sodipodi:role="line"
         x="1895.2314"
         y="2773.4385">小辣椒！</tspan></text>
  </g>
</svg>
