<?xml version="1.0" encoding="UTF-8" standalone="no"?>
<!-- Created with Inkscape (http://www.inkscape.org/) -->

<svg
   xmlns:dc="http://purl.org/dc/elements/1.1/"
   xmlns:cc="http://creativecommons.org/ns#"
   xmlns:rdf="http://www.w3.org/1999/02/22-rdf-syntax-ns#"
   xmlns:svg="http://www.w3.org/2000/svg"
   xmlns="http://www.w3.org/2000/svg"
   xmlns:xlink="http://www.w3.org/1999/xlink"
   xmlns:sodipodi="http://sodipodi.sourceforge.net/DTD/sodipodi-0.dtd"
   xmlns:inkscape="http://www.inkscape.org/namespaces/inkscape"
   id="svg2"
   version="1.1"
   inkscape:version="0.92.2 (5c3e80d, 2017-08-06)"
   width="2481"
   height="3503"
   sodipodi:docname="E32P02.svg">
  <metadata
     id="metadata8">
    <rdf:RDF>
      <cc:Work
         rdf:about="">
        <dc:format>image/svg+xml</dc:format>
        <dc:type
           rdf:resource="http://purl.org/dc/dcmitype/StillImage" />
        <dc:title />
      </cc:Work>
    </rdf:RDF>
  </metadata>
  <defs
     id="defs6" />
  <sodipodi:namedview
     pagecolor="#ffffff"
     bordercolor="#666666"
     borderopacity="1"
     objecttolerance="10"
     gridtolerance="10"
     guidetolerance="10"
     inkscape:pageopacity="0"
     inkscape:pageshadow="2"
     inkscape:window-width="1236"
     inkscape:window-height="1009"
     id="namedview4"
     showgrid="false"
     inkscape:zoom="0.46000001"
     inkscape:cx="1236.8855"
     inkscape:cy="2003.8715"
     inkscape:window-x="674"
     inkscape:window-y="-1"
     inkscape:window-maximized="0"
     inkscape:current-layer="layer1"
     inkscape:snap-global="false" />
  <g
     inkscape:groupmode="layer"
     id="layer2"
     inkscape:label="artwork"
     sodipodi:insensitive="true">
    <image
       sodipodi:absref="C:\Users\Kari\Documents\Pepper and Carrot\Episode 32\fi\../lang/en/./../gfx_Pepper-and-Carrot_by-David-Revoy_E32P02.png"
       xlink:href="../gfx_Pepper-and-Carrot_by-David-Revoy_E32P02.png"
       width="2481"
       height="3503"
       id="image10"
       x="0"
       y="0" />
  </g>
  <g
     inkscape:groupmode="layer"
     id="layer3"
     inkscape:label="speechbubbles"
     style="display:inline">
    <path
       style="color:#000000;display:inline;overflow:visible;visibility:visible;fill:#ffffff;fill-opacity:1;fill-rule:nonzero;stroke:none;stroke-width:1.0662117px;marker:none;enable-background:accumulate"
       d="m 309.94477,231.7097 c 6.47675,-11.91191 33.78984,-10.35714 43.45614,-6.88777 -18.30911,-15.76338 -16.45315,-24.29557 11.10391,-23.01859 -42.56912,-29.32322 -5.55538,-21.96956 2.69327,-27.58853 -34.89811,-12.03499 -17.33435,-21.19366 -9.4882,-31.23081 -41.38761,-4.31913 -25.53842,-20.09598 -25.46204,-33.85861 -4.36816,6.04503 -23.66076,23.87538 -21.76537,2.15371 -30.17418,18.01788 -64.97324,28.19627 -62.75339,-8.16064 -13.47853,17.11068 -25.51778,23.73765 -21.76544,2.1537 -31.1393,25.56728 -54.36737,13.0793 -78.03324,2.75558 -7.63645,7.88519 -10.14519,20.87834 -30.75129,15.81142 1.81656,8.71095 -6.05648,13.82885 -22.543229,15.74111 20.612419,7.12336 23.832829,12.74994 -16.465371,14.63056 30.01458,3.41721 57.92151,7.21359 20.037378,23.12231 11.011842,1.52313 39.443842,-12.05491 20.881852,33.84865 21.06366,-13.25277 42.49623,-19.63185 63.74357,14.36509 14.17276,-14.61943 36.13394,-20.42829 42.59189,0.13771 4.39629,-8.08563 18.38041,-9.94983 29.94378,-9.23486 4.00447,3.76064 7.98843,8.7291 11.98393,15.12224 9.50226,-11.71675 22.34533,-19.01709 42.59185,0.13773 z"
       id="path3549-3-7-5"
       inkscape:connector-curvature="0"
       sodipodi:nodetypes="cccccccccccccccccccc" />
    <path
       style="color:#000000;display:inline;overflow:visible;visibility:visible;fill:#ffffff;fill-opacity:1;fill-rule:nonzero;stroke:none;stroke-width:0.90038055px;marker:none;enable-background:accumulate"
       d="m 488.02539,117.04492 c -43.36645,1.3872 -87.07806,9.51496 -126.39412,28.37405 -27.16622,13.98704 -45.41393,42.51815 -49.09939,72.58419 -4.40338,28.23568 -0.12028,58.39433 14.89077,82.99821 10.22415,13.84081 25.81988,21.96458 40.31304,30.52003 23.89633,14.30829 49.69504,26.62403 77.52826,30.55502 31.47768,5.19976 63.53486,4.01527 95.26928,2.58956 28.57369,-2.14058 57.49759,-9.02478 81.77996,-24.77181 26.47283,-16.7871 47.47006,-43.16897 55.02079,-73.86292 6.77172,-26.96736 4.13917,-56.89816 -10.24414,-81.02344 C 655.5035,165.85138 636.06472,152.7485 615.53147,144.71888 580.56021,130.50081 543.8185,119.2794 505.91276,117.257 c -5.95564,-0.31714 -11.92611,-0.42708 -17.88737,-0.21208 z"
       id="path3970-3"
       inkscape:connector-curvature="0"
       sodipodi:nodetypes="cccscsc" />
    <path
       style="color:#000000;display:inline;overflow:visible;visibility:visible;fill:#ffffff;fill-opacity:1;fill-rule:nonzero;stroke:none;stroke-width:1px;marker:none;enable-background:accumulate"
       d="m 577.63531,468.51204 c 24.15675,-46.43871 15.15598,-67.79787 10.19676,-83.83511 -5.04081,0.18752 -14.08073,-1.23448 -14.08073,-1.23448 0,0 -7.00281,-32.37916 -13.50272,-43.8635 -6.49993,-11.48435 -19.9552,-4.33851 -19.9552,-4.33851 0,0 12.13026,63.2638 10.96525,77.57434 13.78917,-1.09946 20.70461,0.20644 25.45323,-2.31613 5.66701,8.19382 8.96155,41.29633 0.92341,58.01339 z"
       id="path4456-8"
       inkscape:connector-curvature="0" />
    <path
       style="color:#000000;display:inline;overflow:visible;visibility:visible;opacity:1;fill:#ffffff;fill-opacity:1;fill-rule:nonzero;stroke:none;stroke-width:0.81081533px;marker:none;enable-background:accumulate"
       d="m 819.86025,635.48881 c 30.39576,-33.96209 214.01605,-44.62559 263.46515,10.00308 34.4611,38.07027 25.5548,98.0253 -8.3705,130.08282 -32.8736,31.0637 -172.14295,24.35854 -212.67386,14.67939 -36.44759,-8.70296 -74.70469,-27.43683 -76.72168,-77.29792 -0.82312,-20.34978 3.90514,-43.50528 34.30089,-77.46737 z"
       id="path4040-5"
       inkscape:connector-curvature="0"
       sodipodi:nodetypes="zssssz" />
    <path
       style="color:#000000;display:inline;overflow:visible;visibility:visible;fill:#ffffff;fill-opacity:1;fill-rule:nonzero;stroke:none;stroke-width:1px;marker:none;enable-background:accumulate"
       d="m 1172.2087,638.16525 c -22.426,10.78245 -21.9205,17.27525 -23.5228,31.76828 -1.6032,14.49315 -6.5002,31.6111 -27.1248,48.30404 -30.1996,17.58679 -94.1328,69.98654 -71.7029,5.83439 5.3345,-23.46958 48.5109,-22.99772 64.4153,-32.38817 15.9045,-9.39055 14.6245,-34.55514 25.6984,-44.48017 11.0738,-9.92492 18.2375,-9.80409 32.2368,-9.03837 z"
       id="path4538-0"
       inkscape:connector-curvature="0"
       sodipodi:nodetypes="ccccccc" />
    <path
       style="fill:#ffffff;stroke:none;stroke-width:1"
       d="m 762.57647,534.72955 c -8.49811,-38.80164 14.62297,-88.11058 118.3853,-88.14796 108.97067,-0.0389 129.09423,25.32295 130.34433,89.39769 1.5946,81.72984 -59.84342,84.82282 -124.19818,86.44662 -98.87092,2.49471 -123.99904,-30.03767 -124.53145,-87.69635 z"
       id="path3280-10"
       inkscape:connector-curvature="0"
       sodipodi:nodetypes="csssc" />
    <path
       style="display:inline;fill:#ffffff;fill-rule:evenodd;stroke:none;stroke-width:1px;stroke-linecap:butt;stroke-linejoin:miter;stroke-opacity:1"
       d="m 1429.8027,2558.7383 c 1.1434,83.556 -36.7936,98.1743 -103.3945,62.2285 20.3927,50.8236 44.1556,105.7613 -8.1094,67.8848 33.8277,46.1464 19.5346,57.7631 -28.3828,45.2558 42.5069,42.4785 18.6353,66.0928 -22.3008,84.8555 27.441,0.6495 49.7523,3.6856 66.6875,9.2207 -28.428,12.3695 -52.3396,11.9323 -52.3396,11.9323 0,0 27.3548,9.4949 39.7534,21.61 4.7218,8.6293 -1.1772,19.5993 -26.1846,2.4279 0,0 7.0745,10.8395 10.0571,16.8816 -7.9985,-1.392 -14.6267,-6.5084 -36.7706,-22.5706 25.3177,27.9782 37.8533,49.5137 1.5957,46.461 17.3253,20.7761 4.96,23.3642 -14.8868,21.3652 33.0219,15.2284 15.2075,17.3687 20.2247,22.7402 37.167,45.6384 -9.2653,28.0498 -25.2422,37.4766 81.5878,28.4818 53.117,40.1481 44.5566,54.8574 56.2569,-4.1188 -13.2526,49.8315 -31.4128,87.9182 42.8312,-34.7278 72.6377,-57.5369 55.0847,-10.0041 46.3778,-42.059 38.4046,-22.1564 25.4648,3.4082 26.6358,-22.9597 34.4251,-13.5217 11.3262,49.0117 34.528,-50.0042 68.1244,-96.7046 75.5137,-50.3144 38.7413,-23.0015 43.8334,-12.9656 47.4062,-1.4414 65.406,-24.759 48.4969,-4.4182 52.6758,4.3711 14.0937,-1.1098 31.0393,-15.4504 36.6738,22.6914 21.7205,-28.2308 47.7874,-38.275 86.5352,4.7304 15.0852,-46.7456 28.8113,-37.1935 53.123,21.3223 3.3968,-89.1587 40.9893,-102.7342 103.6602,-60.8731 -17.0421,-55.2759 -28.9133,-62.5172 19.7461,-19.3574 -30.3275,-51.0007 -15.8353,-62.6312 29.9746,-46.7539 -38.945,-47.5497 -14.5148,-71.4639 26.209,-89.3008 -21.0809,-1.7028 -38.9489,-4.8342 -53.4903,-9.4472 -0.8763,-2.69 6.1814,-10.5879 27.5888,-13.5832 -30.0305,0 -26.8763,-4.1096 -25.2958,-14.0612 2.3979,-9.9516 13.9011,-7.4757 50.4235,-0.9377 -21.3034,-14.4681 -62.0546,-30.8829 -17.1961,-33.9063 -23.437,-12.7672 -15.0264,-37.4375 39.1789,-5.5331 -27.4807,-24.8715 -41.4857,-44.3728 -4.0547,-43.3711 -18.8904,-18.5446 -6.3147,-21.5953 14.1914,-20.7402 -34.7377,-12.554 -16.5359,-15.4673 -21.9727,-20.2344 -40.5797,-40.7819 8.0661,-26.7052 24,-36.3379 -85.3518,-22.4665 -56.6913,-34.8334 -48.6562,-49.0273 -57.617,6.7273 29.8596,-74.4218 62.8476,-122.5704 -65.9476,65.1359 -106.8034,96.2647 -91.2304,50.9141 -45.489,41.7047 -38.3283,22.6848 -26.3555,-1.8848 -26.1875,22.8335 -34.6856,14.4049 -14.1914,-45.2578 -32.8945,48.5294 -65.004,93.9211 -75.0117,50.9141 -38.6297,23.4915 -44.3843,14.3665 -48.6563,3.7715 -65.949,26.498 -49.6241,6.6097 -54.3769,-1.3965 -14.4305,1.7582 -31.1058,16.037 -38.8809,-19.3457 -20.8606,27.512 -47.1353,38.2388 -89.2031,0 -13.0772,44.4881 -35.1274,24.2932 -66.9024,-66 z"
       id="path4508-2"
       inkscape:connector-curvature="0"
       sodipodi:nodetypes="ccccccccccccccccccccccccccccccccccccccccccccccccccc" />
    <path
       style="color:#000000;display:inline;overflow:visible;visibility:visible;fill:#ffffff;fill-opacity:1;fill-rule:nonzero;stroke:none;stroke-width:0.99999988px;marker:none;enable-background:accumulate"
       d="m 1159.215,2912.3636 c 24.9289,15.9696 53.0046,32.3355 73.7186,51.7212 l -4.4671,-22.5612 c 12.3017,3.6243 20.5576,9.2984 29.8695,16.4802 l 0.282,-14.4184 c 28.8782,8.8394 47.895,25.3613 71.6781,38.17 l -1.1627,-32.9839 c -26.1704,-10.6456 -58.8089,-18.5611 -82.5747,-33.2158 l 0.2558,18.7223 c -9.1838,-4.1156 -21.518,-9.7867 -29.518,-15.5652 l 2.2339,19.9359 z"
       id="path4032-7"
       inkscape:connector-curvature="0"
       sodipodi:nodetypes="cccccccccccc" />
    <path
       style="fill:#ffffff;fill-rule:evenodd;stroke:none;stroke-width:1px;stroke-linecap:butt;stroke-linejoin:miter;stroke-opacity:1"
       d="m 1753.7087,204.34351 c 1.185,-20.50278 15.4056,-58.09068 36.7365,-64.92493 21.3308,-6.83426 80.5831,-6.83426 92.4336,-3.41661 11.8505,3.41661 30.8112,28.4752 35.5515,38.72712 4.7402,10.25086 17.7757,46.69954 -3.5551,61.50728 -21.3309,14.80774 -42.6617,26.19782 -65.1777,25.0586 -22.5159,-1.13922 -67.5477,-9.1127 -78.2131,-22.78016 -10.6654,-13.66852 -17.7757,-34.1713 -17.7757,-34.1713 z"
       id="path1355"
       inkscape:connector-curvature="0" />
    <path
       style="fill:#ffffff;stroke:none"
       d="m 1847.3696,354.09054 c -13.8328,-28.3217 -7.9502,-36.13851 -0.501,-44.49778 7.4497,-8.36018 15.1632,-15.13458 14.5125,-22.36198 -0.6506,-7.22728 -5.6372,-15.60621 -10.1839,-21.34253 -4.5468,-5.73632 4.0413,-9.66514 7.9076,-16.31667 3.8657,-6.6508 10.7042,-47.80659 10.7042,-47.80659 0,0 -26.0852,17.5715 -32.236,25.43439 -6.1509,7.86277 -8.4405,10.70667 -10.0173,14.51431 -1.5759,3.80696 -4.0646,13.75357 -0.9533,20.82655 3.1118,7.07218 9.494,12.21912 13.0595,17.0376 3.5649,4.81933 -1.3116,12.15392 -5.5827,19.6909 -4.2712,7.53691 -6.1414,13.7099 -2.3508,27.83912 3.2494,12.11102 15.6412,26.98268 15.6412,26.98268 z"
       id="path3023-4"
       inkscape:connector-curvature="0"
       sodipodi:nodetypes="csssscssssssc" />
    <path
       style="color:#000000;display:inline;overflow:visible;visibility:visible;fill:#ffffff;fill-opacity:1;fill-rule:nonzero;stroke:none;stroke-width:1px;marker:none;enable-background:accumulate"
       d="m 1776.3464,1315.529 c 3.2527,-11.321 20.627,-46.387 25.7118,-9.291 37.4381,-49.672 83.6395,-32.169 93.8806,-24.931 -4.7258,-14.705 4.8022,-41.137 32.0153,-34.638 -5.1706,-14.206 2.6362,-24.873 22.022,-32.381 -27.4731,-6.646 -33.2796,-15.291 15.0553,-28.938 -37.6389,2.046 -72.8702,2.901 -32.2408,-33.757 -13.9008,0.297 -43.8343,30.571 -36.8893,-51.608 -21.0909,27.809 -44.9596,44.128 -82.345,-7.637 -7.5628,22.215 -20.6761,37.852 -51.7969,10.837 -3.8196,21.757 -37.5549,26.216 -50.4824,22.884 27.6128,21.802 28.2717,36.657 -5.6527,41.671 61.708,38.345 14.2263,35.6 6.113,47.213 46.5049,11.207 28.2717,31.183 22.1502,50.136 51.7672,-3.483 37.8708,27.229 42.4589,50.44 z"
       id="path3549-3-8"
       inkscape:connector-curvature="0"
       sodipodi:nodetypes="ccccccccccccccc" />
    <path
       style="color:#000000;display:inline;overflow:visible;visibility:visible;fill:#ffffff;fill-opacity:1;fill-rule:nonzero;stroke:none;stroke-width:1px;marker:none;enable-background:accumulate"
       d="m 1862.3291,1246.0499 c 14.3861,24.2296 28.6134,53.9163 31.3484,61.3263 -9.104,1.8541 -16.3446,4.7584 -22.9617,5.3139 6.2417,13.3724 31.8119,68.3466 45.0873,79.3414 -33.7825,-25.8525 -61.563,-70.2493 -70.1237,-92.8544 8.499,-2.3387 14.007,-2.5569 18.4447,-3.9047 -3.7254,-11.4708 -23.6989,-46.1206 -23.6989,-46.1206 z"
       id="path5066-8"
       inkscape:connector-curvature="0"
       sodipodi:nodetypes="cccccccc" />
    <path
       style="fill:#ffffff;stroke:none;stroke-width:0.99999988"
       d="m 585.04713,1483.669 c -1.37338,-27.1718 23.25103,-95.1953 143.36788,-90.0791 120.11691,5.1162 157.71158,35.0056 161.23156,83.3044 5.56834,76.4076 -57.625,96.826 -148.365,102.4861 -93.54306,5.8339 -157.68622,-46.6144 -156.23444,-95.7114 z"
       id="path3280-7"
       inkscape:connector-curvature="0"
       sodipodi:nodetypes="csssc" />
    <path
       style="color:#000000;display:inline;overflow:visible;visibility:visible;fill:#ffffff;fill-opacity:1;fill-rule:nonzero;stroke:none;stroke-width:1px;marker:none;enable-background:accumulate"
       d="m 869.08895,1636.9955 c -67.24677,1.2844 -93.00504,-48.0053 -100.0269,-87.4546 -9.92573,-55.7646 -2.09042,-31.0329 -2.09042,-31.0329 l -33.99104,26.0816 c -4.43616,0.2077 36.58553,127.7062 136.10836,92.4059 z"
       id="path3072-12"
       inkscape:connector-curvature="0"
       sodipodi:nodetypes="csccc" />
    <path
       style="fill:#ffffff;fill-rule:evenodd;stroke:none;stroke-width:1.16541231px;stroke-linecap:butt;stroke-linejoin:miter;stroke-opacity:1"
       d="m 542.83913,1378.9971 c 1.46793,-19.455 19.08333,-55.122 45.50657,-61.607 26.4231,-6.485 99.82069,-6.485 114.50023,-3.242 14.67955,3.242 38.1668,27.02 44.03865,36.748 5.87184,9.727 22.01932,44.313 -4.40379,58.364 -26.42323,14.051 -52.84634,24.859 -80.7375,23.778 -27.89116,-1.081 -83.67336,-8.647 -96.88484,-21.616 -13.21161,-12.97 -22.01932,-32.425 -22.01932,-32.425 z"
       id="path1355-3"
       inkscape:connector-curvature="0" />
  </g>
  <g
     inkscape:groupmode="layer"
     id="layer1"
     inkscape:label="txt">
    <text
       xml:space="preserve"
       style="font-style:normal;font-variant:normal;font-weight:normal;font-stretch:normal;line-height:0%;font-family:Lavi;-inkscape-font-specification:Lavi;text-align:center;letter-spacing:0px;word-spacing:0px;text-anchor:middle;fill:#000000;fill-opacity:1;stroke:none"
       x="219.87317"
       y="182.54718"
       id="text4246-3-3"><tspan
         sodipodi:role="line"
         style="font-style:normal;font-variant:normal;font-weight:bold;font-stretch:normal;font-size:45px;line-height:1.25;font-family:Lavi;-inkscape-font-specification:'Lavi Bold'"
         x="219.87317"
         y="182.54718"
         id="tspan67">	Kapteeni!</tspan><tspan
         sodipodi:role="line"
         style="font-style:normal;font-variant:normal;font-weight:bold;font-stretch:normal;font-size:45px;line-height:1.25;font-family:Lavi;-inkscape-font-specification:'Lavi Bold'"
         x="219.87317"
         y="201.08072"
         id="tspan852" /></text>
    <text
       xml:space="preserve"
       style="font-style:normal;font-variant:normal;font-weight:normal;font-stretch:normal;line-height:0%;font-family:Lavi;-inkscape-font-specification:Lavi;text-align:center;letter-spacing:0px;word-spacing:0px;text-anchor:middle;fill:#000000;fill-opacity:1;stroke:none"
       x="498.49622"
       y="206.7603"
       id="text4246-3-5-9"><tspan
         sodipodi:role="line"
         style="font-size:45px;line-height:1.25"
         x="498.49622"
         y="206.7603"
         id="tspan75">Pestasitko</tspan><tspan
         sodipodi:role="line"
         style="font-size:45px;line-height:1.25"
         x="498.49622"
         y="263.01031"
         id="tspan866"> noidan, kuten</tspan><tspan
         sodipodi:role="line"
         style="font-size:45px;line-height:1.25"
         x="498.49622"
         y="319.26031"
         id="tspan868"> käskin?</tspan></text>
    <text
       xml:space="preserve"
       style="font-style:normal;font-variant:normal;font-weight:normal;font-stretch:normal;line-height:0%;font-family:Lavi;-inkscape-font-specification:Lavi;text-align:center;letter-spacing:0px;word-spacing:0px;text-anchor:middle;fill:#000000;fill-opacity:1;stroke:none"
       x="892.10498"
       y="524.89026"
       id="text4246-1-6"><tspan
         sodipodi:role="line"
         style="font-style:normal;font-variant:normal;font-weight:normal;font-stretch:normal;font-size:45px;line-height:1.25;font-family:Lavi;-inkscape-font-specification:Lavi"
         x="900.01514"
         y="524.89026"
         id="tspan71">Kyllä, </tspan><tspan
         sodipodi:role="line"
         style="font-style:normal;font-variant:normal;font-weight:normal;font-stretch:normal;font-size:45px;line-height:1.25;font-family:Lavi;-inkscape-font-specification:Lavi"
         x="892.10498"
         y="581.14026"
         id="tspan915">herrani!</tspan></text>
    <text
       xml:space="preserve"
       style="font-style:normal;font-variant:normal;font-weight:normal;font-stretch:normal;line-height:0%;font-family:Lavi;-inkscape-font-specification:Lavi;text-align:center;letter-spacing:0px;word-spacing:0px;text-anchor:middle;display:inline;fill:#000000;fill-opacity:1;stroke:none"
       x="945.81696"
       y="682.3844"
       id="text4246-7-6-1-7-6-3-5"><tspan
         sodipodi:role="line"
         style="font-size:45px;line-height:1.25"
         x="953.72711"
         y="682.3844"
         id="tspan929">Hän seisoo </tspan><tspan
         sodipodi:role="line"
         style="font-size:45px;line-height:1.25"
         x="945.81696"
         y="738.6344"
         id="tspan931">vieressänne.</tspan></text>
    <text
       xml:space="preserve"
       style="font-style:normal;font-variant:normal;font-weight:normal;font-stretch:normal;font-size:15.90748692px;line-height:0%;font-family:Lavi;-inkscape-font-specification:Lavi;text-align:center;letter-spacing:0px;word-spacing:0px;text-anchor:middle;fill:#000000;fill-opacity:1;stroke:none;stroke-width:0.99999988"
       x="1859.6963"
       y="214.15907"
       id="text4246-86-3-3"
       transform="scale(0.98795945,1.0121873)"><tspan
         sodipodi:role="line"
         style="font-size:59.65306854px;line-height:1.20000005;stroke-width:0.99999988"
         x="1859.6963"
         y="214.15907"
         id="tspan1044-3"><tspan
           style="font-style:normal;font-variant:normal;font-weight:bold;font-stretch:normal;font-family:Lavi;-inkscape-font-specification:'Lavi Bold';stroke-width:0.99999988"
           id="tspan1046-9">...?</tspan></tspan></text>
    <text
       xml:space="preserve"
       style="font-style:normal;font-variant:normal;font-weight:normal;font-stretch:normal;line-height:0%;font-family:Lavi;-inkscape-font-specification:Lavi;text-align:center;letter-spacing:0px;word-spacing:0px;text-anchor:middle;fill:#000000;fill-opacity:1;stroke:none"
       x="646.31946"
       y="1387.8031"
       id="text4246-3-7-7-6-7-2-9-6-1-4"><tspan
         sodipodi:role="line"
         style="font-size:45px;line-height:1.20000005"
         x="646.31946"
         y="1387.8031"
         id="tspan1183-0">Moikka!</tspan></text>
    <text
       xml:space="preserve"
       style="font-style:normal;font-variant:normal;font-weight:normal;font-stretch:normal;line-height:0%;font-family:Lavi;-inkscape-font-specification:Lavi;text-align:center;letter-spacing:0px;word-spacing:0px;text-anchor:middle;fill:#000000;fill-opacity:1;stroke:none"
       x="736.13556"
       y="1470.2469"
       id="text4246-7-5"><tspan
         sodipodi:role="line"
         style="font-size:45px;line-height:1.25"
         x="744.04572"
         y="1470.2469"
         id="tspan4169-1">Nimeni on </tspan><tspan
         sodipodi:role="line"
         style="font-size:45px;line-height:1.25"
         x="736.13556"
         y="1526.4969"
         id="tspan1089">Pepp...</tspan></text>
    <text
       xml:space="preserve"
       style="font-style:normal;font-variant:normal;font-weight:normal;font-stretch:normal;line-height:0%;font-family:Lavi;-inkscape-font-specification:Lavi;text-align:center;letter-spacing:0px;word-spacing:0px;text-anchor:middle;display:inline;fill:#000000;fill-opacity:1;stroke:none"
       x="2271.7188"
       y="1112.7358"
       id="text4246-2-3-1-3-9-9-7"
       transform="matrix(0.89365154,0,-0.19329856,1.1190044,0,0)"><tspan
         sodipodi:role="line"
         style="font-size:104.29582214px;line-height:1.25;letter-spacing:-5px"
         x="2269.2188"
         y="1112.7358"
         id="tspan4161-6">?!!</tspan></text>
    <text
       xml:space="preserve"
       style="font-style:normal;font-variant:normal;font-weight:normal;font-stretch:normal;font-size:28.73172379px;line-height:0%;font-family:Lavi;-inkscape-font-specification:Lavi;text-align:center;letter-spacing:29.10897446px;word-spacing:0px;text-anchor:middle;fill:#000000;fill-opacity:1;stroke:none;stroke-width:1"
       x="2299.6943"
       y="2623.665"
       id="text4246-6-6-3-6"
       transform="matrix(0.94427779,0,-0.21829887,1.0590104,0,0)"><tspan
         sodipodi:role="line"
         style="font-style:normal;font-variant:normal;font-weight:bold;font-stretch:normal;font-size:107.74396515px;line-height:1.20000005;font-family:Lavi;-inkscape-font-specification:'Lavi Bold';letter-spacing:4px;stroke-width:1"
         x="2301.6943"
         y="2623.665"
         id="tspan4252-00-4-7-3">TOOPE!!!</tspan></text>
    <text
       xml:space="preserve"
       style="font-style:normal;font-variant:normal;font-weight:normal;font-stretch:normal;font-size:14.11471462px;line-height:0%;font-family:Lavi;-inkscape-font-specification:Lavi;text-align:center;letter-spacing:14.30004215px;word-spacing:0px;text-anchor:middle;fill:#000000;fill-opacity:1;stroke:none;stroke-width:1"
       x="1660.5546"
       y="2714.4756"
       id="text4246-6-3"
       transform="scale(0.94973823,1.0529217)"><tspan
         sodipodi:role="line"
         style="font-style:normal;font-variant:normal;font-weight:bold;font-stretch:normal;font-size:52.9301796px;line-height:1.20000005;font-family:Lavi;-inkscape-font-specification:'Lavi Bold';letter-spacing:0.90000004px;stroke-width:1"
         x="1661.0045"
         y="2714.4756"
         id="tspan3762">Miksi olet värvännyt</tspan><tspan
         sodipodi:role="line"
         style="font-style:normal;font-variant:normal;font-weight:bold;font-stretch:normal;font-size:52.9301796px;line-height:1.20000005;font-family:Lavi;-inkscape-font-specification:'Lavi Bold';letter-spacing:0.90000004px;stroke-width:1"
         x="1661.0045"
         y="2777.9917"
         id="tspan60">tämän lapsen?!</tspan></text>
    <text
       xml:space="preserve"
       style="font-style:normal;font-variant:normal;font-weight:normal;font-stretch:normal;font-size:14.11471462px;line-height:0%;font-family:Lavi;-inkscape-font-specification:Lavi;text-align:center;letter-spacing:14.30004215px;word-spacing:0px;text-anchor:middle;fill:#000000;fill-opacity:1;stroke:none;stroke-width:1"
       x="1640.3445"
       y="2842.5552"
       id="text4246-6-3-4"
       transform="scale(0.94973823,1.0529217)"><tspan
         sodipodi:role="line"
         style="font-style:normal;font-variant:normal;font-weight:bold;font-stretch:normal;font-size:52.9301796px;line-height:1.20000005;font-family:Lavi;-inkscape-font-specification:'Lavi Bold';letter-spacing:0.90000004px;stroke-width:1"
         x="1640.7944"
         y="2842.5552"
         id="tspan1142">Tarvitsen oikean</tspan><tspan
         sodipodi:role="line"
         style="font-style:normal;font-variant:normal;font-weight:bold;font-stretch:normal;font-size:52.9301796px;line-height:1.20000005;font-family:Lavi;-inkscape-font-specification:'Lavi Bold';letter-spacing:0.90000004px;stroke-width:1"
         x="1640.7944"
         y="2906.0713"
         id="tspan3766">taistelunoidan!</tspan></text>
    <text
       xml:space="preserve"
       style="font-style:normal;font-variant:normal;font-weight:normal;font-stretch:normal;font-size:106.66666412px;line-height:139.99999762%;font-family:'Comic Sans MS';-inkscape-font-specification:'Comic Sans MS, Normal';font-variant-ligatures:normal;font-variant-caps:normal;font-variant-numeric:normal;font-feature-settings:normal;text-align:center;letter-spacing:0px;word-spacing:0px;writing-mode:lr-tb;text-anchor:middle;fill:#000000;fill-opacity:1;stroke:none;stroke-width:1px;stroke-linecap:butt;stroke-linejoin:miter;stroke-opacity:1"
       x="828.26086"
       y="489.9566"
       id="text3748"><tspan
         sodipodi:role="line"
         x="828.26086"
         y="590.63599"
         id="tspan3750" /></text>
  </g>
</svg>
