<?xml version="1.0" encoding="UTF-8" standalone="no"?>
<!-- Created with Inkscape (http://www.inkscape.org/) -->

<svg
   xmlns:dc="http://purl.org/dc/elements/1.1/"
   xmlns:cc="http://creativecommons.org/ns#"
   xmlns:rdf="http://www.w3.org/1999/02/22-rdf-syntax-ns#"
   xmlns:svg="http://www.w3.org/2000/svg"
   xmlns="http://www.w3.org/2000/svg"
   xmlns:xlink="http://www.w3.org/1999/xlink"
   xmlns:sodipodi="http://sodipodi.sourceforge.net/DTD/sodipodi-0.dtd"
   xmlns:inkscape="http://www.inkscape.org/namespaces/inkscape"
   id="svg2"
   version="1.1"
   inkscape:version="0.92.2 (5c3e80d, 2017-08-06)"
   width="2481"
   height="3503"
   sodipodi:docname="E37P01.svg">
  <metadata
     id="metadata8">
    <rdf:RDF>
      <cc:Work
         rdf:about="">
        <dc:format>image/svg+xml</dc:format>
        <dc:type
           rdf:resource="http://purl.org/dc/dcmitype/StillImage" />
        <dc:title />
      </cc:Work>
    </rdf:RDF>
  </metadata>
  <defs
     id="defs6" />
  <sodipodi:namedview
     pagecolor="#ffffff"
     bordercolor="#666666"
     borderopacity="1"
     objecttolerance="10"
     gridtolerance="10"
     guidetolerance="10"
     inkscape:pageopacity="0"
     inkscape:pageshadow="2"
     inkscape:window-width="1271"
     inkscape:window-height="1024"
     id="namedview4"
     showgrid="false"
     inkscape:zoom="0.45720279"
     inkscape:cx="1243.8206"
     inkscape:cy="945.42292"
     inkscape:window-x="602"
     inkscape:window-y="-1"
     inkscape:window-maximized="0"
     inkscape:current-layer="layer3"
     inkscape:pagecheckerboard="0"
     inkscape:showpageshadow="0"
     inkscape:deskcolor="#d1d1d1"
     showguides="false" />
  <g
     inkscape:groupmode="layer"
     id="layer2"
     inkscape:label="artwork"
     sodipodi:insensitive="true">
    <image
       sodipodi:absref="C:\Users\Kari\Documents\Pepper and Carrot\Episode 37\fi\../lang/en/./../gfx_Pepper-and-Carrot_by-David-Revoy_E37P01.png"
       xlink:href="../gfx_Pepper-and-Carrot_by-David-Revoy_E37P01.png"
       y="0"
       x="0"
       id="image10"
       height="3503"
       width="2481" />
  </g>
  <g
     inkscape:groupmode="layer"
     id="layer3"
     inkscape:label="speechbubbles">
    <path
       style="color:#000000;display:inline;overflow:visible;visibility:visible;fill:#ffffff;fill-opacity:1;fill-rule:nonzero;stroke:none;stroke-width:0.999998px;marker:none;enable-background:accumulate"
       d="m 1957.6629,2315.1087 c 15.8896,4.7552 27.218,-10.2594 36.5884,-10.1737 9.3705,0.085 20.4858,-1.4767 31.5776,-11.7728 11.8207,-15.5362 46.6253,-47.4088 4.9039,-39.2982 -15.2177,1.3778 -15.6011,25.3088 -21.9093,33.4823 -6.3081,8.1734 -14.6485,3.6312 -21.2243,9.0949 -6.5758,5.4636 -12.6894,16.2295 -29.9363,18.6675 z"
       id="path4538-0"
       inkscape:connector-curvature="0"
       sodipodi:nodetypes="ccccccc" />
    <path
       style="color:#000000;display:inline;overflow:visible;visibility:visible;fill:#ffffff;fill-opacity:1;fill-rule:nonzero;stroke:none;stroke-width:1px;marker:none;enable-background:accumulate"
       d="m 2249.24,3145.8561 c 34.555,29.8645 38.7386,62.8188 5.9526,98.2544 -21.168,42.3886 0.4462,38.3212 0.4462,38.3212 l 34.145,-19.6238 c 0,0 46.2012,-75.3554 -40.5438,-116.9518 z"
       id="path3072-56-6"
       inkscape:connector-curvature="0"
       sodipodi:nodetypes="ccccc" />
    <path
       style="color:#000000;display:inline;overflow:visible;visibility:visible;fill:#ffffff;fill-opacity:1;fill-rule:nonzero;stroke:none;stroke-width:1.07704628px;marker:none;enable-background:accumulate"
       d="m 860.93185,2234.3564 c -22.79295,0.6176 -46.02423,0.5258 -67.60492,9.3689 -12.66848,5.1622 -24.63058,15.0153 -31.60348,30.8543 -8.1537,18.1491 -7.90049,42.7891 -1.81345,63.8778 2.85441,9.7854 6.80458,19.1334 11.78634,27.2499 5.41064,8.6421 12.51299,15.2607 20.22931,18.1612 22.36669,10.7081 45.6336,13.2646 68.46005,14.3397 23.87079,0.8309 47.63938,-0.2831 71.21717,-2.8606 19.87894,-2.5748 39.84782,-7.2207 57.51334,-19.148 10.66634,-7.5021 20.49889,-18.8508 24.78339,-35.0961 5.9793,-22.4599 2.0961,-51.2986 -10.7973,-70.2059 -10.30517,-14.505 -24.26989,-21.5311 -37.7236,-25.8005 -22.21806,-6.9247 -44.66751,-8.1551 -66.96441,-9.7886 -12.51382,-0.7717 -25.04168,-1.4629 -37.48244,-0.9521 z"
       id="path4546-6-21-1"
       inkscape:connector-curvature="0"
       sodipodi:nodetypes="cssssc" />
    <path
       style="color:#000000;display:inline;overflow:visible;visibility:visible;fill:#ffffff;fill-opacity:1;fill-rule:nonzero;stroke:none;stroke-width:1.24776px;marker:none;enable-background:accumulate"
       d="m 849.18072,2151.1293 c -18.14856,0.3855 -36.60784,0.3282 -54.22804,5.8465 -10.34202,3.2213 -20.37079,9.3697 -26.75086,19.2536 -7.4408,11.3254 -8.54323,26.7013 -4.82103,39.861 1.75096,6.1063 4.39595,11.9396 7.92602,17.0045 3.84313,5.3928 9.13788,9.5229 15.11734,11.3329 17.21046,6.682 35.56772,8.2774 53.65329,8.9483 18.9285,0.5184 37.87868,-0.1767 56.75468,-1.7852 15.93601,-1.6067 32.05304,-4.5058 46.7246,-11.9486 8.8747,-4.6815 17.29002,-11.7632 21.55478,-21.9007 5.94067,-14.0154 4.38006,-32.0113 -4.86713,-43.8099 -7.42318,-9.0513 -18.15062,-13.4357 -28.61755,-16.0999 -17.29268,-4.3212 -35.07036,-5.089 -52.70551,-6.1083 -9.90514,-0.4816 -19.8257,-0.9129 -29.74059,-0.5942 z"
       id="path4546-6-21-1-7"
       inkscape:connector-curvature="0"
       sodipodi:nodetypes="cssssc" />
    <path
       style="color:#000000;display:inline;overflow:visible;visibility:visible;fill:#ffffff;fill-opacity:1;fill-rule:nonzero;stroke:none;stroke-width:0.999999px;marker:none;enable-background:accumulate"
       d="m 1112.0298,2244.6942 c -36.4729,-14.2248 -66.2411,-6.7142 -86.7414,26.8513 -30.09489,27.8109 -33.25183,11.7546 -33.25183,11.7546 l 6.41738,-29.5186 c 0,0 50.85485,-55.2993 113.57585,-9.0873 z"
       id="path3072-56"
       inkscape:connector-curvature="0"
       sodipodi:nodetypes="ccccc" />
    <path
       style="fill:#ffffff;stroke:none;stroke-width:1.12266493"
       d="m 2089.5833,2130.2227 c -32.032,0.7098 -65.3763,3.8196 -93.7959,18.0493 -35.4348,20.1271 -48.3117,65.6376 -28.0383,98.4221 8.8577,14.9187 24.33,26.1644 42.0375,31.8566 21.5657,7.3377 44.7592,9.1734 67.36,12.5354 59.0497,7.0828 119.8849,5.6916 177.6766,-7.8795 16.8751,-3.8228 34.8525,-11.3204 42.2273,-26.3501 8.8095,-18.7115 8.4073,-39.9925 3.2778,-59.4746 -5.4655,-19.0215 -16.7972,-37.3975 -34.5852,-49.3502 -20.2069,-11.7846 -45.0923,-12.6888 -68.3488,-15.0401 -35.8364,-2.9007 -71.8615,-2.8165 -107.811,-2.7689 z"
       id="path3280-10"
       inkscape:connector-curvature="0"
       sodipodi:nodetypes="csssc" />
    <path
       style="color:#000000;display:inline;overflow:visible;visibility:visible;fill:#ffffff;fill-opacity:1;fill-rule:nonzero;stroke:none;stroke-width:1.21295595px;marker:none;enable-background:accumulate"
       d="m 2083.7469,2518.1645 c -37.1841,0.8288 -74.9985,1.564 -110.865,10.6329 -25.288,6.0708 -49.0433,18.3428 -64.1151,36.5199 -18.5438,20.8683 -31.6998,45.6652 -33.7507,71.7403 -1.6384,20.9749 2.8703,42.449 14.1336,61.3427 7.9602,13.2359 20.431,24.8399 36.4457,31.6037 17.2844,7.6387 36.8982,10.5238 56.2303,11.814 24.8946,2.0874 49.8318,3.8184 74.7109,6.0376 57.7579,4.662 115.8659,8.1695 173.912,5.6687 38.9744,-1.1569 77.9671,-1.8357 116.9566,-2.4796 20.2179,-0.6594 40.727,-1.6772 60.161,-6.6865 12.8969,-4.7872 20.5321,-16.6347 20.2553,-28.1186 2.0431,-21.455 -5.8432,-42.6443 -16.9673,-61.7774 -10.3329,-17.9246 -21.9447,-35.3231 -32.1029,-53.3186 -10.4102,-17.054 -23.1343,-33.9162 -42.1165,-45.2754 -22.974,-14.0692 -50.9476,-20.967 -78.6749,-25.3208 -46.5112,-7.365 -93.8804,-9.7682 -141.0785,-11.9144 -11.0388,-0.3602 -22.0872,-0.5275 -33.1345,-0.4685 z"
       id="path4546-6-21-1-2"
       inkscape:connector-curvature="0"
       sodipodi:nodetypes="cssssccccccccc" />
    <path
       style="color:#000000;display:inline;overflow:visible;visibility:visible;fill:#ffffff;fill-opacity:1;fill-rule:nonzero;stroke:none;stroke-width:0.999994px;marker:none;enable-background:accumulate"
       d="m 2072.4015,2461.8063 c 23.2757,17.8081 28.2898,43.1252 10.979,76.5719 -9.716,36.9964 3.1402,30.1775 3.1402,30.1775 l 19.3218,-21.1913 c 0,0 22.491,-67.2 -33.441,-85.5581 z"
       id="path3072-56-7"
       inkscape:connector-curvature="0"
       sodipodi:nodetypes="ccccc" />
    <path
       style="color:#000000;display:inline;overflow:visible;visibility:visible;fill:#ffffff;fill-opacity:1;fill-rule:nonzero;stroke:none;stroke-width:0.98281008px;marker:none;enable-background:accumulate"
       d="m 2175.3245,3221.6447 c -37.9323,0.8969 -76.5395,5.9031 -110.3727,19.6335 -24.9325,9.6608 -43.2473,27.9981 -50.5972,48.4978 -9.3735,23.0221 -11.0076,48.6774 0.8158,71.3727 9.8371,18.7117 30.5974,33.1483 54.3358,41.3679 31.9241,11.6076 66.7493,17.6647 101.5586,21.5819 51.4187,5.3987 103.8363,5.3301 155.2202,-0.256 29.0803,-3.6883 58.416,-10.9734 81.2224,-25.7609 24.6876,-16.0986 37.9051,-41.5616 35.2096,-66.2288 -1.9594,-28.3039 -18.1276,-56.3979 -46.3803,-75.0584 -22.7784,-15.4701 -52.1594,-24.1007 -81.8815,-28.0085 -45.8003,-6.7074 -92.6664,-7.0468 -139.1307,-7.1412 z"
       id="path4040-40"
       inkscape:connector-curvature="0"
       sodipodi:nodetypes="zssssz" />
  </g>
  <g
     inkscape:groupmode="layer"
     id="layer1"
     inkscape:label="txt"
     style="display:inline">
    <text
       xml:space="preserve"
       style="font-style:normal;font-variant:normal;font-weight:normal;font-stretch:normal;font-size:45.33330154px;line-height:125%;font-family:Lavi;-inkscape-font-specification:Lavi;text-align:center;letter-spacing:0px;word-spacing:0px;text-anchor:middle;fill:#000000;fill-opacity:1;stroke:none"
       x="870.99451"
       y="2214.8057"
       id="text4246-70-2-2-2-7-4-9-9-6-1-2-3-9"><tspan
         sodipodi:role="line"
         style="font-size:45.33330154px"
         x="870.99451"
         y="2214.8057"
         id="tspan2979">Huh...</tspan></text>
    <text
       xml:space="preserve"
       style="font-style:normal;font-variant:normal;font-weight:normal;font-stretch:normal;font-size:45.33330154px;line-height:125%;font-family:Lavi;-inkscape-font-specification:Lavi;text-align:center;letter-spacing:0px;word-spacing:0px;text-anchor:middle;fill:#000000;fill-opacity:1;stroke:none"
       x="874.24341"
       y="2307.0212"
       id="text4246-70-2-2-2-7-4-9-9-6-1-2-3-9-3"><tspan
         sodipodi:role="line"
         style="font-size:45.33330154px"
         x="874.24341"
         y="2307.0212"
         id="tspan20992">Lopultakin</tspan><tspan
         sodipodi:role="line"
         style="font-size:45.33330154px"
         x="874.24341"
         y="2363.688"
         id="tspan982">täällä!</tspan></text>
    <text
       xml:space="preserve"
       style="font-style:normal;font-variant:normal;font-weight:normal;font-stretch:normal;font-size:45.33330154px;line-height:125%;font-family:Lavi;-inkscape-font-specification:Lavi;text-align:center;letter-spacing:0px;word-spacing:0px;text-anchor:middle;fill:#000000;fill-opacity:1;stroke:none"
       x="2135.9358"
       y="2189.3025"
       id="text4246-70-2-2-2-7-4-9-9-6-1-2-3-9-3-5"><tspan
         sodipodi:role="line"
         style="font-size:45.33330154px"
         x="2143.9045"
         y="2189.3025"
         id="tspan1022">Tänään onkin </tspan><tspan
         sodipodi:role="line"
         style="font-size:45.33330154px"
         x="2135.9358"
         y="2245.9692"
         id="tspan1026">markkinapäivä.</tspan></text>
    <text
       xml:space="preserve"
       style="font-style:normal;font-variant:normal;font-weight:normal;font-stretch:normal;font-size:45.33330154px;line-height:125%;font-family:Lavi;-inkscape-font-specification:Lavi;text-align:center;letter-spacing:0px;word-spacing:0px;text-anchor:middle;fill:#000000;fill-opacity:1;stroke:none"
       x="2140.1082"
       y="2594.6836"
       id="text4246-70-2-2-2-7-4-9-9-6-1-2-3-9-3-5-2"><tspan
         sodipodi:role="line"
         style="font-size:45.33330154px"
         x="2148.0769"
         y="2594.6836"
         id="tspan1190">Etsitään vähän </tspan><tspan
         sodipodi:role="line"
         style="font-size:45.33330154px"
         x="2140.1082"
         y="2651.3501"
         id="tspan1194">haukattavaa ennen kuin</tspan><tspan
         sodipodi:role="line"
         style="font-size:45.33330154px"
         x="2140.1082"
         y="2708.0168"
         id="tspan1196"> kiipeämme tulivuorelle.</tspan></text>
    <text
       xml:space="preserve"
       style="font-style:normal;font-variant:normal;font-weight:normal;font-stretch:normal;font-size:45.33330154px;line-height:125%;font-family:Lavi;-inkscape-font-specification:Lavi;text-align:center;letter-spacing:0px;word-spacing:0px;text-anchor:middle;fill:#000000;fill-opacity:1;stroke:none"
       x="2219.447"
       y="3304.8635"
       id="text4246-70-2-2-2-7-4-9-9-6-1-2-3-9-3-5-2-0"><tspan
         sodipodi:role="line"
         style="font-size:45.33330154px"
         x="2219.447"
         y="3304.8635"
         id="tspan38660">Tiesinhän, että</tspan><tspan
         sodipodi:role="line"
         style="font-size:45.33330154px"
         x="2219.447"
         y="3361.5303"
         id="tspan1238">pidät ajatuksesta!</tspan></text>
  </g>
</svg>
