<?xml version="1.0" encoding="UTF-8" standalone="no"?>
<!-- Created with Inkscape (http://www.inkscape.org/) -->

<svg
   xmlns:dc="http://purl.org/dc/elements/1.1/"
   xmlns:cc="http://creativecommons.org/ns#"
   xmlns:rdf="http://www.w3.org/1999/02/22-rdf-syntax-ns#"
   xmlns:svg="http://www.w3.org/2000/svg"
   xmlns="http://www.w3.org/2000/svg"
   xmlns:xlink="http://www.w3.org/1999/xlink"
   xmlns:sodipodi="http://sodipodi.sourceforge.net/DTD/sodipodi-0.dtd"
   xmlns:inkscape="http://www.inkscape.org/namespaces/inkscape"
   id="svg2"
   version="1.1"
   inkscape:version="0.92.4 (5da689c313, 2019-01-14)"
   width="2481"
   height="3503"
   sodipodi:docname="E31P06.svg">
  <metadata
     id="metadata8">
    <rdf:RDF>
      <cc:Work
         rdf:about="">
        <dc:format>image/svg+xml</dc:format>
        <dc:type
           rdf:resource="http://purl.org/dc/dcmitype/StillImage" />
        <dc:title />
      </cc:Work>
    </rdf:RDF>
  </metadata>
  <defs
     id="defs6">
    <filter
       style="color-interpolation-filters:sRGB"
       id="filter4375-4-1-1-1-9-5-8-3-8"
       inkscape:label="Drop Shadow">
      <feFlood
         id="feFlood4377-7-9-0-8-1-7-3-8-3"
         flood-opacity="1"
         flood-color="rgb(39,39,39)"
         result="flood" />
      <feComposite
         id="feComposite4379-3-8-8-2-77-4-1-8-7"
         in2="SourceGraphic"
         in="flood"
         operator="in"
         result="composite1" />
      <feMorphology
         id="feMorphology4393-1-0-49-8-9-3-0-31-8"
         operator="dilate"
         radius="6.2000000000000002"
         result="result3" />
      <feComposite
         id="feComposite4385-9-5-7-0-8-8-7-8-2"
         in2="result3"
         in="SourceGraphic"
         operator="over"
         result="fbSourceGraphic" />
      <feColorMatrix
         result="fbSourceGraphicAlpha"
         in="fbSourceGraphic"
         values="0 0 0 -1 0 0 0 0 -1 0 0 0 0 -1 0 0 0 0 1 0"
         id="feColorMatrix4544-96-1" />
      <feTurbulence
         id="feTurbulence4546-4-0"
         type="fractalNoise"
         numOctaves="3"
         seed="37"
         baseFrequency="0.129 0.0050000000000000001"
         result="turbulence" />
      <feDisplacementMap
         id="feDisplacementMap4548-3-5"
         in2="turbulence"
         in="fbSourceGraphic"
         scale="6.6"
         yChannelSelector="G"
         xChannelSelector="R"
         result="fbSourceGraphic" />
      <feColorMatrix
         result="fbSourceGraphicAlpha"
         in="fbSourceGraphic"
         values="0 0 0 -1 0 0 0 0 -1 0 0 0 0 -1 0 0 0 0 1 0"
         id="feColorMatrix4670-33-8" />
      <feFlood
         id="feFlood4672-8-5"
         flood-opacity="0.40999999999999998"
         flood-color="rgb(0,0,0)"
         result="flood"
         in="fbSourceGraphic" />
      <feComposite
         id="feComposite4674-6-5"
         in2="fbSourceGraphic"
         in="flood"
         operator="in"
         result="composite1" />
      <feGaussianBlur
         id="feGaussianBlur4676-0-0"
         in="composite1"
         stdDeviation="0"
         result="blur" />
      <feOffset
         id="feOffset4678-4-7"
         dx="6"
         dy="6"
         result="offset" />
      <feComposite
         id="feComposite4680-8-3"
         in2="offset"
         in="fbSourceGraphic"
         operator="over"
         result="composite2" />
    </filter>
    <filter
       style="color-interpolation-filters:sRGB"
       id="filter4375-4-1-1-1-9-0"
       inkscape:label="deevad outline effect">
      <feFlood
         id="feFlood4377-7-9-0-8-1-9"
         flood-opacity="1"
         flood-color="rgb(0,0,0)"
         result="flood" />
      <feComposite
         id="feComposite4379-3-8-8-2-77-1"
         in2="SourceGraphic"
         in="flood"
         operator="in"
         result="composite1" />
      <feMorphology
         id="feMorphology4393-1-0-49-8-9-9"
         operator="dilate"
         radius="3"
         result="result3" />
      <feComposite
         id="feComposite4385-9-5-7-0-8-6"
         in2="result3"
         in="SourceGraphic"
         operator="over"
         result="composite2" />
    </filter>
    <filter
       style="color-interpolation-filters:sRGB"
       id="filter4375-4-1-1-1-9-0-5"
       inkscape:label="deevad outline effect">
      <feFlood
         id="feFlood4377-7-9-0-8-1-9-6"
         flood-opacity="1"
         flood-color="rgb(0,0,0)"
         result="flood" />
      <feComposite
         id="feComposite4379-3-8-8-2-77-1-2"
         in2="SourceGraphic"
         in="flood"
         operator="in"
         result="composite1" />
      <feMorphology
         id="feMorphology4393-1-0-49-8-9-9-9"
         operator="dilate"
         radius="3"
         result="result3" />
      <feComposite
         id="feComposite4385-9-5-7-0-8-6-1"
         in2="result3"
         in="SourceGraphic"
         operator="over"
         result="composite2" />
    </filter>
  </defs>
  <sodipodi:namedview
     pagecolor="#ffffff"
     bordercolor="#666666"
     borderopacity="1"
     objecttolerance="10"
     gridtolerance="10"
     guidetolerance="10"
     inkscape:pageopacity="0"
     inkscape:pageshadow="2"
     inkscape:window-width="1920"
     inkscape:window-height="1017"
     id="namedview4"
     showgrid="false"
     inkscape:zoom="0.4574026"
     inkscape:cx="1172.1608"
     inkscape:cy="550.94532"
     inkscape:window-x="-8"
     inkscape:window-y="-8"
     inkscape:window-maximized="1"
     inkscape:current-layer="layer3"
     inkscape:snap-global="false"
     showguides="false" />
  <g
     inkscape:groupmode="layer"
     id="layer2"
     inkscape:label="artwork"
     sodipodi:insensitive="true">
    <image
       sodipodi:absref="C:\Users\Xan\Documents\git\webcomics\ep31_The-Fight\lang\pt\../gfx_Pepper-and-Carrot_by-David-Revoy_E31P06.png"
       xlink:href="../gfx_Pepper-and-Carrot_by-David-Revoy_E31P06.png"
       width="2481"
       height="3503"
       id="image10"
       x="0"
       y="0" />
  </g>
  <g
     inkscape:groupmode="layer"
     id="layer3"
     inkscape:label="speechbubbles">
    <path
       style="color:#000000;display:inline;overflow:visible;visibility:visible;fill:#ffffff;fill-opacity:1;fill-rule:nonzero;stroke:none;stroke-width:1.01842225px;marker:none;enable-background:accumulate"
       d="m 824.77482,2925.6926 c -11.89543,-3.0753 -46.98417,-31.0327 -5.40593,-31.992 -31.07469,-10.7706 -28.05187,-36.1548 -3.55099,-52.3649 -32.80839,5.0058 -57.50603,0.2287 -41.60892,-26.7489 -48.02603,19.5804 -69.50524,24.2844 -60.88766,-12.7729 -21.19736,31.4363 -42.95327,27.1345 -49.95153,-7.7042 -3.97339,26.527 -36.87144,36.8922 -76.10848,4.185 13.36674,30.8416 20.95714,46.8938 -48.79072,42.3823 27.05349,16.7365 44.24264,27.4574 -0.18439,37.9391 23.14588,6.861 38.15076,17.1507 3.34199,37.0684 23.26147,4.2054 59.62753,0.3429 16.7871,36.9929 28.5062,-17.8244 77.64302,-9.1912 57.74053,17.9721 55.95783,-32.5667 67.27193,-25.4803 76.76408,-5.1642 19.99204,-31.8112 61.68928,-37.7434 80.28727,-21.0916 -9.80227,-26.5151 25.3199,-17.1146 51.56765,-18.7011 z"
       id="path3549-3-78-5-3"
       inkscape:connector-curvature="0"
       sodipodi:nodetypes="ccccccccccccccc" />
    <path
       style="color:#000000;display:inline;overflow:visible;visibility:visible;fill:#ffffff;fill-opacity:1;fill-rule:nonzero;stroke:none;stroke-width:1.13598561px;marker:none;enable-background:accumulate"
       d="m 843.02907,2994.1713 c -11.89713,-2.9785 -24.17157,-22.306 -4.83933,-35.2868 -16.04099,-0.688 -25.22109,-7.3316 -10.09016,-20.9326 -33.63592,17.0282 -42.55262,-6.109 -31.54836,-33.2935 -49.36943,13.0575 -71.28017,15.72 -61.02027,-12.9191 -22.7425,23.6321 -44.55674,19.2215 -50.17625,-8.4238 -5.12498,20.6058 -16.0656,31.8674 -48.67807,5.9229 -2.4006,7.5606 8.64658,32.4271 -61.67596,25.5615 26.65036,14.4116 42.6399,17.0575 -2.71109,23.1541 23.11252,6.4833 53.82905,16.2056 17.80741,30.1585 23.34031,4.4069 45.22812,8.7539 0.38797,35.4404 29.56268,-12.6127 61.01949,-4.4394 39.76453,15.9049 57.9305,-22.8594 69.07237,-16.7642 77.8197,-0.3847 21.53965,-23.9836 52.66833,-21.2672 70.7742,-7.3256 -8.80189,-21.2539 37.58447,-17.5851 64.18568,-17.5762 z"
       id="path3549-3-78-5"
       inkscape:connector-curvature="0"
       sodipodi:nodetypes="ccccccccccccccc" />
    <path
       style="fill:#ffffff;fill-opacity:1;stroke:none;stroke-width:0.8861739"
       d="m 2270.5077,607.49643 c -12.3713,3.86007 -17.1331,7.46431 -14.918,9.6977 -5.0745,1.09817 -7.0294,30.03928 -2.2834,35.3413 0.3158,0.55806 2.5322,2.23433 1.5804,2.50979 -0.9514,0.27548 -6.6564,-0.5762 -7.6094,0.53413 -0.9532,1.11089 8.5288,17.00347 7.2595,17.5563 -1.269,0.55338 -30.4163,-10.10974 -34.5421,-7.61678 -4.1259,2.49298 -1.9183,8.9012 -3.1869,9.17575 -1.2685,0.27454 -12.9956,-1.42978 -14.5812,-1.15616 -1.5857,0.2736 -4.454,8.61487 -6.0396,8.88847 -1.5858,0.27362 -8.8702,-3.64446 -10.1388,-3.36991 -1.2686,0.27454 -0.6472,7.23467 -2.2328,7.50829 -1.5857,0.2736 -8.5491,-5.86981 -9.5007,-5.59434 -0.9515,0.27548 -4.4642,14.1817 -6.0508,15.01188 -1.5867,0.83018 -11.702,-15.34253 -12.6527,-15.62363 -0.9505,-0.28165 -7.009,18.90564 -8.2774,19.18018 -1.2689,0.27454 -7.5849,-13.1041 -8.5366,-12.82862 -0.9517,0.27548 -6.9892,8.05138 -8.2583,8.60421 -1.2691,0.55283 -9.4793,-17.28455 -10.7476,-17.28829 -1.2681,-0.004 -12.0606,7.47929 -13.0142,8.86791 -0.9537,1.38917 -1.889,-7.24215 -3.1571,-7.24589 -1.268,-0.004 -15.8604,4.96349 -16.1769,4.68427 -0.3166,-0.27923 2.2294,-5.56029 1.2783,-5.56309 -0.951,-0.003 -15.8638,6.9115 -16.4956,5.5182 4.3499,-20.42315 -32.1632,6.15199 -34.5663,5.74316 -2.2172,-1.12024 14.3077,-22.78124 12.7257,-24.45617 -1.5823,-1.6744 -7.2924,0.25676 -7.6079,-0.57903 -0.3153,-0.83579 3.4955,-4.44284 2.5465,-5.55878 -0.9491,-1.1165 -11.7198,-5.60143 -12.6683,-6.99566 -0.9486,-1.3948 4.7644,-4.99624 3.4978,-5.83483 -1.2667,-0.83915 -19.9615,-6.18233 -20.2761,-7.57524 -0.3144,-1.39237 9.5257,-8.04334 8.2611,-9.99509 -1.2645,-1.95229 -4.7505,-2.79743 -4.4308,-4.18848 0.3196,-1.39049 6.346,-3.04299 6.0316,-4.43535 -0.3145,-1.39238 -3.4721,-8.36054 -4.4211,-9.47648 -0.9491,-1.11595 6.6585,-0.53694 6.6605,-1.65008 0,-1.11369 -1.4662,-23.5183 -12.7111,-33.66701 19.6879,6.75864 27.9851,3.53587 38.4511,1.34045 10.466,-2.19598 6.3698,-16.12464 7.9565,-16.95484 6.4381,5.17921 16.7538,27.89768 18.3926,1.91714 -0.3256,-1.85524 11.3362,11.16727 12.9218,10.89366 1.5856,-0.27361 14.6562,-14.7864 16.8759,-15.05814 2.2197,-0.27174 10.7703,4.76377 12.6719,5.04767 1.9017,0.2839 3.4994,-6.66969 5.0836,-6.10843 1.5842,0.56124 11.7198,5.60143 13.3059,5.04953 1.5862,-0.55245 2.8583,-2.775 4.1255,-2.21468 1.2669,0.56031 6.9694,2.80399 6.9694,2.80399 0,0 4.1245,-1.65812 6.0265,-1.65251 1.9022,0.006 14.8836,9.22905 16.4676,9.79031 1.5841,0.56124 17.876,-9.43403 16.928,-11.10655 2.0064,7.31416 11.7581,0.65375 13.8216,1.02589 2.2174,0.84196 8.8796,-1.64353 9.5122,-0.80679 0.6324,0.83672 2.5266,5.29601 4.4282,5.57991 1.9017,0.2839 6.3379,1.41013 6.3379,1.41013 l -0.6369,1.6684 c 0,0 13.323,6.87013 14.9114,5.20508 5.7054,-0.92566 5.452,1.56665 20.0977,-6.34533 -11.7315,16.83134 -19.5187,35.87639 4.9076,28.12884 -20.3115,7.40389 -11.3166,13.68463 5.6843,12.26364 z"
       id="path5888-3-2"
       inkscape:connector-curvature="0"
       sodipodi:nodetypes="cccsccsscccccccsccscscsccsccccccsccscsccccsccscsccccccccccc" />
    <path
       style="fill:#ffffff;fill-opacity:1;stroke:none;stroke-width:0.94653028"
       d="m 2204.7571,406.59234 c -0.051,0.004 -0.1036,0.0176 -0.1548,0.041 -1.6404,0.75002 -7.7707,7.90828 -9.411,7.15827 -1.6404,-0.75076 -9.1413,-7.40689 -10.4537,-6.65688 -1.3122,0.75001 -6.1243,11.06376 -6.1243,11.06376 0,0 -7.956,-4.96527 -16.2623,-11.01838 -2.45,5.91093 -4.6626,17.08211 -6.3031,17.83213 -1.6403,0.75002 -18.4812,-12.78316 -25.1416,-17.47112 -2.4542,6.19133 -4.5461,18.47784 -6.6821,18.97112 -2.2965,1.12577 -16.831,-13.22067 -17.487,-12.09564 -0.6562,1.12502 5.0194,18.09759 3.0509,18.4726 -1.9685,0.37501 -6.5612,1.875 -6.5612,1.875 l 0.6553,2.25 c 0,0 -13.7794,-6.00192 -15.4198,-8.25196 -1.6403,-2.25078 0.9849,9.75311 1.9692,12.75391 -5.9056,-3.0008 -23.2935,-9.37813 -24.6057,-11.25391 -1.3123,-1.87503 2.2968,6.75193 4.2652,9.37696 -2.6246,-1.12501 -4.9221,-1.5 -4.9221,-1.5 l 7.5465,9.00195 -2.296,0.75 c 0,0 4.9206,4.12498 4.9206,6 0,1.87579 -12.7955,4.12695 -12.7955,4.12695 14.5154,11.23691 5.3708,14.55335 -5.9044,16.50391 6.1251,2.51362 10.4246,4.93804 13.0128,7.11523 l -12.4998,3.7168 12.9817,7.56445 -6.9241,3.24219 6.9241,5.4043 -19.0408,8.64648 19.9072,5.4043 -14.7145,9.72851 14.7145,5.4043 -7.7905,7.56446 17.4407,1.45312 c 0,3.14332 -5.0782,19.04189 -7.6076,23.27148 9.9629,-0.0303 26.5262,0.13477 38.5664,0.13477 0.022,1.16441 0.094,2.00665 0.4738,2.11523 0.6446,0.18421 3.9141,-0.26823 7.2557,-0.72851 l 10.6308,4.42578 c 1.253,3.15354 2.5421,6.59956 3.4394,6.80469 1.0253,0.23437 4.3566,-1.72876 7.0318,-3.14258 6e-4,-2.5e-4 0,2.5e-4 0,0 l 3.8335,-0.9082 c 0.8227,1.91909 0.4713,9.34263 1.9284,9.67578 1.6405,0.37502 8.8584,-7.87501 9.8426,-7.5 0.9842,0.375 4.5925,19.12886 6.2327,20.2539 1.6405,1.12501 12.1397,-20.6289 13.1241,-21.0039 0.9841,-0.37576 7.2163,25.5039 8.5286,25.8789 1.3124,0.37502 7.8745,-17.62892 8.8588,-17.2539 0.9843,0.37499 7.2181,10.87889 8.5303,11.6289 1.3124,0.75002 9.8424,-23.25586 11.1548,-23.25586 1.3123,0 12.4666,10.12693 13.4509,12.00196 0.9843,1.87579 1.969,-9.75196 3.2813,-9.75196 1.3124,0 16.4025,6.75197 16.7306,6.37696 0.3282,-0.37501 -2.2965,-7.50196 -1.3122,-7.50196 0.9842,0 16.4045,9.37698 17.0607,7.50196 0.656,-1.87578 28.1681,3.46603 35.7602,7.87695 -5.8876,-9.56114 -14.7642,-30.75508 -13.1239,-33.00586 1.6404,-2.25003 7.547,0.37502 7.8751,-0.75 0.328,-1.12502 -3.6086,-6.00194 -2.6244,-7.50195 0.9842,-1.50078 12.1381,-7.50191 13.1222,-9.37696 0.9842,-1.87577 -4.9204,-6.74999 -3.6082,-7.875 1.3123,-1.12576 20.6692,-8.25313 20.9973,-10.1289 0.328,-1.87504 -9.8426,-10.87691 -8.5303,-13.50195 1.3123,-2.62579 4.9218,-3.74922 4.5936,-5.625 -0.3281,-1.87502 -6.5623,-4.12694 -6.2342,-6.00196 0.328,-1.87503 3.6094,-11.25193 4.5935,-12.75195 0.9844,-1.50003 -6.8895,-0.74998 -6.8895,-2.25 0,-1.50078 -18.0024,-9.73512 2.2298,-31.94263 -28.9632,4.74119 -18.9619,-1.06318 -29.7884,-4.06323 -10.8267,-3.0008 -6.5615,-21.75584 -8.2018,-22.88086 -1.6405,-1.12577 -13.7797,6.377 -15.42,3.75195 -1.6404,-2.62579 -2.2975,-7.50195 -3.6099,-7.50195 -1.3121,0 -15.41,8.06404 -17.0504,7.68903 -1.6404,-0.37501 -10.5075,-14.44098 -12.8041,-14.81598 -2.2965,-0.37502 -11.1555,6.37695 -13.124,6.75195 -1.9068,0.36329 -3.5044,-8.42522 -5.094,-8.29297 z"
       id="path5888-3"
       inkscape:connector-curvature="0"
       sodipodi:nodetypes="ccccccccccscccccccccscccccccccccccccscccccccccccccscsssccccccccccccsccccsccccc" />
    <path
       style="color:#000000;display:inline;overflow:visible;visibility:visible;fill:#ffffff;fill-opacity:1;fill-rule:nonzero;stroke:none;stroke-width:1.02775645px;marker:none;enable-background:accumulate"
       d="m 1272.5449,3077.9523 c -82.6341,15.2781 -167.5081,23.1124 -247.5427,47.042 l 51.4318,-38.9221 c -32.8641,-0.2775 -66.1288,11.89 -99.2581,19.832 l 26.2076,-26.6421 c -77.76819,-0.043 -148.87239,19.5825 -223.19763,29.7017 l 51.10075,-44.8304 c 75.37353,-4.7997 148.66207,-1.8479 226.38178,-15.3676 l -21.7103,27.1733 c 27.1554,-2.3825 54.4167,-5.4463 82.1492,-11.5491 l -31.799,33.1547 z"
       id="path4032-1"
       inkscape:connector-curvature="0"
       sodipodi:nodetypes="cccccccccccc" />
    <path
       style="display:inline;fill:#ffffff;fill-rule:evenodd;stroke:none;stroke-width:0.71568245px;stroke-linecap:butt;stroke-linejoin:miter;stroke-opacity:1"
       d="m 582.90976,2991.9848 c 31.78422,19.4337 59.23977,34.1804 37.68599,-20.8716 25.66814,41.1304 36.02084,22.8913 42.26175,-1.1596 20.07624,20.6728 33.93927,38.9445 43.89464,24.0706 3.71059,19.1286 11.66807,11.4094 18.55481,10.4591 2.26816,4.3283 -14.12663,-9.8205 17.34652,-24.146 -3.91825,-27.4728 20.00829,3.1912 38.44373,-9.5089 4.77603,23.2504 2.11701,37.6408 29.17945,4.8451 -9.78063,32.2559 -5.725,36.8117 6.77263,24.4671 -5.71382,13.2833 -9.13127,23.566 12.57766,1.0191 -7.43205,24.5182 18.82677,8.317 44.50422,-16.8556 -24.43549,27.9134 -58.45568,59.2327 -30.95887,55.5951 -3.83462,7.6737 -17.5124,14.3597 23.22037,26.506 -7.60427,5.207 -30.81983,-2.4026 -11.45387,19.645 2.59464,2.5776 -6.09162,4.1512 10.48634,10.9386 -9.78614,-0.4618 -15.78777,1.1873 -6.77265,11.2138 -17.86334,-0.5423 -11.17966,10.0006 1.93506,23.4474 -33.49999,-26.3148 -44.23613,-31.1094 -28.05807,-4.0777 -32.42099,-23.5155 -43.83317,-20.5056 -39.7016,-1.1726 -13.8009,-20.5274 -29.60372,-24.1169 -42.40372,-0.402 -13.64761,-24.4703 -22.94586,-21.9632 -51.41218,-3.5227 15.35563,-20.7513 -6.48972,-7.5306 -23.22045,1.0191 9.16207,-25.9229 -14.08996,-8.9094 -43.53835,16.3111 16.49096,-28.6257 -2.23889,-18.2852 -29.99311,2.0388 10.48641,-28.1224 -6.59166,-41.7224 -47.4084,-42.8165 19.5361,-10.1443 30.92855,-22.9105 10.64276,-45.8756 22.86784,6.7622 29.68897,0.4809 13.54523,-24.4665 24.94274,20.4768 13.60221,-9.224 3.87011,-36.7006 z"
       id="path4508-9"
       inkscape:connector-curvature="0"
       sodipodi:nodetypes="cccccccccccccccccccccccccccc" />
    <path
       style="color:#000000;display:inline;overflow:visible;visibility:visible;fill:#ffffff;fill-opacity:1;fill-rule:nonzero;stroke:none;stroke-width:1px;marker:none;enable-background:accumulate"
       d="m 2228.9038,625.34512 c -0.091,3.76817 51.831,-6.4041 51.831,-6.4041 0,0 1.5665,29.95657 4.6782,32.0986 11.0733,-0.0391 21.0624,-5.37296 21.0624,-5.37296 l 18.0133,48.73793 -20.0054,-31.72225 c -9.8867,-0.91886 -20.0127,-0.88091 -32.7339,9.5382 l -4.3594,-32.26765 -34.1656,7.80769 z"
       id="path4448"
       inkscape:connector-curvature="0"
       sodipodi:nodetypes="cccccccccc" />
  </g>
  <g
     inkscape:groupmode="layer"
     id="layer1"
     inkscape:label="txt">
    <text
       xml:space="preserve"
       style="font-style:normal;font-variant:normal;font-weight:normal;font-stretch:normal;font-size:15.89058971px;line-height:0%;font-family:Lavi;-inkscape-font-specification:Lavi;text-align:center;letter-spacing:0px;word-spacing:0px;text-anchor:middle;fill:#000000;fill-opacity:1;stroke:none;stroke-width:1.17751098"
       x="2192.574"
       y="482.24832"
       id="text4246-1-3-2-8"
       transform="scale(0.99789912,1.0021053)"><tspan
         sodipodi:role="line"
         style="font-style:normal;font-variant:normal;font-weight:bold;font-stretch:normal;font-size:46.66666794px;line-height:1.25;font-family:Lavi;-inkscape-font-specification:'Lavi Bold';stroke-width:1.17751098"
         x="2192.574"
         y="482.24832"
         id="tspan70">Eu disse</tspan><tspan
         sodipodi:role="line"
         style="font-style:normal;font-variant:normal;font-weight:bold;font-stretch:normal;font-size:46.66666794px;line-height:1.25;font-family:Lavi;-inkscape-font-specification:'Lavi Bold';stroke-width:1.17751098"
         x="2192.574"
         y="540.58167"
         id="tspan829">PARE!</tspan></text>
    <text
       xml:space="preserve"
       style="font-style:normal;font-variant:normal;font-weight:normal;font-stretch:normal;font-size:15.89058971px;line-height:0%;font-family:Lavi;-inkscape-font-specification:Lavi;text-align:center;letter-spacing:0px;word-spacing:0px;text-anchor:middle;fill:#000000;fill-opacity:1;stroke:none;stroke-width:1.17751098"
       x="2144.4634"
       y="637.91968"
       id="text4246-1-3-2-8-3"
       transform="scale(0.99789912,1.0021053)"><tspan
         sodipodi:role="line"
         style="font-style:normal;font-variant:normal;font-weight:bold;font-stretch:normal;font-size:46.66666794px;line-height:1.25;font-family:Lavi;-inkscape-font-specification:'Lavi Bold';stroke-width:1.17751098"
         x="2144.4634"
         y="637.91968"
         id="tspan829-7">Basta!</tspan></text>
    <text
       xml:space="preserve"
       style="font-style:normal;font-variant:normal;font-weight:normal;font-stretch:normal;line-height:0%;font-family:Lavi;-inkscape-font-specification:Lavi;letter-spacing:0px;word-spacing:0px;fill:#000000;fill-opacity:1;stroke:#ffffff;stroke-width:2.66678286;stroke-miterlimit:4;stroke-dasharray:none;stroke-opacity:1;filter:url(#filter4375-4-1-1-1-9-0)"
       x="787.65729"
       y="1584.5073"
       id="text4580-25"
       transform="matrix(0.55718765,-0.37423929,0.21813977,1.0749149,-120.92735,-234.76499)"><tspan
         sodipodi:role="line"
         id="tspan4582-4"
         x="787.65729"
         y="1584.5073"
         style="font-size:70px;line-height:100%;letter-spacing:4.88345098px;fill:#ffffff;stroke:#ffffff;stroke-width:2.66678286;stroke-miterlimit:4;stroke-dasharray:none;stroke-opacity:1"><tspan
           style="font-size:55.34964371px;line-height:100%;letter-spacing:4.88345098px;stroke:#ffffff;stroke-width:2.66678286;stroke-miterlimit:4;stroke-dasharray:none;stroke-opacity:1"
           id="tspan4439-4">Snap</tspan><tspan
           style="font-size:80.40014648px;line-height:100%;letter-spacing:4.88345098px;stroke:#ffffff;stroke-width:2.66678286;stroke-miterlimit:4;stroke-dasharray:none;stroke-opacity:1"
           id="tspan4617-9">!</tspan></tspan></text>
    <text
       xml:space="preserve"
       style="font-style:normal;font-variant:normal;font-weight:normal;font-stretch:normal;line-height:0%;font-family:Lavi;-inkscape-font-specification:Lavi;letter-spacing:0px;word-spacing:0px;display:inline;fill:#ffffff;fill-opacity:1;stroke:#000000;stroke-width:0.48148537;stroke-miterlimit:4;stroke-dasharray:none;stroke-opacity:1;filter:url(#filter4375-4-1-1-1-9-5-8-3-8)"
       x="787.65729"
       y="1584.5073"
       id="text4580-6-0-8-8"
       transform="matrix(1.5492299,-0.0813593,-0.87667877,1.9075458,1570.733,-1836.1775)"><tspan
         sodipodi:role="line"
         id="tspan4582-1-1-8-2"
         x="787.65729"
         y="1584.5073"
         style="font-style:normal;font-variant:normal;font-weight:bold;font-stretch:normal;font-size:70px;line-height:1.25;font-family:'Noto Sans';-inkscape-font-specification:'Noto Sans Bold';letter-spacing:5.87610865px;fill:#ffffff;fill-opacity:1;stroke:#000000;stroke-width:0.48148537;stroke-opacity:1"><tspan
           style="font-style:normal;font-variant:normal;font-weight:bold;font-stretch:normal;font-size:93.14950562px;font-family:'Noto Sans';-inkscape-font-specification:'Noto Sans Bold';letter-spacing:5.87610865px;fill:#ffffff;fill-opacity:1;stroke:#000000;stroke-width:0.48148537;stroke-opacity:1"
           id="tspan4315-8-97-3">PU<tspan
   style="font-style:normal;font-variant:normal;font-weight:bold;font-stretch:normal;font-size:81.11493683px;font-family:'Noto Sans';-inkscape-font-specification:'Noto Sans Bold';stroke-width:0.48148537"
   id="tspan912">UF</tspan></tspan><tspan
           style="font-style:normal;font-variant:normal;font-weight:bold;font-stretch:normal;font-size:114.73223114px;font-family:'Noto Sans';-inkscape-font-specification:'Noto Sans Bold';letter-spacing:5.87610865px;fill:#ffffff;fill-opacity:1;stroke:#000000;stroke-width:0.48148537;stroke-opacity:1"
           id="tspan4313-2-76-0">!</tspan></tspan></text>
    <text
       xml:space="preserve"
       style="font-style:normal;font-variant:normal;font-weight:normal;font-stretch:normal;line-height:0%;font-family:Lavi;-inkscape-font-specification:Lavi;letter-spacing:0px;word-spacing:0px;fill:#000000;fill-opacity:1;stroke:#ffffff;stroke-width:4.21925974;stroke-miterlimit:4;stroke-dasharray:none;stroke-opacity:1;filter:url(#filter4375-4-1-1-1-9-0-5)"
       x="787.65729"
       y="1584.5073"
       id="text4580-25-2"
       transform="matrix(0.37191843,0.11061463,-0.38324889,0.61702867,2371.8774,1301.4149)"><tspan
         sodipodi:role="line"
         id="tspan4582-4-7"
         x="787.65729"
         y="1584.5073"
         style="font-style:normal;font-variant:normal;font-weight:bold;font-stretch:normal;font-size:80.40014648px;line-height:100%;font-family:'Noto Sans';-inkscape-font-specification:'Noto Sans Bold';letter-spacing:4.88345098px;fill:#ffffff;stroke:#ffffff;stroke-width:4.21925974;stroke-miterlimit:4;stroke-dasharray:none;stroke-opacity:1">TCHK!</tspan></text>
    <text
       xml:space="preserve"
       style="font-style:normal;font-variant:normal;font-weight:normal;font-stretch:normal;font-size:15.89058971px;line-height:0%;font-family:Lavi;-inkscape-font-specification:Lavi;text-align:center;letter-spacing:0px;word-spacing:0px;text-anchor:middle;fill:#000000;fill-opacity:1;stroke:none;stroke-width:1.17751098"
       x="685.59564"
       y="2895.5073"
       id="text4246-1-3-2-8-3-3"
       transform="scale(0.99789912,1.0021053)"><tspan
         sodipodi:role="line"
         style="font-style:normal;font-variant:normal;font-weight:bold;font-stretch:normal;font-size:46.66666794px;line-height:1.25;font-family:Lavi;-inkscape-font-specification:'Lavi Bold';stroke-width:1.17751098"
         x="685.59564"
         y="2895.5073"
         id="tspan829-7-6">As duas!</tspan></text>
    <text
       xml:space="preserve"
       style="font-style:normal;font-variant:normal;font-weight:normal;font-stretch:normal;font-size:15.89058971px;line-height:0%;font-family:Lavi;-inkscape-font-specification:Lavi;text-align:center;letter-spacing:0px;word-spacing:0px;text-anchor:middle;fill:#000000;fill-opacity:1;stroke:none;stroke-width:1.17751098"
       x="719.39069"
       y="2985.6943"
       id="text4246-1-3-2-8-3-3-7"
       transform="scale(0.99789912,1.0021053)"><tspan
         sodipodi:role="line"
         style="font-style:normal;font-variant:normal;font-weight:bold;font-stretch:normal;font-size:46.66666794px;line-height:1.25;font-family:Lavi;-inkscape-font-specification:'Lavi Bold';stroke-width:1.17751098"
         x="719.39069"
         y="2985.6943"
         id="tspan829-7-6-5">AQUI!</tspan></text>
    <text
       xml:space="preserve"
       style="font-style:normal;font-variant:normal;font-weight:normal;font-stretch:normal;font-size:18.9033165px;line-height:0%;font-family:Lavi;-inkscape-font-specification:Lavi;text-align:center;letter-spacing:0px;word-spacing:0px;text-anchor:middle;fill:#000000;fill-opacity:1;stroke:none;stroke-width:1.40075755"
       x="713.21753"
       y="3073.5857"
       id="text4246-1-3-2-8-36-2"
       transform="scale(0.99789912,1.0021053)"><tspan
         sodipodi:role="line"
         style="font-style:normal;font-variant:normal;font-weight:bold;font-stretch:normal;font-size:55.51428986px;line-height:1.25;font-family:Lavi;-inkscape-font-specification:'Lavi Bold';stroke-width:1.40075755"
         x="713.21753"
         y="3073.5857"
         id="tspan1020-8">Agora!</tspan></text>
  </g>
</svg>
